ARM GAS  C:\Users\JOSEAN~1\AppData\Local\Temp\ccHqEo2L.s 			page 1


   1              		.syntax unified
   2              		.cpu cortex-m0
   3              		.fpu softvfp
   4              		.eabi_attribute 20, 1
   5              		.eabi_attribute 21, 1
   6              		.eabi_attribute 23, 3
   7              		.eabi_attribute 24, 1
   8              		.eabi_attribute 25, 1
   9              		.eabi_attribute 26, 1
  10              		.eabi_attribute 30, 1
  11              		.eabi_attribute 34, 0
  12              		.eabi_attribute 18, 4
  13              		.thumb
  14              		.syntax unified
  15              		.file	"cyfitter_cfg.c"
  16              		.text
  17              	.Ltext0:
  18              		.cfi_sections	.debug_frame
  19              		.section	.text.AnalogSetDefault,"ax",%progbits
  20              		.align	2
  21              		.code	16
  22              		.thumb_func
  23              		.type	AnalogSetDefault, %function
  24              	AnalogSetDefault:
  25              	.LFB4:
  26              		.file 1 "Generated_Source\\PSoC4\\cyfitter_cfg.c"
   1:Generated_Source\PSoC4/cyfitter_cfg.c **** 
   2:Generated_Source\PSoC4/cyfitter_cfg.c **** /*******************************************************************************
   3:Generated_Source\PSoC4/cyfitter_cfg.c **** * File Name: cyfitter_cfg.c
   4:Generated_Source\PSoC4/cyfitter_cfg.c **** * 
   5:Generated_Source\PSoC4/cyfitter_cfg.c **** * PSoC Creator  4.2
   6:Generated_Source\PSoC4/cyfitter_cfg.c **** *
   7:Generated_Source\PSoC4/cyfitter_cfg.c **** * Description:
   8:Generated_Source\PSoC4/cyfitter_cfg.c **** * This file contains device initialization code.
   9:Generated_Source\PSoC4/cyfitter_cfg.c **** * Except for the user defined sections in CyClockStartupError(), this file should not be modified.
  10:Generated_Source\PSoC4/cyfitter_cfg.c **** * This file is automatically generated by PSoC Creator.
  11:Generated_Source\PSoC4/cyfitter_cfg.c **** *
  12:Generated_Source\PSoC4/cyfitter_cfg.c **** ********************************************************************************
  13:Generated_Source\PSoC4/cyfitter_cfg.c **** * Copyright (c) 2007-2018 Cypress Semiconductor.  All rights reserved.
  14:Generated_Source\PSoC4/cyfitter_cfg.c **** * You may use this file only in accordance with the license, terms, conditions, 
  15:Generated_Source\PSoC4/cyfitter_cfg.c **** * disclaimers, and limitations in the end user license agreement accompanying 
  16:Generated_Source\PSoC4/cyfitter_cfg.c **** * the software package with which this file was provided.
  17:Generated_Source\PSoC4/cyfitter_cfg.c **** ********************************************************************************/
  18:Generated_Source\PSoC4/cyfitter_cfg.c **** 
  19:Generated_Source\PSoC4/cyfitter_cfg.c **** #include <string.h>
  20:Generated_Source\PSoC4/cyfitter_cfg.c **** #include "cytypes.h"
  21:Generated_Source\PSoC4/cyfitter_cfg.c **** #include "cydevice_trm.h"
  22:Generated_Source\PSoC4/cyfitter_cfg.c **** #include "cyfitter.h"
  23:Generated_Source\PSoC4/cyfitter_cfg.c **** #include "CyLib.h"
  24:Generated_Source\PSoC4/cyfitter_cfg.c **** #include "CyLFClk.h"
  25:Generated_Source\PSoC4/cyfitter_cfg.c **** #include "cyfitter_cfg.h"
  26:Generated_Source\PSoC4/cyfitter_cfg.c **** #include "cyapicallbacks.h"
  27:Generated_Source\PSoC4/cyfitter_cfg.c **** 
  28:Generated_Source\PSoC4/cyfitter_cfg.c **** 
  29:Generated_Source\PSoC4/cyfitter_cfg.c **** #if defined(__GNUC__) || defined(__ARMCC_VERSION)
  30:Generated_Source\PSoC4/cyfitter_cfg.c ****     #define CYPACKED 
  31:Generated_Source\PSoC4/cyfitter_cfg.c ****     #define CYPACKED_ATTR __attribute__ ((packed))
ARM GAS  C:\Users\JOSEAN~1\AppData\Local\Temp\ccHqEo2L.s 			page 2


  32:Generated_Source\PSoC4/cyfitter_cfg.c ****     #define CYALIGNED __attribute__ ((aligned))
  33:Generated_Source\PSoC4/cyfitter_cfg.c ****     #define CY_CFG_UNUSED __attribute__ ((unused))
  34:Generated_Source\PSoC4/cyfitter_cfg.c ****     #ifndef CY_CFG_SECTION
  35:Generated_Source\PSoC4/cyfitter_cfg.c ****         #define CY_CFG_SECTION __attribute__ ((section(".psocinit")))
  36:Generated_Source\PSoC4/cyfitter_cfg.c ****     #endif
  37:Generated_Source\PSoC4/cyfitter_cfg.c ****     
  38:Generated_Source\PSoC4/cyfitter_cfg.c ****     #if defined(__ARMCC_VERSION)
  39:Generated_Source\PSoC4/cyfitter_cfg.c ****         #define CY_CFG_MEMORY_BARRIER() __memory_changed()
  40:Generated_Source\PSoC4/cyfitter_cfg.c ****     #else
  41:Generated_Source\PSoC4/cyfitter_cfg.c ****         #define CY_CFG_MEMORY_BARRIER() __sync_synchronize()
  42:Generated_Source\PSoC4/cyfitter_cfg.c ****     #endif
  43:Generated_Source\PSoC4/cyfitter_cfg.c ****     
  44:Generated_Source\PSoC4/cyfitter_cfg.c **** #elif defined(__ICCARM__)
  45:Generated_Source\PSoC4/cyfitter_cfg.c ****     #include <intrinsics.h>
  46:Generated_Source\PSoC4/cyfitter_cfg.c **** 
  47:Generated_Source\PSoC4/cyfitter_cfg.c ****     #define CYPACKED __packed
  48:Generated_Source\PSoC4/cyfitter_cfg.c ****     #define CYPACKED_ATTR 
  49:Generated_Source\PSoC4/cyfitter_cfg.c ****     #define CYALIGNED _Pragma("data_alignment=4")
  50:Generated_Source\PSoC4/cyfitter_cfg.c ****     #define CY_CFG_UNUSED _Pragma("diag_suppress=Pe177")
  51:Generated_Source\PSoC4/cyfitter_cfg.c ****     #define CY_CFG_SECTION _Pragma("location=\".psocinit\"")
  52:Generated_Source\PSoC4/cyfitter_cfg.c ****     
  53:Generated_Source\PSoC4/cyfitter_cfg.c ****     #define CY_CFG_MEMORY_BARRIER() __DMB()
  54:Generated_Source\PSoC4/cyfitter_cfg.c ****     
  55:Generated_Source\PSoC4/cyfitter_cfg.c **** #else
  56:Generated_Source\PSoC4/cyfitter_cfg.c ****     #error Unsupported toolchain
  57:Generated_Source\PSoC4/cyfitter_cfg.c **** #endif
  58:Generated_Source\PSoC4/cyfitter_cfg.c **** 
  59:Generated_Source\PSoC4/cyfitter_cfg.c **** #ifndef CYCODE
  60:Generated_Source\PSoC4/cyfitter_cfg.c ****     #define CYCODE
  61:Generated_Source\PSoC4/cyfitter_cfg.c **** #endif
  62:Generated_Source\PSoC4/cyfitter_cfg.c **** #ifndef CYDATA
  63:Generated_Source\PSoC4/cyfitter_cfg.c ****     #define CYDATA
  64:Generated_Source\PSoC4/cyfitter_cfg.c **** #endif
  65:Generated_Source\PSoC4/cyfitter_cfg.c **** #ifndef CYFAR
  66:Generated_Source\PSoC4/cyfitter_cfg.c ****     #define CYFAR
  67:Generated_Source\PSoC4/cyfitter_cfg.c **** #endif
  68:Generated_Source\PSoC4/cyfitter_cfg.c **** #ifndef CYXDATA
  69:Generated_Source\PSoC4/cyfitter_cfg.c ****     #define CYXDATA
  70:Generated_Source\PSoC4/cyfitter_cfg.c **** #endif
  71:Generated_Source\PSoC4/cyfitter_cfg.c **** 
  72:Generated_Source\PSoC4/cyfitter_cfg.c **** 
  73:Generated_Source\PSoC4/cyfitter_cfg.c **** CY_CFG_UNUSED
  74:Generated_Source\PSoC4/cyfitter_cfg.c **** static void CYMEMZERO(void *s, size_t n);
  75:Generated_Source\PSoC4/cyfitter_cfg.c **** CY_CFG_UNUSED
  76:Generated_Source\PSoC4/cyfitter_cfg.c **** static void CYMEMZERO(void *s, size_t n)
  77:Generated_Source\PSoC4/cyfitter_cfg.c **** {
  78:Generated_Source\PSoC4/cyfitter_cfg.c **** 	(void)memset(s, 0, n);
  79:Generated_Source\PSoC4/cyfitter_cfg.c **** }
  80:Generated_Source\PSoC4/cyfitter_cfg.c **** CY_CFG_UNUSED
  81:Generated_Source\PSoC4/cyfitter_cfg.c **** static void CYCONFIGCPY(void *dest, const void *src, size_t n);
  82:Generated_Source\PSoC4/cyfitter_cfg.c **** CY_CFG_UNUSED
  83:Generated_Source\PSoC4/cyfitter_cfg.c **** static void CYCONFIGCPY(void *dest, const void *src, size_t n)
  84:Generated_Source\PSoC4/cyfitter_cfg.c **** {
  85:Generated_Source\PSoC4/cyfitter_cfg.c **** 	(void)memcpy(dest, src, n);
  86:Generated_Source\PSoC4/cyfitter_cfg.c **** }
  87:Generated_Source\PSoC4/cyfitter_cfg.c **** CY_CFG_UNUSED
  88:Generated_Source\PSoC4/cyfitter_cfg.c **** static void CYCONFIGCPYCODE(void *dest, const void *src, size_t n);
ARM GAS  C:\Users\JOSEAN~1\AppData\Local\Temp\ccHqEo2L.s 			page 3


  89:Generated_Source\PSoC4/cyfitter_cfg.c **** CY_CFG_UNUSED
  90:Generated_Source\PSoC4/cyfitter_cfg.c **** static void CYCONFIGCPYCODE(void *dest, const void *src, size_t n)
  91:Generated_Source\PSoC4/cyfitter_cfg.c **** {
  92:Generated_Source\PSoC4/cyfitter_cfg.c **** 	(void)memcpy(dest, src, n);
  93:Generated_Source\PSoC4/cyfitter_cfg.c **** }
  94:Generated_Source\PSoC4/cyfitter_cfg.c **** 
  95:Generated_Source\PSoC4/cyfitter_cfg.c **** 
  96:Generated_Source\PSoC4/cyfitter_cfg.c **** 
  97:Generated_Source\PSoC4/cyfitter_cfg.c **** 
  98:Generated_Source\PSoC4/cyfitter_cfg.c **** /* Clock startup error codes                                                   */
  99:Generated_Source\PSoC4/cyfitter_cfg.c **** #define CYCLOCKSTART_NO_ERROR    0u
 100:Generated_Source\PSoC4/cyfitter_cfg.c **** #define CYCLOCKSTART_XTAL_ERROR  1u
 101:Generated_Source\PSoC4/cyfitter_cfg.c **** #define CYCLOCKSTART_32KHZ_ERROR 2u
 102:Generated_Source\PSoC4/cyfitter_cfg.c **** #define CYCLOCKSTART_PLL_ERROR   3u
 103:Generated_Source\PSoC4/cyfitter_cfg.c **** #define CYCLOCKSTART_FLL_ERROR   4u
 104:Generated_Source\PSoC4/cyfitter_cfg.c **** #define CYCLOCKSTART_WCO_ERROR   5u
 105:Generated_Source\PSoC4/cyfitter_cfg.c **** 
 106:Generated_Source\PSoC4/cyfitter_cfg.c **** 
 107:Generated_Source\PSoC4/cyfitter_cfg.c **** #ifdef CY_NEED_CYCLOCKSTARTUPERROR
 108:Generated_Source\PSoC4/cyfitter_cfg.c **** /*******************************************************************************
 109:Generated_Source\PSoC4/cyfitter_cfg.c **** * Function Name: CyClockStartupError
 110:Generated_Source\PSoC4/cyfitter_cfg.c **** ********************************************************************************
 111:Generated_Source\PSoC4/cyfitter_cfg.c **** * Summary:
 112:Generated_Source\PSoC4/cyfitter_cfg.c **** *  If an error is encountered during clock configuration (crystal startup error,
 113:Generated_Source\PSoC4/cyfitter_cfg.c **** *  PLL lock error, etc.), the system will end up here.  Unless reimplemented by
 114:Generated_Source\PSoC4/cyfitter_cfg.c **** *  the customer, this function will stop in an infinite loop.
 115:Generated_Source\PSoC4/cyfitter_cfg.c **** *
 116:Generated_Source\PSoC4/cyfitter_cfg.c **** * Parameters:
 117:Generated_Source\PSoC4/cyfitter_cfg.c **** *   void
 118:Generated_Source\PSoC4/cyfitter_cfg.c **** *
 119:Generated_Source\PSoC4/cyfitter_cfg.c **** * Return:
 120:Generated_Source\PSoC4/cyfitter_cfg.c **** *   void
 121:Generated_Source\PSoC4/cyfitter_cfg.c **** *
 122:Generated_Source\PSoC4/cyfitter_cfg.c **** *******************************************************************************/
 123:Generated_Source\PSoC4/cyfitter_cfg.c **** CY_CFG_UNUSED
 124:Generated_Source\PSoC4/cyfitter_cfg.c **** static void CyClockStartupError(uint8 errorCode);
 125:Generated_Source\PSoC4/cyfitter_cfg.c **** CY_CFG_UNUSED
 126:Generated_Source\PSoC4/cyfitter_cfg.c **** static void CyClockStartupError(uint8 errorCode)
 127:Generated_Source\PSoC4/cyfitter_cfg.c **** {
 128:Generated_Source\PSoC4/cyfitter_cfg.c ****     /* To remove the compiler warning if errorCode not used.                */
 129:Generated_Source\PSoC4/cyfitter_cfg.c ****     errorCode = errorCode;
 130:Generated_Source\PSoC4/cyfitter_cfg.c **** 
 131:Generated_Source\PSoC4/cyfitter_cfg.c ****     /* If we have a clock startup error (bad MHz crystal, PLL lock, etc.),  */
 132:Generated_Source\PSoC4/cyfitter_cfg.c ****     /* we will end up here to allow the customer to implement something to  */
 133:Generated_Source\PSoC4/cyfitter_cfg.c ****     /* deal with the clock condition.                                       */
 134:Generated_Source\PSoC4/cyfitter_cfg.c **** 
 135:Generated_Source\PSoC4/cyfitter_cfg.c **** #ifdef CY_CFG_CLOCK_STARTUP_ERROR_CALLBACK
 136:Generated_Source\PSoC4/cyfitter_cfg.c ****     CY_CFG_Clock_Startup_ErrorCallback();
 137:Generated_Source\PSoC4/cyfitter_cfg.c **** #else
 138:Generated_Source\PSoC4/cyfitter_cfg.c ****     /*  If not using CY_CFG_CLOCK_STARTUP_ERROR_CALLBACK, place your clock startup code here. */
 139:Generated_Source\PSoC4/cyfitter_cfg.c ****     /* `#START CyClockStartupError` */
 140:Generated_Source\PSoC4/cyfitter_cfg.c **** 
 141:Generated_Source\PSoC4/cyfitter_cfg.c **** 
 142:Generated_Source\PSoC4/cyfitter_cfg.c **** 
 143:Generated_Source\PSoC4/cyfitter_cfg.c ****     /* `#END` */
 144:Generated_Source\PSoC4/cyfitter_cfg.c **** 
 145:Generated_Source\PSoC4/cyfitter_cfg.c ****     while(1) {}
ARM GAS  C:\Users\JOSEAN~1\AppData\Local\Temp\ccHqEo2L.s 			page 4


 146:Generated_Source\PSoC4/cyfitter_cfg.c **** #endif /* CY_CFG_CLOCK_STARTUP_ERROR_CALLBACK */
 147:Generated_Source\PSoC4/cyfitter_cfg.c **** }
 148:Generated_Source\PSoC4/cyfitter_cfg.c **** #endif
 149:Generated_Source\PSoC4/cyfitter_cfg.c **** 
 150:Generated_Source\PSoC4/cyfitter_cfg.c **** 
 151:Generated_Source\PSoC4/cyfitter_cfg.c **** 
 152:Generated_Source\PSoC4/cyfitter_cfg.c **** /*******************************************************************************
 153:Generated_Source\PSoC4/cyfitter_cfg.c **** * Function Name: ClockSetup
 154:Generated_Source\PSoC4/cyfitter_cfg.c **** ********************************************************************************
 155:Generated_Source\PSoC4/cyfitter_cfg.c **** *
 156:Generated_Source\PSoC4/cyfitter_cfg.c **** * Summary:
 157:Generated_Source\PSoC4/cyfitter_cfg.c **** *   Performs the initialization of all of the clocks in the device based on the
 158:Generated_Source\PSoC4/cyfitter_cfg.c **** *   settings in the Clock tab of the DWR.  This includes enabling the requested
 159:Generated_Source\PSoC4/cyfitter_cfg.c **** *   clocks and setting the necessary dividers to produce the desired frequency. 
 160:Generated_Source\PSoC4/cyfitter_cfg.c **** *
 161:Generated_Source\PSoC4/cyfitter_cfg.c **** * Parameters:
 162:Generated_Source\PSoC4/cyfitter_cfg.c **** *   void
 163:Generated_Source\PSoC4/cyfitter_cfg.c **** *
 164:Generated_Source\PSoC4/cyfitter_cfg.c **** * Return:
 165:Generated_Source\PSoC4/cyfitter_cfg.c **** *   void
 166:Generated_Source\PSoC4/cyfitter_cfg.c **** *
 167:Generated_Source\PSoC4/cyfitter_cfg.c **** *******************************************************************************/
 168:Generated_Source\PSoC4/cyfitter_cfg.c **** static void ClockSetup(void);
 169:Generated_Source\PSoC4/cyfitter_cfg.c **** CY_CFG_SECTION
 170:Generated_Source\PSoC4/cyfitter_cfg.c **** static void ClockSetup(void)
 171:Generated_Source\PSoC4/cyfitter_cfg.c **** {
 172:Generated_Source\PSoC4/cyfitter_cfg.c **** 	/* Enable HALF_EN before trimming for the flash accelerator. */
 173:Generated_Source\PSoC4/cyfitter_cfg.c **** 	CY_SET_REG32((void CYXDATA *)(CYREG_CLK_SELECT), (CY_GET_REG32((void *)CYREG_CLK_SELECT) | 0x00040
 174:Generated_Source\PSoC4/cyfitter_cfg.c **** 
 175:Generated_Source\PSoC4/cyfitter_cfg.c **** 	/* Setup and trim IMO based on desired frequency. */
 176:Generated_Source\PSoC4/cyfitter_cfg.c **** 	CySysClkWriteImoFreq(24u);
 177:Generated_Source\PSoC4/cyfitter_cfg.c **** 
 178:Generated_Source\PSoC4/cyfitter_cfg.c **** 	/* Disable HALF_EN since it is not required at this IMO frequency. */
 179:Generated_Source\PSoC4/cyfitter_cfg.c **** 	CY_SET_REG32((void CYXDATA *)(CYREG_CLK_SELECT), (CY_GET_REG32((void *)CYREG_CLK_SELECT) & 0xFFFBF
 180:Generated_Source\PSoC4/cyfitter_cfg.c **** 	/* CYDEV_CLK_ILO_CONFIG Starting address: CYDEV_CLK_ILO_CONFIG */
 181:Generated_Source\PSoC4/cyfitter_cfg.c **** 	CY_SET_REG32((void *)(CYREG_CLK_ILO_CONFIG), 0x80000006u);
 182:Generated_Source\PSoC4/cyfitter_cfg.c **** 
 183:Generated_Source\PSoC4/cyfitter_cfg.c **** 
 184:Generated_Source\PSoC4/cyfitter_cfg.c **** 	/* CYDEV_CLK_SELECT00 Starting address: CYDEV_CLK_SELECT00 */
 185:Generated_Source\PSoC4/cyfitter_cfg.c **** 	CY_SET_REG32((void *)(CYREG_CLK_SELECT07), 0x00000010u);
 186:Generated_Source\PSoC4/cyfitter_cfg.c **** 	CY_SET_REG32((void *)(CYREG_CLK_SELECT08), 0x00000020u);
 187:Generated_Source\PSoC4/cyfitter_cfg.c **** 
 188:Generated_Source\PSoC4/cyfitter_cfg.c **** 	/* CYDEV_CLK_IMO_CONFIG Starting address: CYDEV_CLK_IMO_CONFIG */
 189:Generated_Source\PSoC4/cyfitter_cfg.c **** 	CY_SET_REG32((void *)(CYREG_CLK_IMO_CONFIG), 0x82000000u);
 190:Generated_Source\PSoC4/cyfitter_cfg.c **** 
 191:Generated_Source\PSoC4/cyfitter_cfg.c **** 	/* CYDEV_CLK_SELECT Starting address: CYDEV_CLK_SELECT */
 192:Generated_Source\PSoC4/cyfitter_cfg.c **** 	CY_SET_REG32((void *)(CYREG_CLK_SELECT), 0x00000000u);
 193:Generated_Source\PSoC4/cyfitter_cfg.c **** 
 194:Generated_Source\PSoC4/cyfitter_cfg.c **** 	/* CYDEV_CLK_DIVIDER_A00 Starting address: CYDEV_CLK_DIVIDER_A00 */
 195:Generated_Source\PSoC4/cyfitter_cfg.c **** 	CY_SET_REG32((void *)(CYREG_CLK_DIVIDER_A00), 0x80000017u);
 196:Generated_Source\PSoC4/cyfitter_cfg.c **** 
 197:Generated_Source\PSoC4/cyfitter_cfg.c **** 	/* CYDEV_CLK_DIVIDER_B00 Starting address: CYDEV_CLK_DIVIDER_B00 */
 198:Generated_Source\PSoC4/cyfitter_cfg.c **** 	CY_SET_REG32((void *)(CYREG_CLK_DIVIDER_B00), 0x80005DBFu);
 199:Generated_Source\PSoC4/cyfitter_cfg.c **** 
 200:Generated_Source\PSoC4/cyfitter_cfg.c **** 	(void)CyIntSetVector(9u, &CySysWdtIsr);
 201:Generated_Source\PSoC4/cyfitter_cfg.c **** 	CyIntEnable(9u);
 202:Generated_Source\PSoC4/cyfitter_cfg.c **** 	CY_SET_REG32((void *)(CYREG_WDT_CONFIG), 0x00000000u);
ARM GAS  C:\Users\JOSEAN~1\AppData\Local\Temp\ccHqEo2L.s 			page 5


 203:Generated_Source\PSoC4/cyfitter_cfg.c **** }
 204:Generated_Source\PSoC4/cyfitter_cfg.c **** 
 205:Generated_Source\PSoC4/cyfitter_cfg.c **** 
 206:Generated_Source\PSoC4/cyfitter_cfg.c **** /* Analog API Functions */
 207:Generated_Source\PSoC4/cyfitter_cfg.c **** 
 208:Generated_Source\PSoC4/cyfitter_cfg.c **** 
 209:Generated_Source\PSoC4/cyfitter_cfg.c **** /*******************************************************************************
 210:Generated_Source\PSoC4/cyfitter_cfg.c **** * Function Name: AnalogSetDefault
 211:Generated_Source\PSoC4/cyfitter_cfg.c **** ********************************************************************************
 212:Generated_Source\PSoC4/cyfitter_cfg.c **** *
 213:Generated_Source\PSoC4/cyfitter_cfg.c **** * Summary:
 214:Generated_Source\PSoC4/cyfitter_cfg.c **** *  Sets up the analog portions of the chip to default values based on chip
 215:Generated_Source\PSoC4/cyfitter_cfg.c **** *  configuration options from the project.
 216:Generated_Source\PSoC4/cyfitter_cfg.c **** *
 217:Generated_Source\PSoC4/cyfitter_cfg.c **** * Parameters:
 218:Generated_Source\PSoC4/cyfitter_cfg.c **** *  void
 219:Generated_Source\PSoC4/cyfitter_cfg.c **** *
 220:Generated_Source\PSoC4/cyfitter_cfg.c **** * Return:
 221:Generated_Source\PSoC4/cyfitter_cfg.c **** *  void
 222:Generated_Source\PSoC4/cyfitter_cfg.c **** *
 223:Generated_Source\PSoC4/cyfitter_cfg.c **** *******************************************************************************/
 224:Generated_Source\PSoC4/cyfitter_cfg.c **** static void AnalogSetDefault(void);
 225:Generated_Source\PSoC4/cyfitter_cfg.c **** static void AnalogSetDefault(void)
 226:Generated_Source\PSoC4/cyfitter_cfg.c **** {
  27              		.loc 1 226 0
  28              		.cfi_startproc
  29              		@ args = 0, pretend = 0, frame = 0
  30              		@ frame_needed = 0, uses_anonymous_args = 0
  31              		@ link register save eliminated.
 227:Generated_Source\PSoC4/cyfitter_cfg.c **** 	CY_SET_XTND_REG32((void CYFAR *)CYREG_SAR_MUX_SWITCH0, 0x00030003u);
  32              		.loc 1 227 0
  33 0000 024B     		ldr	r3, .L2
  34 0002 034A     		ldr	r2, .L2+4
  35 0004 1360     		str	r3, [r2]
 228:Generated_Source\PSoC4/cyfitter_cfg.c **** 	CY_SET_XTND_REG32((void CYFAR *)CYREG_SAR_MUX_SWITCH_HW_CTRL, 0x00030003u);
  36              		.loc 1 228 0
  37 0006 034A     		ldr	r2, .L2+8
  38 0008 1360     		str	r3, [r2]
 229:Generated_Source\PSoC4/cyfitter_cfg.c **** 	/* Variable VDDA is selected; no pumps are enabled by default */
 230:Generated_Source\PSoC4/cyfitter_cfg.c **** }
  39              		.loc 1 230 0
  40              		@ sp needed
  41 000a 7047     		bx	lr
  42              	.L3:
  43              		.align	2
  44              	.L2:
  45 000c 03000300 		.word	196611
  46 0010 00031A40 		.word	1075446528
  47 0014 40031A40 		.word	1075446592
  48              		.cfi_endproc
  49              	.LFE4:
  50              		.size	AnalogSetDefault, .-AnalogSetDefault
  51              		.section	.text.CYMEMZERO,"ax",%progbits
  52              		.align	2
  53              		.code	16
  54              		.thumb_func
  55              		.type	CYMEMZERO, %function
ARM GAS  C:\Users\JOSEAN~1\AppData\Local\Temp\ccHqEo2L.s 			page 6


  56              	CYMEMZERO:
  57              	.LFB0:
  77:Generated_Source\PSoC4/cyfitter_cfg.c **** 	(void)memset(s, 0, n);
  58              		.loc 1 77 0
  59              		.cfi_startproc
  60              		@ args = 0, pretend = 0, frame = 0
  61              		@ frame_needed = 0, uses_anonymous_args = 0
  62              	.LVL0:
  63 0000 10B5     		push	{r4, lr}
  64              		.cfi_def_cfa_offset 8
  65              		.cfi_offset 4, -8
  66              		.cfi_offset 14, -4
  67 0002 0A00     		movs	r2, r1
  78:Generated_Source\PSoC4/cyfitter_cfg.c **** }
  68              		.loc 1 78 0
  69 0004 0021     		movs	r1, #0
  70              	.LVL1:
  71 0006 FFF7FEFF 		bl	memset
  72              	.LVL2:
  79:Generated_Source\PSoC4/cyfitter_cfg.c **** CY_CFG_UNUSED
  73              		.loc 1 79 0
  74              		@ sp needed
  75 000a 10BD     		pop	{r4, pc}
  76              		.cfi_endproc
  77              	.LFE0:
  78              		.size	CYMEMZERO, .-CYMEMZERO
  79              		.section	.psocinit,"ax",%progbits
  80              		.align	2
  81              		.code	16
  82              		.thumb_func
  83              		.type	ClockSetup, %function
  84              	ClockSetup:
  85              	.LFB3:
 171:Generated_Source\PSoC4/cyfitter_cfg.c **** 	/* Enable HALF_EN before trimming for the flash accelerator. */
  86              		.loc 1 171 0
  87              		.cfi_startproc
  88              		@ args = 0, pretend = 0, frame = 0
  89              		@ frame_needed = 0, uses_anonymous_args = 0
  90 0000 70B5     		push	{r4, r5, r6, lr}
  91              		.cfi_def_cfa_offset 16
  92              		.cfi_offset 4, -16
  93              		.cfi_offset 5, -12
  94              		.cfi_offset 6, -8
  95              		.cfi_offset 14, -4
 173:Generated_Source\PSoC4/cyfitter_cfg.c **** 
  96              		.loc 1 173 0
  97 0002 164C     		ldr	r4, .L6
  98 0004 2368     		ldr	r3, [r4]
  99 0006 8022     		movs	r2, #128
 100 0008 D202     		lsls	r2, r2, #11
 101 000a 1343     		orrs	r3, r2
 102 000c 2360     		str	r3, [r4]
 176:Generated_Source\PSoC4/cyfitter_cfg.c **** 
 103              		.loc 1 176 0
 104 000e 1820     		movs	r0, #24
 105 0010 FFF7FEFF 		bl	CySysClkWriteImoFreq
 106              	.LVL3:
ARM GAS  C:\Users\JOSEAN~1\AppData\Local\Temp\ccHqEo2L.s 			page 7


 179:Generated_Source\PSoC4/cyfitter_cfg.c **** 	/* CYDEV_CLK_ILO_CONFIG Starting address: CYDEV_CLK_ILO_CONFIG */
 107              		.loc 1 179 0
 108 0014 2268     		ldr	r2, [r4]
 109 0016 124B     		ldr	r3, .L6+4
 110 0018 1340     		ands	r3, r2
 111 001a 2360     		str	r3, [r4]
 181:Generated_Source\PSoC4/cyfitter_cfg.c **** 
 112              		.loc 1 181 0
 113 001c 114A     		ldr	r2, .L6+8
 114 001e 124B     		ldr	r3, .L6+12
 115 0020 1A60     		str	r2, [r3]
 185:Generated_Source\PSoC4/cyfitter_cfg.c **** 	CY_SET_REG32((void *)(CYREG_CLK_SELECT08), 0x00000020u);
 116              		.loc 1 185 0
 117 0022 1022     		movs	r2, #16
 118 0024 114B     		ldr	r3, .L6+16
 119 0026 1A60     		str	r2, [r3]
 186:Generated_Source\PSoC4/cyfitter_cfg.c **** 
 120              		.loc 1 186 0
 121 0028 1032     		adds	r2, r2, #16
 122 002a 114B     		ldr	r3, .L6+20
 123 002c 1A60     		str	r2, [r3]
 189:Generated_Source\PSoC4/cyfitter_cfg.c **** 
 124              		.loc 1 189 0
 125 002e 8222     		movs	r2, #130
 126 0030 1206     		lsls	r2, r2, #24
 127 0032 104B     		ldr	r3, .L6+24
 128 0034 1A60     		str	r2, [r3]
 192:Generated_Source\PSoC4/cyfitter_cfg.c **** 
 129              		.loc 1 192 0
 130 0036 0025     		movs	r5, #0
 131 0038 2560     		str	r5, [r4]
 195:Generated_Source\PSoC4/cyfitter_cfg.c **** 
 132              		.loc 1 195 0
 133 003a 0F4A     		ldr	r2, .L6+28
 134 003c 0F4B     		ldr	r3, .L6+32
 135 003e 1A60     		str	r2, [r3]
 198:Generated_Source\PSoC4/cyfitter_cfg.c **** 
 136              		.loc 1 198 0
 137 0040 0F4A     		ldr	r2, .L6+36
 138 0042 104B     		ldr	r3, .L6+40
 139 0044 1A60     		str	r2, [r3]
 200:Generated_Source\PSoC4/cyfitter_cfg.c **** 	CyIntEnable(9u);
 140              		.loc 1 200 0
 141 0046 1049     		ldr	r1, .L6+44
 142 0048 0920     		movs	r0, #9
 143 004a FFF7FEFF 		bl	CyIntSetVector
 144              	.LVL4:
 201:Generated_Source\PSoC4/cyfitter_cfg.c **** 	CY_SET_REG32((void *)(CYREG_WDT_CONFIG), 0x00000000u);
 145              		.loc 1 201 0
 146 004e 0920     		movs	r0, #9
 147 0050 FFF7FEFF 		bl	CyIntEnable
 148              	.LVL5:
 202:Generated_Source\PSoC4/cyfitter_cfg.c **** }
 149              		.loc 1 202 0
 150 0054 0D4B     		ldr	r3, .L6+48
 151 0056 1D60     		str	r5, [r3]
 203:Generated_Source\PSoC4/cyfitter_cfg.c **** 
ARM GAS  C:\Users\JOSEAN~1\AppData\Local\Temp\ccHqEo2L.s 			page 8


 152              		.loc 1 203 0
 153              		@ sp needed
 154 0058 70BD     		pop	{r4, r5, r6, pc}
 155              	.L7:
 156 005a C046     		.align	2
 157              	.L6:
 158 005c 00010B40 		.word	1074462976
 159 0060 FFFFFBFF 		.word	-262145
 160 0064 06000080 		.word	-2147483642
 161 0068 04010B40 		.word	1074462980
 162 006c 1C020240 		.word	1073873436
 163 0070 20020240 		.word	1073873440
 164 0074 08010B40 		.word	1074462984
 165 0078 17000080 		.word	-2147483625
 166 007c 00000240 		.word	1073872896
 167 0080 BF5D0080 		.word	-2147459649
 168 0084 40000240 		.word	1073872960
 169 0088 00000000 		.word	CySysWdtIsr
 170 008c 0C020B40 		.word	1074463244
 171              		.cfi_endproc
 172              	.LFE3:
 173              		.size	ClockSetup, .-ClockSetup
 174              		.section	.text.SetAnalogRoutingPumps,"ax",%progbits
 175              		.align	2
 176              		.global	SetAnalogRoutingPumps
 177              		.code	16
 178              		.thumb_func
 179              		.type	SetAnalogRoutingPumps, %function
 180              	SetAnalogRoutingPumps:
 181              	.LFB5:
 231:Generated_Source\PSoC4/cyfitter_cfg.c **** 
 232:Generated_Source\PSoC4/cyfitter_cfg.c **** 
 233:Generated_Source\PSoC4/cyfitter_cfg.c **** /*******************************************************************************
 234:Generated_Source\PSoC4/cyfitter_cfg.c **** * Function Name: SetAnalogRoutingPumps
 235:Generated_Source\PSoC4/cyfitter_cfg.c **** ********************************************************************************
 236:Generated_Source\PSoC4/cyfitter_cfg.c **** *
 237:Generated_Source\PSoC4/cyfitter_cfg.c **** * Summary:
 238:Generated_Source\PSoC4/cyfitter_cfg.c **** * Enables or disables the analog pumps feeding analog routing switches.
 239:Generated_Source\PSoC4/cyfitter_cfg.c **** * Intended to be called at startup, based on the Vdda system configuration;
 240:Generated_Source\PSoC4/cyfitter_cfg.c **** * may be called during operation when the user informs us that the Vdda voltage crossed the pump th
 241:Generated_Source\PSoC4/cyfitter_cfg.c **** *
 242:Generated_Source\PSoC4/cyfitter_cfg.c **** * Parameters:
 243:Generated_Source\PSoC4/cyfitter_cfg.c **** *  enabled - 1 to enable the pumps, 0 to disable the pumps
 244:Generated_Source\PSoC4/cyfitter_cfg.c **** *
 245:Generated_Source\PSoC4/cyfitter_cfg.c **** * Return:
 246:Generated_Source\PSoC4/cyfitter_cfg.c **** *  void
 247:Generated_Source\PSoC4/cyfitter_cfg.c **** *
 248:Generated_Source\PSoC4/cyfitter_cfg.c **** *******************************************************************************/
 249:Generated_Source\PSoC4/cyfitter_cfg.c **** void SetAnalogRoutingPumps(uint8 enabled)
 250:Generated_Source\PSoC4/cyfitter_cfg.c **** {
 182              		.loc 1 250 0
 183              		.cfi_startproc
 184              		@ args = 0, pretend = 0, frame = 0
 185              		@ frame_needed = 0, uses_anonymous_args = 0
 186              		@ link register save eliminated.
 187              	.LVL6:
 251:Generated_Source\PSoC4/cyfitter_cfg.c **** 	uint32 regValue = CY_GET_XTND_REG32((void *)(CYREG_SAR_PUMP_CTRL));
ARM GAS  C:\Users\JOSEAN~1\AppData\Local\Temp\ccHqEo2L.s 			page 9


 188              		.loc 1 251 0
 189 0000 064B     		ldr	r3, .L11
 190 0002 1B68     		ldr	r3, [r3]
 191              	.LVL7:
 252:Generated_Source\PSoC4/cyfitter_cfg.c **** 	if (enabled != 0u)
 192              		.loc 1 252 0
 193 0004 0028     		cmp	r0, #0
 194 0006 03D0     		beq	.L9
 253:Generated_Source\PSoC4/cyfitter_cfg.c **** 	{
 254:Generated_Source\PSoC4/cyfitter_cfg.c **** 		regValue |= 0x80000000u;
 195              		.loc 1 254 0
 196 0008 8022     		movs	r2, #128
 197 000a 1206     		lsls	r2, r2, #24
 198 000c 1343     		orrs	r3, r2
 199              	.LVL8:
 200 000e 01E0     		b	.L10
 201              	.L9:
 255:Generated_Source\PSoC4/cyfitter_cfg.c **** 	}
 256:Generated_Source\PSoC4/cyfitter_cfg.c **** 	else
 257:Generated_Source\PSoC4/cyfitter_cfg.c **** 	{
 258:Generated_Source\PSoC4/cyfitter_cfg.c **** 		regValue &= ~0x80000000u;
 202              		.loc 1 258 0
 203 0010 5B00     		lsls	r3, r3, #1
 204              	.LVL9:
 205 0012 5B08     		lsrs	r3, r3, #1
 206              	.LVL10:
 207              	.L10:
 259:Generated_Source\PSoC4/cyfitter_cfg.c **** 	}
 260:Generated_Source\PSoC4/cyfitter_cfg.c **** 	CY_SET_XTND_REG32((void *)(CYREG_SAR_PUMP_CTRL), regValue);
 208              		.loc 1 260 0
 209 0014 014A     		ldr	r2, .L11
 210 0016 1360     		str	r3, [r2]
 261:Generated_Source\PSoC4/cyfitter_cfg.c **** }
 211              		.loc 1 261 0
 212              		@ sp needed
 213 0018 7047     		bx	lr
 214              	.L12:
 215 001a C046     		.align	2
 216              	.L11:
 217 001c 80031A40 		.word	1075446656
 218              		.cfi_endproc
 219              	.LFE5:
 220              		.size	SetAnalogRoutingPumps, .-SetAnalogRoutingPumps
 221              		.section	.psocinit
 222              		.align	2
 223              		.global	cyfitter_cfg
 224              		.code	16
 225              		.thumb_func
 226              		.type	cyfitter_cfg, %function
 227              	cyfitter_cfg:
 228              	.LFB6:
 262:Generated_Source\PSoC4/cyfitter_cfg.c **** 
 263:Generated_Source\PSoC4/cyfitter_cfg.c **** 
 264:Generated_Source\PSoC4/cyfitter_cfg.c **** 
 265:Generated_Source\PSoC4/cyfitter_cfg.c **** 
 266:Generated_Source\PSoC4/cyfitter_cfg.c **** /*******************************************************************************
 267:Generated_Source\PSoC4/cyfitter_cfg.c **** * Function Name: cyfitter_cfg
ARM GAS  C:\Users\JOSEAN~1\AppData\Local\Temp\ccHqEo2L.s 			page 10


 268:Generated_Source\PSoC4/cyfitter_cfg.c **** ********************************************************************************
 269:Generated_Source\PSoC4/cyfitter_cfg.c **** * Summary:
 270:Generated_Source\PSoC4/cyfitter_cfg.c **** *  This function is called by the start-up code for the selected device. It
 271:Generated_Source\PSoC4/cyfitter_cfg.c **** *  performs all of the necessary device configuration based on the design
 272:Generated_Source\PSoC4/cyfitter_cfg.c **** *  settings.  This includes settings from the Design Wide Resources (DWR) such
 273:Generated_Source\PSoC4/cyfitter_cfg.c **** *  as Clocks and Pins as well as any component configuration that is necessary.
 274:Generated_Source\PSoC4/cyfitter_cfg.c **** *
 275:Generated_Source\PSoC4/cyfitter_cfg.c **** * Parameters:
 276:Generated_Source\PSoC4/cyfitter_cfg.c **** *   void
 277:Generated_Source\PSoC4/cyfitter_cfg.c **** *
 278:Generated_Source\PSoC4/cyfitter_cfg.c **** * Return:
 279:Generated_Source\PSoC4/cyfitter_cfg.c **** *   void
 280:Generated_Source\PSoC4/cyfitter_cfg.c **** *
 281:Generated_Source\PSoC4/cyfitter_cfg.c **** *******************************************************************************/
 282:Generated_Source\PSoC4/cyfitter_cfg.c **** CY_CFG_SECTION
 283:Generated_Source\PSoC4/cyfitter_cfg.c **** void cyfitter_cfg(void)
 284:Generated_Source\PSoC4/cyfitter_cfg.c **** {
 229              		.loc 1 284 0
 230              		.cfi_startproc
 231              		@ args = 0, pretend = 0, frame = 0
 232              		@ frame_needed = 0, uses_anonymous_args = 0
 233 0090 10B5     		push	{r4, lr}
 234              		.cfi_def_cfa_offset 8
 235              		.cfi_offset 4, -8
 236              		.cfi_offset 14, -4
 285:Generated_Source\PSoC4/cyfitter_cfg.c **** 	/* Disable interrupts by default. Let user enable if/when they want. */
 286:Generated_Source\PSoC4/cyfitter_cfg.c **** 	CyGlobalIntDisable;
 237              		.loc 1 286 0
 238              		.syntax divided
 239              	@ 286 "Generated_Source\PSoC4\cyfitter_cfg.c" 1
 240 0092 72B6     		CPSID   i
 241              	@ 0 "" 2
 242              	.LVL11:
 243              		.thumb
 244              		.syntax unified
 245              	.LBB2:
 287:Generated_Source\PSoC4/cyfitter_cfg.c **** 
 288:Generated_Source\PSoC4/cyfitter_cfg.c **** 	{
 289:Generated_Source\PSoC4/cyfitter_cfg.c **** 
 290:Generated_Source\PSoC4/cyfitter_cfg.c **** 		CYPACKED typedef struct {
 291:Generated_Source\PSoC4/cyfitter_cfg.c **** 			void CYFAR *address;
 292:Generated_Source\PSoC4/cyfitter_cfg.c **** 			uint16 size;
 293:Generated_Source\PSoC4/cyfitter_cfg.c **** 		} CYPACKED_ATTR cfg_memset_t;
 294:Generated_Source\PSoC4/cyfitter_cfg.c **** 
 295:Generated_Source\PSoC4/cyfitter_cfg.c **** 		static const cfg_memset_t CYCODE cfg_memset_list[] = {
 296:Generated_Source\PSoC4/cyfitter_cfg.c **** 			/* address, size */
 297:Generated_Source\PSoC4/cyfitter_cfg.c **** 			{(void CYFAR *)(CYDEV_UDB_P0_U0_BASE), 1024u},
 298:Generated_Source\PSoC4/cyfitter_cfg.c **** 			{(void CYFAR *)(CYDEV_UDB_DSI0_BASE), 1024u},
 299:Generated_Source\PSoC4/cyfitter_cfg.c **** 		};
 300:Generated_Source\PSoC4/cyfitter_cfg.c **** 
 301:Generated_Source\PSoC4/cyfitter_cfg.c **** 		uint8 CYDATA i;
 302:Generated_Source\PSoC4/cyfitter_cfg.c **** 
 303:Generated_Source\PSoC4/cyfitter_cfg.c **** 		/* Zero out critical memory blocks before beginning configuration */
 304:Generated_Source\PSoC4/cyfitter_cfg.c **** 		for (i = 0u; i < (sizeof(cfg_memset_list)/sizeof(cfg_memset_list[0])); i++)
 246              		.loc 1 304 0
 247 0094 0024     		movs	r4, #0
 248 0096 0FE0     		b	.L14
ARM GAS  C:\Users\JOSEAN~1\AppData\Local\Temp\ccHqEo2L.s 			page 11


 249              	.LVL12:
 250              	.L15:
 251              	.LBB3:
 305:Generated_Source\PSoC4/cyfitter_cfg.c **** 		{
 306:Generated_Source\PSoC4/cyfitter_cfg.c **** 			const cfg_memset_t CYCODE * CYDATA ms = &cfg_memset_list[i];
 307:Generated_Source\PSoC4/cyfitter_cfg.c **** 			CYMEMZERO(ms->address, (size_t)(uint32)(ms->size));
 252              		.loc 1 307 0 discriminator 3
 253 0098 1C48     		ldr	r0, .L16
 254 009a 6200     		lsls	r2, r4, #1
 255 009c 1319     		adds	r3, r2, r4
 256 009e 5900     		lsls	r1, r3, #1
 257 00a0 0B00     		movs	r3, r1
 258 00a2 4118     		adds	r1, r0, r1
 259 00a4 8988     		ldrh	r1, [r1, #4]
 260 00a6 1A5A     		ldrh	r2, [r3, r0]
 261 00a8 C318     		adds	r3, r0, r3
 262 00aa 5888     		ldrh	r0, [r3, #2]
 263 00ac 0004     		lsls	r0, r0, #16
 264 00ae 1043     		orrs	r0, r2
 265 00b0 FFF7FEFF 		bl	CYMEMZERO
 266              	.LVL13:
 267              	.LBE3:
 304:Generated_Source\PSoC4/cyfitter_cfg.c **** 		{
 268              		.loc 1 304 0 discriminator 3
 269 00b4 0134     		adds	r4, r4, #1
 270              	.LVL14:
 271 00b6 E4B2     		uxtb	r4, r4
 272              	.LVL15:
 273              	.L14:
 304:Generated_Source\PSoC4/cyfitter_cfg.c **** 		{
 274              		.loc 1 304 0 is_stmt 0 discriminator 1
 275 00b8 012C     		cmp	r4, #1
 276 00ba EDD9     		bls	.L15
 308:Generated_Source\PSoC4/cyfitter_cfg.c **** 		}
 309:Generated_Source\PSoC4/cyfitter_cfg.c **** 
 310:Generated_Source\PSoC4/cyfitter_cfg.c **** 		/* HSIOM Starting address: CYDEV_HSIOM_BASE */
 311:Generated_Source\PSoC4/cyfitter_cfg.c **** 		CY_SET_REG32((void *)(CYREG_HSIOM_PORT_SEL3), 0x0000EE00u);
 277              		.loc 1 311 0 is_stmt 1
 278 00bc EE22     		movs	r2, #238
 279 00be 1202     		lsls	r2, r2, #8
 280 00c0 134B     		ldr	r3, .L16+4
 281 00c2 1A60     		str	r2, [r3]
 312:Generated_Source\PSoC4/cyfitter_cfg.c **** 
 313:Generated_Source\PSoC4/cyfitter_cfg.c **** 		/* UDB_PA_0 Starting address: CYDEV_UDB_PA0_BASE */
 314:Generated_Source\PSoC4/cyfitter_cfg.c **** 		CY_SET_REG32((void *)(CYDEV_UDB_PA0_BASE), 0x00990000u);
 282              		.loc 1 314 0
 283 00c4 9923     		movs	r3, #153
 284 00c6 1B04     		lsls	r3, r3, #16
 285 00c8 124A     		ldr	r2, .L16+8
 286 00ca 1360     		str	r3, [r2]
 315:Generated_Source\PSoC4/cyfitter_cfg.c **** 
 316:Generated_Source\PSoC4/cyfitter_cfg.c **** 		/* UDB_PA_2 Starting address: CYDEV_UDB_PA2_BASE */
 317:Generated_Source\PSoC4/cyfitter_cfg.c **** 		CY_SET_REG32((void *)(CYDEV_UDB_PA2_BASE), 0x00990000u);
 287              		.loc 1 317 0
 288 00cc 124A     		ldr	r2, .L16+12
 289 00ce 1360     		str	r3, [r2]
 318:Generated_Source\PSoC4/cyfitter_cfg.c **** 
ARM GAS  C:\Users\JOSEAN~1\AppData\Local\Temp\ccHqEo2L.s 			page 12


 319:Generated_Source\PSoC4/cyfitter_cfg.c **** 		/* UDB_PA_3 Starting address: CYDEV_UDB_PA3_BASE */
 320:Generated_Source\PSoC4/cyfitter_cfg.c **** 		CY_SET_REG32((void *)(CYDEV_UDB_PA3_BASE), 0x00990000u);
 290              		.loc 1 320 0
 291 00d0 124A     		ldr	r2, .L16+16
 292 00d2 1360     		str	r3, [r2]
 321:Generated_Source\PSoC4/cyfitter_cfg.c **** 
 322:Generated_Source\PSoC4/cyfitter_cfg.c **** 		/* Enable digital routing */
 323:Generated_Source\PSoC4/cyfitter_cfg.c **** 		CY_SET_XTND_REG8((void *)CYREG_UDB_UDBIF_BANK_CTL, (uint8)(CY_GET_XTND_REG8((void *)CYREG_UDB_UDB
 293              		.loc 1 323 0
 294 00d4 124A     		ldr	r2, .L16+20
 295 00d6 1178     		ldrb	r1, [r2]
 296 00d8 0623     		movs	r3, #6
 297 00da 0B43     		orrs	r3, r1
 298 00dc DBB2     		uxtb	r3, r3
 299 00de 1370     		strb	r3, [r2]
 300              	.LBE2:
 324:Generated_Source\PSoC4/cyfitter_cfg.c **** 	}
 325:Generated_Source\PSoC4/cyfitter_cfg.c **** 
 326:Generated_Source\PSoC4/cyfitter_cfg.c **** 	/* Perform second pass device configuration. These items must be configured in specific order afte
 327:Generated_Source\PSoC4/cyfitter_cfg.c **** 	/* IOPINS0_0 Starting address: CYDEV_PRT0_BASE */
 328:Generated_Source\PSoC4/cyfitter_cfg.c **** 	CY_SET_REG32((void *)(CYDEV_PRT0_BASE), 0x00000020u);
 301              		.loc 1 328 0
 302 00e0 2022     		movs	r2, #32
 303 00e2 104B     		ldr	r3, .L16+24
 304 00e4 1A60     		str	r2, [r3]
 329:Generated_Source\PSoC4/cyfitter_cfg.c **** 	CY_SET_REG32((void *)(CYREG_PRT0_PC), 0x00030000u);
 305              		.loc 1 329 0
 306 00e6 C022     		movs	r2, #192
 307 00e8 9202     		lsls	r2, r2, #10
 308 00ea 0F4B     		ldr	r3, .L16+28
 309 00ec 1A60     		str	r2, [r3]
 330:Generated_Source\PSoC4/cyfitter_cfg.c **** 
 331:Generated_Source\PSoC4/cyfitter_cfg.c **** 	/* IOPINS0_2 Starting address: CYDEV_PRT2_BASE */
 332:Generated_Source\PSoC4/cyfitter_cfg.c **** 	CY_SET_REG32((void *)(CYDEV_PRT2_BASE), 0x00000003u);
 310              		.loc 1 332 0
 311 00ee 0323     		movs	r3, #3
 312 00f0 0E4A     		ldr	r2, .L16+32
 313 00f2 1360     		str	r3, [r2]
 333:Generated_Source\PSoC4/cyfitter_cfg.c **** 	CY_SET_REG32((void *)(CYREG_PRT2_PC2), 0x00000003u);
 314              		.loc 1 333 0
 315 00f4 0E4A     		ldr	r2, .L16+36
 316 00f6 1360     		str	r3, [r2]
 334:Generated_Source\PSoC4/cyfitter_cfg.c **** 
 335:Generated_Source\PSoC4/cyfitter_cfg.c **** 	/* IOPINS0_3 Starting address: CYDEV_PRT3_BASE */
 336:Generated_Source\PSoC4/cyfitter_cfg.c **** 	CY_SET_REG32((void *)(CYREG_PRT3_PC), 0x00000D80u);
 317              		.loc 1 336 0
 318 00f8 D822     		movs	r2, #216
 319 00fa 1201     		lsls	r2, r2, #4
 320 00fc 0D4B     		ldr	r3, .L16+40
 321 00fe 1A60     		str	r2, [r3]
 337:Generated_Source\PSoC4/cyfitter_cfg.c **** 
 338:Generated_Source\PSoC4/cyfitter_cfg.c **** 
 339:Generated_Source\PSoC4/cyfitter_cfg.c **** 	/* Setup clocks based on selections from Clock DWR */
 340:Generated_Source\PSoC4/cyfitter_cfg.c **** 	ClockSetup();
 322              		.loc 1 340 0
 323 0100 FFF77EFF 		bl	ClockSetup
 324              	.LVL16:
ARM GAS  C:\Users\JOSEAN~1\AppData\Local\Temp\ccHqEo2L.s 			page 13


 341:Generated_Source\PSoC4/cyfitter_cfg.c **** 
 342:Generated_Source\PSoC4/cyfitter_cfg.c **** 	/* Perform basic analog initialization to defaults */
 343:Generated_Source\PSoC4/cyfitter_cfg.c **** 	AnalogSetDefault();
 325              		.loc 1 343 0
 326 0104 FFF7FEFF 		bl	AnalogSetDefault
 327              	.LVL17:
 344:Generated_Source\PSoC4/cyfitter_cfg.c **** 
 345:Generated_Source\PSoC4/cyfitter_cfg.c **** }
 328              		.loc 1 345 0
 329              		@ sp needed
 330              	.LVL18:
 331 0108 10BD     		pop	{r4, pc}
 332              	.L17:
 333 010a C046     		.align	2
 334              	.L16:
 335 010c 00000000 		.word	.LANCHOR0
 336 0110 0C000140 		.word	1073807372
 337 0114 00500F40 		.word	1074745344
 338 0118 20500F40 		.word	1074745376
 339 011c 30500F40 		.word	1074745392
 340 0120 00700F40 		.word	1074753536
 341 0124 00000440 		.word	1074003968
 342 0128 08000440 		.word	1074003976
 343 012c 00020440 		.word	1074004480
 344 0130 18020440 		.word	1074004504
 345 0134 08030440 		.word	1074004744
 346              		.cfi_endproc
 347              	.LFE6:
 348              		.size	cyfitter_cfg, .-cyfitter_cfg
 349              		.section	.rodata
 350              		.align	2
 351              		.set	.LANCHOR0,. + 0
 352              		.type	cfg_memset_list.4853, %object
 353              		.size	cfg_memset_list.4853, 12
 354              	cfg_memset_list.4853:
 355 0000 00300F40 		.word	1074737152
 356 0004 0004     		.short	1024
 357 0006 00400F40 		.4byte	1074741248
 358 000a 0004     		.short	1024
 359              		.text
 360              	.Letext0:
 361              		.file 2 "c:\\program files (x86)\\cypress\\psoc creator\\4.2\\psoc creator\\import\\gnu\\arm\\5.4.
 362              		.file 3 "Generated_Source\\PSoC4\\cytypes.h"
 363              		.file 4 "Generated_Source\\PSoC4\\CyLib.h"
 364              		.section	.debug_info,"",%progbits
 365              	.Ldebug_info0:
 366 0000 C6020000 		.4byte	0x2c6
 367 0004 0400     		.2byte	0x4
 368 0006 00000000 		.4byte	.Ldebug_abbrev0
 369 000a 04       		.byte	0x4
 370 000b 01       		.uleb128 0x1
 371 000c 8B010000 		.4byte	.LASF33
 372 0010 0C       		.byte	0xc
 373 0011 8A020000 		.4byte	.LASF34
 374 0015 12010000 		.4byte	.LASF35
 375 0019 00000000 		.4byte	.Ldebug_ranges0+0
 376 001d 00000000 		.4byte	0
ARM GAS  C:\Users\JOSEAN~1\AppData\Local\Temp\ccHqEo2L.s 			page 14


 377 0021 00000000 		.4byte	.Ldebug_line0
 378 0025 02       		.uleb128 0x2
 379 0026 04       		.byte	0x4
 380 0027 05       		.byte	0x5
 381 0028 696E7400 		.ascii	"int\000"
 382 002c 03       		.uleb128 0x3
 383 002d 06000000 		.4byte	.LASF12
 384 0031 02       		.byte	0x2
 385 0032 D8       		.byte	0xd8
 386 0033 37000000 		.4byte	0x37
 387 0037 04       		.uleb128 0x4
 388 0038 04       		.byte	0x4
 389 0039 07       		.byte	0x7
 390 003a D9000000 		.4byte	.LASF0
 391 003e 04       		.uleb128 0x4
 392 003f 08       		.byte	0x8
 393 0040 05       		.byte	0x5
 394 0041 2F020000 		.4byte	.LASF1
 395 0045 04       		.uleb128 0x4
 396 0046 08       		.byte	0x8
 397 0047 04       		.byte	0x4
 398 0048 72020000 		.4byte	.LASF2
 399 004c 04       		.uleb128 0x4
 400 004d 01       		.byte	0x1
 401 004e 06       		.byte	0x6
 402 004f 7E020000 		.4byte	.LASF3
 403 0053 04       		.uleb128 0x4
 404 0054 01       		.byte	0x1
 405 0055 08       		.byte	0x8
 406 0056 A3000000 		.4byte	.LASF4
 407 005a 04       		.uleb128 0x4
 408 005b 02       		.byte	0x2
 409 005c 05       		.byte	0x5
 410 005d 4A020000 		.4byte	.LASF5
 411 0061 04       		.uleb128 0x4
 412 0062 02       		.byte	0x2
 413 0063 07       		.byte	0x7
 414 0064 48000000 		.4byte	.LASF6
 415 0068 04       		.uleb128 0x4
 416 0069 04       		.byte	0x4
 417 006a 05       		.byte	0x5
 418 006b 69020000 		.4byte	.LASF7
 419 006f 04       		.uleb128 0x4
 420 0070 04       		.byte	0x4
 421 0071 07       		.byte	0x7
 422 0072 6B000000 		.4byte	.LASF8
 423 0076 04       		.uleb128 0x4
 424 0077 08       		.byte	0x8
 425 0078 07       		.byte	0x7
 426 0079 FB000000 		.4byte	.LASF9
 427 007d 04       		.uleb128 0x4
 428 007e 04       		.byte	0x4
 429 007f 07       		.byte	0x7
 430 0080 26020000 		.4byte	.LASF10
 431 0084 05       		.uleb128 0x5
 432 0085 04       		.byte	0x4
 433 0086 04       		.uleb128 0x4
ARM GAS  C:\Users\JOSEAN~1\AppData\Local\Temp\ccHqEo2L.s 			page 15


 434 0087 01       		.byte	0x1
 435 0088 08       		.byte	0x8
 436 0089 3D020000 		.4byte	.LASF11
 437 008d 06       		.uleb128 0x6
 438 008e 7D000000 		.4byte	.LASF13
 439 0092 03       		.byte	0x3
 440 0093 E401     		.2byte	0x1e4
 441 0095 53000000 		.4byte	0x53
 442 0099 06       		.uleb128 0x6
 443 009a CB000000 		.4byte	.LASF14
 444 009e 03       		.byte	0x3
 445 009f E501     		.2byte	0x1e5
 446 00a1 61000000 		.4byte	0x61
 447 00a5 06       		.uleb128 0x6
 448 00a6 D2000000 		.4byte	.LASF15
 449 00aa 03       		.byte	0x3
 450 00ab E601     		.2byte	0x1e6
 451 00ad 6F000000 		.4byte	0x6f
 452 00b1 04       		.uleb128 0x4
 453 00b2 04       		.byte	0x4
 454 00b3 04       		.byte	0x4
 455 00b4 5B000000 		.4byte	.LASF16
 456 00b8 04       		.uleb128 0x4
 457 00b9 08       		.byte	0x8
 458 00ba 04       		.byte	0x4
 459 00bb B8000000 		.4byte	.LASF17
 460 00bf 06       		.uleb128 0x6
 461 00c0 66000000 		.4byte	.LASF18
 462 00c4 03       		.byte	0x3
 463 00c5 8E02     		.2byte	0x28e
 464 00c7 CB000000 		.4byte	0xcb
 465 00cb 07       		.uleb128 0x7
 466 00cc 8D000000 		.4byte	0x8d
 467 00d0 06       		.uleb128 0x6
 468 00d1 00000000 		.4byte	.LASF19
 469 00d5 03       		.byte	0x3
 470 00d6 9002     		.2byte	0x290
 471 00d8 DC000000 		.4byte	0xdc
 472 00dc 07       		.uleb128 0x7
 473 00dd A5000000 		.4byte	0xa5
 474 00e1 08       		.uleb128 0x8
 475 00e2 0D000000 		.4byte	.LASF36
 476 00e6 01       		.byte	0x1
 477 00e7 E1       		.byte	0xe1
 478 00e8 00000000 		.4byte	.LFB4
 479 00ec 18000000 		.4byte	.LFE4-.LFB4
 480 00f0 01       		.uleb128 0x1
 481 00f1 9C       		.byte	0x9c
 482 00f2 09       		.uleb128 0x9
 483 00f3 83000000 		.4byte	.LASF20
 484 00f7 01       		.byte	0x1
 485 00f8 4C       		.byte	0x4c
 486 00f9 00000000 		.4byte	.LFB0
 487 00fd 0C000000 		.4byte	.LFE0-.LFB0
 488 0101 01       		.uleb128 0x1
 489 0102 9C       		.byte	0x9c
 490 0103 3F010000 		.4byte	0x13f
ARM GAS  C:\Users\JOSEAN~1\AppData\Local\Temp\ccHqEo2L.s 			page 16


 491 0107 0A       		.uleb128 0xa
 492 0108 7300     		.ascii	"s\000"
 493 010a 01       		.byte	0x1
 494 010b 4C       		.byte	0x4c
 495 010c 84000000 		.4byte	0x84
 496 0110 00000000 		.4byte	.LLST0
 497 0114 0A       		.uleb128 0xa
 498 0115 6E00     		.ascii	"n\000"
 499 0117 01       		.byte	0x1
 500 0118 4C       		.byte	0x4c
 501 0119 2C000000 		.4byte	0x2c
 502 011d 21000000 		.4byte	.LLST1
 503 0121 0B       		.uleb128 0xb
 504 0122 0A000000 		.4byte	.LVL2
 505 0126 9F020000 		.4byte	0x29f
 506 012a 0C       		.uleb128 0xc
 507 012b 01       		.uleb128 0x1
 508 012c 50       		.byte	0x50
 509 012d 03       		.uleb128 0x3
 510 012e F3       		.byte	0xf3
 511 012f 01       		.uleb128 0x1
 512 0130 50       		.byte	0x50
 513 0131 0C       		.uleb128 0xc
 514 0132 01       		.uleb128 0x1
 515 0133 51       		.byte	0x51
 516 0134 01       		.uleb128 0x1
 517 0135 30       		.byte	0x30
 518 0136 0C       		.uleb128 0xc
 519 0137 01       		.uleb128 0x1
 520 0138 52       		.byte	0x52
 521 0139 03       		.uleb128 0x3
 522 013a F3       		.byte	0xf3
 523 013b 01       		.uleb128 0x1
 524 013c 51       		.byte	0x51
 525 013d 00       		.byte	0
 526 013e 00       		.byte	0
 527 013f 09       		.uleb128 0x9
 528 0140 3D000000 		.4byte	.LASF21
 529 0144 01       		.byte	0x1
 530 0145 AA       		.byte	0xaa
 531 0146 00000000 		.4byte	.LFB3
 532 014a 90000000 		.4byte	.LFE3-.LFB3
 533 014e 01       		.uleb128 0x1
 534 014f 9C       		.byte	0x9c
 535 0150 8A010000 		.4byte	0x18a
 536 0154 0D       		.uleb128 0xd
 537 0155 14000000 		.4byte	.LVL3
 538 0159 A8020000 		.4byte	0x2a8
 539 015d 67010000 		.4byte	0x167
 540 0161 0C       		.uleb128 0xc
 541 0162 01       		.uleb128 0x1
 542 0163 50       		.byte	0x50
 543 0164 01       		.uleb128 0x1
 544 0165 48       		.byte	0x48
 545 0166 00       		.byte	0
 546 0167 0D       		.uleb128 0xd
 547 0168 4E000000 		.4byte	.LVL4
ARM GAS  C:\Users\JOSEAN~1\AppData\Local\Temp\ccHqEo2L.s 			page 17


 548 016c B3020000 		.4byte	0x2b3
 549 0170 7A010000 		.4byte	0x17a
 550 0174 0C       		.uleb128 0xc
 551 0175 01       		.uleb128 0x1
 552 0176 50       		.byte	0x50
 553 0177 01       		.uleb128 0x1
 554 0178 39       		.byte	0x39
 555 0179 00       		.byte	0
 556 017a 0B       		.uleb128 0xb
 557 017b 54000000 		.4byte	.LVL5
 558 017f BE020000 		.4byte	0x2be
 559 0183 0C       		.uleb128 0xc
 560 0184 01       		.uleb128 0x1
 561 0185 50       		.byte	0x50
 562 0186 01       		.uleb128 0x1
 563 0187 39       		.byte	0x39
 564 0188 00       		.byte	0
 565 0189 00       		.byte	0
 566 018a 0E       		.uleb128 0xe
 567 018b 8D000000 		.4byte	.LASF23
 568 018f 01       		.byte	0x1
 569 0190 F9       		.byte	0xf9
 570 0191 00000000 		.4byte	.LFB5
 571 0195 20000000 		.4byte	.LFE5-.LFB5
 572 0199 01       		.uleb128 0x1
 573 019a 9C       		.byte	0x9c
 574 019b BC010000 		.4byte	0x1bc
 575 019f 0F       		.uleb128 0xf
 576 01a0 42020000 		.4byte	.LASF22
 577 01a4 01       		.byte	0x1
 578 01a5 F9       		.byte	0xf9
 579 01a6 8D000000 		.4byte	0x8d
 580 01aa 01       		.uleb128 0x1
 581 01ab 50       		.byte	0x50
 582 01ac 10       		.uleb128 0x10
 583 01ad B0020000 		.4byte	.LASF28
 584 01b1 01       		.byte	0x1
 585 01b2 FB       		.byte	0xfb
 586 01b3 A5000000 		.4byte	0xa5
 587 01b7 4D000000 		.4byte	.LLST2
 588 01bb 00       		.byte	0
 589 01bc 11       		.uleb128 0x11
 590 01bd E6000000 		.4byte	.LASF24
 591 01c1 01       		.byte	0x1
 592 01c2 1B01     		.2byte	0x11b
 593 01c4 90000000 		.4byte	.LFB6
 594 01c8 A8000000 		.4byte	.LFE6-.LFB6
 595 01cc 01       		.uleb128 0x1
 596 01cd 9C       		.byte	0x9c
 597 01ce 9F020000 		.4byte	0x29f
 598 01d2 12       		.uleb128 0x12
 599 01d3 94000000 		.4byte	.LBB2
 600 01d7 4C000000 		.4byte	.LBE2-.LBB2
 601 01db 8C020000 		.4byte	0x28c
 602 01df 13       		.uleb128 0x13
 603 01e0 06       		.byte	0x6
 604 01e1 01       		.byte	0x1
ARM GAS  C:\Users\JOSEAN~1\AppData\Local\Temp\ccHqEo2L.s 			page 18


 605 01e2 2201     		.2byte	0x122
 606 01e4 03020000 		.4byte	0x203
 607 01e8 14       		.uleb128 0x14
 608 01e9 F3000000 		.4byte	.LASF25
 609 01ed 01       		.byte	0x1
 610 01ee 2301     		.2byte	0x123
 611 01f0 84000000 		.4byte	0x84
 612 01f4 00       		.byte	0
 613 01f5 14       		.uleb128 0x14
 614 01f6 61000000 		.4byte	.LASF26
 615 01fa 01       		.byte	0x1
 616 01fb 2401     		.2byte	0x124
 617 01fd 99000000 		.4byte	0x99
 618 0201 04       		.byte	0x4
 619 0202 00       		.byte	0
 620 0203 06       		.uleb128 0x6
 621 0204 19020000 		.4byte	.LASF27
 622 0208 01       		.byte	0x1
 623 0209 2501     		.2byte	0x125
 624 020b DF010000 		.4byte	0x1df
 625 020f 15       		.uleb128 0x15
 626 0210 1F020000 		.4byte	0x21f
 627 0214 1F020000 		.4byte	0x21f
 628 0218 16       		.uleb128 0x16
 629 0219 7D000000 		.4byte	0x7d
 630 021d 01       		.byte	0x1
 631 021e 00       		.byte	0
 632 021f 17       		.uleb128 0x17
 633 0220 03020000 		.4byte	0x203
 634 0224 18       		.uleb128 0x18
 635 0225 2D000000 		.4byte	.LASF29
 636 0229 01       		.byte	0x1
 637 022a 2701     		.2byte	0x127
 638 022c 36020000 		.4byte	0x236
 639 0230 05       		.uleb128 0x5
 640 0231 03       		.byte	0x3
 641 0232 00000000 		.4byte	cfg_memset_list.4853
 642 0236 17       		.uleb128 0x17
 643 0237 0F020000 		.4byte	0x20f
 644 023b 19       		.uleb128 0x19
 645 023c 6900     		.ascii	"i\000"
 646 023e 01       		.byte	0x1
 647 023f 2D01     		.2byte	0x12d
 648 0241 8D000000 		.4byte	0x8d
 649 0245 6B000000 		.4byte	.LLST3
 650 0249 1A       		.uleb128 0x1a
 651 024a 98000000 		.4byte	.LBB3
 652 024e 1C000000 		.4byte	.LBE3-.LBB3
 653 0252 19       		.uleb128 0x19
 654 0253 6D7300   		.ascii	"ms\000"
 655 0256 01       		.byte	0x1
 656 0257 3201     		.2byte	0x132
 657 0259 61020000 		.4byte	0x261
 658 025d 95000000 		.4byte	.LLST4
 659 0261 1B       		.uleb128 0x1b
 660 0262 04       		.byte	0x4
 661 0263 1F020000 		.4byte	0x21f
ARM GAS  C:\Users\JOSEAN~1\AppData\Local\Temp\ccHqEo2L.s 			page 19


 662 0267 0B       		.uleb128 0xb
 663 0268 B4000000 		.4byte	.LVL13
 664 026c F2000000 		.4byte	0xf2
 665 0270 0C       		.uleb128 0xc
 666 0271 01       		.uleb128 0x1
 667 0272 51       		.byte	0x51
 668 0273 15       		.uleb128 0x15
 669 0274 74       		.byte	0x74
 670 0275 00       		.sleb128 0
 671 0276 31       		.byte	0x31
 672 0277 24       		.byte	0x24
 673 0278 74       		.byte	0x74
 674 0279 00       		.sleb128 0
 675 027a 22       		.byte	0x22
 676 027b 31       		.byte	0x31
 677 027c 24       		.byte	0x24
 678 027d 03       		.byte	0x3
 679 027e 04000000 		.4byte	.LANCHOR0+4
 680 0282 22       		.byte	0x22
 681 0283 94       		.byte	0x94
 682 0284 02       		.byte	0x2
 683 0285 0A       		.byte	0xa
 684 0286 FFFF     		.2byte	0xffff
 685 0288 1A       		.byte	0x1a
 686 0289 00       		.byte	0
 687 028a 00       		.byte	0
 688 028b 00       		.byte	0
 689 028c 1C       		.uleb128 0x1c
 690 028d 04010000 		.4byte	.LVL16
 691 0291 3F010000 		.4byte	0x13f
 692 0295 1C       		.uleb128 0x1c
 693 0296 08010000 		.4byte	.LVL17
 694 029a E1000000 		.4byte	0xe1
 695 029e 00       		.byte	0
 696 029f 1D       		.uleb128 0x1d
 697 02a0 B1000000 		.4byte	.LASF37
 698 02a4 B1000000 		.4byte	.LASF37
 699 02a8 1E       		.uleb128 0x1e
 700 02a9 54020000 		.4byte	.LASF30
 701 02ad 54020000 		.4byte	.LASF30
 702 02b1 04       		.byte	0x4
 703 02b2 6C       		.byte	0x6c
 704 02b3 1E       		.uleb128 0x1e
 705 02b4 1E000000 		.4byte	.LASF31
 706 02b8 1E000000 		.4byte	.LASF31
 707 02bc 04       		.byte	0x4
 708 02bd BD       		.byte	0xbd
 709 02be 1E       		.uleb128 0x1e
 710 02bf BF000000 		.4byte	.LASF32
 711 02c3 BF000000 		.4byte	.LASF32
 712 02c7 04       		.byte	0x4
 713 02c8 C3       		.byte	0xc3
 714 02c9 00       		.byte	0
 715              		.section	.debug_abbrev,"",%progbits
 716              	.Ldebug_abbrev0:
 717 0000 01       		.uleb128 0x1
 718 0001 11       		.uleb128 0x11
ARM GAS  C:\Users\JOSEAN~1\AppData\Local\Temp\ccHqEo2L.s 			page 20


 719 0002 01       		.byte	0x1
 720 0003 25       		.uleb128 0x25
 721 0004 0E       		.uleb128 0xe
 722 0005 13       		.uleb128 0x13
 723 0006 0B       		.uleb128 0xb
 724 0007 03       		.uleb128 0x3
 725 0008 0E       		.uleb128 0xe
 726 0009 1B       		.uleb128 0x1b
 727 000a 0E       		.uleb128 0xe
 728 000b 55       		.uleb128 0x55
 729 000c 17       		.uleb128 0x17
 730 000d 11       		.uleb128 0x11
 731 000e 01       		.uleb128 0x1
 732 000f 10       		.uleb128 0x10
 733 0010 17       		.uleb128 0x17
 734 0011 00       		.byte	0
 735 0012 00       		.byte	0
 736 0013 02       		.uleb128 0x2
 737 0014 24       		.uleb128 0x24
 738 0015 00       		.byte	0
 739 0016 0B       		.uleb128 0xb
 740 0017 0B       		.uleb128 0xb
 741 0018 3E       		.uleb128 0x3e
 742 0019 0B       		.uleb128 0xb
 743 001a 03       		.uleb128 0x3
 744 001b 08       		.uleb128 0x8
 745 001c 00       		.byte	0
 746 001d 00       		.byte	0
 747 001e 03       		.uleb128 0x3
 748 001f 16       		.uleb128 0x16
 749 0020 00       		.byte	0
 750 0021 03       		.uleb128 0x3
 751 0022 0E       		.uleb128 0xe
 752 0023 3A       		.uleb128 0x3a
 753 0024 0B       		.uleb128 0xb
 754 0025 3B       		.uleb128 0x3b
 755 0026 0B       		.uleb128 0xb
 756 0027 49       		.uleb128 0x49
 757 0028 13       		.uleb128 0x13
 758 0029 00       		.byte	0
 759 002a 00       		.byte	0
 760 002b 04       		.uleb128 0x4
 761 002c 24       		.uleb128 0x24
 762 002d 00       		.byte	0
 763 002e 0B       		.uleb128 0xb
 764 002f 0B       		.uleb128 0xb
 765 0030 3E       		.uleb128 0x3e
 766 0031 0B       		.uleb128 0xb
 767 0032 03       		.uleb128 0x3
 768 0033 0E       		.uleb128 0xe
 769 0034 00       		.byte	0
 770 0035 00       		.byte	0
 771 0036 05       		.uleb128 0x5
 772 0037 0F       		.uleb128 0xf
 773 0038 00       		.byte	0
 774 0039 0B       		.uleb128 0xb
 775 003a 0B       		.uleb128 0xb
ARM GAS  C:\Users\JOSEAN~1\AppData\Local\Temp\ccHqEo2L.s 			page 21


 776 003b 00       		.byte	0
 777 003c 00       		.byte	0
 778 003d 06       		.uleb128 0x6
 779 003e 16       		.uleb128 0x16
 780 003f 00       		.byte	0
 781 0040 03       		.uleb128 0x3
 782 0041 0E       		.uleb128 0xe
 783 0042 3A       		.uleb128 0x3a
 784 0043 0B       		.uleb128 0xb
 785 0044 3B       		.uleb128 0x3b
 786 0045 05       		.uleb128 0x5
 787 0046 49       		.uleb128 0x49
 788 0047 13       		.uleb128 0x13
 789 0048 00       		.byte	0
 790 0049 00       		.byte	0
 791 004a 07       		.uleb128 0x7
 792 004b 35       		.uleb128 0x35
 793 004c 00       		.byte	0
 794 004d 49       		.uleb128 0x49
 795 004e 13       		.uleb128 0x13
 796 004f 00       		.byte	0
 797 0050 00       		.byte	0
 798 0051 08       		.uleb128 0x8
 799 0052 2E       		.uleb128 0x2e
 800 0053 00       		.byte	0
 801 0054 03       		.uleb128 0x3
 802 0055 0E       		.uleb128 0xe
 803 0056 3A       		.uleb128 0x3a
 804 0057 0B       		.uleb128 0xb
 805 0058 3B       		.uleb128 0x3b
 806 0059 0B       		.uleb128 0xb
 807 005a 27       		.uleb128 0x27
 808 005b 19       		.uleb128 0x19
 809 005c 11       		.uleb128 0x11
 810 005d 01       		.uleb128 0x1
 811 005e 12       		.uleb128 0x12
 812 005f 06       		.uleb128 0x6
 813 0060 40       		.uleb128 0x40
 814 0061 18       		.uleb128 0x18
 815 0062 9742     		.uleb128 0x2117
 816 0064 19       		.uleb128 0x19
 817 0065 00       		.byte	0
 818 0066 00       		.byte	0
 819 0067 09       		.uleb128 0x9
 820 0068 2E       		.uleb128 0x2e
 821 0069 01       		.byte	0x1
 822 006a 03       		.uleb128 0x3
 823 006b 0E       		.uleb128 0xe
 824 006c 3A       		.uleb128 0x3a
 825 006d 0B       		.uleb128 0xb
 826 006e 3B       		.uleb128 0x3b
 827 006f 0B       		.uleb128 0xb
 828 0070 27       		.uleb128 0x27
 829 0071 19       		.uleb128 0x19
 830 0072 11       		.uleb128 0x11
 831 0073 01       		.uleb128 0x1
 832 0074 12       		.uleb128 0x12
ARM GAS  C:\Users\JOSEAN~1\AppData\Local\Temp\ccHqEo2L.s 			page 22


 833 0075 06       		.uleb128 0x6
 834 0076 40       		.uleb128 0x40
 835 0077 18       		.uleb128 0x18
 836 0078 9742     		.uleb128 0x2117
 837 007a 19       		.uleb128 0x19
 838 007b 01       		.uleb128 0x1
 839 007c 13       		.uleb128 0x13
 840 007d 00       		.byte	0
 841 007e 00       		.byte	0
 842 007f 0A       		.uleb128 0xa
 843 0080 05       		.uleb128 0x5
 844 0081 00       		.byte	0
 845 0082 03       		.uleb128 0x3
 846 0083 08       		.uleb128 0x8
 847 0084 3A       		.uleb128 0x3a
 848 0085 0B       		.uleb128 0xb
 849 0086 3B       		.uleb128 0x3b
 850 0087 0B       		.uleb128 0xb
 851 0088 49       		.uleb128 0x49
 852 0089 13       		.uleb128 0x13
 853 008a 02       		.uleb128 0x2
 854 008b 17       		.uleb128 0x17
 855 008c 00       		.byte	0
 856 008d 00       		.byte	0
 857 008e 0B       		.uleb128 0xb
 858 008f 898201   		.uleb128 0x4109
 859 0092 01       		.byte	0x1
 860 0093 11       		.uleb128 0x11
 861 0094 01       		.uleb128 0x1
 862 0095 31       		.uleb128 0x31
 863 0096 13       		.uleb128 0x13
 864 0097 00       		.byte	0
 865 0098 00       		.byte	0
 866 0099 0C       		.uleb128 0xc
 867 009a 8A8201   		.uleb128 0x410a
 868 009d 00       		.byte	0
 869 009e 02       		.uleb128 0x2
 870 009f 18       		.uleb128 0x18
 871 00a0 9142     		.uleb128 0x2111
 872 00a2 18       		.uleb128 0x18
 873 00a3 00       		.byte	0
 874 00a4 00       		.byte	0
 875 00a5 0D       		.uleb128 0xd
 876 00a6 898201   		.uleb128 0x4109
 877 00a9 01       		.byte	0x1
 878 00aa 11       		.uleb128 0x11
 879 00ab 01       		.uleb128 0x1
 880 00ac 31       		.uleb128 0x31
 881 00ad 13       		.uleb128 0x13
 882 00ae 01       		.uleb128 0x1
 883 00af 13       		.uleb128 0x13
 884 00b0 00       		.byte	0
 885 00b1 00       		.byte	0
 886 00b2 0E       		.uleb128 0xe
 887 00b3 2E       		.uleb128 0x2e
 888 00b4 01       		.byte	0x1
 889 00b5 3F       		.uleb128 0x3f
ARM GAS  C:\Users\JOSEAN~1\AppData\Local\Temp\ccHqEo2L.s 			page 23


 890 00b6 19       		.uleb128 0x19
 891 00b7 03       		.uleb128 0x3
 892 00b8 0E       		.uleb128 0xe
 893 00b9 3A       		.uleb128 0x3a
 894 00ba 0B       		.uleb128 0xb
 895 00bb 3B       		.uleb128 0x3b
 896 00bc 0B       		.uleb128 0xb
 897 00bd 27       		.uleb128 0x27
 898 00be 19       		.uleb128 0x19
 899 00bf 11       		.uleb128 0x11
 900 00c0 01       		.uleb128 0x1
 901 00c1 12       		.uleb128 0x12
 902 00c2 06       		.uleb128 0x6
 903 00c3 40       		.uleb128 0x40
 904 00c4 18       		.uleb128 0x18
 905 00c5 9742     		.uleb128 0x2117
 906 00c7 19       		.uleb128 0x19
 907 00c8 01       		.uleb128 0x1
 908 00c9 13       		.uleb128 0x13
 909 00ca 00       		.byte	0
 910 00cb 00       		.byte	0
 911 00cc 0F       		.uleb128 0xf
 912 00cd 05       		.uleb128 0x5
 913 00ce 00       		.byte	0
 914 00cf 03       		.uleb128 0x3
 915 00d0 0E       		.uleb128 0xe
 916 00d1 3A       		.uleb128 0x3a
 917 00d2 0B       		.uleb128 0xb
 918 00d3 3B       		.uleb128 0x3b
 919 00d4 0B       		.uleb128 0xb
 920 00d5 49       		.uleb128 0x49
 921 00d6 13       		.uleb128 0x13
 922 00d7 02       		.uleb128 0x2
 923 00d8 18       		.uleb128 0x18
 924 00d9 00       		.byte	0
 925 00da 00       		.byte	0
 926 00db 10       		.uleb128 0x10
 927 00dc 34       		.uleb128 0x34
 928 00dd 00       		.byte	0
 929 00de 03       		.uleb128 0x3
 930 00df 0E       		.uleb128 0xe
 931 00e0 3A       		.uleb128 0x3a
 932 00e1 0B       		.uleb128 0xb
 933 00e2 3B       		.uleb128 0x3b
 934 00e3 0B       		.uleb128 0xb
 935 00e4 49       		.uleb128 0x49
 936 00e5 13       		.uleb128 0x13
 937 00e6 02       		.uleb128 0x2
 938 00e7 17       		.uleb128 0x17
 939 00e8 00       		.byte	0
 940 00e9 00       		.byte	0
 941 00ea 11       		.uleb128 0x11
 942 00eb 2E       		.uleb128 0x2e
 943 00ec 01       		.byte	0x1
 944 00ed 3F       		.uleb128 0x3f
 945 00ee 19       		.uleb128 0x19
 946 00ef 03       		.uleb128 0x3
ARM GAS  C:\Users\JOSEAN~1\AppData\Local\Temp\ccHqEo2L.s 			page 24


 947 00f0 0E       		.uleb128 0xe
 948 00f1 3A       		.uleb128 0x3a
 949 00f2 0B       		.uleb128 0xb
 950 00f3 3B       		.uleb128 0x3b
 951 00f4 05       		.uleb128 0x5
 952 00f5 27       		.uleb128 0x27
 953 00f6 19       		.uleb128 0x19
 954 00f7 11       		.uleb128 0x11
 955 00f8 01       		.uleb128 0x1
 956 00f9 12       		.uleb128 0x12
 957 00fa 06       		.uleb128 0x6
 958 00fb 40       		.uleb128 0x40
 959 00fc 18       		.uleb128 0x18
 960 00fd 9742     		.uleb128 0x2117
 961 00ff 19       		.uleb128 0x19
 962 0100 01       		.uleb128 0x1
 963 0101 13       		.uleb128 0x13
 964 0102 00       		.byte	0
 965 0103 00       		.byte	0
 966 0104 12       		.uleb128 0x12
 967 0105 0B       		.uleb128 0xb
 968 0106 01       		.byte	0x1
 969 0107 11       		.uleb128 0x11
 970 0108 01       		.uleb128 0x1
 971 0109 12       		.uleb128 0x12
 972 010a 06       		.uleb128 0x6
 973 010b 01       		.uleb128 0x1
 974 010c 13       		.uleb128 0x13
 975 010d 00       		.byte	0
 976 010e 00       		.byte	0
 977 010f 13       		.uleb128 0x13
 978 0110 13       		.uleb128 0x13
 979 0111 01       		.byte	0x1
 980 0112 0B       		.uleb128 0xb
 981 0113 0B       		.uleb128 0xb
 982 0114 3A       		.uleb128 0x3a
 983 0115 0B       		.uleb128 0xb
 984 0116 3B       		.uleb128 0x3b
 985 0117 05       		.uleb128 0x5
 986 0118 01       		.uleb128 0x1
 987 0119 13       		.uleb128 0x13
 988 011a 00       		.byte	0
 989 011b 00       		.byte	0
 990 011c 14       		.uleb128 0x14
 991 011d 0D       		.uleb128 0xd
 992 011e 00       		.byte	0
 993 011f 03       		.uleb128 0x3
 994 0120 0E       		.uleb128 0xe
 995 0121 3A       		.uleb128 0x3a
 996 0122 0B       		.uleb128 0xb
 997 0123 3B       		.uleb128 0x3b
 998 0124 05       		.uleb128 0x5
 999 0125 49       		.uleb128 0x49
 1000 0126 13       		.uleb128 0x13
 1001 0127 38       		.uleb128 0x38
 1002 0128 0B       		.uleb128 0xb
 1003 0129 00       		.byte	0
ARM GAS  C:\Users\JOSEAN~1\AppData\Local\Temp\ccHqEo2L.s 			page 25


 1004 012a 00       		.byte	0
 1005 012b 15       		.uleb128 0x15
 1006 012c 01       		.uleb128 0x1
 1007 012d 01       		.byte	0x1
 1008 012e 49       		.uleb128 0x49
 1009 012f 13       		.uleb128 0x13
 1010 0130 01       		.uleb128 0x1
 1011 0131 13       		.uleb128 0x13
 1012 0132 00       		.byte	0
 1013 0133 00       		.byte	0
 1014 0134 16       		.uleb128 0x16
 1015 0135 21       		.uleb128 0x21
 1016 0136 00       		.byte	0
 1017 0137 49       		.uleb128 0x49
 1018 0138 13       		.uleb128 0x13
 1019 0139 2F       		.uleb128 0x2f
 1020 013a 0B       		.uleb128 0xb
 1021 013b 00       		.byte	0
 1022 013c 00       		.byte	0
 1023 013d 17       		.uleb128 0x17
 1024 013e 26       		.uleb128 0x26
 1025 013f 00       		.byte	0
 1026 0140 49       		.uleb128 0x49
 1027 0141 13       		.uleb128 0x13
 1028 0142 00       		.byte	0
 1029 0143 00       		.byte	0
 1030 0144 18       		.uleb128 0x18
 1031 0145 34       		.uleb128 0x34
 1032 0146 00       		.byte	0
 1033 0147 03       		.uleb128 0x3
 1034 0148 0E       		.uleb128 0xe
 1035 0149 3A       		.uleb128 0x3a
 1036 014a 0B       		.uleb128 0xb
 1037 014b 3B       		.uleb128 0x3b
 1038 014c 05       		.uleb128 0x5
 1039 014d 49       		.uleb128 0x49
 1040 014e 13       		.uleb128 0x13
 1041 014f 02       		.uleb128 0x2
 1042 0150 18       		.uleb128 0x18
 1043 0151 00       		.byte	0
 1044 0152 00       		.byte	0
 1045 0153 19       		.uleb128 0x19
 1046 0154 34       		.uleb128 0x34
 1047 0155 00       		.byte	0
 1048 0156 03       		.uleb128 0x3
 1049 0157 08       		.uleb128 0x8
 1050 0158 3A       		.uleb128 0x3a
 1051 0159 0B       		.uleb128 0xb
 1052 015a 3B       		.uleb128 0x3b
 1053 015b 05       		.uleb128 0x5
 1054 015c 49       		.uleb128 0x49
 1055 015d 13       		.uleb128 0x13
 1056 015e 02       		.uleb128 0x2
 1057 015f 17       		.uleb128 0x17
 1058 0160 00       		.byte	0
 1059 0161 00       		.byte	0
 1060 0162 1A       		.uleb128 0x1a
ARM GAS  C:\Users\JOSEAN~1\AppData\Local\Temp\ccHqEo2L.s 			page 26


 1061 0163 0B       		.uleb128 0xb
 1062 0164 01       		.byte	0x1
 1063 0165 11       		.uleb128 0x11
 1064 0166 01       		.uleb128 0x1
 1065 0167 12       		.uleb128 0x12
 1066 0168 06       		.uleb128 0x6
 1067 0169 00       		.byte	0
 1068 016a 00       		.byte	0
 1069 016b 1B       		.uleb128 0x1b
 1070 016c 0F       		.uleb128 0xf
 1071 016d 00       		.byte	0
 1072 016e 0B       		.uleb128 0xb
 1073 016f 0B       		.uleb128 0xb
 1074 0170 49       		.uleb128 0x49
 1075 0171 13       		.uleb128 0x13
 1076 0172 00       		.byte	0
 1077 0173 00       		.byte	0
 1078 0174 1C       		.uleb128 0x1c
 1079 0175 898201   		.uleb128 0x4109
 1080 0178 00       		.byte	0
 1081 0179 11       		.uleb128 0x11
 1082 017a 01       		.uleb128 0x1
 1083 017b 31       		.uleb128 0x31
 1084 017c 13       		.uleb128 0x13
 1085 017d 00       		.byte	0
 1086 017e 00       		.byte	0
 1087 017f 1D       		.uleb128 0x1d
 1088 0180 2E       		.uleb128 0x2e
 1089 0181 00       		.byte	0
 1090 0182 3F       		.uleb128 0x3f
 1091 0183 19       		.uleb128 0x19
 1092 0184 3C       		.uleb128 0x3c
 1093 0185 19       		.uleb128 0x19
 1094 0186 6E       		.uleb128 0x6e
 1095 0187 0E       		.uleb128 0xe
 1096 0188 03       		.uleb128 0x3
 1097 0189 0E       		.uleb128 0xe
 1098 018a 00       		.byte	0
 1099 018b 00       		.byte	0
 1100 018c 1E       		.uleb128 0x1e
 1101 018d 2E       		.uleb128 0x2e
 1102 018e 00       		.byte	0
 1103 018f 3F       		.uleb128 0x3f
 1104 0190 19       		.uleb128 0x19
 1105 0191 3C       		.uleb128 0x3c
 1106 0192 19       		.uleb128 0x19
 1107 0193 6E       		.uleb128 0x6e
 1108 0194 0E       		.uleb128 0xe
 1109 0195 03       		.uleb128 0x3
 1110 0196 0E       		.uleb128 0xe
 1111 0197 3A       		.uleb128 0x3a
 1112 0198 0B       		.uleb128 0xb
 1113 0199 3B       		.uleb128 0x3b
 1114 019a 0B       		.uleb128 0xb
 1115 019b 00       		.byte	0
 1116 019c 00       		.byte	0
 1117 019d 00       		.byte	0
ARM GAS  C:\Users\JOSEAN~1\AppData\Local\Temp\ccHqEo2L.s 			page 27


 1118              		.section	.debug_loc,"",%progbits
 1119              	.Ldebug_loc0:
 1120              	.LLST0:
 1121 0000 00000000 		.4byte	.LVL0
 1122 0004 09000000 		.4byte	.LVL2-1
 1123 0008 0100     		.2byte	0x1
 1124 000a 50       		.byte	0x50
 1125 000b 09000000 		.4byte	.LVL2-1
 1126 000f 0C000000 		.4byte	.LFE0
 1127 0013 0400     		.2byte	0x4
 1128 0015 F3       		.byte	0xf3
 1129 0016 01       		.uleb128 0x1
 1130 0017 50       		.byte	0x50
 1131 0018 9F       		.byte	0x9f
 1132 0019 00000000 		.4byte	0
 1133 001d 00000000 		.4byte	0
 1134              	.LLST1:
 1135 0021 00000000 		.4byte	.LVL0
 1136 0025 06000000 		.4byte	.LVL1
 1137 0029 0100     		.2byte	0x1
 1138 002b 51       		.byte	0x51
 1139 002c 06000000 		.4byte	.LVL1
 1140 0030 09000000 		.4byte	.LVL2-1
 1141 0034 0100     		.2byte	0x1
 1142 0036 52       		.byte	0x52
 1143 0037 09000000 		.4byte	.LVL2-1
 1144 003b 0C000000 		.4byte	.LFE0
 1145 003f 0400     		.2byte	0x4
 1146 0041 F3       		.byte	0xf3
 1147 0042 01       		.uleb128 0x1
 1148 0043 51       		.byte	0x51
 1149 0044 9F       		.byte	0x9f
 1150 0045 00000000 		.4byte	0
 1151 0049 00000000 		.4byte	0
 1152              	.LLST2:
 1153 004d 04000000 		.4byte	.LVL7
 1154 0051 12000000 		.4byte	.LVL9
 1155 0055 0100     		.2byte	0x1
 1156 0057 53       		.byte	0x53
 1157 0058 14000000 		.4byte	.LVL10
 1158 005c 20000000 		.4byte	.LFE5
 1159 0060 0100     		.2byte	0x1
 1160 0062 53       		.byte	0x53
 1161 0063 00000000 		.4byte	0
 1162 0067 00000000 		.4byte	0
 1163              	.LLST3:
 1164 006b 94000000 		.4byte	.LVL11
 1165 006f 98000000 		.4byte	.LVL12
 1166 0073 0200     		.2byte	0x2
 1167 0075 30       		.byte	0x30
 1168 0076 9F       		.byte	0x9f
 1169 0077 98000000 		.4byte	.LVL12
 1170 007b B6000000 		.4byte	.LVL14
 1171 007f 0100     		.2byte	0x1
 1172 0081 54       		.byte	0x54
 1173 0082 B8000000 		.4byte	.LVL15
 1174 0086 08010000 		.4byte	.LVL18
ARM GAS  C:\Users\JOSEAN~1\AppData\Local\Temp\ccHqEo2L.s 			page 28


 1175 008a 0100     		.2byte	0x1
 1176 008c 54       		.byte	0x54
 1177 008d 00000000 		.4byte	0
 1178 0091 00000000 		.4byte	0
 1179              	.LLST4:
 1180 0095 98000000 		.4byte	.LVL12
 1181 0099 B6000000 		.4byte	.LVL14
 1182 009d 0B00     		.2byte	0xb
 1183 009f 74       		.byte	0x74
 1184 00a0 00       		.sleb128 0
 1185 00a1 36       		.byte	0x36
 1186 00a2 1E       		.byte	0x1e
 1187 00a3 03       		.byte	0x3
 1188 00a4 00000000 		.4byte	cfg_memset_list.4853
 1189 00a8 22       		.byte	0x22
 1190 00a9 9F       		.byte	0x9f
 1191 00aa B6000000 		.4byte	.LVL14
 1192 00ae B8000000 		.4byte	.LVL15
 1193 00b2 0B00     		.2byte	0xb
 1194 00b4 74       		.byte	0x74
 1195 00b5 7F       		.sleb128 -1
 1196 00b6 36       		.byte	0x36
 1197 00b7 1E       		.byte	0x1e
 1198 00b8 03       		.byte	0x3
 1199 00b9 00000000 		.4byte	cfg_memset_list.4853
 1200 00bd 22       		.byte	0x22
 1201 00be 9F       		.byte	0x9f
 1202 00bf 00000000 		.4byte	0
 1203 00c3 00000000 		.4byte	0
 1204              		.section	.debug_aranges,"",%progbits
 1205 0000 3C000000 		.4byte	0x3c
 1206 0004 0200     		.2byte	0x2
 1207 0006 00000000 		.4byte	.Ldebug_info0
 1208 000a 04       		.byte	0x4
 1209 000b 00       		.byte	0
 1210 000c 0000     		.2byte	0
 1211 000e 0000     		.2byte	0
 1212 0010 00000000 		.4byte	.LFB4
 1213 0014 18000000 		.4byte	.LFE4-.LFB4
 1214 0018 00000000 		.4byte	.LFB0
 1215 001c 0C000000 		.4byte	.LFE0-.LFB0
 1216 0020 00000000 		.4byte	.LFB3
 1217 0024 90000000 		.4byte	.LFE3-.LFB3
 1218 0028 00000000 		.4byte	.LFB5
 1219 002c 20000000 		.4byte	.LFE5-.LFB5
 1220 0030 90000000 		.4byte	.LFB6
 1221 0034 A8000000 		.4byte	.LFE6-.LFB6
 1222 0038 00000000 		.4byte	0
 1223 003c 00000000 		.4byte	0
 1224              		.section	.debug_ranges,"",%progbits
 1225              	.Ldebug_ranges0:
 1226 0000 00000000 		.4byte	.LFB4
 1227 0004 18000000 		.4byte	.LFE4
 1228 0008 00000000 		.4byte	.LFB0
 1229 000c 0C000000 		.4byte	.LFE0
 1230 0010 00000000 		.4byte	.LFB3
 1231 0014 90000000 		.4byte	.LFE3
ARM GAS  C:\Users\JOSEAN~1\AppData\Local\Temp\ccHqEo2L.s 			page 29


 1232 0018 00000000 		.4byte	.LFB5
 1233 001c 20000000 		.4byte	.LFE5
 1234 0020 90000000 		.4byte	.LFB6
 1235 0024 38010000 		.4byte	.LFE6
 1236 0028 00000000 		.4byte	0
 1237 002c 00000000 		.4byte	0
 1238              		.section	.debug_line,"",%progbits
 1239              	.Ldebug_line0:
 1240 0000 5C010000 		.section	.debug_str,"MS",%progbits,1
 1240      0200D600 
 1240      00000201 
 1240      FB0E0D00 
 1240      01010101 
 1241              	.LASF19:
 1242 0000 72656733 		.ascii	"reg32\000"
 1242      3200
 1243              	.LASF12:
 1244 0006 73697A65 		.ascii	"size_t\000"
 1244      5F7400
 1245              	.LASF36:
 1246 000d 416E616C 		.ascii	"AnalogSetDefault\000"
 1246      6F675365 
 1246      74446566 
 1246      61756C74 
 1246      00
 1247              	.LASF31:
 1248 001e 4379496E 		.ascii	"CyIntSetVector\000"
 1248      74536574 
 1248      56656374 
 1248      6F7200
 1249              	.LASF29:
 1250 002d 6366675F 		.ascii	"cfg_memset_list\000"
 1250      6D656D73 
 1250      65745F6C 
 1250      69737400 
 1251              	.LASF21:
 1252 003d 436C6F63 		.ascii	"ClockSetup\000"
 1252      6B536574 
 1252      757000
 1253              	.LASF6:
 1254 0048 73686F72 		.ascii	"short unsigned int\000"
 1254      7420756E 
 1254      7369676E 
 1254      65642069 
 1254      6E7400
 1255              	.LASF16:
 1256 005b 666C6F61 		.ascii	"float\000"
 1256      7400
 1257              	.LASF26:
 1258 0061 73697A65 		.ascii	"size\000"
 1258      00
 1259              	.LASF18:
 1260 0066 72656738 		.ascii	"reg8\000"
 1260      00
 1261              	.LASF8:
 1262 006b 6C6F6E67 		.ascii	"long unsigned int\000"
 1262      20756E73 
ARM GAS  C:\Users\JOSEAN~1\AppData\Local\Temp\ccHqEo2L.s 			page 30


 1262      69676E65 
 1262      6420696E 
 1262      7400
 1263              	.LASF13:
 1264 007d 75696E74 		.ascii	"uint8\000"
 1264      3800
 1265              	.LASF20:
 1266 0083 43594D45 		.ascii	"CYMEMZERO\000"
 1266      4D5A4552 
 1266      4F00
 1267              	.LASF23:
 1268 008d 53657441 		.ascii	"SetAnalogRoutingPumps\000"
 1268      6E616C6F 
 1268      67526F75 
 1268      74696E67 
 1268      50756D70 
 1269              	.LASF4:
 1270 00a3 756E7369 		.ascii	"unsigned char\000"
 1270      676E6564 
 1270      20636861 
 1270      7200
 1271              	.LASF37:
 1272 00b1 6D656D73 		.ascii	"memset\000"
 1272      657400
 1273              	.LASF17:
 1274 00b8 646F7562 		.ascii	"double\000"
 1274      6C6500
 1275              	.LASF32:
 1276 00bf 4379496E 		.ascii	"CyIntEnable\000"
 1276      74456E61 
 1276      626C6500 
 1277              	.LASF14:
 1278 00cb 75696E74 		.ascii	"uint16\000"
 1278      313600
 1279              	.LASF15:
 1280 00d2 75696E74 		.ascii	"uint32\000"
 1280      333200
 1281              	.LASF0:
 1282 00d9 756E7369 		.ascii	"unsigned int\000"
 1282      676E6564 
 1282      20696E74 
 1282      00
 1283              	.LASF24:
 1284 00e6 63796669 		.ascii	"cyfitter_cfg\000"
 1284      74746572 
 1284      5F636667 
 1284      00
 1285              	.LASF25:
 1286 00f3 61646472 		.ascii	"address\000"
 1286      65737300 
 1287              	.LASF9:
 1288 00fb 6C6F6E67 		.ascii	"long long unsigned int\000"
 1288      206C6F6E 
 1288      6720756E 
 1288      7369676E 
 1288      65642069 
 1289              	.LASF35:
ARM GAS  C:\Users\JOSEAN~1\AppData\Local\Temp\ccHqEo2L.s 			page 31


 1290 0112 443A5C44 		.ascii	"D:\\Documentos\\UNIVERSIDAD\\TFG\\Application Notes"
 1290      6F63756D 
 1290      656E746F 
 1290      735C554E 
 1290      49564552 
 1291 0141 20792050 		.ascii	" y Proyectos\\AN88619_HardwareConsiderations\\ADC_S"
 1291      726F7965 
 1291      63746F73 
 1291      5C414E38 
 1291      38363139 
 1292 0172 41525C41 		.ascii	"AR\\ADC_SAR_DieTemp.cydsn\000"
 1292      44435F53 
 1292      41525F44 
 1292      69655465 
 1292      6D702E63 
 1293              	.LASF33:
 1294 018b 474E5520 		.ascii	"GNU C11 5.4.1 20160609 (release) [ARM/embedded-5-br"
 1294      43313120 
 1294      352E342E 
 1294      31203230 
 1294      31363036 
 1295 01be 616E6368 		.ascii	"anch revision 237715] -mcpu=cortex-m0 -mthumb -g -O"
 1295      20726576 
 1295      6973696F 
 1295      6E203233 
 1295      37373135 
 1296 01f1 67202D66 		.ascii	"g -ffunction-sections -ffat-lto-objects\000"
 1296      66756E63 
 1296      74696F6E 
 1296      2D736563 
 1296      74696F6E 
 1297              	.LASF27:
 1298 0219 6366675F 		.ascii	"cfg_memset_t\000"
 1298      6D656D73 
 1298      65745F74 
 1298      00
 1299              	.LASF10:
 1300 0226 73697A65 		.ascii	"sizetype\000"
 1300      74797065 
 1300      00
 1301              	.LASF1:
 1302 022f 6C6F6E67 		.ascii	"long long int\000"
 1302      206C6F6E 
 1302      6720696E 
 1302      7400
 1303              	.LASF11:
 1304 023d 63686172 		.ascii	"char\000"
 1304      00
 1305              	.LASF22:
 1306 0242 656E6162 		.ascii	"enabled\000"
 1306      6C656400 
 1307              	.LASF5:
 1308 024a 73686F72 		.ascii	"short int\000"
 1308      7420696E 
 1308      7400
 1309              	.LASF30:
 1310 0254 43795379 		.ascii	"CySysClkWriteImoFreq\000"
ARM GAS  C:\Users\JOSEAN~1\AppData\Local\Temp\ccHqEo2L.s 			page 32


 1310      73436C6B 
 1310      57726974 
 1310      65496D6F 
 1310      46726571 
 1311              	.LASF7:
 1312 0269 6C6F6E67 		.ascii	"long int\000"
 1312      20696E74 
 1312      00
 1313              	.LASF2:
 1314 0272 6C6F6E67 		.ascii	"long double\000"
 1314      20646F75 
 1314      626C6500 
 1315              	.LASF3:
 1316 027e 7369676E 		.ascii	"signed char\000"
 1316      65642063 
 1316      68617200 
 1317              	.LASF34:
 1318 028a 47656E65 		.ascii	"Generated_Source\\PSoC4\\cyfitter_cfg.c\000"
 1318      72617465 
 1318      645F536F 
 1318      75726365 
 1318      5C50536F 
 1319              	.LASF28:
 1320 02b0 72656756 		.ascii	"regValue\000"
 1320      616C7565 
 1320      00
 1321              		.ident	"GCC: (GNU Tools for ARM Embedded Processors) 5.4.1 20160609 (release) [ARM/embedded-5-bran
