--------------- Build Started: 09/01/2020 20:15:15 Project: Sensored, Configuration: ARM GCC 5.4-2016-q2-update Debug ---------------
The code generation step is up to date.
arm-none-eabi-gcc.exe -mcpu=cortex-m0 -mthumb -I. -IGenerated_Source\PSoC4 -Wa,-alh=.\CortexM0\ARM_GCC_541\Debug/main.lst -g -D DEBUG -D CY_CORE_ID=0 -Wall -ffunction-sections -ffat-lto-objects -Og -c main.c -o .\CortexM0\ARM_GCC_541\Debug\main.o
arm-none-eabi-ar.exe -rs .\CortexM0\ARM_GCC_541\Debug\Sensored.a .\CortexM0\ARM_GCC_541\Debug\Hall1.o .\CortexM0\ARM_GCC_541\Debug\Hall1_PM.o .\CortexM0\ARM_GCC_541\Debug\Hall2.o .\CortexM0\ARM_GCC_541\Debug\Hall2_PM.o .\CortexM0\ARM_GCC_541\Debug\Hall3.o .\CortexM0\ARM_GCC_541\Debug\Hall3_PM.o .\CortexM0\ARM_GCC_541\Debug\AH.o .\CortexM0\ARM_GCC_541\Debug\AH_PM.o .\CortexM0\ARM_GCC_541\Debug\AL.o .\CortexM0\ARM_GCC_541\Debug\AL_PM.o .\CortexM0\ARM_GCC_541\Debug\BH.o .\CortexM0\ARM_GCC_541\Debug\BH_PM.o .\CortexM0\ARM_GCC_541\Debug\BL.o .\CortexM0\ARM_GCC_541\Debug\BL_PM.o .\CortexM0\ARM_GCC_541\Debug\CH.o .\CortexM0\ARM_GCC_541\Debug\CH_PM.o .\CortexM0\ARM_GCC_541\Debug\CL.o .\CortexM0\ARM_GCC_541\Debug\CL_PM.o .\CortexM0\ARM_GCC_541\Debug\PWM_Driver.o .\CortexM0\ARM_GCC_541\Debug\PWM_Driver_PM.o .\CortexM0\ARM_GCC_541\Debug\Control_Reg.o .\CortexM0\ARM_GCC_541\Debug\Control_Reg_PM.o .\CortexM0\ARM_GCC_541\Debug\ClockPWM.o .\CortexM0\ARM_GCC_541\Debug\cy_em_eeprom.o .\CortexM0\ARM_GCC_541\Debug\CyFlash.o .\CortexM0\ARM_GCC_541\Debug\CyLib.o .\CortexM0\ARM_GCC_541\Debug\cyPm.o .\CortexM0\ARM_GCC_541\Debug\cyutils.o .\CortexM0\ARM_GCC_541\Debug\CyLFClk.o .\CortexM0\ARM_GCC_541\Debug\PinButton2.o .\CortexM0\ARM_GCC_541\Debug\PinButton2_PM.o .\CortexM0\ARM_GCC_541\Debug\isr_button2.o .\CortexM0\ARM_GCC_541\Debug\ClockFilter.o .\CortexM0\ARM_GCC_541\Debug\UART.o .\CortexM0\ARM_GCC_541\Debug\UART_SPI_UART.o .\CortexM0\ARM_GCC_541\Debug\UART_SPI_UART_INT.o .\CortexM0\ARM_GCC_541\Debug\UART_PM.o .\CortexM0\ARM_GCC_541\Debug\UART_UART.o .\CortexM0\ARM_GCC_541\Debug\UART_BOOT.o .\CortexM0\ARM_GCC_541\Debug\UART_UART_BOOT.o .\CortexM0\ARM_GCC_541\Debug\UART_SCBCLK.o .\CortexM0\ARM_GCC_541\Debug\UART_tx.o .\CortexM0\ARM_GCC_541\Debug\UART_tx_PM.o .\CortexM0\ARM_GCC_541\Debug\UART_rx.o .\CortexM0\ARM_GCC_541\Debug\UART_rx_PM.o .\CortexM0\ARM_GCC_541\Debug\Timer_speed.o .\CortexM0\ARM_GCC_541\Debug\Timer_speed_PM.o .\CortexM0\ARM_GCC_541\Debug\isr_speed.o .\CortexM0\ARM_GCC_541\Debug\clock_speed.o .\CortexM0\ARM_GCC_541\Debug\Hall_Error.o .\CortexM0\ARM_GCC_541\Debug\PinPot.o .\CortexM0\ARM_GCC_541\Debug\PinPot_PM.o .\CortexM0\ARM_GCC_541\Debug\ADC_SAR.o .\CortexM0\ARM_GCC_541\Debug\ADC_SAR_PM.o .\CortexM0\ARM_GCC_541\Debug\ADC_SAR_INT.o .\CortexM0\ARM_GCC_541\Debug\ADC_SAR_IRQ.o .\CortexM0\ARM_GCC_541\Debug\ADC_SAR_intClock.o .\CortexM0\ARM_GCC_541\Debug\isr_Tc.o .\CortexM0\ARM_GCC_541\Debug\PinVinSense.o .\CortexM0\ARM_GCC_541\Debug\PinVinSense_PM.o .\CortexM0\ARM_GCC_541\Debug\Pin_LED_Green.o .\CortexM0\ARM_GCC_541\Debug\Pin_LED_Green_PM.o .\CortexM0\ARM_GCC_541\Debug\Pin_LED_Red.o .\CortexM0\ARM_GCC_541\Debug\Pin_LED_Red_PM.o .\CortexM0\ARM_GCC_541\Debug\isr_oc.o .\CortexM0\ARM_GCC_541\Debug\Pin_IVref.o .\CortexM0\ARM_GCC_541\Debug\Pin_IVref_PM.o .\CortexM0\ARM_GCC_541\Debug\Pin_IVo.o .\CortexM0\ARM_GCC_541\Debug\Pin_IVo_PM.o .\CortexM0\ARM_GCC_541\Debug\OC_COMP.o .\CortexM0\ARM_GCC_541\Debug\OC_COMP_PM.o .\CortexM0\ARM_GCC_541\Debug\I_ref_source.o .\CortexM0\ARM_GCC_541\Debug\I_ref_source_PM.o .\CortexM0\ARM_GCC_541\Debug\CyBootAsmGnu.o
arm-none-eabi-ar.exe: creating .\CortexM0\ARM_GCC_541\Debug\Sensored.a
arm-none-eabi-gcc.exe -Wl,--start-group -o D:\Documentos\UNIVERSIDAD\TFG\CY8CKIT-037_Documentacion\CONTROLBRUSHLESScodigoLimpio\Sensored\BLDCmotorControl\Sensored.cydsn\CortexM0\ARM_GCC_541\Debug\Sensored.elf .\CortexM0\ARM_GCC_541\Debug\main.o .\CortexM0\ARM_GCC_541\Debug\motor.o .\CortexM0\ARM_GCC_541\Debug\communication.o .\CortexM0\ARM_GCC_541\Debug\PID.o .\CortexM0\ARM_GCC_541\Debug\protection.o .\CortexM0\ARM_GCC_541\Debug\cyfitter_cfg.o .\CortexM0\ARM_GCC_541\Debug\cymetadata.o .\CortexM0\ARM_GCC_541\Debug\Cm0Start.o .\CortexM0\ARM_GCC_541\Debug\Sensored.a -mcpu=cortex-m0 -mthumb -l m -L Generated_Source\PSoC4 -Wl,-Map,.\CortexM0\ARM_GCC_541\Debug/Sensored.map -T Generated_Source\PSoC4\cm0gcc.ld -specs=nano.specs -u _printf_float -Wl,--gc-sections -g -ffunction-sections -Og -ffat-lto-objects -Wl,--end-group
cyelftool.exe -C D:\Documentos\UNIVERSIDAD\TFG\CY8CKIT-037_Documentacion\CONTROLBRUSHLESScodigoLimpio\Sensored\BLDCmotorControl\Sensored.cydsn\CortexM0\ARM_GCC_541\Debug\Sensored.elf --flash_row_size 128 --flash_size 32768 --flash_offset 0x00000000
No ELF section .cychecksum found, creating one
Application checksum calculated and stored in ELF section .cychecksum
Checksum calculated and stored in ELF section .cymeta
cyelftool.exe -S D:\Documentos\UNIVERSIDAD\TFG\CY8CKIT-037_Documentacion\CONTROLBRUSHLESScodigoLimpio\Sensored\BLDCmotorControl\Sensored.cydsn\CortexM0\ARM_GCC_541\Debug\Sensored.elf
Flash used: 27712 of 32768 bytes (84,6 %).
SRAM used: 2840 of 4096 bytes (69,3 %). Stack: 2048 bytes. Heap: 128 bytes.
--------------- Build Succeeded: 09/01/2020 20:15:16 ---------------
