===========Generating Bitstream===========
# UDB_PA_0 (count=15)
00000000: 00 00 99 00 00 00 00 00 00 00 00 45 00 00 00
# IOPINS0_0 (count=28)
0000000f: 48 00 00 00 00 00 00 00 00 02 18 00 00 00 00 00
0000001f: 00 00 00 00 00 00 00 00 00 00 00 00
# IOPINS0_1 (count=28)
0000002b: 00 00 00 00 00 00 00 00 00 00 00 00 00 00 00 00
0000003b: 00 00 00 00 00 00 00 00 00 00 00 00
# UDB_PA_1 (count=15)
00000047: 00 00 00 00 00 00 00 00 00 00 00 00 00 00 00
# UDB_PA_2 (count=15)
00000056: 00 00 99 00 00 00 00 00 00 00 00 80 00 00 00
# IOPINS0_2 (count=28)
00000065: 82 00 00 00 00 00 00 00 40 12 c0 00 00 00 00 00
00000075: 00 00 00 00 00 00 00 00 02 00 00 00
# UDB_PA_3 (count=15)
00000081: 00 00 99 00 00 00 00 00 00 00 00 e4 00 00 00
# IOPINS0_3 (count=28)
00000090: f0 00 00 00 00 00 00 00 80 6d db 00 00 00 00 00
000000a0: 00 00 00 00 00 00 00 00 00 00 00 00
# IOPINS0_4 (count=28)
000000ac: 02 00 00 00 00 00 00 00 31 00 00 00 00 00 00 00
000000bc: 00 00 00 00 00 00 00 00 02 00 00 00
# INT_SELECT (count=4)
000000c8: 01 00 00 00
# INT_CONFIG (count=4)
000000cc: 02 00 00 00
# CYDEV_CLK_SELECT00 (count=64)
000000d0: 00 00 00 00 00 00 00 00 30 00 00 00 00 00 00 00
000000e0: 00 00 00 00 00 00 00 00 00 00 00 00 10 00 00 00
000000f0: 20 00 00 00 11 00 00 00 00 00 00 00 00 00 00 00
00000100: 00 00 00 00 00 00 00 00 00 00 00 00 00 00 00 00

# CYDEV_CLK_IMO_CONFIG (count=4)
00000110: 00 00 00 82
# CYDEV_CLK_ILO_CONFIG (count=4)
00000114: 06 00 00 80
# CYDEV_CLK_SELECT (count=4)
00000118: 00 00 00 00
# CYDEV_WDT_CONFIG (count=4)
0000011c: 00 00 00 00
# CYDEV_CLK_DIVIDER_A00 (count=4)
00000120: 08 00 00 80
# CYDEV_CLK_DIVIDER_B00 (count=4)
00000124: 17 00 00 80
# CYDEV_CLK_DIVIDER_C00 (count=4)
00000128: cf 00 00 80
# CYDEV_CLK_DIVIDER_A01 (count=4)
0000012c: ef 00 00 80
# CYDEV_CLK_DIVIDER_B01 (count=4)
00000130: 00 00 00 00
# CYDEV_CLK_DIVIDER_C01 (count=4)
00000134: 00 00 00 00
# CYDEV_CLK_DIVIDER_A02 (count=4)
00000138: 00 00 00 00
# CYDEV_CLK_DIVIDER_B02 (count=4)
0000013c: 00 00 00 00
# CYDEV_CLK_DIVIDER_C02 (count=4)
00000140: 00 00 00 00
# CYDEV_CLK_DIVIDER_FRAC_A00 (count=4)
00000144: 00 00 00 00
# CYDEV_CLK_DIVIDER_FRAC_B00 (count=4)
00000148: 00 00 00 00
# CYDEV_CLK_DIVIDER_FRAC_C00 (count=4)
0000014c: 00 00 00 00
# TCPWM_CNT0 (count=4)
00000150: 10 00 00 00
# TCPWM_CNT1 (count=4)
00000154: 1d 00 00 00
# UDB_0_1_0_CONFIG (count=128)
00000158: 00 00 00 00 00 00 00 00 00 00 00 00 00 00 00 00
00000168: 00 00 00 00 00 00 00 00 00 00 00 00 00 00 00 00
00000178: 00 00 00 00 00 00 00 00 00 00 00 00 00 00 00 00
00000188: 00 00 00 00 00 00 00 00 00 00 00 00 00 00 00 00
00000198: 00 00 00 00 00 00 00 00 00 00 00 00 00 00 00 00
000001a8: 00 00 00 00 00 00 00 00 00 00 00 00 00 00 00 00
000001b8: 00 00 00 00 00 00 00 00 00 00 00 00 00 00 00 00
000001c8: 00 00 00 00 00 00 00 00 00 00 00 00 00 00 00 00

# UDB_0_1_1_CONFIG (count=128)
000001d8: 00 00 00 00 00 00 00 00 00 00 00 00 00 00 00 00
000001e8: 00 00 00 00 00 00 00 00 00 00 00 00 00 00 00 00
000001f8: 00 00 00 00 00 00 00 00 00 00 00 00 00 00 00 00
00000208: 00 00 00 00 00 00 00 00 00 00 00 00 00 00 00 00
00000218: 00 00 00 00 00 00 00 00 00 00 00 00 00 00 00 00
00000228: 00 00 00 00 00 00 00 00 00 00 00 00 00 00 00 00
00000238: 00 00 00 00 00 00 00 00 00 00 00 00 00 00 00 00
00000248: 00 00 00 00 00 00 00 00 00 00 00 00 00 00 00 00

# UDB_0_0_1_CONFIG (count=128)
00000258: 00 00 00 00 00 00 01 01 00 00 00 00 02 00 00 00
00000268: 00 00 00 00 00 00 00 00 01 00 02 00 00 00 00 00
00000278: 00 00 01 00 00 01 03 00 00 00 00 01 00 00 00 01
00000288: 01 00 02 01 00 00 00 00 20 00 00 00 00 00 15 04
00000298: 00 00 00 00 00 00 00 00 00 00 00 00 00 00 00 00
000002a8: 00 00 00 00 00 00 00 00 04 04 00 00 00 00 00 01
000002b8: 00 00 00 00 00 00 00 00 00 00 00 00 00 00 00 00
000002c8: 00 00 00 00 00 00 00 00 00 00 00 00 00 00 00 00

# UDB_0_0_0_CONFIG (count=128)
000002d8: 00 00 00 00 00 00 00 02 00 00 00 00 00 00 03 00
000002e8: 00 00 03 03 00 00 00 00 00 01 01 00 00 00 00 00
000002f8: 01 02 02 01 02 00 00 00 00 00 00 00 00 00 00 03
00000308: 00 02 01 00 02 01 00 00 00 00 00 00 00 00 14 11
00000318: 00 00 00 00 00 00 00 00 00 00 00 00 00 00 00 00
00000328: 00 00 00 00 00 00 00 00 04 04 00 04 00 00 00 01
00000338: 00 00 00 00 00 00 00 00 00 00 00 00 00 00 00 00
00000348: 00 00 00 00 00 00 00 00 00 00 00 00 00 00 00 00

# UWRK_B0_WRK_DP_BITS (count=64)
00000358: 00 00 00 00 00 00 00 00 00 00 00 00 00 00 00 00
00000368: 00 00 00 00 00 00 00 00 00 00 00 00 00 00 00 00
00000378: 00 00 00 00 00 00 00 00 00 00 00 00 00 00 00 00
00000388: 00 00 00 00 00 00 00 00 00 00 00 00 00 00 00 00

# UWRK_B0_WRK_STATCTL_BITS + 0x00000070 (count=32)
00000398: 00 00 00 00 00 00 00 00 00 00 00 00 00 00 00 00
000003a8: 00 00 00 00 00 00 00 00 00 00 00 00 00 00 00 00

# UDB_BCTL0_DRV (count=3)
000003b8: 00 00 00
# UDB_BCTL0_BOTSEL_L (count=12)
000003bb: 00 00 00 00 00 00 00 00 00 00 00 00
# DSISWITCH_0_0 (count=128)
000003c7: 00 00 00 00 00 00 00 00 00 00 00 00 00 00 00 00
000003d7: 00 00 00 00 00 00 00 00 20 00 00 00 00 00 00 00
000003e7: 00 00 00 00 00 00 00 00 00 00 00 00 00 00 00 00
000003f7: 00 00 00 00 00 00 00 00 00 00 00 00 00 00 00 00
00000407: 00 00 00 00 00 00 00 00 00 00 00 00 00 00 00 00
00000417: 00 00 00 00 00 00 00 00 00 00 00 01 00 00 02 00
00000427: 08 00 00 00 80 00 00 00 00 00 00 00 00 00 00 00
00000437: 00 00 00 00 00 00 00 00 00 00 00 00 00 00 00 00

# DSI0_0_HV_ROUTING + 0x00000080 (count=128)
00000447: 08 00 01 00 00 00 00 00 90 00 00 01 10 00 00 00
00000457: 00 00 00 00 00 00 00 00 00 00 00 00 00 00 00 00
00000467: 00 00 00 00 10 00 00 00 00 00 00 04 00 00 00 40
00000477: 00 00 00 00 00 00 00 00 00 00 00 00 00 00 00 00
00000487: 00 00 00 00 00 00 08 00 00 00 00 00 00 00 00 00
00000497: 00 00 00 00 00 00 03 00 03 00 00 00 00 00 00 00
000004a7: 04 00 00 00 05 00 02 00 00 00 00 00 00 00 00 00
000004b7: 00 00 00 00 00 00 00 00 00 00 00 00 00 00 00 00

# DSISWITCH_0_1 (count=128)
000004c7: 00 10 00 00 00 00 00 04 00 00 00 20 00 00 00 00
000004d7: 00 00 00 00 00 00 00 00 00 00 00 00 00 00 00 00
000004e7: 00 00 00 00 00 00 00 00 00 00 00 00 00 00 00 00
000004f7: 00 00 00 00 00 00 00 00 00 00 00 00 00 00 00 00
00000507: 00 00 00 00 00 00 00 00 00 00 00 00 00 00 00 00
00000517: 00 00 00 00 00 00 00 00 00 00 00 00 00 00 00 00
00000527: 00 00 00 40 00 00 00 00 00 00 00 00 00 00 00 00
00000537: 00 00 00 00 10 00 00 00 00 00 00 00 00 00 00 00

# DSI0_1_HV_ROUTING + 0x00000080 (count=128)
00000547: 00 00 00 00 00 00 00 10 00 10 00 00 00 00 00 00
00000557: 00 00 00 00 00 00 00 00 00 00 00 00 00 00 00 00
00000567: 00 00 00 00 00 00 00 00 00 00 00 00 00 00 00 00
00000577: 00 00 00 00 00 00 00 00 00 00 00 00 00 00 00 00
00000587: 03 00 08 00 00 00 00 00 00 00 00 00 00 00 00 00
00000597: 00 00 00 00 00 00 00 00 02 00 00 00 02 00 00 00
000005a7: 00 00 01 00 00 00 00 00 00 00 00 00 00 00 00 00
000005b7: 00 00 00 00 00 00 00 00 00 00 00 00 00 00 00 00

# UDBSWITCH_0_0 (count=128)
000005c7: 00 00 00 02 04 00 00 02 10 00 40 08 10 00 00 00
000005d7: 40 04 00 03 00 04 00 01 00 00 00 14 20 22 00 00
000005e7: 08 00 01 00 00 08 00 00 40 00 00 02 00 04 40 04
000005f7: 10 00 00 01 00 00 00 00 00 04 00 00 04 00 00 00
00000607: 00 00 00 00 00 00 00 00 00 00 00 00 00 00 00 00
00000617: 00 00 00 00 00 00 00 00 00 00 00 00 00 00 00 00
00000627: 00 00 00 00 00 00 00 00 00 00 40 01 00 00 00 00
00000637: 00 00 00 00 00 00 00 00 00 00 00 00 00 00 00 00

# UDB_1_0_HV_ROUTING + 0x00000080 (count=128)
00000647: 00 02 00 14 10 00 00 00 00 28 01 00 04 00 00 02
00000657: 00 04 00 09 00 00 00 00 00 00 00 00 00 00 00 00
00000667: 00 00 00 00 04 00 00 00 00 00 00 01 04 00 00 00
00000677: 00 00 00 00 00 00 00 00 00 00 00 00 00 00 00 00
00000687: a1 00 4a 00 3c 00 00 00 00 00 79 00 05 00 42 00
00000697: 00 00 00 00 00 00 00 00 00 00 00 00 00 00 00 00
000006a7: 00 00 00 00 05 00 00 00 00 00 01 00 02 00 00 00
000006b7: 00 00 00 00 00 00 00 00 00 00 00 00 00 00 00 00

# UDBSWITCH_0_1 (count=128)
000006c7: 00 00 00 00 00 00 00 00 00 00 00 00 00 00 00 00
000006d7: 00 00 00 00 00 00 00 00 00 00 00 00 00 00 00 00
000006e7: 00 00 00 00 00 00 00 00 00 00 00 00 00 00 00 00
000006f7: 00 00 00 00 00 00 00 00 00 00 00 00 00 00 00 00
00000707: 00 00 00 00 00 00 00 00 00 00 00 00 00 00 00 00
00000717: 00 00 00 00 00 00 00 00 00 00 00 00 00 00 00 00
00000727: 00 00 00 00 00 00 00 00 00 00 00 00 00 00 00 00
00000737: 00 00 00 00 00 00 00 00 00 00 00 00 00 00 00 00

# UDB_1_1_HV_ROUTING + 0x00000080 (count=128)
00000747: 00 00 00 00 00 04 00 00 00 00 00 04 00 00 00 00
00000757: 00 00 00 00 00 00 00 00 00 00 00 00 00 00 00 00
00000767: 00 00 00 00 00 00 00 00 00 00 00 00 00 00 00 00
00000777: 00 00 00 00 00 00 00 00 00 00 00 00 00 00 00 00
00000787: 00 00 00 00 00 00 00 00 00 00 00 00 00 00 00 00
00000797: 00 00 00 00 00 00 00 00 00 00 00 00 00 00 00 00
000007a7: 00 00 00 00 00 00 02 00 00 00 00 00 00 00 00 00
000007b7: 00 00 00 00 00 00 00 00 00 00 00 00 00 00 00 00

# DSISWITCH_1_0 (count=128)
000007c7: 00 00 00 00 00 00 00 00 00 00 00 00 00 00 00 00
000007d7: 00 00 00 00 00 00 00 00 00 00 00 00 00 00 00 00
000007e7: 00 00 00 00 00 00 00 00 00 00 00 00 00 00 00 00
000007f7: 00 00 00 00 00 00 00 00 00 00 00 00 00 00 00 00
00000807: 00 00 00 00 00 00 40 00 00 00 00 00 00 00 00 00
00000817: 00 00 00 00 00 00 00 00 00 00 00 00 00 00 00 00
00000827: 00 00 00 00 00 00 00 00 00 00 00 00 00 00 00 00
00000837: 00 00 00 00 00 00 00 00 00 00 00 00 00 00 00 00

# DSI2_0_HV_ROUTING + 0x00000080 (count=128)
00000847: 01 00 00 00 00 00 40 00 00 00 00 00 00 00 00 00
00000857: 00 00 00 00 01 00 00 00 00 00 00 00 00 00 00 00
00000867: 00 00 00 00 00 00 00 00 00 00 00 00 00 00 00 00
00000877: 00 00 00 00 00 00 00 00 00 00 00 00 00 00 00 00
00000887: 00 00 00 00 00 00 00 00 00 00 00 00 00 00 00 00
00000897: 80 00 00 00 00 00 00 00 00 00 00 00 00 00 00 00
000008a7: 00 00 90 00 00 00 00 00 00 00 00 00 00 00 00 00
000008b7: 00 00 00 00 00 00 00 00 00 00 00 00 00 00 00 00

# DSISWITCH_1_1 (count=128)
000008c7: 00 00 00 00 00 00 00 04 00 00 00 00 00 00 00 00
000008d7: 00 00 00 00 00 00 00 00 00 00 00 00 00 00 00 00
000008e7: 00 00 00 00 00 00 00 00 00 00 00 00 00 00 00 00
000008f7: 00 00 00 00 00 00 00 00 00 00 00 00 00 00 00 00
00000907: 00 00 00 00 00 00 00 00 00 00 00 00 00 00 00 00
00000917: 00 00 00 00 00 00 00 00 00 00 00 00 00 00 00 00
00000927: 01 00 00 00 00 00 00 00 00 00 00 00 00 00 00 04
00000937: 00 00 00 00 00 00 00 00 00 00 00 00 00 00 00 00

# DSI2_1_HV_ROUTING + 0x00000080 (count=128)
00000947: 00 00 00 00 00 00 00 00 00 00 00 00 00 00 00 00
00000957: 00 00 00 00 00 00 00 00 00 00 00 00 00 00 00 00
00000967: 00 00 00 00 00 00 00 00 00 00 00 00 00 00 00 00
00000977: 00 00 00 00 00 00 00 00 00 00 00 00 00 00 00 00
00000987: 80 00 00 00 00 00 00 00 00 00 00 00 00 00 00 00
00000997: 00 00 00 00 00 00 40 00 00 00 80 00 00 00 00 00
000009a7: 00 00 00 00 00 00 00 00 00 00 00 00 00 00 00 00
000009b7: 00 00 00 00 00 00 00 00 00 00 00 00 00 00 00 00

# HSIOM (count=4096)
000009c7: 00 00 00 03 00 00 00 00 00 00 00 30 00 ee 33 33
000009d7: 99 00 00 00 00 00 00 00 00 00 00 00 00 00 00 00
000009e7: 00 00 00 00 00 00 00 00 00 00 00 00 00 00 00 00
000009f7: 00 00 00 00 00 00 00 00 00 00 00 00 00 00 00 00
00000a07: 00 00 00 00 00 00 00 00 00 00 00 00 00 00 00 00
00000a17: 00 00 00 00 00 00 00 00 00 00 00 00 00 00 00 00
00000a27: 00 00 00 00 00 00 00 00 00 00 00 00 00 00 00 00
00000a37: 00 00 00 00 00 00 00 00 00 00 00 00 00 00 00 00
00000a47: 00 00 00 00 00 00 00 00 00 00 00 00 00 00 00 00
00000a57: 00 00 00 00 00 00 00 00 00 00 00 00 00 00 00 00
00000a67: 00 00 00 00 00 00 00 00 00 00 00 00 00 00 00 00
00000a77: 00 00 00 00 00 00 00 00 00 00 00 00 00 00 00 00
00000a87: 00 00 00 00 00 00 00 00 00 00 00 00 00 00 00 00
00000a97: 00 00 00 00 00 00 00 00 00 00 00 00 00 00 00 00
00000aa7: 00 00 00 00 00 00 00 00 00 00 00 00 00 00 00 00
00000ab7: 00 00 00 00 00 00 00 00 00 00 00 00 00 00 00 00
00000ac7: 00 00 00 00 00 00 00 00 00 00 00 00 00 00 00 00
00000ad7: 00 00 00 00 00 00 00 00 00 00 00 00 00 00 00 00
00000ae7: 00 00 00 00 00 00 00 00 00 00 00 00 00 00 00 00
00000af7: 00 00 00 00 00 00 00 00 00 00 00 00 00 00 00 00
00000b07: 00 00 00 00 00 00 00 00 00 00 00 00 00 00 00 00
00000b17: 00 00 00 00 00 00 00 00 00 00 00 00 00 00 00 00
00000b27: 00 00 00 00 00 00 00 00 00 00 00 00 00 00 00 00
00000b37: 00 00 00 00 00 00 00 00 00 00 00 00 00 00 00 00
00000b47: 00 00 00 00 00 00 00 00 00 00 00 00 00 00 00 00
00000b57: 00 00 00 00 00 00 00 00 00 00 00 00 00 00 00 00
00000b67: 00 00 00 00 00 00 00 00 00 00 00 00 00 00 00 00
00000b77: 00 00 00 00 00 00 00 00 00 00 00 00 00 00 00 00
00000b87: 00 00 00 00 00 00 00 00 00 00 00 00 00 00 00 00
00000b97: 00 00 00 00 00 00 00 00 00 00 00 00 00 00 00 00
00000ba7: 00 00 00 00 00 00 00 00 00 00 00 00 00 00 00 00
00000bb7: 00 00 00 00 00 00 00 00 00 00 00 00 00 00 00 00
00000bc7: 00 00 00 00 00 00 00 00 00 00 00 00 00 00 00 00
00000bd7: 00 00 00 00 00 00 00 00 00 00 00 00 00 00 00 00
00000be7: 00 00 00 00 00 00 00 00 00 00 00 00 00 00 00 00
00000bf7: 00 00 00 00 00 00 00 00 00 00 00 00 00 00 00 00
00000c07: 00 00 00 00 00 00 00 00 00 00 00 00 00 00 00 00
00000c17: 00 00 00 00 00 00 00 00 00 00 00 00 00 00 00 00
00000c27: 00 00 00 00 00 00 00 00 00 00 00 00 00 00 00 00
00000c37: 00 00 00 00 00 00 00 00 00 00 00 00 00 00 00 00
00000c47: 00 00 00 00 00 00 00 00 00 00 00 00 00 00 00 00
00000c57: 00 00 00 00 00 00 00 00 00 00 00 00 00 00 00 00
00000c67: 00 00 00 00 00 00 00 00 00 00 00 00 00 00 00 00
00000c77: 00 00 00 00 00 00 00 00 00 00 00 00 00 00 00 00
00000c87: 00 00 00 00 00 00 00 00 00 00 00 00 00 00 00 00
00000c97: 00 00 00 00 00 00 00 00 00 00 00 00 00 00 00 00
00000ca7: 00 00 00 00 00 00 00 00 00 00 00 00 00 00 00 00
00000cb7: 00 00 00 00 00 00 00 00 00 00 00 00 00 00 00 00
00000cc7: 00 00 00 00 00 00 00 00 00 00 00 00 00 00 00 00
00000cd7: 00 00 00 00 00 00 00 00 00 00 00 00 00 00 00 00
00000ce7: 00 00 00 00 00 00 00 00 00 00 00 00 00 00 00 00
00000cf7: 00 00 00 00 00 00 00 00 00 00 00 00 00 00 00 00
00000d07: 00 00 00 00 00 00 00 00 00 00 00 00 00 00 00 00
00000d17: 00 00 00 00 00 00 00 00 00 00 00 00 00 00 00 00
00000d27: 00 00 00 00 00 00 00 00 00 00 00 00 00 00 00 00
00000d37: 00 00 00 00 00 00 00 00 00 00 00 00 00 00 00 00
00000d47: 00 00 00 00 00 00 00 00 00 00 00 00 00 00 00 00
00000d57: 00 00 00 00 00 00 00 00 00 00 00 00 00 00 00 00
00000d67: 00 00 00 00 00 00 00 00 00 00 00 00 00 00 00 00
00000d77: 00 00 00 00 00 00 00 00 00 00 00 00 00 00 00 00
00000d87: 00 00 00 00 00 00 00 00 00 00 00 00 00 00 00 00
00000d97: 00 00 00 00 00 00 00 00 00 00 00 00 00 00 00 00
00000da7: 00 00 00 00 00 00 00 00 00 00 00 00 00 00 00 00
00000db7: 00 00 00 00 00 00 00 00 00 00 00 00 00 00 00 00
00000dc7: 00 00 00 00 00 00 00 00 00 00 00 00 00 00 00 00
00000dd7: 00 00 00 00 00 00 00 00 00 00 00 00 00 00 00 00
00000de7: 00 00 00 00 00 00 00 00 00 00 00 00 00 00 00 00
00000df7: 00 00 00 00 00 00 00 00 00 00 00 00 00 00 00 00
00000e07: 00 00 00 00 00 00 00 00 00 00 00 00 00 00 00 00
00000e17: 00 00 00 00 00 00 00 00 00 00 00 00 00 00 00 00
00000e27: 00 00 00 00 00 00 00 00 00 00 00 00 00 00 00 00
00000e37: 00 00 00 00 00 00 00 00 00 00 00 00 00 00 00 00
00000e47: 00 00 00 00 00 00 00 00 00 00 00 00 00 00 00 00
00000e57: 00 00 00 00 00 00 00 00 00 00 00 00 00 00 00 00
00000e67: 00 00 00 00 00 00 00 00 00 00 00 00 00 00 00 00
00000e77: 00 00 00 00 00 00 00 00 00 00 00 00 00 00 00 00
00000e87: 00 00 00 00 00 00 00 00 00 00 00 00 00 00 00 00
00000e97: 00 00 00 00 00 00 00 00 00 00 00 00 00 00 00 00
00000ea7: 00 00 00 00 00 00 00 00 00 00 00 00 00 00 00 00
00000eb7: 00 00 00 00 00 00 00 00 00 00 00 00 00 00 00 00
00000ec7: 00 00 00 00 00 00 00 00 00 00 00 00 00 00 00 00
00000ed7: 00 00 00 00 00 00 00 00 00 00 00 00 00 00 00 00
00000ee7: 00 00 00 00 00 00 00 00 00 00 00 00 00 00 00 00
00000ef7: 00 00 00 00 00 00 00 00 00 00 00 00 00 00 00 00
00000f07: 00 00 00 00 00 00 00 00 00 00 00 00 00 00 00 00
00000f17: 00 00 00 00 00 00 00 00 00 00 00 00 00 00 00 00
00000f27: 00 00 00 00 00 00 00 00 00 00 00 00 00 00 00 00
00000f37: 00 00 00 00 00 00 00 00 00 00 00 00 00 00 00 00
00000f47: 00 00 00 00 00 00 00 00 00 00 00 00 00 00 00 00
00000f57: 00 00 00 00 00 00 00 00 00 00 00 00 00 00 00 00
00000f67: 00 00 00 00 00 00 00 00 00 00 00 00 00 00 00 00
00000f77: 00 00 00 00 00 00 00 00 00 00 00 00 00 00 00 00
00000f87: 00 00 00 00 00 00 00 00 00 00 00 00 00 00 00 00
00000f97: 00 00 00 00 00 00 00 00 00 00 00 00 00 00 00 00
00000fa7: 00 00 00 00 00 00 00 00 00 00 00 00 00 00 00 00
00000fb7: 00 00 00 00 00 00 00 00 00 00 00 00 00 00 00 00
00000fc7: 00 00 00 00 00 00 00 00 00 00 00 00 00 00 00 00
00000fd7: 00 00 00 00 00 00 00 00 00 00 00 00 00 00 00 00
00000fe7: 00 00 00 00 00 00 00 00 00 00 00 00 00 00 00 00
00000ff7: 00 00 00 00 00 00 00 00 00 00 00 00 00 00 00 00
00001007: 00 00 00 00 00 00 00 00 00 00 00 00 00 00 00 00
00001017: 00 00 00 00 00 00 00 00 00 00 00 00 00 00 00 00
00001027: 00 00 00 00 00 00 00 00 00 00 00 00 00 00 00 00
00001037: 00 00 00 00 00 00 00 00 00 00 00 00 00 00 00 00
00001047: 00 00 00 00 00 00 00 00 00 00 00 00 00 00 00 00
00001057: 00 00 00 00 00 00 00 00 00 00 00 00 00 00 00 00
00001067: 00 00 00 00 00 00 00 00 00 00 00 00 00 00 00 00
00001077: 00 00 00 00 00 00 00 00 00 00 00 00 00 00 00 00
00001087: 00 00 00 00 00 00 00 00 00 00 00 00 00 00 00 00
00001097: 00 00 00 00 00 00 00 00 00 00 00 00 00 00 00 00
000010a7: 00 00 00 00 00 00 00 00 00 00 00 00 00 00 00 00
000010b7: 00 00 00 00 00 00 00 00 00 00 00 00 00 00 00 00
000010c7: 00 00 00 00 00 00 00 00 00 00 00 00 00 00 00 00
000010d7: 00 00 00 00 00 00 00 00 00 00 00 00 00 00 00 00
000010e7: 00 00 00 00 00 00 00 00 00 00 00 00 00 00 00 00
000010f7: 00 00 00 00 00 00 00 00 00 00 00 00 00 00 00 00
00001107: 00 00 00 00 00 00 00 00 00 00 00 00 00 00 00 00
00001117: 00 00 00 00 00 00 00 00 00 00 00 00 00 00 00 00
00001127: 00 00 00 00 00 00 00 00 00 00 00 00 00 00 00 00
00001137: 00 00 00 00 00 00 00 00 00 00 00 00 00 00 00 00
00001147: 00 00 00 00 00 00 00 00 00 00 00 00 00 00 00 00
00001157: 00 00 00 00 00 00 00 00 00 00 00 00 00 00 00 00
00001167: 00 00 00 00 00 00 00 00 00 00 00 00 00 00 00 00
00001177: 00 00 00 00 00 00 00 00 00 00 00 00 00 00 00 00
00001187: 00 00 00 00 00 00 00 00 00 00 00 00 00 00 00 00
00001197: 00 00 00 00 00 00 00 00 00 00 00 00 00 00 00 00
000011a7: 00 00 00 00 00 00 00 00 00 00 00 00 00 00 00 00
000011b7: 00 00 00 00 00 00 00 00 00 00 00 00 00 00 00 00
000011c7: 00 00 00 00 00 00 00 00 00 00 00 00 00 00 00 00
000011d7: 00 00 00 00 00 00 00 00 00 00 00 00 00 00 00 00
000011e7: 00 00 00 00 00 00 00 00 00 00 00 00 00 00 00 00
000011f7: 00 00 00 00 00 00 00 00 00 00 00 00 00 00 00 00
00001207: 00 00 00 00 00 00 00 00 00 00 00 00 00 00 00 00
00001217: 00 00 00 00 00 00 00 00 00 00 00 00 00 00 00 00
00001227: 00 00 00 00 00 00 00 00 00 00 00 00 00 00 00 00
00001237: 00 00 00 00 00 00 00 00 00 00 00 00 00 00 00 00
00001247: 00 00 00 00 00 00 00 00 00 00 00 00 00 00 00 00
00001257: 00 00 00 00 00 00 00 00 00 00 00 00 00 00 00 00
00001267: 00 00 00 00 00 00 00 00 00 00 00 00 00 00 00 00
00001277: 00 00 00 00 00 00 00 00 00 00 00 00 00 00 00 00
00001287: 00 00 00 00 00 00 00 00 00 00 00 00 00 00 00 00
00001297: 00 00 00 00 00 00 00 00 00 00 00 00 00 00 00 00
000012a7: 00 00 00 00 00 00 00 00 00 00 00 00 00 00 00 00
000012b7: 00 00 00 00 00 00 00 00 00 00 00 00 00 00 00 00
000012c7: 00 00 00 00 00 00 00 00 00 00 00 00 00 00 00 00
000012d7: 00 00 00 00 00 00 00 00 00 00 00 00 00 00 00 00
000012e7: 00 00 00 00 00 00 00 00 00 00 00 00 00 00 00 00
000012f7: 00 00 00 00 00 00 00 00 00 00 00 00 00 00 00 00
00001307: 00 00 00 00 00 00 00 00 00 00 00 00 00 00 00 00
00001317: 00 00 00 00 00 00 00 00 00 00 00 00 00 00 00 00
00001327: 00 00 00 00 00 00 00 00 00 00 00 00 00 00 00 00
00001337: 00 00 00 00 00 00 00 00 00 00 00 00 00 00 00 00
00001347: 00 00 00 00 00 00 00 00 00 00 00 00 00 00 00 00
00001357: 00 00 00 00 00 00 00 00 00 00 00 00 00 00 00 00
00001367: 00 00 00 00 00 00 00 00 00 00 00 00 00 00 00 00
00001377: 00 00 00 00 00 00 00 00 00 00 00 00 00 00 00 00
00001387: 00 00 00 00 00 00 00 00 00 00 00 00 00 00 00 00
00001397: 00 00 00 00 00 00 00 00 00 00 00 00 00 00 00 00
000013a7: 00 00 00 00 00 00 00 00 00 00 00 00 00 00 00 00
000013b7: 00 00 00 00 00 00 00 00 00 00 00 00 00 00 00 00
000013c7: 00 00 00 00 00 00 00 00 00 00 00 00 00 00 00 00
000013d7: 00 00 00 00 00 00 00 00 00 00 00 00 00 00 00 00
000013e7: 00 00 00 00 00 00 00 00 00 00 00 00 00 00 00 00
000013f7: 00 00 00 00 00 00 00 00 00 00 00 00 00 00 00 00
00001407: 00 00 00 00 00 00 00 00 00 00 00 00 00 00 00 00
00001417: 00 00 00 00 00 00 00 00 00 00 00 00 00 00 00 00
00001427: 00 00 00 00 00 00 00 00 00 00 00 00 00 00 00 00
00001437: 00 00 00 00 00 00 00 00 00 00 00 00 00 00 00 00
00001447: 00 00 00 00 00 00 00 00 00 00 00 00 00 00 00 00
00001457: 00 00 00 00 00 00 00 00 00 00 00 00 00 00 00 00
00001467: 00 00 00 00 00 00 00 00 00 00 00 00 00 00 00 00
00001477: 00 00 00 00 00 00 00 00 00 00 00 00 00 00 00 00
00001487: 00 00 00 00 00 00 00 00 00 00 00 00 00 00 00 00
00001497: 00 00 00 00 00 00 00 00 00 00 00 00 00 00 00 00
000014a7: 00 00 00 00 00 00 00 00 00 00 00 00 00 00 00 00
000014b7: 00 00 00 00 00 00 00 00 00 00 00 00 00 00 00 00
000014c7: 00 00 00 00 00 00 00 00 00 00 00 00 00 00 00 00
000014d7: 00 00 00 00 00 00 00 00 00 00 00 00 00 00 00 00
000014e7: 00 00 00 00 00 00 00 00 00 00 00 00 00 00 00 00
000014f7: 00 00 00 00 00 00 00 00 00 00 00 00 00 00 00 00
00001507: 00 00 00 00 00 00 00 00 00 00 00 00 00 00 00 00
00001517: 00 00 00 00 00 00 00 00 00 00 00 00 00 00 00 00
00001527: 00 00 00 00 00 00 00 00 00 00 00 00 00 00 00 00
00001537: 00 00 00 00 00 00 00 00 00 00 00 00 00 00 00 00
00001547: 00 00 00 00 00 00 00 00 00 00 00 00 00 00 00 00
00001557: 00 00 00 00 00 00 00 00 00 00 00 00 00 00 00 00
00001567: 00 00 00 00 00 00 00 00 00 00 00 00 00 00 00 00
00001577: 00 00 00 00 00 00 00 00 00 00 00 00 00 00 00 00
00001587: 00 00 00 00 00 00 00 00 00 00 00 00 00 00 00 00
00001597: 00 00 00 00 00 00 00 00 00 00 00 00 00 00 00 00
000015a7: 00 00 00 00 00 00 00 00 00 00 00 00 00 00 00 00
000015b7: 00 00 00 00 00 00 00 00 00 00 00 00 00 00 00 00
000015c7: 00 00 00 00 00 00 00 00 00 00 00 00 00 00 00 00
000015d7: 00 00 00 00 00 00 00 00 00 00 00 00 00 00 00 00
000015e7: 00 00 00 00 00 00 00 00 00 00 00 00 00 00 00 00
000015f7: 00 00 00 00 00 00 00 00 00 00 00 00 00 00 00 00
00001607: 00 00 00 00 00 00 00 00 00 00 00 00 00 00 00 00
00001617: 00 00 00 00 00 00 00 00 00 00 00 00 00 00 00 00
00001627: 00 00 00 00 00 00 00 00 00 00 00 00 00 00 00 00
00001637: 00 00 00 00 00 00 00 00 00 00 00 00 00 00 00 00
00001647: 00 00 00 00 00 00 00 00 00 00 00 00 00 00 00 00
00001657: 00 00 00 00 00 00 00 00 00 00 00 00 00 00 00 00
00001667: 00 00 00 00 00 00 00 00 00 00 00 00 00 00 00 00
00001677: 00 00 00 00 00 00 00 00 00 00 00 00 00 00 00 00
00001687: 00 00 00 00 00 00 00 00 00 00 00 00 00 00 00 00
00001697: 00 00 00 00 00 00 00 00 00 00 00 00 00 00 00 00
000016a7: 00 00 00 00 00 00 00 00 00 00 00 00 00 00 00 00
000016b7: 00 00 00 00 00 00 00 00 00 00 00 00 00 00 00 00
000016c7: 00 00 00 00 00 00 00 00 00 00 00 00 00 00 00 00
000016d7: 00 00 00 00 00 00 00 00 00 00 00 00 00 00 00 00
000016e7: 00 00 00 00 00 00 00 00 00 00 00 00 00 00 00 00
000016f7: 00 00 00 00 00 00 00 00 00 00 00 00 00 00 00 00
00001707: 00 00 00 00 00 00 00 00 00 00 00 00 00 00 00 00
00001717: 00 00 00 00 00 00 00 00 00 00 00 00 00 00 00 00
00001727: 00 00 00 00 00 00 00 00 00 00 00 00 00 00 00 00
00001737: 00 00 00 00 00 00 00 00 00 00 00 00 00 00 00 00
00001747: 00 00 00 00 00 00 00 00 00 00 00 00 00 00 00 00
00001757: 00 00 00 00 00 00 00 00 00 00 00 00 00 00 00 00
00001767: 00 00 00 00 00 00 00 00 00 00 00 00 00 00 00 00
00001777: 00 00 00 00 00 00 00 00 00 00 00 00 00 00 00 00
00001787: 00 00 00 00 00 00 00 00 00 00 00 00 00 00 00 00
00001797: 00 00 00 00 00 00 00 00 00 00 00 00 00 00 00 00
000017a7: 00 00 00 00 00 00 00 00 00 00 00 00 00 00 00 00
000017b7: 00 00 00 00 00 00 00 00 00 00 00 00 00 00 00 00
000017c7: 00 00 00 00 00 00 00 00 00 00 00 00 00 00 00 00
000017d7: 00 00 00 00 00 00 00 00 00 00 00 00 00 00 00 00
000017e7: 00 00 00 00 00 00 00 00 00 00 00 00 00 00 00 00
000017f7: 00 00 00 00 00 00 00 00 00 00 00 00 00 00 00 00
00001807: 00 00 00 00 00 00 00 00 00 00 00 00 00 00 00 00
00001817: 00 00 00 00 00 00 00 00 00 00 00 00 00 00 00 00
00001827: 00 00 00 00 00 00 00 00 00 00 00 00 00 00 00 00
00001837: 00 00 00 00 00 00 00 00 00 00 00 00 00 00 00 00
00001847: 00 00 00 00 00 00 00 00 00 00 00 00 00 00 00 00
00001857: 00 00 00 00 00 00 00 00 00 00 00 00 00 00 00 00
00001867: 00 00 00 00 00 00 00 00 00 00 00 00 00 00 00 00
00001877: 00 00 00 00 00 00 00 00 00 00 00 00 00 00 00 00
00001887: 00 00 00 00 00 00 00 00 00 00 00 00 00 00 00 00
00001897: 00 00 00 00 00 00 00 00 00 00 00 00 00 00 00 00
000018a7: 00 00 00 00 00 00 00 00 00 00 00 00 00 00 00 00
000018b7: 00 00 00 00 00 00 00 00 00 00 00 00 00 00 00 00
000018c7: 00 00 00 00 00 00 00 00 00 00 00 00 00 00 00 00
000018d7: 00 00 00 00 00 00 00 00 00 00 00 00 00 00 00 00
000018e7: 00 00 00 00 00 00 00 00 00 00 00 00 00 00 00 00
000018f7: 00 00 00 00 00 00 00 00 00 00 00 00 00 00 00 00
00001907: 00 00 00 00 00 00 00 00 00 00 00 00 00 00 00 00
00001917: 00 00 00 00 00 00 00 00 00 00 00 00 00 00 00 00
00001927: 00 00 00 00 00 00 00 00 00 00 00 00 00 00 00 00
00001937: 00 00 00 00 00 00 00 00 00 00 00 00 00 00 00 00
00001947: 00 00 00 00 00 00 00 00 00 00 00 00 00 00 00 00
00001957: 00 00 00 00 00 00 00 00 00 00 00 00 00 00 00 00
00001967: 00 00 00 00 00 00 00 00 00 00 00 00 00 00 00 00
00001977: 00 00 00 00 00 00 00 00 00 00 00 00 00 00 00 00
00001987: 00 00 00 00 00 00 00 00 00 00 00 00 00 00 00 00
00001997: 00 00 00 00 00 00 00 00 00 00 00 00 00 00 00 00
000019a7: 00 00 00 00 00 00 00 00 00 00 00 00 00 00 00 00
000019b7: 00 00 00 00 00 00 00 00 00 00 00 00 00 00 00 00

