ARM GAS  C:\Users\JOSEAN~1\AppData\Local\Temp\ccyqfNNc.s 			page 1


   1              		.syntax unified
   2              		.cpu cortex-m3
   3              		.fpu softvfp
   4              		.eabi_attribute 20, 1
   5              		.eabi_attribute 21, 1
   6              		.eabi_attribute 23, 3
   7              		.eabi_attribute 24, 1
   8              		.eabi_attribute 25, 1
   9              		.eabi_attribute 26, 1
  10              		.eabi_attribute 30, 1
  11              		.eabi_attribute 34, 1
  12              		.eabi_attribute 18, 4
  13              		.thumb
  14              		.syntax unified
  15              		.file	"main.c"
  16              		.text
  17              	.Ltext0:
  18              		.cfi_sections	.debug_frame
  19              		.section	.text.isr_button_handler,"ax",%progbits
  20              		.align	2
  21              		.global	isr_button_handler
  22              		.thumb
  23              		.thumb_func
  24              		.type	isr_button_handler, %function
  25              	isr_button_handler:
  26              	.LFB64:
  27              		.file 1 "main.c"
   1:main.c        **** /* ========================================
   2:main.c        ****  *
   3:main.c        ****  * Copyright YOUR COMPANY, THE YEAR
   4:main.c        ****  * All Rights Reserved
   5:main.c        ****  * UNPUBLISHED, LICENSED SOFTWARE.
   6:main.c        ****  *
   7:main.c        ****  * CONFIDENTIAL AND PROPRIETARY INFORMATION
   8:main.c        ****  * WHICH IS THE PROPERTY OF your company.
   9:main.c        ****  *
  10:main.c        ****  * ========================================
  11:main.c        **** */
  12:main.c        **** #include "project.h"
  13:main.c        **** #include "stdio.h"
  14:main.c        **** #include "math.h"
  15:main.c        **** 
  16:main.c        **** typedef unsigned char bool;
  17:main.c        **** #define FALSE 0
  18:main.c        **** #define TRUE (!FALSE)
  19:main.c        **** 
  20:main.c        **** bool state_button = FALSE; //Empezamos en OFF
  21:main.c        **** 
  22:main.c        **** /**** Parámetros para la medida de la velocidad ****/
  23:main.c        **** #define TIMER_PERIOD (uint16)(pow(2, Timer_Speed_Resolution)) // 2^12 = 65536 bits
  24:main.c        **** 
  25:main.c        **** bool first_turn = TRUE; //Se activa para no contabilizar la primera captura en el primer giro, no c
  26:main.c        **** bool first_time = TRUE;
  27:main.c        **** uint16 periodos_count = 0; //Nº de veces que cuenta un período el timer, y no se ha dado una capt
  28:main.c        **** // este parámetro incrementará indefinidamente mientras el motor esté parado
  29:main.c        **** //llegará a valores altos a baja velocidad de rotación
  30:main.c        **** uint16 T0,T1; //Variable para almacenar el valor de la primera captura
ARM GAS  C:\Users\JOSEAN~1\AppData\Local\Temp\ccyqfNNc.s 			page 2


  31:main.c        **** float delay; //Variable para almacenar el tiempo transcurrido desde la captura actual a la anterior
  32:main.c        **** float w_real; //Velocidad del motor calculada por los sensores hall (rpm)
  33:main.c        **** float w_ref; //Velocidad de referencia, leída por el potenciómetro, ajustada por el usuario
  34:main.c        **** uint8 duty; //Duty calculado para escribir el PWM, n bits
  35:main.c        **** float duty_perc; //Porcentaje de duty, salida del PID
  36:main.c        **** #define CLK_SPEED   1.0e6   // 1 MHz
  37:main.c        **** #define P_POLOS     4       //n pares de polos
  38:main.c        **** 
  39:main.c        **** 
  40:main.c        **** CY_ISR (isr_button_handler){
  28              		.loc 1 40 0
  29              		.cfi_startproc
  30              		@ args = 0, pretend = 0, frame = 0
  31              		@ frame_needed = 0, uses_anonymous_args = 0
  32              		@ link register save eliminated.
  41:main.c        ****    // Pin_Out_Write(Pin_Out_Read()^1U);
  42:main.c        ****     state_button = !state_button;
  33              		.loc 1 42 0
  34 0000 034A     		ldr	r2, .L2
  35 0002 1378     		ldrb	r3, [r2]	@ zero_extendqisi2
  36 0004 B3FA83F3 		clz	r3, r3
  37 0008 5B09     		lsrs	r3, r3, #5
  38 000a 1370     		strb	r3, [r2]
  39 000c 7047     		bx	lr
  40              	.L3:
  41 000e 00BF     		.align	2
  42              	.L2:
  43 0010 00000000 		.word	.LANCHOR0
  44              		.cfi_endproc
  45              	.LFE64:
  46              		.size	isr_button_handler, .-isr_button_handler
  47              		.global	__aeabi_i2d
  48              		.global	__aeabi_ddiv
  49              		.global	__aeabi_d2f
  50              		.global	__aeabi_fmul
  51              		.global	__aeabi_fdiv
  52              		.section	.text.isr_speed_handler,"ax",%progbits
  53              		.align	2
  54              		.global	isr_speed_handler
  55              		.thumb
  56              		.thumb_func
  57              		.type	isr_speed_handler, %function
  58              	isr_speed_handler:
  59              	.LFB65:
  43:main.c        **** 
  44:main.c        **** }
  45:main.c        **** 
  46:main.c        **** CY_ISR (isr_speed_handler){
  60              		.loc 1 46 0
  61              		.cfi_startproc
  62              		@ args = 0, pretend = 0, frame = 0
  63              		@ frame_needed = 0, uses_anonymous_args = 0
  64 0000 70B5     		push	{r4, r5, r6, lr}
  65              		.cfi_def_cfa_offset 16
  66              		.cfi_offset 4, -16
  67              		.cfi_offset 5, -12
  68              		.cfi_offset 6, -8
ARM GAS  C:\Users\JOSEAN~1\AppData\Local\Temp\ccyqfNNc.s 			page 3


  69              		.cfi_offset 14, -4
  70              	.LVL0:
  47:main.c        ****     /* Hay que averiguar por qué se ha dado la interrupción */
  48:main.c        ****     
  49:main.c        ****     /* Problema -> si leemos el registro se borra, entonces lo vamos a almacenar        *
  50:main.c        ****      * en un avariable intermedia de 8 bits para que aunque se borre, podemos comparar  *
  51:main.c        ****      * su valor en el segundo if                                                        *
  52:main.c        ****      */
  53:main.c        ****     uint8 status_register = 0x00;
  54:main.c        ****     
  55:main.c        ****     status_register = Timer_Speed_ReadStatusRegister(); //Se borra y se limpia la interrupción
  71              		.loc 1 55 0
  72 0002 FFF7FEFF 		bl	Timer_Speed_ReadStatusRegister
  73              	.LVL1:
  56:main.c        ****     
  57:main.c        ****     /*** INTERRUPCIÓN DEBIDA A TC ***/
  58:main.c        ****     
  59:main.c        ****     //Si la interrupción es porque ha llegado al final de la cuenta, y además el motor está en m
  60:main.c        ****     // de esta forma evitamos que el timer cuente cuando esté el motor parado y la variable se des
  61:main.c        ****      if ((status_register & Timer_Speed_STATUS_TC) && state_button){
  74              		.loc 1 61 0
  75 0006 10F0800F 		tst	r0, #128
  76 000a 07D0     		beq	.L5
  77              		.loc 1 61 0 is_stmt 0 discriminator 1
  78 000c 224B     		ldr	r3, .L9+8
  79 000e 1B78     		ldrb	r3, [r3]	@ zero_extendqisi2
  80 0010 23B1     		cbz	r3, .L5
  62:main.c        ****         periodos_count++;
  81              		.loc 1 62 0 is_stmt 1
  82 0012 214A     		ldr	r2, .L9+8
  83 0014 5388     		ldrh	r3, [r2, #2]
  84 0016 0133     		adds	r3, r3, #1
  85 0018 5380     		strh	r3, [r2, #2]	@ movhi
  86 001a 70BD     		pop	{r4, r5, r6, pc}
  87              	.L5:
  63:main.c        ****       // UART_PutString("\n\nTC\n\n");
  64:main.c        ****     }
  65:main.c        ****   
  66:main.c        ****     /*** INTERRUPCIÓN DEBIDA A CAPTURA ***/
  67:main.c        ****     
  68:main.c        ****     else if ((status_register & Timer_Speed_STATUS_CAPTURE) && state_button){
  88              		.loc 1 68 0
  89 001c 10F0400F 		tst	r0, #64
  90 0020 33D0     		beq	.L4
  91              		.loc 1 68 0 is_stmt 0 discriminator 1
  92 0022 1D4B     		ldr	r3, .L9+8
  93 0024 1B78     		ldrb	r3, [r3]	@ zero_extendqisi2
  94 0026 002B     		cmp	r3, #0
  95 0028 2FD0     		beq	.L4
  69:main.c        ****       //   UART_PutString("\n\nCAPTURE\n\n");
  70:main.c        ****         
  71:main.c        ****         if (first_turn){ //Es la primera vez
  96              		.loc 1 71 0 is_stmt 1
  97 002a 1C4B     		ldr	r3, .L9+12
  98 002c 1B78     		ldrb	r3, [r3]	@ zero_extendqisi2
  99 002e 3BB1     		cbz	r3, .L7
  72:main.c        ****             first_turn = FALSE; //Cambiamos variable para mostrar que la próxima vez ya no 
ARM GAS  C:\Users\JOSEAN~1\AppData\Local\Temp\ccyqfNNc.s 			page 4


 100              		.loc 1 72 0
 101 0030 0022     		movs	r2, #0
 102 0032 1A4B     		ldr	r3, .L9+12
 103 0034 1A70     		strb	r2, [r3]
  73:main.c        ****             //será la primera
  74:main.c        ****             T0 = Timer_Speed_ReadCapture(); //guardamos la captura, está en n*bits
 104              		.loc 1 74 0
 105 0036 FFF7FEFF 		bl	Timer_Speed_ReadCapture
 106              	.LVL2:
 107 003a 194B     		ldr	r3, .L9+16
 108 003c 1880     		strh	r0, [r3]	@ movhi
 109 003e 70BD     		pop	{r4, r5, r6, pc}
 110              	.LVL3:
 111              	.L7:
  75:main.c        ****         }else if (!first_turn){
 112              		.loc 1 75 0
 113 0040 1BBB     		cbnz	r3, .L4
  76:main.c        ****             // Si se produce la segunda catura se calcula el tiempo transcurrido desde que se dió 
  77:main.c        ****             T1 = Timer_Speed_ReadCapture();
 114              		.loc 1 77 0
 115 0042 FFF7FEFF 		bl	Timer_Speed_ReadCapture
 116              	.LVL4:
 117 0046 84B2     		uxth	r4, r0
 118 0048 164B     		ldr	r3, .L9+20
 119 004a 1C80     		strh	r4, [r3]	@ movhi
  78:main.c        ****             delay = ((T0+periodos_count*TIMER_PERIOD-T1)/CLK_SPEED);
 120              		.loc 1 78 0
 121 004c 124D     		ldr	r5, .L9+8
 122 004e 6888     		ldrh	r0, [r5, #2]
 123 0050 134E     		ldr	r6, .L9+16
 124 0052 3388     		ldrh	r3, [r6]
 125 0054 03EB0020 		add	r0, r3, r0, lsl #8
 126 0058 001B     		subs	r0, r0, r4
 127 005a FFF7FEFF 		bl	__aeabi_i2d
 128              	.LVL5:
 129 005e 0CA3     		adr	r3, .L9
 130 0060 D3E90023 		ldrd	r2, [r3]
 131 0064 FFF7FEFF 		bl	__aeabi_ddiv
 132              	.LVL6:
 133 0068 FFF7FEFF 		bl	__aeabi_d2f
 134              	.LVL7:
 135 006c 0E4B     		ldr	r3, .L9+24
 136 006e 1860     		str	r0, [r3]	@ float
  79:main.c        ****             T0 = T1; //Actualizamos T0
 137              		.loc 1 79 0
 138 0070 3480     		strh	r4, [r6]	@ movhi
  80:main.c        ****             periodos_count = 0; //Limpiamos variable que cuenta los períodos almacenados
 139              		.loc 1 80 0
 140 0072 0023     		movs	r3, #0
 141 0074 6B80     		strh	r3, [r5, #2]	@ movhi
  81:main.c        ****             w_real = 60.0/(P_POLOS*delay); //Vel obtenida [rpm]        
 142              		.loc 1 81 0
 143 0076 4FF08141 		mov	r1, #1082130432
 144 007a FFF7FEFF 		bl	__aeabi_fmul
 145              	.LVL8:
 146 007e 0146     		mov	r1, r0
 147 0080 0A48     		ldr	r0, .L9+28
ARM GAS  C:\Users\JOSEAN~1\AppData\Local\Temp\ccyqfNNc.s 			page 5


 148 0082 FFF7FEFF 		bl	__aeabi_fdiv
 149              	.LVL9:
 150 0086 0A4B     		ldr	r3, .L9+32
 151 0088 1860     		str	r0, [r3]	@ float
 152              	.L4:
 153 008a 70BD     		pop	{r4, r5, r6, pc}
 154              	.L10:
 155 008c AFF30080 		.align	3
 156              	.L9:
 157 0090 00000000 		.word	0
 158 0094 80842E41 		.word	1093567616
 159 0098 00000000 		.word	.LANCHOR0
 160 009c 00000000 		.word	.LANCHOR1
 161 00a0 00000000 		.word	T0
 162 00a4 00000000 		.word	T1
 163 00a8 00000000 		.word	delay
 164 00ac 00007042 		.word	1114636288
 165 00b0 00000000 		.word	w_real
 166              		.cfi_endproc
 167              	.LFE65:
 168              		.size	isr_speed_handler, .-isr_speed_handler
 169              		.global	__aeabi_f2d
 170              		.section	.text.main,"ax",%progbits
 171              		.align	2
 172              		.global	main
 173              		.thumb
 174              		.thumb_func
 175              		.type	main, %function
 176              	main:
 177              	.LFB66:
  82:main.c        ****         }
  83:main.c        ****         
  84:main.c        ****     }
  85:main.c        **** }
  86:main.c        **** 
  87:main.c        **** int main(void)
  88:main.c        **** {
 178              		.loc 1 88 0
 179              		.cfi_startproc
 180              		@ args = 0, pretend = 0, frame = 104
 181              		@ frame_needed = 0, uses_anonymous_args = 0
 182 0000 00B5     		push	{lr}
 183              		.cfi_def_cfa_offset 4
 184              		.cfi_offset 14, -4
 185 0002 9BB0     		sub	sp, sp, #108
 186              		.cfi_def_cfa_offset 112
  89:main.c        ****     char msg[100];
  90:main.c        ****     
  91:main.c        ****     CyGlobalIntEnable; /* Enable global interrupts. */
 187              		.loc 1 91 0
 188              		.syntax unified
 189              	@ 91 "main.c" 1
 190 0004 62B6     		CPSIE   i
 191              	@ 0 "" 2
  92:main.c        **** 
  93:main.c        ****     PWM_probe_Start();
 192              		.loc 1 93 0
ARM GAS  C:\Users\JOSEAN~1\AppData\Local\Temp\ccyqfNNc.s 			page 6


 193              		.thumb
 194              		.syntax unified
 195 0006 FFF7FEFF 		bl	PWM_probe_Start
 196              	.LVL10:
  94:main.c        ****     PWM_Driver_Start();
 197              		.loc 1 94 0
 198 000a FFF7FEFF 		bl	PWM_Driver_Start
 199              	.LVL11:
  95:main.c        ****     Timer_Speed_Start();
 200              		.loc 1 95 0
 201 000e FFF7FEFF 		bl	Timer_Speed_Start
 202              	.LVL12:
  96:main.c        ****     UART_Start();
 203              		.loc 1 96 0
 204 0012 FFF7FEFF 		bl	UART_Start
 205              	.LVL13:
  97:main.c        ****     
  98:main.c        ****     isr_speed_StartEx(isr_speed_handler);
 206              		.loc 1 98 0
 207 0016 1548     		ldr	r0, .L16
 208 0018 FFF7FEFF 		bl	isr_speed_StartEx
 209              	.LVL14:
  99:main.c        ****     isr_button_StartEx(isr_button_handler);
 210              		.loc 1 99 0
 211 001c 1448     		ldr	r0, .L16+4
 212 001e FFF7FEFF 		bl	isr_button_StartEx
 213              	.LVL15:
 100:main.c        ****             
 101:main.c        ****     Control_Reg_Write(0x00);
 214              		.loc 1 101 0
 215 0022 0020     		movs	r0, #0
 216 0024 FFF7FEFF 		bl	Control_Reg_Write
 217              	.LVL16:
 218              	.L13:
 102:main.c        ****     
 103:main.c        ****     for(;;)
 104:main.c        ****     {
 105:main.c        ****         if (state_button){
 219              		.loc 1 105 0
 220 0028 124B     		ldr	r3, .L16+8
 221 002a 1B78     		ldrb	r3, [r3]	@ zero_extendqisi2
 222 002c 93B1     		cbz	r3, .L12
 106:main.c        ****             Control_Reg_Write(0x03);
 223              		.loc 1 106 0
 224 002e 0320     		movs	r0, #3
 225 0030 FFF7FEFF 		bl	Control_Reg_Write
 226              	.LVL17:
 107:main.c        ****             Pin_LED_Write(1);
 227              		.loc 1 107 0
 228 0034 0120     		movs	r0, #1
 229 0036 FFF7FEFF 		bl	Pin_LED_Write
 230              	.LVL18:
 108:main.c        ****             sprintf(msg, "Velocidad angular: %0.2f rpm\n",w_real);
 231              		.loc 1 108 0
 232 003a 0F4B     		ldr	r3, .L16+12
 233 003c 1868     		ldr	r0, [r3]	@ float
 234 003e FFF7FEFF 		bl	__aeabi_f2d
ARM GAS  C:\Users\JOSEAN~1\AppData\Local\Temp\ccyqfNNc.s 			page 7


 235              	.LVL19:
 236 0042 0246     		mov	r2, r0
 237 0044 0B46     		mov	r3, r1
 238 0046 0D49     		ldr	r1, .L16+16
 239 0048 01A8     		add	r0, sp, #4
 240 004a FFF7FEFF 		bl	sprintf
 241              	.LVL20:
 109:main.c        ****             UART_PutString(msg);  
 242              		.loc 1 109 0
 243 004e 01A8     		add	r0, sp, #4
 244 0050 FFF7FEFF 		bl	UART_PutString
 245              	.LVL21:
 246              	.L12:
 110:main.c        ****         }if (state_button == 0){
 247              		.loc 1 110 0
 248 0054 074B     		ldr	r3, .L16+8
 249 0056 1B78     		ldrb	r3, [r3]	@ zero_extendqisi2
 250 0058 002B     		cmp	r3, #0
 251 005a E5D1     		bne	.L13
 111:main.c        ****             Control_Reg_Write(0x00);
 252              		.loc 1 111 0
 253 005c 0020     		movs	r0, #0
 254 005e FFF7FEFF 		bl	Control_Reg_Write
 255              	.LVL22:
 112:main.c        ****             Pin_LED_Write(0);       
 256              		.loc 1 112 0
 257 0062 0020     		movs	r0, #0
 258 0064 FFF7FEFF 		bl	Pin_LED_Write
 259              	.LVL23:
 260 0068 DEE7     		b	.L13
 261              	.L17:
 262 006a 00BF     		.align	2
 263              	.L16:
 264 006c 00000000 		.word	isr_speed_handler
 265 0070 00000000 		.word	isr_button_handler
 266 0074 00000000 		.word	.LANCHOR0
 267 0078 00000000 		.word	w_real
 268 007c 00000000 		.word	.LC0
 269              		.cfi_endproc
 270              	.LFE66:
 271              		.size	main, .-main
 272              		.comm	duty_perc,4,4
 273              		.comm	duty,1,1
 274              		.comm	w_ref,4,4
 275              		.comm	w_real,4,4
 276              		.comm	delay,4,4
 277              		.comm	T1,2,2
 278              		.comm	T0,2,2
 279              		.global	periodos_count
 280              		.global	first_time
 281              		.global	first_turn
 282              		.global	state_button
 283              		.data
 284              		.set	.LANCHOR1,. + 0
 285              		.type	first_turn, %object
 286              		.size	first_turn, 1
 287              	first_turn:
ARM GAS  C:\Users\JOSEAN~1\AppData\Local\Temp\ccyqfNNc.s 			page 8


 288 0000 01       		.byte	1
 289              		.type	first_time, %object
 290              		.size	first_time, 1
 291              	first_time:
 292 0001 01       		.byte	1
 293              		.section	.rodata.str1.4,"aMS",%progbits,1
 294              		.align	2
 295              	.LC0:
 296 0000 56656C6F 		.ascii	"Velocidad angular: %0.2f rpm\012\000"
 296      63696461 
 296      6420616E 
 296      67756C61 
 296      723A2025 
 297              		.bss
 298              		.align	1
 299              		.set	.LANCHOR0,. + 0
 300              		.type	state_button, %object
 301              		.size	state_button, 1
 302              	state_button:
 303 0000 00       		.space	1
 304 0001 00       		.space	1
 305              		.type	periodos_count, %object
 306              		.size	periodos_count, 2
 307              	periodos_count:
 308 0002 0000     		.space	2
 309              		.text
 310              	.Letext0:
 311              		.file 2 "c:\\program files (x86)\\cypress\\psoc creator\\4.2\\psoc creator\\import\\gnu\\arm\\5.4.
 312              		.file 3 "c:\\program files (x86)\\cypress\\psoc creator\\4.2\\psoc creator\\import\\gnu\\arm\\5.4.
 313              		.file 4 "Generated_Source\\PSoC5/cytypes.h"
 314              		.file 5 "Generated_Source\\PSoC5/core_cm3.h"
 315              		.file 6 "Generated_Source\\PSoC5/Timer_Speed.h"
 316              		.file 7 "Generated_Source\\PSoC5/PWM_probe.h"
 317              		.file 8 "Generated_Source\\PSoC5/PWM_Driver.h"
 318              		.file 9 "Generated_Source\\PSoC5/UART.h"
 319              		.file 10 "Generated_Source\\PSoC5/isr_speed.h"
 320              		.file 11 "Generated_Source\\PSoC5/isr_button.h"
 321              		.file 12 "Generated_Source\\PSoC5/Control_Reg.h"
 322              		.file 13 "Generated_Source\\PSoC5/Pin_LED.h"
 323              		.file 14 "c:\\program files (x86)\\cypress\\psoc creator\\4.2\\psoc creator\\import\\gnu\\arm\\5.4
 324              		.section	.debug_info,"",%progbits
 325              	.Ldebug_info0:
 326 0000 7C030000 		.4byte	0x37c
 327 0004 0400     		.2byte	0x4
 328 0006 00000000 		.4byte	.Ldebug_abbrev0
 329 000a 04       		.byte	0x4
 330 000b 01       		.uleb128 0x1
 331 000c DB010000 		.4byte	.LASF42
 332 0010 0C       		.byte	0xc
 333 0011 8A020000 		.4byte	.LASF43
 334 0015 41000000 		.4byte	.LASF44
 335 0019 00000000 		.4byte	.Ldebug_ranges0+0
 336 001d 00000000 		.4byte	0
 337 0021 00000000 		.4byte	.Ldebug_line0
 338 0025 02       		.uleb128 0x2
 339 0026 01       		.byte	0x1
 340 0027 06       		.byte	0x6
ARM GAS  C:\Users\JOSEAN~1\AppData\Local\Temp\ccyqfNNc.s 			page 9


 341 0028 F6020000 		.4byte	.LASF0
 342 002c 02       		.uleb128 0x2
 343 002d 01       		.byte	0x1
 344 002e 08       		.byte	0x8
 345 002f EB000000 		.4byte	.LASF1
 346 0033 02       		.uleb128 0x2
 347 0034 02       		.byte	0x2
 348 0035 05       		.byte	0x5
 349 0036 96020000 		.4byte	.LASF2
 350 003a 02       		.uleb128 0x2
 351 003b 02       		.byte	0x2
 352 003c 07       		.byte	0x7
 353 003d 0B010000 		.4byte	.LASF3
 354 0041 03       		.uleb128 0x3
 355 0042 37000000 		.4byte	.LASF9
 356 0046 02       		.byte	0x2
 357 0047 3F       		.byte	0x3f
 358 0048 4C000000 		.4byte	0x4c
 359 004c 02       		.uleb128 0x2
 360 004d 04       		.byte	0x4
 361 004e 05       		.byte	0x5
 362 004f BB000000 		.4byte	.LASF4
 363 0053 02       		.uleb128 0x2
 364 0054 04       		.byte	0x4
 365 0055 07       		.byte	0x7
 366 0056 F9000000 		.4byte	.LASF5
 367 005a 02       		.uleb128 0x2
 368 005b 08       		.byte	0x8
 369 005c 05       		.byte	0x5
 370 005d 7C020000 		.4byte	.LASF6
 371 0061 02       		.uleb128 0x2
 372 0062 08       		.byte	0x8
 373 0063 07       		.byte	0x7
 374 0064 B9010000 		.4byte	.LASF7
 375 0068 04       		.uleb128 0x4
 376 0069 04       		.byte	0x4
 377 006a 05       		.byte	0x5
 378 006b 696E7400 		.ascii	"int\000"
 379 006f 02       		.uleb128 0x2
 380 0070 04       		.byte	0x4
 381 0071 07       		.byte	0x7
 382 0072 9E010000 		.4byte	.LASF8
 383 0076 03       		.uleb128 0x3
 384 0077 D7000000 		.4byte	.LASF10
 385 007b 03       		.byte	0x3
 386 007c 2C       		.byte	0x2c
 387 007d 41000000 		.4byte	0x41
 388 0081 05       		.uleb128 0x5
 389 0082 B2020000 		.4byte	.LASF11
 390 0086 04       		.byte	0x4
 391 0087 E401     		.2byte	0x1e4
 392 0089 2C000000 		.4byte	0x2c
 393 008d 05       		.uleb128 0x5
 394 008e 8C010000 		.4byte	.LASF12
 395 0092 04       		.byte	0x4
 396 0093 E501     		.2byte	0x1e5
 397 0095 3A000000 		.4byte	0x3a
ARM GAS  C:\Users\JOSEAN~1\AppData\Local\Temp\ccyqfNNc.s 			page 10


 398 0099 02       		.uleb128 0x2
 399 009a 04       		.byte	0x4
 400 009b 04       		.byte	0x4
 401 009c DF000000 		.4byte	.LASF13
 402 00a0 02       		.uleb128 0x2
 403 00a1 08       		.byte	0x8
 404 00a2 04       		.byte	0x4
 405 00a3 D0000000 		.4byte	.LASF14
 406 00a7 02       		.uleb128 0x2
 407 00a8 01       		.byte	0x1
 408 00a9 08       		.byte	0x8
 409 00aa 91020000 		.4byte	.LASF15
 410 00ae 02       		.uleb128 0x2
 411 00af 08       		.byte	0x8
 412 00b0 04       		.byte	0x4
 413 00b1 7B010000 		.4byte	.LASF16
 414 00b5 02       		.uleb128 0x2
 415 00b6 04       		.byte	0x4
 416 00b7 07       		.byte	0x7
 417 00b8 73020000 		.4byte	.LASF17
 418 00bc 03       		.uleb128 0x3
 419 00bd C4000000 		.4byte	.LASF18
 420 00c1 01       		.byte	0x1
 421 00c2 10       		.byte	0x10
 422 00c3 2C000000 		.4byte	0x2c
 423 00c7 06       		.uleb128 0x6
 424 00c8 DD020000 		.4byte	.LASF45
 425 00cc 01       		.byte	0x1
 426 00cd 28       		.byte	0x28
 427 00ce 00000000 		.4byte	.LFB64
 428 00d2 14000000 		.4byte	.LFE64-.LFB64
 429 00d6 01       		.uleb128 0x1
 430 00d7 9C       		.byte	0x9c
 431 00d8 07       		.uleb128 0x7
 432 00d9 B8020000 		.4byte	.LASF46
 433 00dd 01       		.byte	0x1
 434 00de 2E       		.byte	0x2e
 435 00df 00000000 		.4byte	.LFB65
 436 00e3 B4000000 		.4byte	.LFE65-.LFB65
 437 00e7 01       		.uleb128 0x1
 438 00e8 9C       		.byte	0x9c
 439 00e9 18010000 		.4byte	0x118
 440 00ed 08       		.uleb128 0x8
 441 00ee 6B010000 		.4byte	.LASF19
 442 00f2 01       		.byte	0x1
 443 00f3 35       		.byte	0x35
 444 00f4 81000000 		.4byte	0x81
 445 00f8 00000000 		.4byte	.LLST0
 446 00fc 09       		.uleb128 0x9
 447 00fd 06000000 		.4byte	.LVL1
 448 0101 FB020000 		.4byte	0x2fb
 449 0105 09       		.uleb128 0x9
 450 0106 3A000000 		.4byte	.LVL2
 451 010a 06030000 		.4byte	0x306
 452 010e 09       		.uleb128 0x9
 453 010f 46000000 		.4byte	.LVL4
 454 0113 06030000 		.4byte	0x306
ARM GAS  C:\Users\JOSEAN~1\AppData\Local\Temp\ccyqfNNc.s 			page 11


 455 0117 00       		.byte	0
 456 0118 0A       		.uleb128 0xa
 457 0119 87010000 		.4byte	.LASF47
 458 011d 01       		.byte	0x1
 459 011e 57       		.byte	0x57
 460 011f 68000000 		.4byte	0x68
 461 0123 00000000 		.4byte	.LFB66
 462 0127 80000000 		.4byte	.LFE66-.LFB66
 463 012b 01       		.uleb128 0x1
 464 012c 9C       		.byte	0x9c
 465 012d 21020000 		.4byte	0x221
 466 0131 0B       		.uleb128 0xb
 467 0132 6D736700 		.ascii	"msg\000"
 468 0136 01       		.byte	0x1
 469 0137 59       		.byte	0x59
 470 0138 21020000 		.4byte	0x221
 471 013c 03       		.uleb128 0x3
 472 013d 91       		.byte	0x91
 473 013e 947F     		.sleb128 -108
 474 0140 09       		.uleb128 0x9
 475 0141 0A000000 		.4byte	.LVL10
 476 0145 11030000 		.4byte	0x311
 477 0149 09       		.uleb128 0x9
 478 014a 0E000000 		.4byte	.LVL11
 479 014e 1C030000 		.4byte	0x31c
 480 0152 09       		.uleb128 0x9
 481 0153 12000000 		.4byte	.LVL12
 482 0157 27030000 		.4byte	0x327
 483 015b 09       		.uleb128 0x9
 484 015c 16000000 		.4byte	.LVL13
 485 0160 32030000 		.4byte	0x332
 486 0164 0C       		.uleb128 0xc
 487 0165 1C000000 		.4byte	.LVL14
 488 0169 3D030000 		.4byte	0x33d
 489 016d 7B010000 		.4byte	0x17b
 490 0171 0D       		.uleb128 0xd
 491 0172 01       		.uleb128 0x1
 492 0173 50       		.byte	0x50
 493 0174 05       		.uleb128 0x5
 494 0175 03       		.byte	0x3
 495 0176 00000000 		.4byte	isr_speed_handler
 496 017a 00       		.byte	0
 497 017b 0C       		.uleb128 0xc
 498 017c 22000000 		.4byte	.LVL15
 499 0180 48030000 		.4byte	0x348
 500 0184 92010000 		.4byte	0x192
 501 0188 0D       		.uleb128 0xd
 502 0189 01       		.uleb128 0x1
 503 018a 50       		.byte	0x50
 504 018b 05       		.uleb128 0x5
 505 018c 03       		.byte	0x3
 506 018d 00000000 		.4byte	isr_button_handler
 507 0191 00       		.byte	0
 508 0192 0C       		.uleb128 0xc
 509 0193 28000000 		.4byte	.LVL16
 510 0197 53030000 		.4byte	0x353
 511 019b A5010000 		.4byte	0x1a5
ARM GAS  C:\Users\JOSEAN~1\AppData\Local\Temp\ccyqfNNc.s 			page 12


 512 019f 0D       		.uleb128 0xd
 513 01a0 01       		.uleb128 0x1
 514 01a1 50       		.byte	0x50
 515 01a2 01       		.uleb128 0x1
 516 01a3 30       		.byte	0x30
 517 01a4 00       		.byte	0
 518 01a5 0C       		.uleb128 0xc
 519 01a6 34000000 		.4byte	.LVL17
 520 01aa 53030000 		.4byte	0x353
 521 01ae B8010000 		.4byte	0x1b8
 522 01b2 0D       		.uleb128 0xd
 523 01b3 01       		.uleb128 0x1
 524 01b4 50       		.byte	0x50
 525 01b5 01       		.uleb128 0x1
 526 01b6 33       		.byte	0x33
 527 01b7 00       		.byte	0
 528 01b8 0C       		.uleb128 0xc
 529 01b9 3A000000 		.4byte	.LVL18
 530 01bd 5E030000 		.4byte	0x35e
 531 01c1 CB010000 		.4byte	0x1cb
 532 01c5 0D       		.uleb128 0xd
 533 01c6 01       		.uleb128 0x1
 534 01c7 50       		.byte	0x50
 535 01c8 01       		.uleb128 0x1
 536 01c9 31       		.byte	0x31
 537 01ca 00       		.byte	0
 538 01cb 0C       		.uleb128 0xc
 539 01cc 4E000000 		.4byte	.LVL20
 540 01d0 69030000 		.4byte	0x369
 541 01d4 E9010000 		.4byte	0x1e9
 542 01d8 0D       		.uleb128 0xd
 543 01d9 01       		.uleb128 0x1
 544 01da 50       		.byte	0x50
 545 01db 03       		.uleb128 0x3
 546 01dc 91       		.byte	0x91
 547 01dd 947F     		.sleb128 -108
 548 01df 0D       		.uleb128 0xd
 549 01e0 01       		.uleb128 0x1
 550 01e1 51       		.byte	0x51
 551 01e2 05       		.uleb128 0x5
 552 01e3 03       		.byte	0x3
 553 01e4 00000000 		.4byte	.LC0
 554 01e8 00       		.byte	0
 555 01e9 0C       		.uleb128 0xc
 556 01ea 54000000 		.4byte	.LVL21
 557 01ee 74030000 		.4byte	0x374
 558 01f2 FE010000 		.4byte	0x1fe
 559 01f6 0D       		.uleb128 0xd
 560 01f7 01       		.uleb128 0x1
 561 01f8 50       		.byte	0x50
 562 01f9 03       		.uleb128 0x3
 563 01fa 91       		.byte	0x91
 564 01fb 947F     		.sleb128 -108
 565 01fd 00       		.byte	0
 566 01fe 0C       		.uleb128 0xc
 567 01ff 62000000 		.4byte	.LVL22
 568 0203 53030000 		.4byte	0x353
ARM GAS  C:\Users\JOSEAN~1\AppData\Local\Temp\ccyqfNNc.s 			page 13


 569 0207 11020000 		.4byte	0x211
 570 020b 0D       		.uleb128 0xd
 571 020c 01       		.uleb128 0x1
 572 020d 50       		.byte	0x50
 573 020e 01       		.uleb128 0x1
 574 020f 30       		.byte	0x30
 575 0210 00       		.byte	0
 576 0211 0E       		.uleb128 0xe
 577 0212 68000000 		.4byte	.LVL23
 578 0216 5E030000 		.4byte	0x35e
 579 021a 0D       		.uleb128 0xd
 580 021b 01       		.uleb128 0x1
 581 021c 50       		.byte	0x50
 582 021d 01       		.uleb128 0x1
 583 021e 30       		.byte	0x30
 584 021f 00       		.byte	0
 585 0220 00       		.byte	0
 586 0221 0F       		.uleb128 0xf
 587 0222 A7000000 		.4byte	0xa7
 588 0226 31020000 		.4byte	0x231
 589 022a 10       		.uleb128 0x10
 590 022b B5000000 		.4byte	0xb5
 591 022f 63       		.byte	0x63
 592 0230 00       		.byte	0
 593 0231 11       		.uleb128 0x11
 594 0232 2E010000 		.4byte	.LASF20
 595 0236 05       		.byte	0x5
 596 0237 1207     		.2byte	0x712
 597 0239 3D020000 		.4byte	0x23d
 598 023d 12       		.uleb128 0x12
 599 023e 76000000 		.4byte	0x76
 600 0242 13       		.uleb128 0x13
 601 0243 2B030000 		.4byte	.LASF21
 602 0247 01       		.byte	0x1
 603 0248 14       		.byte	0x14
 604 0249 BC000000 		.4byte	0xbc
 605 024d 05       		.uleb128 0x5
 606 024e 03       		.byte	0x3
 607 024f 00000000 		.4byte	state_button
 608 0253 13       		.uleb128 0x13
 609 0254 93010000 		.4byte	.LASF22
 610 0258 01       		.byte	0x1
 611 0259 19       		.byte	0x19
 612 025a BC000000 		.4byte	0xbc
 613 025e 05       		.uleb128 0x5
 614 025f 03       		.byte	0x3
 615 0260 00000000 		.4byte	first_turn
 616 0264 13       		.uleb128 0x13
 617 0265 D0010000 		.4byte	.LASF23
 618 0269 01       		.byte	0x1
 619 026a 1A       		.byte	0x1a
 620 026b BC000000 		.4byte	0xbc
 621 026f 05       		.uleb128 0x5
 622 0270 03       		.byte	0x3
 623 0271 00000000 		.4byte	first_time
 624 0275 13       		.uleb128 0x13
 625 0276 3B010000 		.4byte	.LASF24
ARM GAS  C:\Users\JOSEAN~1\AppData\Local\Temp\ccyqfNNc.s 			page 14


 626 027a 01       		.byte	0x1
 627 027b 1B       		.byte	0x1b
 628 027c 8D000000 		.4byte	0x8d
 629 0280 05       		.uleb128 0x5
 630 0281 03       		.byte	0x3
 631 0282 00000000 		.4byte	periodos_count
 632 0286 14       		.uleb128 0x14
 633 0287 543000   		.ascii	"T0\000"
 634 028a 01       		.byte	0x1
 635 028b 1E       		.byte	0x1e
 636 028c 8D000000 		.4byte	0x8d
 637 0290 05       		.uleb128 0x5
 638 0291 03       		.byte	0x3
 639 0292 00000000 		.4byte	T0
 640 0296 14       		.uleb128 0x14
 641 0297 543100   		.ascii	"T1\000"
 642 029a 01       		.byte	0x1
 643 029b 1E       		.byte	0x1e
 644 029c 8D000000 		.4byte	0x8d
 645 02a0 05       		.uleb128 0x5
 646 02a1 03       		.byte	0x3
 647 02a2 00000000 		.4byte	T1
 648 02a6 13       		.uleb128 0x13
 649 02a7 E5000000 		.4byte	.LASF25
 650 02ab 01       		.byte	0x1
 651 02ac 1F       		.byte	0x1f
 652 02ad 99000000 		.4byte	0x99
 653 02b1 05       		.uleb128 0x5
 654 02b2 03       		.byte	0x3
 655 02b3 00000000 		.4byte	delay
 656 02b7 13       		.uleb128 0x13
 657 02b8 C9000000 		.4byte	.LASF26
 658 02bc 01       		.byte	0x1
 659 02bd 20       		.byte	0x20
 660 02be 99000000 		.4byte	0x99
 661 02c2 05       		.uleb128 0x5
 662 02c3 03       		.byte	0x3
 663 02c4 00000000 		.4byte	w_real
 664 02c8 13       		.uleb128 0x13
 665 02c9 F0020000 		.4byte	.LASF27
 666 02cd 01       		.byte	0x1
 667 02ce 21       		.byte	0x21
 668 02cf 99000000 		.4byte	0x99
 669 02d3 05       		.uleb128 0x5
 670 02d4 03       		.byte	0x3
 671 02d5 00000000 		.4byte	w_ref
 672 02d9 13       		.uleb128 0x13
 673 02da 29010000 		.4byte	.LASF28
 674 02de 01       		.byte	0x1
 675 02df 22       		.byte	0x22
 676 02e0 81000000 		.4byte	0x81
 677 02e4 05       		.uleb128 0x5
 678 02e5 03       		.byte	0x3
 679 02e6 00000000 		.4byte	duty
 680 02ea 13       		.uleb128 0x13
 681 02eb 69020000 		.4byte	.LASF29
 682 02ef 01       		.byte	0x1
ARM GAS  C:\Users\JOSEAN~1\AppData\Local\Temp\ccyqfNNc.s 			page 15


 683 02f0 23       		.byte	0x23
 684 02f1 99000000 		.4byte	0x99
 685 02f5 05       		.uleb128 0x5
 686 02f6 03       		.byte	0x3
 687 02f7 00000000 		.4byte	duty_perc
 688 02fb 15       		.uleb128 0x15
 689 02fc 00000000 		.4byte	.LASF30
 690 0300 00000000 		.4byte	.LASF30
 691 0304 06       		.byte	0x6
 692 0305 5E       		.byte	0x5e
 693 0306 15       		.uleb128 0x15
 694 0307 1F000000 		.4byte	.LASF31
 695 030b 1F000000 		.4byte	.LASF31
 696 030f 06       		.byte	0x6
 697 0310 6B       		.byte	0x6b
 698 0311 15       		.uleb128 0x15
 699 0312 4A010000 		.4byte	.LASF32
 700 0316 4A010000 		.4byte	.LASF32
 701 031a 07       		.byte	0x7
 702 031b 92       		.byte	0x92
 703 031c 15       		.uleb128 0x15
 704 031d 5A010000 		.4byte	.LASF33
 705 0321 5A010000 		.4byte	.LASF33
 706 0325 08       		.byte	0x8
 707 0326 92       		.byte	0x92
 708 0327 15       		.uleb128 0x15
 709 0328 A0020000 		.4byte	.LASF34
 710 032c A0020000 		.4byte	.LASF34
 711 0330 06       		.byte	0x6
 712 0331 5A       		.byte	0x5a
 713 0332 15       		.uleb128 0x15
 714 0333 1E010000 		.4byte	.LASF35
 715 0337 1E010000 		.4byte	.LASF35
 716 033b 09       		.byte	0x9
 717 033c 54       		.byte	0x54
 718 033d 15       		.uleb128 0x15
 719 033e 38030000 		.4byte	.LASF36
 720 0342 38030000 		.4byte	.LASF36
 721 0346 0A       		.byte	0xa
 722 0347 18       		.byte	0x18
 723 0348 15       		.uleb128 0x15
 724 0349 CA020000 		.4byte	.LASF37
 725 034d CA020000 		.4byte	.LASF37
 726 0351 0B       		.byte	0xb
 727 0352 18       		.byte	0x18
 728 0353 15       		.uleb128 0x15
 729 0354 11030000 		.4byte	.LASF38
 730 0358 11030000 		.4byte	.LASF38
 731 035c 0C       		.byte	0xc
 732 035d 2F       		.byte	0x2f
 733 035e 15       		.uleb128 0x15
 734 035f AB010000 		.4byte	.LASF39
 735 0363 AB010000 		.4byte	.LASF39
 736 0367 0D       		.byte	0xd
 737 0368 26       		.byte	0x26
 738 0369 15       		.uleb128 0x15
 739 036a 23030000 		.4byte	.LASF40
ARM GAS  C:\Users\JOSEAN~1\AppData\Local\Temp\ccyqfNNc.s 			page 16


 740 036e 23030000 		.4byte	.LASF40
 741 0372 0E       		.byte	0xe
 742 0373 E7       		.byte	0xe7
 743 0374 15       		.uleb128 0x15
 744 0375 02030000 		.4byte	.LASF41
 745 0379 02030000 		.4byte	.LASF41
 746 037d 09       		.byte	0x9
 747 037e 8B       		.byte	0x8b
 748 037f 00       		.byte	0
 749              		.section	.debug_abbrev,"",%progbits
 750              	.Ldebug_abbrev0:
 751 0000 01       		.uleb128 0x1
 752 0001 11       		.uleb128 0x11
 753 0002 01       		.byte	0x1
 754 0003 25       		.uleb128 0x25
 755 0004 0E       		.uleb128 0xe
 756 0005 13       		.uleb128 0x13
 757 0006 0B       		.uleb128 0xb
 758 0007 03       		.uleb128 0x3
 759 0008 0E       		.uleb128 0xe
 760 0009 1B       		.uleb128 0x1b
 761 000a 0E       		.uleb128 0xe
 762 000b 55       		.uleb128 0x55
 763 000c 17       		.uleb128 0x17
 764 000d 11       		.uleb128 0x11
 765 000e 01       		.uleb128 0x1
 766 000f 10       		.uleb128 0x10
 767 0010 17       		.uleb128 0x17
 768 0011 00       		.byte	0
 769 0012 00       		.byte	0
 770 0013 02       		.uleb128 0x2
 771 0014 24       		.uleb128 0x24
 772 0015 00       		.byte	0
 773 0016 0B       		.uleb128 0xb
 774 0017 0B       		.uleb128 0xb
 775 0018 3E       		.uleb128 0x3e
 776 0019 0B       		.uleb128 0xb
 777 001a 03       		.uleb128 0x3
 778 001b 0E       		.uleb128 0xe
 779 001c 00       		.byte	0
 780 001d 00       		.byte	0
 781 001e 03       		.uleb128 0x3
 782 001f 16       		.uleb128 0x16
 783 0020 00       		.byte	0
 784 0021 03       		.uleb128 0x3
 785 0022 0E       		.uleb128 0xe
 786 0023 3A       		.uleb128 0x3a
 787 0024 0B       		.uleb128 0xb
 788 0025 3B       		.uleb128 0x3b
 789 0026 0B       		.uleb128 0xb
 790 0027 49       		.uleb128 0x49
 791 0028 13       		.uleb128 0x13
 792 0029 00       		.byte	0
 793 002a 00       		.byte	0
 794 002b 04       		.uleb128 0x4
 795 002c 24       		.uleb128 0x24
 796 002d 00       		.byte	0
ARM GAS  C:\Users\JOSEAN~1\AppData\Local\Temp\ccyqfNNc.s 			page 17


 797 002e 0B       		.uleb128 0xb
 798 002f 0B       		.uleb128 0xb
 799 0030 3E       		.uleb128 0x3e
 800 0031 0B       		.uleb128 0xb
 801 0032 03       		.uleb128 0x3
 802 0033 08       		.uleb128 0x8
 803 0034 00       		.byte	0
 804 0035 00       		.byte	0
 805 0036 05       		.uleb128 0x5
 806 0037 16       		.uleb128 0x16
 807 0038 00       		.byte	0
 808 0039 03       		.uleb128 0x3
 809 003a 0E       		.uleb128 0xe
 810 003b 3A       		.uleb128 0x3a
 811 003c 0B       		.uleb128 0xb
 812 003d 3B       		.uleb128 0x3b
 813 003e 05       		.uleb128 0x5
 814 003f 49       		.uleb128 0x49
 815 0040 13       		.uleb128 0x13
 816 0041 00       		.byte	0
 817 0042 00       		.byte	0
 818 0043 06       		.uleb128 0x6
 819 0044 2E       		.uleb128 0x2e
 820 0045 00       		.byte	0
 821 0046 3F       		.uleb128 0x3f
 822 0047 19       		.uleb128 0x19
 823 0048 03       		.uleb128 0x3
 824 0049 0E       		.uleb128 0xe
 825 004a 3A       		.uleb128 0x3a
 826 004b 0B       		.uleb128 0xb
 827 004c 3B       		.uleb128 0x3b
 828 004d 0B       		.uleb128 0xb
 829 004e 27       		.uleb128 0x27
 830 004f 19       		.uleb128 0x19
 831 0050 11       		.uleb128 0x11
 832 0051 01       		.uleb128 0x1
 833 0052 12       		.uleb128 0x12
 834 0053 06       		.uleb128 0x6
 835 0054 40       		.uleb128 0x40
 836 0055 18       		.uleb128 0x18
 837 0056 9742     		.uleb128 0x2117
 838 0058 19       		.uleb128 0x19
 839 0059 00       		.byte	0
 840 005a 00       		.byte	0
 841 005b 07       		.uleb128 0x7
 842 005c 2E       		.uleb128 0x2e
 843 005d 01       		.byte	0x1
 844 005e 3F       		.uleb128 0x3f
 845 005f 19       		.uleb128 0x19
 846 0060 03       		.uleb128 0x3
 847 0061 0E       		.uleb128 0xe
 848 0062 3A       		.uleb128 0x3a
 849 0063 0B       		.uleb128 0xb
 850 0064 3B       		.uleb128 0x3b
 851 0065 0B       		.uleb128 0xb
 852 0066 27       		.uleb128 0x27
 853 0067 19       		.uleb128 0x19
ARM GAS  C:\Users\JOSEAN~1\AppData\Local\Temp\ccyqfNNc.s 			page 18


 854 0068 11       		.uleb128 0x11
 855 0069 01       		.uleb128 0x1
 856 006a 12       		.uleb128 0x12
 857 006b 06       		.uleb128 0x6
 858 006c 40       		.uleb128 0x40
 859 006d 18       		.uleb128 0x18
 860 006e 9642     		.uleb128 0x2116
 861 0070 19       		.uleb128 0x19
 862 0071 01       		.uleb128 0x1
 863 0072 13       		.uleb128 0x13
 864 0073 00       		.byte	0
 865 0074 00       		.byte	0
 866 0075 08       		.uleb128 0x8
 867 0076 34       		.uleb128 0x34
 868 0077 00       		.byte	0
 869 0078 03       		.uleb128 0x3
 870 0079 0E       		.uleb128 0xe
 871 007a 3A       		.uleb128 0x3a
 872 007b 0B       		.uleb128 0xb
 873 007c 3B       		.uleb128 0x3b
 874 007d 0B       		.uleb128 0xb
 875 007e 49       		.uleb128 0x49
 876 007f 13       		.uleb128 0x13
 877 0080 02       		.uleb128 0x2
 878 0081 17       		.uleb128 0x17
 879 0082 00       		.byte	0
 880 0083 00       		.byte	0
 881 0084 09       		.uleb128 0x9
 882 0085 898201   		.uleb128 0x4109
 883 0088 00       		.byte	0
 884 0089 11       		.uleb128 0x11
 885 008a 01       		.uleb128 0x1
 886 008b 31       		.uleb128 0x31
 887 008c 13       		.uleb128 0x13
 888 008d 00       		.byte	0
 889 008e 00       		.byte	0
 890 008f 0A       		.uleb128 0xa
 891 0090 2E       		.uleb128 0x2e
 892 0091 01       		.byte	0x1
 893 0092 3F       		.uleb128 0x3f
 894 0093 19       		.uleb128 0x19
 895 0094 03       		.uleb128 0x3
 896 0095 0E       		.uleb128 0xe
 897 0096 3A       		.uleb128 0x3a
 898 0097 0B       		.uleb128 0xb
 899 0098 3B       		.uleb128 0x3b
 900 0099 0B       		.uleb128 0xb
 901 009a 27       		.uleb128 0x27
 902 009b 19       		.uleb128 0x19
 903 009c 49       		.uleb128 0x49
 904 009d 13       		.uleb128 0x13
 905 009e 8701     		.uleb128 0x87
 906 00a0 19       		.uleb128 0x19
 907 00a1 11       		.uleb128 0x11
 908 00a2 01       		.uleb128 0x1
 909 00a3 12       		.uleb128 0x12
 910 00a4 06       		.uleb128 0x6
ARM GAS  C:\Users\JOSEAN~1\AppData\Local\Temp\ccyqfNNc.s 			page 19


 911 00a5 40       		.uleb128 0x40
 912 00a6 18       		.uleb128 0x18
 913 00a7 9642     		.uleb128 0x2116
 914 00a9 19       		.uleb128 0x19
 915 00aa 01       		.uleb128 0x1
 916 00ab 13       		.uleb128 0x13
 917 00ac 00       		.byte	0
 918 00ad 00       		.byte	0
 919 00ae 0B       		.uleb128 0xb
 920 00af 34       		.uleb128 0x34
 921 00b0 00       		.byte	0
 922 00b1 03       		.uleb128 0x3
 923 00b2 08       		.uleb128 0x8
 924 00b3 3A       		.uleb128 0x3a
 925 00b4 0B       		.uleb128 0xb
 926 00b5 3B       		.uleb128 0x3b
 927 00b6 0B       		.uleb128 0xb
 928 00b7 49       		.uleb128 0x49
 929 00b8 13       		.uleb128 0x13
 930 00b9 02       		.uleb128 0x2
 931 00ba 18       		.uleb128 0x18
 932 00bb 00       		.byte	0
 933 00bc 00       		.byte	0
 934 00bd 0C       		.uleb128 0xc
 935 00be 898201   		.uleb128 0x4109
 936 00c1 01       		.byte	0x1
 937 00c2 11       		.uleb128 0x11
 938 00c3 01       		.uleb128 0x1
 939 00c4 31       		.uleb128 0x31
 940 00c5 13       		.uleb128 0x13
 941 00c6 01       		.uleb128 0x1
 942 00c7 13       		.uleb128 0x13
 943 00c8 00       		.byte	0
 944 00c9 00       		.byte	0
 945 00ca 0D       		.uleb128 0xd
 946 00cb 8A8201   		.uleb128 0x410a
 947 00ce 00       		.byte	0
 948 00cf 02       		.uleb128 0x2
 949 00d0 18       		.uleb128 0x18
 950 00d1 9142     		.uleb128 0x2111
 951 00d3 18       		.uleb128 0x18
 952 00d4 00       		.byte	0
 953 00d5 00       		.byte	0
 954 00d6 0E       		.uleb128 0xe
 955 00d7 898201   		.uleb128 0x4109
 956 00da 01       		.byte	0x1
 957 00db 11       		.uleb128 0x11
 958 00dc 01       		.uleb128 0x1
 959 00dd 31       		.uleb128 0x31
 960 00de 13       		.uleb128 0x13
 961 00df 00       		.byte	0
 962 00e0 00       		.byte	0
 963 00e1 0F       		.uleb128 0xf
 964 00e2 01       		.uleb128 0x1
 965 00e3 01       		.byte	0x1
 966 00e4 49       		.uleb128 0x49
 967 00e5 13       		.uleb128 0x13
ARM GAS  C:\Users\JOSEAN~1\AppData\Local\Temp\ccyqfNNc.s 			page 20


 968 00e6 01       		.uleb128 0x1
 969 00e7 13       		.uleb128 0x13
 970 00e8 00       		.byte	0
 971 00e9 00       		.byte	0
 972 00ea 10       		.uleb128 0x10
 973 00eb 21       		.uleb128 0x21
 974 00ec 00       		.byte	0
 975 00ed 49       		.uleb128 0x49
 976 00ee 13       		.uleb128 0x13
 977 00ef 2F       		.uleb128 0x2f
 978 00f0 0B       		.uleb128 0xb
 979 00f1 00       		.byte	0
 980 00f2 00       		.byte	0
 981 00f3 11       		.uleb128 0x11
 982 00f4 34       		.uleb128 0x34
 983 00f5 00       		.byte	0
 984 00f6 03       		.uleb128 0x3
 985 00f7 0E       		.uleb128 0xe
 986 00f8 3A       		.uleb128 0x3a
 987 00f9 0B       		.uleb128 0xb
 988 00fa 3B       		.uleb128 0x3b
 989 00fb 05       		.uleb128 0x5
 990 00fc 49       		.uleb128 0x49
 991 00fd 13       		.uleb128 0x13
 992 00fe 3F       		.uleb128 0x3f
 993 00ff 19       		.uleb128 0x19
 994 0100 3C       		.uleb128 0x3c
 995 0101 19       		.uleb128 0x19
 996 0102 00       		.byte	0
 997 0103 00       		.byte	0
 998 0104 12       		.uleb128 0x12
 999 0105 35       		.uleb128 0x35
 1000 0106 00       		.byte	0
 1001 0107 49       		.uleb128 0x49
 1002 0108 13       		.uleb128 0x13
 1003 0109 00       		.byte	0
 1004 010a 00       		.byte	0
 1005 010b 13       		.uleb128 0x13
 1006 010c 34       		.uleb128 0x34
 1007 010d 00       		.byte	0
 1008 010e 03       		.uleb128 0x3
 1009 010f 0E       		.uleb128 0xe
 1010 0110 3A       		.uleb128 0x3a
 1011 0111 0B       		.uleb128 0xb
 1012 0112 3B       		.uleb128 0x3b
 1013 0113 0B       		.uleb128 0xb
 1014 0114 49       		.uleb128 0x49
 1015 0115 13       		.uleb128 0x13
 1016 0116 3F       		.uleb128 0x3f
 1017 0117 19       		.uleb128 0x19
 1018 0118 02       		.uleb128 0x2
 1019 0119 18       		.uleb128 0x18
 1020 011a 00       		.byte	0
 1021 011b 00       		.byte	0
 1022 011c 14       		.uleb128 0x14
 1023 011d 34       		.uleb128 0x34
 1024 011e 00       		.byte	0
ARM GAS  C:\Users\JOSEAN~1\AppData\Local\Temp\ccyqfNNc.s 			page 21


 1025 011f 03       		.uleb128 0x3
 1026 0120 08       		.uleb128 0x8
 1027 0121 3A       		.uleb128 0x3a
 1028 0122 0B       		.uleb128 0xb
 1029 0123 3B       		.uleb128 0x3b
 1030 0124 0B       		.uleb128 0xb
 1031 0125 49       		.uleb128 0x49
 1032 0126 13       		.uleb128 0x13
 1033 0127 3F       		.uleb128 0x3f
 1034 0128 19       		.uleb128 0x19
 1035 0129 02       		.uleb128 0x2
 1036 012a 18       		.uleb128 0x18
 1037 012b 00       		.byte	0
 1038 012c 00       		.byte	0
 1039 012d 15       		.uleb128 0x15
 1040 012e 2E       		.uleb128 0x2e
 1041 012f 00       		.byte	0
 1042 0130 3F       		.uleb128 0x3f
 1043 0131 19       		.uleb128 0x19
 1044 0132 3C       		.uleb128 0x3c
 1045 0133 19       		.uleb128 0x19
 1046 0134 6E       		.uleb128 0x6e
 1047 0135 0E       		.uleb128 0xe
 1048 0136 03       		.uleb128 0x3
 1049 0137 0E       		.uleb128 0xe
 1050 0138 3A       		.uleb128 0x3a
 1051 0139 0B       		.uleb128 0xb
 1052 013a 3B       		.uleb128 0x3b
 1053 013b 0B       		.uleb128 0xb
 1054 013c 00       		.byte	0
 1055 013d 00       		.byte	0
 1056 013e 00       		.byte	0
 1057              		.section	.debug_loc,"",%progbits
 1058              	.Ldebug_loc0:
 1059              	.LLST0:
 1060 0000 02000000 		.4byte	.LVL0
 1061 0004 06000000 		.4byte	.LVL1
 1062 0008 0200     		.2byte	0x2
 1063 000a 30       		.byte	0x30
 1064 000b 9F       		.byte	0x9f
 1065 000c 06000000 		.4byte	.LVL1
 1066 0010 39000000 		.4byte	.LVL2-1
 1067 0014 0100     		.2byte	0x1
 1068 0016 50       		.byte	0x50
 1069 0017 40000000 		.4byte	.LVL3
 1070 001b 45000000 		.4byte	.LVL4-1
 1071 001f 0100     		.2byte	0x1
 1072 0021 50       		.byte	0x50
 1073 0022 00000000 		.4byte	0
 1074 0026 00000000 		.4byte	0
 1075              		.section	.debug_aranges,"",%progbits
 1076 0000 2C000000 		.4byte	0x2c
 1077 0004 0200     		.2byte	0x2
 1078 0006 00000000 		.4byte	.Ldebug_info0
 1079 000a 04       		.byte	0x4
 1080 000b 00       		.byte	0
 1081 000c 0000     		.2byte	0
ARM GAS  C:\Users\JOSEAN~1\AppData\Local\Temp\ccyqfNNc.s 			page 22


 1082 000e 0000     		.2byte	0
 1083 0010 00000000 		.4byte	.LFB64
 1084 0014 14000000 		.4byte	.LFE64-.LFB64
 1085 0018 00000000 		.4byte	.LFB65
 1086 001c B4000000 		.4byte	.LFE65-.LFB65
 1087 0020 00000000 		.4byte	.LFB66
 1088 0024 80000000 		.4byte	.LFE66-.LFB66
 1089 0028 00000000 		.4byte	0
 1090 002c 00000000 		.4byte	0
 1091              		.section	.debug_ranges,"",%progbits
 1092              	.Ldebug_ranges0:
 1093 0000 00000000 		.4byte	.LFB64
 1094 0004 14000000 		.4byte	.LFE64
 1095 0008 00000000 		.4byte	.LFB65
 1096 000c B4000000 		.4byte	.LFE65
 1097 0010 00000000 		.4byte	.LFB66
 1098 0014 80000000 		.4byte	.LFE66
 1099 0018 00000000 		.4byte	0
 1100 001c 00000000 		.4byte	0
 1101              		.section	.debug_line,"",%progbits
 1102              	.Ldebug_line0:
 1103 0000 99020000 		.section	.debug_str,"MS",%progbits,1
 1103      02003602 
 1103      00000201 
 1103      FB0E0D00 
 1103      01010101 
 1104              	.LASF30:
 1105 0000 54696D65 		.ascii	"Timer_Speed_ReadStatusRegister\000"
 1105      725F5370 
 1105      6565645F 
 1105      52656164 
 1105      53746174 
 1106              	.LASF31:
 1107 001f 54696D65 		.ascii	"Timer_Speed_ReadCapture\000"
 1107      725F5370 
 1107      6565645F 
 1107      52656164 
 1107      43617074 
 1108              	.LASF9:
 1109 0037 5F5F696E 		.ascii	"__int32_t\000"
 1109      7433325F 
 1109      7400
 1110              	.LASF44:
 1111 0041 443A5C44 		.ascii	"D:\\Documentos\\UNIVERSIDAD\\TFG\\Application Notes"
 1111      6F63756D 
 1111      656E746F 
 1111      735C554E 
 1111      49564552 
 1112 0070 20792050 		.ascii	" y Proyectos\\Psoc5_proyectillos\\PruebaESC_Comerci"
 1112      726F7965 
 1112      63746F73 
 1112      5C50736F 
 1112      63355F70 
 1113 00a1 616C5C41 		.ascii	"al\\ActivacionMosfet.cydsn\000"
 1113      63746976 
 1113      6163696F 
 1113      6E4D6F73 
ARM GAS  C:\Users\JOSEAN~1\AppData\Local\Temp\ccyqfNNc.s 			page 23


 1113      6665742E 
 1114              	.LASF4:
 1115 00bb 6C6F6E67 		.ascii	"long int\000"
 1115      20696E74 
 1115      00
 1116              	.LASF18:
 1117 00c4 626F6F6C 		.ascii	"bool\000"
 1117      00
 1118              	.LASF26:
 1119 00c9 775F7265 		.ascii	"w_real\000"
 1119      616C00
 1120              	.LASF14:
 1121 00d0 646F7562 		.ascii	"double\000"
 1121      6C6500
 1122              	.LASF10:
 1123 00d7 696E7433 		.ascii	"int32_t\000"
 1123      325F7400 
 1124              	.LASF13:
 1125 00df 666C6F61 		.ascii	"float\000"
 1125      7400
 1126              	.LASF25:
 1127 00e5 64656C61 		.ascii	"delay\000"
 1127      7900
 1128              	.LASF1:
 1129 00eb 756E7369 		.ascii	"unsigned char\000"
 1129      676E6564 
 1129      20636861 
 1129      7200
 1130              	.LASF5:
 1131 00f9 6C6F6E67 		.ascii	"long unsigned int\000"
 1131      20756E73 
 1131      69676E65 
 1131      6420696E 
 1131      7400
 1132              	.LASF3:
 1133 010b 73686F72 		.ascii	"short unsigned int\000"
 1133      7420756E 
 1133      7369676E 
 1133      65642069 
 1133      6E7400
 1134              	.LASF35:
 1135 011e 55415254 		.ascii	"UART_Start\000"
 1135      5F537461 
 1135      727400
 1136              	.LASF28:
 1137 0129 64757479 		.ascii	"duty\000"
 1137      00
 1138              	.LASF20:
 1139 012e 49544D5F 		.ascii	"ITM_RxBuffer\000"
 1139      52784275 
 1139      66666572 
 1139      00
 1140              	.LASF24:
 1141 013b 70657269 		.ascii	"periodos_count\000"
 1141      6F646F73 
 1141      5F636F75 
 1141      6E7400
ARM GAS  C:\Users\JOSEAN~1\AppData\Local\Temp\ccyqfNNc.s 			page 24


 1142              	.LASF32:
 1143 014a 50574D5F 		.ascii	"PWM_probe_Start\000"
 1143      70726F62 
 1143      655F5374 
 1143      61727400 
 1144              	.LASF33:
 1145 015a 50574D5F 		.ascii	"PWM_Driver_Start\000"
 1145      44726976 
 1145      65725F53 
 1145      74617274 
 1145      00
 1146              	.LASF19:
 1147 016b 73746174 		.ascii	"status_register\000"
 1147      75735F72 
 1147      65676973 
 1147      74657200 
 1148              	.LASF16:
 1149 017b 6C6F6E67 		.ascii	"long double\000"
 1149      20646F75 
 1149      626C6500 
 1150              	.LASF47:
 1151 0187 6D61696E 		.ascii	"main\000"
 1151      00
 1152              	.LASF12:
 1153 018c 75696E74 		.ascii	"uint16\000"
 1153      313600
 1154              	.LASF22:
 1155 0193 66697273 		.ascii	"first_turn\000"
 1155      745F7475 
 1155      726E00
 1156              	.LASF8:
 1157 019e 756E7369 		.ascii	"unsigned int\000"
 1157      676E6564 
 1157      20696E74 
 1157      00
 1158              	.LASF39:
 1159 01ab 50696E5F 		.ascii	"Pin_LED_Write\000"
 1159      4C45445F 
 1159      57726974 
 1159      6500
 1160              	.LASF7:
 1161 01b9 6C6F6E67 		.ascii	"long long unsigned int\000"
 1161      206C6F6E 
 1161      6720756E 
 1161      7369676E 
 1161      65642069 
 1162              	.LASF23:
 1163 01d0 66697273 		.ascii	"first_time\000"
 1163      745F7469 
 1163      6D6500
 1164              	.LASF42:
 1165 01db 474E5520 		.ascii	"GNU C11 5.4.1 20160609 (release) [ARM/embedded-5-br"
 1165      43313120 
 1165      352E342E 
 1165      31203230 
 1165      31363036 
 1166 020e 616E6368 		.ascii	"anch revision 237715] -mcpu=cortex-m3 -mthumb -g -O"
ARM GAS  C:\Users\JOSEAN~1\AppData\Local\Temp\ccyqfNNc.s 			page 25


 1166      20726576 
 1166      6973696F 
 1166      6E203233 
 1166      37373135 
 1167 0241 67202D66 		.ascii	"g -ffunction-sections -ffat-lto-objects\000"
 1167      66756E63 
 1167      74696F6E 
 1167      2D736563 
 1167      74696F6E 
 1168              	.LASF29:
 1169 0269 64757479 		.ascii	"duty_perc\000"
 1169      5F706572 
 1169      6300
 1170              	.LASF17:
 1171 0273 73697A65 		.ascii	"sizetype\000"
 1171      74797065 
 1171      00
 1172              	.LASF6:
 1173 027c 6C6F6E67 		.ascii	"long long int\000"
 1173      206C6F6E 
 1173      6720696E 
 1173      7400
 1174              	.LASF43:
 1175 028a 6D61696E 		.ascii	"main.c\000"
 1175      2E6300
 1176              	.LASF15:
 1177 0291 63686172 		.ascii	"char\000"
 1177      00
 1178              	.LASF2:
 1179 0296 73686F72 		.ascii	"short int\000"
 1179      7420696E 
 1179      7400
 1180              	.LASF34:
 1181 02a0 54696D65 		.ascii	"Timer_Speed_Start\000"
 1181      725F5370 
 1181      6565645F 
 1181      53746172 
 1181      7400
 1182              	.LASF11:
 1183 02b2 75696E74 		.ascii	"uint8\000"
 1183      3800
 1184              	.LASF46:
 1185 02b8 6973725F 		.ascii	"isr_speed_handler\000"
 1185      73706565 
 1185      645F6861 
 1185      6E646C65 
 1185      7200
 1186              	.LASF37:
 1187 02ca 6973725F 		.ascii	"isr_button_StartEx\000"
 1187      62757474 
 1187      6F6E5F53 
 1187      74617274 
 1187      457800
 1188              	.LASF45:
 1189 02dd 6973725F 		.ascii	"isr_button_handler\000"
 1189      62757474 
 1189      6F6E5F68 
ARM GAS  C:\Users\JOSEAN~1\AppData\Local\Temp\ccyqfNNc.s 			page 26


 1189      616E646C 
 1189      657200
 1190              	.LASF27:
 1191 02f0 775F7265 		.ascii	"w_ref\000"
 1191      6600
 1192              	.LASF0:
 1193 02f6 7369676E 		.ascii	"signed char\000"
 1193      65642063 
 1193      68617200 
 1194              	.LASF41:
 1195 0302 55415254 		.ascii	"UART_PutString\000"
 1195      5F507574 
 1195      53747269 
 1195      6E6700
 1196              	.LASF38:
 1197 0311 436F6E74 		.ascii	"Control_Reg_Write\000"
 1197      726F6C5F 
 1197      5265675F 
 1197      57726974 
 1197      6500
 1198              	.LASF40:
 1199 0323 73707269 		.ascii	"sprintf\000"
 1199      6E746600 
 1200              	.LASF21:
 1201 032b 73746174 		.ascii	"state_button\000"
 1201      655F6275 
 1201      74746F6E 
 1201      00
 1202              	.LASF36:
 1203 0338 6973725F 		.ascii	"isr_speed_StartEx\000"
 1203      73706565 
 1203      645F5374 
 1203      61727445 
 1203      7800
 1204              		.ident	"GCC: (GNU Tools for ARM Embedded Processors) 5.4.1 20160609 (release) [ARM/embedded-5-bran
