ARM GAS  C:\Users\JOSEAN~1\AppData\Local\Temp\cctph3Gx.s 			page 1


   1              		.syntax unified
   2              		.cpu cortex-m0
   3              		.fpu softvfp
   4              		.eabi_attribute 20, 1
   5              		.eabi_attribute 21, 1
   6              		.eabi_attribute 23, 3
   7              		.eabi_attribute 24, 1
   8              		.eabi_attribute 25, 1
   9              		.eabi_attribute 26, 1
  10              		.eabi_attribute 30, 1
  11              		.eabi_attribute 34, 0
  12              		.eabi_attribute 18, 4
  13              		.thumb
  14              		.syntax unified
  15              		.file	"isr_speed.c"
  16              		.text
  17              	.Ltext0:
  18              		.cfi_sections	.debug_frame
  19              		.section	.text.isr_speed_Interrupt,"ax",%progbits
  20              		.align	2
  21              		.global	isr_speed_Interrupt
  22              		.code	16
  23              		.thumb_func
  24              		.type	isr_speed_Interrupt, %function
  25              	isr_speed_Interrupt:
  26              	.LFB3:
  27              		.file 1 "Generated_Source\\PSoC4\\isr_speed.c"
   1:Generated_Source\PSoC4/isr_speed.c **** /*******************************************************************************
   2:Generated_Source\PSoC4/isr_speed.c **** * File Name: isr_speed.c  
   3:Generated_Source\PSoC4/isr_speed.c **** * Version 1.70
   4:Generated_Source\PSoC4/isr_speed.c **** *
   5:Generated_Source\PSoC4/isr_speed.c **** *  Description:
   6:Generated_Source\PSoC4/isr_speed.c **** *   API for controlling the state of an interrupt.
   7:Generated_Source\PSoC4/isr_speed.c **** *
   8:Generated_Source\PSoC4/isr_speed.c **** *
   9:Generated_Source\PSoC4/isr_speed.c **** *  Note:
  10:Generated_Source\PSoC4/isr_speed.c **** *
  11:Generated_Source\PSoC4/isr_speed.c **** ********************************************************************************
  12:Generated_Source\PSoC4/isr_speed.c **** * Copyright 2008-2015, Cypress Semiconductor Corporation.  All rights reserved.
  13:Generated_Source\PSoC4/isr_speed.c **** * You may use this file only in accordance with the license, terms, conditions, 
  14:Generated_Source\PSoC4/isr_speed.c **** * disclaimers, and limitations in the end user license agreement accompanying 
  15:Generated_Source\PSoC4/isr_speed.c **** * the software package with which this file was provided.
  16:Generated_Source\PSoC4/isr_speed.c **** *******************************************************************************/
  17:Generated_Source\PSoC4/isr_speed.c **** 
  18:Generated_Source\PSoC4/isr_speed.c **** 
  19:Generated_Source\PSoC4/isr_speed.c **** #include <cydevice_trm.h>
  20:Generated_Source\PSoC4/isr_speed.c **** #include <CyLib.h>
  21:Generated_Source\PSoC4/isr_speed.c **** #include <isr_speed.h>
  22:Generated_Source\PSoC4/isr_speed.c **** #include "cyapicallbacks.h"
  23:Generated_Source\PSoC4/isr_speed.c **** 
  24:Generated_Source\PSoC4/isr_speed.c **** #if !defined(isr_speed__REMOVED) /* Check for removal by optimization */
  25:Generated_Source\PSoC4/isr_speed.c **** 
  26:Generated_Source\PSoC4/isr_speed.c **** /*******************************************************************************
  27:Generated_Source\PSoC4/isr_speed.c **** *  Place your includes, defines and code here 
  28:Generated_Source\PSoC4/isr_speed.c **** ********************************************************************************/
  29:Generated_Source\PSoC4/isr_speed.c **** /* `#START isr_speed_intc` */
  30:Generated_Source\PSoC4/isr_speed.c **** 
ARM GAS  C:\Users\JOSEAN~1\AppData\Local\Temp\cctph3Gx.s 			page 2


  31:Generated_Source\PSoC4/isr_speed.c **** /* `#END` */
  32:Generated_Source\PSoC4/isr_speed.c **** 
  33:Generated_Source\PSoC4/isr_speed.c **** extern cyisraddress CyRamVectors[CYINT_IRQ_BASE + CY_NUM_INTERRUPTS];
  34:Generated_Source\PSoC4/isr_speed.c **** 
  35:Generated_Source\PSoC4/isr_speed.c **** /* Declared in startup, used to set unused interrupts to. */
  36:Generated_Source\PSoC4/isr_speed.c **** CY_ISR_PROTO(IntDefaultHandler);
  37:Generated_Source\PSoC4/isr_speed.c **** 
  38:Generated_Source\PSoC4/isr_speed.c **** 
  39:Generated_Source\PSoC4/isr_speed.c **** /*******************************************************************************
  40:Generated_Source\PSoC4/isr_speed.c **** * Function Name: isr_speed_Start
  41:Generated_Source\PSoC4/isr_speed.c **** ********************************************************************************
  42:Generated_Source\PSoC4/isr_speed.c **** *
  43:Generated_Source\PSoC4/isr_speed.c **** * Summary:
  44:Generated_Source\PSoC4/isr_speed.c **** *  Set up the interrupt and enable it. This function disables the interrupt, 
  45:Generated_Source\PSoC4/isr_speed.c **** *  sets the default interrupt vector, sets the priority from the value in the
  46:Generated_Source\PSoC4/isr_speed.c **** *  Design Wide Resources Interrupt Editor, then enables the interrupt to the 
  47:Generated_Source\PSoC4/isr_speed.c **** *  interrupt controller.
  48:Generated_Source\PSoC4/isr_speed.c **** *
  49:Generated_Source\PSoC4/isr_speed.c **** * Parameters:  
  50:Generated_Source\PSoC4/isr_speed.c **** *   None
  51:Generated_Source\PSoC4/isr_speed.c **** *
  52:Generated_Source\PSoC4/isr_speed.c **** * Return:
  53:Generated_Source\PSoC4/isr_speed.c **** *   None
  54:Generated_Source\PSoC4/isr_speed.c **** *
  55:Generated_Source\PSoC4/isr_speed.c **** *******************************************************************************/
  56:Generated_Source\PSoC4/isr_speed.c **** void isr_speed_Start(void)
  57:Generated_Source\PSoC4/isr_speed.c **** {
  58:Generated_Source\PSoC4/isr_speed.c ****     /* For all we know the interrupt is active. */
  59:Generated_Source\PSoC4/isr_speed.c ****     isr_speed_Disable();
  60:Generated_Source\PSoC4/isr_speed.c **** 
  61:Generated_Source\PSoC4/isr_speed.c ****     /* Set the ISR to point to the isr_speed Interrupt. */
  62:Generated_Source\PSoC4/isr_speed.c ****     isr_speed_SetVector(&isr_speed_Interrupt);
  63:Generated_Source\PSoC4/isr_speed.c **** 
  64:Generated_Source\PSoC4/isr_speed.c ****     /* Set the priority. */
  65:Generated_Source\PSoC4/isr_speed.c ****     isr_speed_SetPriority((uint8)isr_speed_INTC_PRIOR_NUMBER);
  66:Generated_Source\PSoC4/isr_speed.c **** 
  67:Generated_Source\PSoC4/isr_speed.c ****     /* Enable it. */
  68:Generated_Source\PSoC4/isr_speed.c ****     isr_speed_Enable();
  69:Generated_Source\PSoC4/isr_speed.c **** }
  70:Generated_Source\PSoC4/isr_speed.c **** 
  71:Generated_Source\PSoC4/isr_speed.c **** 
  72:Generated_Source\PSoC4/isr_speed.c **** /*******************************************************************************
  73:Generated_Source\PSoC4/isr_speed.c **** * Function Name: isr_speed_StartEx
  74:Generated_Source\PSoC4/isr_speed.c **** ********************************************************************************
  75:Generated_Source\PSoC4/isr_speed.c **** *
  76:Generated_Source\PSoC4/isr_speed.c **** * Summary:
  77:Generated_Source\PSoC4/isr_speed.c **** *  Sets up the interrupt and enables it. This function disables the interrupt,
  78:Generated_Source\PSoC4/isr_speed.c **** *  sets the interrupt vector based on the address passed in, sets the priority 
  79:Generated_Source\PSoC4/isr_speed.c **** *  from the value in the Design Wide Resources Interrupt Editor, then enables 
  80:Generated_Source\PSoC4/isr_speed.c **** *  the interrupt to the interrupt controller.
  81:Generated_Source\PSoC4/isr_speed.c **** *  
  82:Generated_Source\PSoC4/isr_speed.c **** *  When defining ISR functions, the CY_ISR and CY_ISR_PROTO macros should be 
  83:Generated_Source\PSoC4/isr_speed.c **** *  used to provide consistent definition across compilers:
  84:Generated_Source\PSoC4/isr_speed.c **** *  
  85:Generated_Source\PSoC4/isr_speed.c **** *  Function definition example:
  86:Generated_Source\PSoC4/isr_speed.c **** *   CY_ISR(MyISR)
  87:Generated_Source\PSoC4/isr_speed.c **** *   {
ARM GAS  C:\Users\JOSEAN~1\AppData\Local\Temp\cctph3Gx.s 			page 3


  88:Generated_Source\PSoC4/isr_speed.c **** *   }
  89:Generated_Source\PSoC4/isr_speed.c **** *   Function prototype example:
  90:Generated_Source\PSoC4/isr_speed.c **** *   CY_ISR_PROTO(MyISR);
  91:Generated_Source\PSoC4/isr_speed.c **** *
  92:Generated_Source\PSoC4/isr_speed.c **** * Parameters:  
  93:Generated_Source\PSoC4/isr_speed.c **** *   address: Address of the ISR to set in the interrupt vector table.
  94:Generated_Source\PSoC4/isr_speed.c **** *
  95:Generated_Source\PSoC4/isr_speed.c **** * Return:
  96:Generated_Source\PSoC4/isr_speed.c **** *   None
  97:Generated_Source\PSoC4/isr_speed.c **** *
  98:Generated_Source\PSoC4/isr_speed.c **** *******************************************************************************/
  99:Generated_Source\PSoC4/isr_speed.c **** void isr_speed_StartEx(cyisraddress address)
 100:Generated_Source\PSoC4/isr_speed.c **** {
 101:Generated_Source\PSoC4/isr_speed.c ****     /* For all we know the interrupt is active. */
 102:Generated_Source\PSoC4/isr_speed.c ****     isr_speed_Disable();
 103:Generated_Source\PSoC4/isr_speed.c **** 
 104:Generated_Source\PSoC4/isr_speed.c ****     /* Set the ISR to point to the isr_speed Interrupt. */
 105:Generated_Source\PSoC4/isr_speed.c ****     isr_speed_SetVector(address);
 106:Generated_Source\PSoC4/isr_speed.c **** 
 107:Generated_Source\PSoC4/isr_speed.c ****     /* Set the priority. */
 108:Generated_Source\PSoC4/isr_speed.c ****     isr_speed_SetPriority((uint8)isr_speed_INTC_PRIOR_NUMBER);
 109:Generated_Source\PSoC4/isr_speed.c **** 
 110:Generated_Source\PSoC4/isr_speed.c ****     /* Enable it. */
 111:Generated_Source\PSoC4/isr_speed.c ****     isr_speed_Enable();
 112:Generated_Source\PSoC4/isr_speed.c **** }
 113:Generated_Source\PSoC4/isr_speed.c **** 
 114:Generated_Source\PSoC4/isr_speed.c **** 
 115:Generated_Source\PSoC4/isr_speed.c **** /*******************************************************************************
 116:Generated_Source\PSoC4/isr_speed.c **** * Function Name: isr_speed_Stop
 117:Generated_Source\PSoC4/isr_speed.c **** ********************************************************************************
 118:Generated_Source\PSoC4/isr_speed.c **** *
 119:Generated_Source\PSoC4/isr_speed.c **** * Summary:
 120:Generated_Source\PSoC4/isr_speed.c **** *   Disables and removes the interrupt.
 121:Generated_Source\PSoC4/isr_speed.c **** *
 122:Generated_Source\PSoC4/isr_speed.c **** * Parameters:  
 123:Generated_Source\PSoC4/isr_speed.c **** *   None
 124:Generated_Source\PSoC4/isr_speed.c **** *
 125:Generated_Source\PSoC4/isr_speed.c **** * Return:
 126:Generated_Source\PSoC4/isr_speed.c **** *   None
 127:Generated_Source\PSoC4/isr_speed.c **** *
 128:Generated_Source\PSoC4/isr_speed.c **** *******************************************************************************/
 129:Generated_Source\PSoC4/isr_speed.c **** void isr_speed_Stop(void)
 130:Generated_Source\PSoC4/isr_speed.c **** {
 131:Generated_Source\PSoC4/isr_speed.c ****     /* Disable this interrupt. */
 132:Generated_Source\PSoC4/isr_speed.c ****     isr_speed_Disable();
 133:Generated_Source\PSoC4/isr_speed.c **** 
 134:Generated_Source\PSoC4/isr_speed.c ****     /* Set the ISR to point to the passive one. */
 135:Generated_Source\PSoC4/isr_speed.c ****     isr_speed_SetVector(&IntDefaultHandler);
 136:Generated_Source\PSoC4/isr_speed.c **** }
 137:Generated_Source\PSoC4/isr_speed.c **** 
 138:Generated_Source\PSoC4/isr_speed.c **** 
 139:Generated_Source\PSoC4/isr_speed.c **** /*******************************************************************************
 140:Generated_Source\PSoC4/isr_speed.c **** * Function Name: isr_speed_Interrupt
 141:Generated_Source\PSoC4/isr_speed.c **** ********************************************************************************
 142:Generated_Source\PSoC4/isr_speed.c **** *
 143:Generated_Source\PSoC4/isr_speed.c **** * Summary:
 144:Generated_Source\PSoC4/isr_speed.c **** *   The default Interrupt Service Routine for isr_speed.
ARM GAS  C:\Users\JOSEAN~1\AppData\Local\Temp\cctph3Gx.s 			page 4


 145:Generated_Source\PSoC4/isr_speed.c **** *
 146:Generated_Source\PSoC4/isr_speed.c **** *   Add custom code between the START and END comments to keep the next version
 147:Generated_Source\PSoC4/isr_speed.c **** *   of this file from over-writing your code.
 148:Generated_Source\PSoC4/isr_speed.c **** *
 149:Generated_Source\PSoC4/isr_speed.c **** *   Note You may use either the default ISR by using this API, or you may define
 150:Generated_Source\PSoC4/isr_speed.c **** *   your own separate ISR through ISR_StartEx().
 151:Generated_Source\PSoC4/isr_speed.c **** *
 152:Generated_Source\PSoC4/isr_speed.c **** * Parameters:  
 153:Generated_Source\PSoC4/isr_speed.c **** *   None
 154:Generated_Source\PSoC4/isr_speed.c **** *
 155:Generated_Source\PSoC4/isr_speed.c **** * Return:
 156:Generated_Source\PSoC4/isr_speed.c **** *   None
 157:Generated_Source\PSoC4/isr_speed.c **** *
 158:Generated_Source\PSoC4/isr_speed.c **** *******************************************************************************/
 159:Generated_Source\PSoC4/isr_speed.c **** CY_ISR(isr_speed_Interrupt)
 160:Generated_Source\PSoC4/isr_speed.c **** {
  28              		.loc 1 160 0
  29              		.cfi_startproc
  30              		@ args = 0, pretend = 0, frame = 0
  31              		@ frame_needed = 0, uses_anonymous_args = 0
  32              		@ link register save eliminated.
 161:Generated_Source\PSoC4/isr_speed.c ****     #ifdef isr_speed_INTERRUPT_INTERRUPT_CALLBACK
 162:Generated_Source\PSoC4/isr_speed.c ****         isr_speed_Interrupt_InterruptCallback();
 163:Generated_Source\PSoC4/isr_speed.c ****     #endif /* isr_speed_INTERRUPT_INTERRUPT_CALLBACK */ 
 164:Generated_Source\PSoC4/isr_speed.c **** 
 165:Generated_Source\PSoC4/isr_speed.c ****     /*  Place your Interrupt code here. */
 166:Generated_Source\PSoC4/isr_speed.c ****     /* `#START isr_speed_Interrupt` */
 167:Generated_Source\PSoC4/isr_speed.c **** 
 168:Generated_Source\PSoC4/isr_speed.c ****     /* `#END` */
 169:Generated_Source\PSoC4/isr_speed.c **** }
  33              		.loc 1 169 0
  34              		@ sp needed
  35 0000 7047     		bx	lr
  36              		.cfi_endproc
  37              	.LFE3:
  38              		.size	isr_speed_Interrupt, .-isr_speed_Interrupt
  39 0002 C046     		.section	.text.isr_speed_SetVector,"ax",%progbits
  40              		.align	2
  41              		.global	isr_speed_SetVector
  42              		.code	16
  43              		.thumb_func
  44              		.type	isr_speed_SetVector, %function
  45              	isr_speed_SetVector:
  46              	.LFB4:
 170:Generated_Source\PSoC4/isr_speed.c **** 
 171:Generated_Source\PSoC4/isr_speed.c **** 
 172:Generated_Source\PSoC4/isr_speed.c **** /*******************************************************************************
 173:Generated_Source\PSoC4/isr_speed.c **** * Function Name: isr_speed_SetVector
 174:Generated_Source\PSoC4/isr_speed.c **** ********************************************************************************
 175:Generated_Source\PSoC4/isr_speed.c **** *
 176:Generated_Source\PSoC4/isr_speed.c **** * Summary:
 177:Generated_Source\PSoC4/isr_speed.c **** *   Change the ISR vector for the Interrupt. Note calling isr_speed_Start
 178:Generated_Source\PSoC4/isr_speed.c **** *   will override any effect this method would have had. To set the vector 
 179:Generated_Source\PSoC4/isr_speed.c **** *   before the component has been started use isr_speed_StartEx instead.
 180:Generated_Source\PSoC4/isr_speed.c **** * 
 181:Generated_Source\PSoC4/isr_speed.c **** *   When defining ISR functions, the CY_ISR and CY_ISR_PROTO macros should be 
 182:Generated_Source\PSoC4/isr_speed.c **** *   used to provide consistent definition across compilers:
ARM GAS  C:\Users\JOSEAN~1\AppData\Local\Temp\cctph3Gx.s 			page 5


 183:Generated_Source\PSoC4/isr_speed.c **** *
 184:Generated_Source\PSoC4/isr_speed.c **** *   Function definition example:
 185:Generated_Source\PSoC4/isr_speed.c **** *   CY_ISR(MyISR)
 186:Generated_Source\PSoC4/isr_speed.c **** *   {
 187:Generated_Source\PSoC4/isr_speed.c **** *   }
 188:Generated_Source\PSoC4/isr_speed.c **** *
 189:Generated_Source\PSoC4/isr_speed.c **** *   Function prototype example:
 190:Generated_Source\PSoC4/isr_speed.c **** *     CY_ISR_PROTO(MyISR);
 191:Generated_Source\PSoC4/isr_speed.c **** *
 192:Generated_Source\PSoC4/isr_speed.c **** * Parameters:
 193:Generated_Source\PSoC4/isr_speed.c **** *   address: Address of the ISR to set in the interrupt vector table.
 194:Generated_Source\PSoC4/isr_speed.c **** *
 195:Generated_Source\PSoC4/isr_speed.c **** * Return:
 196:Generated_Source\PSoC4/isr_speed.c **** *   None
 197:Generated_Source\PSoC4/isr_speed.c **** *
 198:Generated_Source\PSoC4/isr_speed.c **** *******************************************************************************/
 199:Generated_Source\PSoC4/isr_speed.c **** void isr_speed_SetVector(cyisraddress address)
 200:Generated_Source\PSoC4/isr_speed.c **** {
  47              		.loc 1 200 0
  48              		.cfi_startproc
  49              		@ args = 0, pretend = 0, frame = 0
  50              		@ frame_needed = 0, uses_anonymous_args = 0
  51              		@ link register save eliminated.
  52              	.LVL0:
 201:Generated_Source\PSoC4/isr_speed.c ****     CyRamVectors[CYINT_IRQ_BASE + isr_speed__INTC_NUMBER] = address;
  53              		.loc 1 201 0
  54 0000 8023     		movs	r3, #128
  55 0002 014A     		ldr	r2, .L3
  56 0004 D050     		str	r0, [r2, r3]
 202:Generated_Source\PSoC4/isr_speed.c **** }
  57              		.loc 1 202 0
  58              		@ sp needed
  59 0006 7047     		bx	lr
  60              	.L4:
  61              		.align	2
  62              	.L3:
  63 0008 00000000 		.word	CyRamVectors
  64              		.cfi_endproc
  65              	.LFE4:
  66              		.size	isr_speed_SetVector, .-isr_speed_SetVector
  67              		.section	.text.isr_speed_GetVector,"ax",%progbits
  68              		.align	2
  69              		.global	isr_speed_GetVector
  70              		.code	16
  71              		.thumb_func
  72              		.type	isr_speed_GetVector, %function
  73              	isr_speed_GetVector:
  74              	.LFB5:
 203:Generated_Source\PSoC4/isr_speed.c **** 
 204:Generated_Source\PSoC4/isr_speed.c **** 
 205:Generated_Source\PSoC4/isr_speed.c **** /*******************************************************************************
 206:Generated_Source\PSoC4/isr_speed.c **** * Function Name: isr_speed_GetVector
 207:Generated_Source\PSoC4/isr_speed.c **** ********************************************************************************
 208:Generated_Source\PSoC4/isr_speed.c **** *
 209:Generated_Source\PSoC4/isr_speed.c **** * Summary:
 210:Generated_Source\PSoC4/isr_speed.c **** *   Gets the "address" of the current ISR vector for the Interrupt.
 211:Generated_Source\PSoC4/isr_speed.c **** *
ARM GAS  C:\Users\JOSEAN~1\AppData\Local\Temp\cctph3Gx.s 			page 6


 212:Generated_Source\PSoC4/isr_speed.c **** * Parameters:
 213:Generated_Source\PSoC4/isr_speed.c **** *   None
 214:Generated_Source\PSoC4/isr_speed.c **** *
 215:Generated_Source\PSoC4/isr_speed.c **** * Return:
 216:Generated_Source\PSoC4/isr_speed.c **** *   Address of the ISR in the interrupt vector table.
 217:Generated_Source\PSoC4/isr_speed.c **** *
 218:Generated_Source\PSoC4/isr_speed.c **** *******************************************************************************/
 219:Generated_Source\PSoC4/isr_speed.c **** cyisraddress isr_speed_GetVector(void)
 220:Generated_Source\PSoC4/isr_speed.c **** {
  75              		.loc 1 220 0
  76              		.cfi_startproc
  77              		@ args = 0, pretend = 0, frame = 0
  78              		@ frame_needed = 0, uses_anonymous_args = 0
  79              		@ link register save eliminated.
 221:Generated_Source\PSoC4/isr_speed.c ****     return CyRamVectors[CYINT_IRQ_BASE + isr_speed__INTC_NUMBER];
  80              		.loc 1 221 0
  81 0000 8023     		movs	r3, #128
  82 0002 014A     		ldr	r2, .L6
  83 0004 D058     		ldr	r0, [r2, r3]
 222:Generated_Source\PSoC4/isr_speed.c **** }
  84              		.loc 1 222 0
  85              		@ sp needed
  86 0006 7047     		bx	lr
  87              	.L7:
  88              		.align	2
  89              	.L6:
  90 0008 00000000 		.word	CyRamVectors
  91              		.cfi_endproc
  92              	.LFE5:
  93              		.size	isr_speed_GetVector, .-isr_speed_GetVector
  94              		.section	.text.isr_speed_SetPriority,"ax",%progbits
  95              		.align	2
  96              		.global	isr_speed_SetPriority
  97              		.code	16
  98              		.thumb_func
  99              		.type	isr_speed_SetPriority, %function
 100              	isr_speed_SetPriority:
 101              	.LFB6:
 223:Generated_Source\PSoC4/isr_speed.c **** 
 224:Generated_Source\PSoC4/isr_speed.c **** 
 225:Generated_Source\PSoC4/isr_speed.c **** /*******************************************************************************
 226:Generated_Source\PSoC4/isr_speed.c **** * Function Name: isr_speed_SetPriority
 227:Generated_Source\PSoC4/isr_speed.c **** ********************************************************************************
 228:Generated_Source\PSoC4/isr_speed.c **** *
 229:Generated_Source\PSoC4/isr_speed.c **** * Summary:
 230:Generated_Source\PSoC4/isr_speed.c **** *   Sets the Priority of the Interrupt. 
 231:Generated_Source\PSoC4/isr_speed.c **** *
 232:Generated_Source\PSoC4/isr_speed.c **** *   Note calling isr_speed_Start or isr_speed_StartEx will 
 233:Generated_Source\PSoC4/isr_speed.c **** *   override any effect this API would have had. This API should only be called
 234:Generated_Source\PSoC4/isr_speed.c **** *   after isr_speed_Start or isr_speed_StartEx has been called. 
 235:Generated_Source\PSoC4/isr_speed.c **** *   To set the initial priority for the component, use the Design-Wide Resources
 236:Generated_Source\PSoC4/isr_speed.c **** *   Interrupt Editor.
 237:Generated_Source\PSoC4/isr_speed.c **** *
 238:Generated_Source\PSoC4/isr_speed.c **** *   Note This API has no effect on Non-maskable interrupt NMI).
 239:Generated_Source\PSoC4/isr_speed.c **** *
 240:Generated_Source\PSoC4/isr_speed.c **** * Parameters:
 241:Generated_Source\PSoC4/isr_speed.c **** *   priority: Priority of the interrupt, 0 being the highest priority
ARM GAS  C:\Users\JOSEAN~1\AppData\Local\Temp\cctph3Gx.s 			page 7


 242:Generated_Source\PSoC4/isr_speed.c **** *             PSoC 3 and PSoC 5LP: Priority is from 0 to 7.
 243:Generated_Source\PSoC4/isr_speed.c **** *             PSoC 4: Priority is from 0 to 3.
 244:Generated_Source\PSoC4/isr_speed.c **** *
 245:Generated_Source\PSoC4/isr_speed.c **** * Return:
 246:Generated_Source\PSoC4/isr_speed.c **** *   None
 247:Generated_Source\PSoC4/isr_speed.c **** *
 248:Generated_Source\PSoC4/isr_speed.c **** *******************************************************************************/
 249:Generated_Source\PSoC4/isr_speed.c **** void isr_speed_SetPriority(uint8 priority)
 250:Generated_Source\PSoC4/isr_speed.c **** {
 102              		.loc 1 250 0
 103              		.cfi_startproc
 104              		@ args = 0, pretend = 0, frame = 0
 105              		@ frame_needed = 0, uses_anonymous_args = 0
 106              	.LVL1:
 107 0000 10B5     		push	{r4, lr}
 108              		.cfi_def_cfa_offset 8
 109              		.cfi_offset 4, -8
 110              		.cfi_offset 14, -4
 111 0002 0400     		movs	r4, r0
 112              	.LVL2:
 251:Generated_Source\PSoC4/isr_speed.c **** 	uint8 interruptState;
 252:Generated_Source\PSoC4/isr_speed.c ****     uint32 priorityOffset = ((isr_speed__INTC_NUMBER % 4u) * 8u) + 6u;
 253:Generated_Source\PSoC4/isr_speed.c ****     
 254:Generated_Source\PSoC4/isr_speed.c **** 	interruptState = CyEnterCriticalSection();
 113              		.loc 1 254 0
 114 0004 FFF7FEFF 		bl	CyEnterCriticalSection
 115              	.LVL3:
 255:Generated_Source\PSoC4/isr_speed.c ****     *isr_speed_INTC_PRIOR = (*isr_speed_INTC_PRIOR & (uint32)(~isr_speed__INTC_PRIOR_MASK)) |
 116              		.loc 1 255 0
 117 0008 044A     		ldr	r2, .L9
 118 000a 1368     		ldr	r3, [r2]
 119 000c C021     		movs	r1, #192
 120 000e 8B43     		bics	r3, r1
 256:Generated_Source\PSoC4/isr_speed.c ****                                     ((uint32)priority << priorityOffset);
 121              		.loc 1 256 0
 122 0010 A401     		lsls	r4, r4, #6
 255:Generated_Source\PSoC4/isr_speed.c ****     *isr_speed_INTC_PRIOR = (*isr_speed_INTC_PRIOR & (uint32)(~isr_speed__INTC_PRIOR_MASK)) |
 123              		.loc 1 255 0
 124 0012 1C43     		orrs	r4, r3
 125 0014 1460     		str	r4, [r2]
 257:Generated_Source\PSoC4/isr_speed.c **** 	CyExitCriticalSection(interruptState);
 126              		.loc 1 257 0
 127 0016 FFF7FEFF 		bl	CyExitCriticalSection
 128              	.LVL4:
 258:Generated_Source\PSoC4/isr_speed.c **** }
 129              		.loc 1 258 0
 130              		@ sp needed
 131 001a 10BD     		pop	{r4, pc}
 132              	.L10:
 133              		.align	2
 134              	.L9:
 135 001c 10E400E0 		.word	-536812528
 136              		.cfi_endproc
 137              	.LFE6:
 138              		.size	isr_speed_SetPriority, .-isr_speed_SetPriority
 139              		.section	.text.isr_speed_GetPriority,"ax",%progbits
 140              		.align	2
ARM GAS  C:\Users\JOSEAN~1\AppData\Local\Temp\cctph3Gx.s 			page 8


 141              		.global	isr_speed_GetPriority
 142              		.code	16
 143              		.thumb_func
 144              		.type	isr_speed_GetPriority, %function
 145              	isr_speed_GetPriority:
 146              	.LFB7:
 259:Generated_Source\PSoC4/isr_speed.c **** 
 260:Generated_Source\PSoC4/isr_speed.c **** 
 261:Generated_Source\PSoC4/isr_speed.c **** /*******************************************************************************
 262:Generated_Source\PSoC4/isr_speed.c **** * Function Name: isr_speed_GetPriority
 263:Generated_Source\PSoC4/isr_speed.c **** ********************************************************************************
 264:Generated_Source\PSoC4/isr_speed.c **** *
 265:Generated_Source\PSoC4/isr_speed.c **** * Summary:
 266:Generated_Source\PSoC4/isr_speed.c **** *   Gets the Priority of the Interrupt.
 267:Generated_Source\PSoC4/isr_speed.c **** *
 268:Generated_Source\PSoC4/isr_speed.c **** * Parameters:
 269:Generated_Source\PSoC4/isr_speed.c **** *   None
 270:Generated_Source\PSoC4/isr_speed.c **** *
 271:Generated_Source\PSoC4/isr_speed.c **** * Return:
 272:Generated_Source\PSoC4/isr_speed.c **** *   Priority of the interrupt, 0 being the highest priority
 273:Generated_Source\PSoC4/isr_speed.c **** *    PSoC 3 and PSoC 5LP: Priority is from 0 to 7.
 274:Generated_Source\PSoC4/isr_speed.c **** *    PSoC 4: Priority is from 0 to 3.
 275:Generated_Source\PSoC4/isr_speed.c **** *
 276:Generated_Source\PSoC4/isr_speed.c **** *******************************************************************************/
 277:Generated_Source\PSoC4/isr_speed.c **** uint8 isr_speed_GetPriority(void)
 278:Generated_Source\PSoC4/isr_speed.c **** {
 147              		.loc 1 278 0
 148              		.cfi_startproc
 149              		@ args = 0, pretend = 0, frame = 0
 150              		@ frame_needed = 0, uses_anonymous_args = 0
 151              		@ link register save eliminated.
 152              	.LVL5:
 279:Generated_Source\PSoC4/isr_speed.c ****     uint32 priority;
 280:Generated_Source\PSoC4/isr_speed.c **** 	uint32 priorityOffset = ((isr_speed__INTC_NUMBER % 4u) * 8u) + 6u;
 281:Generated_Source\PSoC4/isr_speed.c **** 
 282:Generated_Source\PSoC4/isr_speed.c ****     priority = (*isr_speed_INTC_PRIOR & isr_speed__INTC_PRIOR_MASK) >> priorityOffset;
 153              		.loc 1 282 0
 154 0000 024B     		ldr	r3, .L12
 155 0002 1868     		ldr	r0, [r3]
 156 0004 8009     		lsrs	r0, r0, #6
 157              	.LVL6:
 283:Generated_Source\PSoC4/isr_speed.c **** 
 284:Generated_Source\PSoC4/isr_speed.c ****     return (uint8)priority;
 158              		.loc 1 284 0
 159 0006 0323     		movs	r3, #3
 160 0008 1840     		ands	r0, r3
 161              	.LVL7:
 285:Generated_Source\PSoC4/isr_speed.c **** }
 162              		.loc 1 285 0
 163              		@ sp needed
 164 000a 7047     		bx	lr
 165              	.L13:
 166              		.align	2
 167              	.L12:
 168 000c 10E400E0 		.word	-536812528
 169              		.cfi_endproc
 170              	.LFE7:
ARM GAS  C:\Users\JOSEAN~1\AppData\Local\Temp\cctph3Gx.s 			page 9


 171              		.size	isr_speed_GetPriority, .-isr_speed_GetPriority
 172              		.section	.text.isr_speed_Enable,"ax",%progbits
 173              		.align	2
 174              		.global	isr_speed_Enable
 175              		.code	16
 176              		.thumb_func
 177              		.type	isr_speed_Enable, %function
 178              	isr_speed_Enable:
 179              	.LFB8:
 286:Generated_Source\PSoC4/isr_speed.c **** 
 287:Generated_Source\PSoC4/isr_speed.c **** 
 288:Generated_Source\PSoC4/isr_speed.c **** /*******************************************************************************
 289:Generated_Source\PSoC4/isr_speed.c **** * Function Name: isr_speed_Enable
 290:Generated_Source\PSoC4/isr_speed.c **** ********************************************************************************
 291:Generated_Source\PSoC4/isr_speed.c **** *
 292:Generated_Source\PSoC4/isr_speed.c **** * Summary:
 293:Generated_Source\PSoC4/isr_speed.c **** *   Enables the interrupt to the interrupt controller. Do not call this function
 294:Generated_Source\PSoC4/isr_speed.c **** *   unless ISR_Start() has been called or the functionality of the ISR_Start() 
 295:Generated_Source\PSoC4/isr_speed.c **** *   function, which sets the vector and the priority, has been called.
 296:Generated_Source\PSoC4/isr_speed.c **** *
 297:Generated_Source\PSoC4/isr_speed.c **** * Parameters:
 298:Generated_Source\PSoC4/isr_speed.c **** *   None
 299:Generated_Source\PSoC4/isr_speed.c **** *
 300:Generated_Source\PSoC4/isr_speed.c **** * Return:
 301:Generated_Source\PSoC4/isr_speed.c **** *   None
 302:Generated_Source\PSoC4/isr_speed.c **** *
 303:Generated_Source\PSoC4/isr_speed.c **** *******************************************************************************/
 304:Generated_Source\PSoC4/isr_speed.c **** void isr_speed_Enable(void)
 305:Generated_Source\PSoC4/isr_speed.c **** {
 180              		.loc 1 305 0
 181              		.cfi_startproc
 182              		@ args = 0, pretend = 0, frame = 0
 183              		@ frame_needed = 0, uses_anonymous_args = 0
 184              		@ link register save eliminated.
 306:Generated_Source\PSoC4/isr_speed.c ****     /* Enable the general interrupt. */
 307:Generated_Source\PSoC4/isr_speed.c ****     *isr_speed_INTC_SET_EN = isr_speed__INTC_MASK;
 185              		.loc 1 307 0
 186 0000 8022     		movs	r2, #128
 187 0002 5202     		lsls	r2, r2, #9
 188 0004 014B     		ldr	r3, .L15
 189 0006 1A60     		str	r2, [r3]
 308:Generated_Source\PSoC4/isr_speed.c **** }
 190              		.loc 1 308 0
 191              		@ sp needed
 192 0008 7047     		bx	lr
 193              	.L16:
 194 000a C046     		.align	2
 195              	.L15:
 196 000c 00E100E0 		.word	-536813312
 197              		.cfi_endproc
 198              	.LFE8:
 199              		.size	isr_speed_Enable, .-isr_speed_Enable
 200              		.section	.text.isr_speed_GetState,"ax",%progbits
 201              		.align	2
 202              		.global	isr_speed_GetState
 203              		.code	16
 204              		.thumb_func
ARM GAS  C:\Users\JOSEAN~1\AppData\Local\Temp\cctph3Gx.s 			page 10


 205              		.type	isr_speed_GetState, %function
 206              	isr_speed_GetState:
 207              	.LFB9:
 309:Generated_Source\PSoC4/isr_speed.c **** 
 310:Generated_Source\PSoC4/isr_speed.c **** 
 311:Generated_Source\PSoC4/isr_speed.c **** /*******************************************************************************
 312:Generated_Source\PSoC4/isr_speed.c **** * Function Name: isr_speed_GetState
 313:Generated_Source\PSoC4/isr_speed.c **** ********************************************************************************
 314:Generated_Source\PSoC4/isr_speed.c **** *
 315:Generated_Source\PSoC4/isr_speed.c **** * Summary:
 316:Generated_Source\PSoC4/isr_speed.c **** *   Gets the state (enabled, disabled) of the Interrupt.
 317:Generated_Source\PSoC4/isr_speed.c **** *
 318:Generated_Source\PSoC4/isr_speed.c **** * Parameters:
 319:Generated_Source\PSoC4/isr_speed.c **** *   None
 320:Generated_Source\PSoC4/isr_speed.c **** *
 321:Generated_Source\PSoC4/isr_speed.c **** * Return:
 322:Generated_Source\PSoC4/isr_speed.c **** *   1 if enabled, 0 if disabled.
 323:Generated_Source\PSoC4/isr_speed.c **** *
 324:Generated_Source\PSoC4/isr_speed.c **** *******************************************************************************/
 325:Generated_Source\PSoC4/isr_speed.c **** uint8 isr_speed_GetState(void)
 326:Generated_Source\PSoC4/isr_speed.c **** {
 208              		.loc 1 326 0
 209              		.cfi_startproc
 210              		@ args = 0, pretend = 0, frame = 0
 211              		@ frame_needed = 0, uses_anonymous_args = 0
 212              		@ link register save eliminated.
 327:Generated_Source\PSoC4/isr_speed.c ****     /* Get the state of the general interrupt. */
 328:Generated_Source\PSoC4/isr_speed.c ****     return ((*isr_speed_INTC_SET_EN & (uint32)isr_speed__INTC_MASK) != 0u) ? 1u:0u;
 213              		.loc 1 328 0
 214 0000 034B     		ldr	r3, .L20
 215 0002 1B68     		ldr	r3, [r3]
 216 0004 DB03     		lsls	r3, r3, #15
 217 0006 01D5     		bpl	.L19
 218 0008 0120     		movs	r0, #1
 219 000a 00E0     		b	.L18
 220              	.L19:
 221 000c 0020     		movs	r0, #0
 222              	.L18:
 329:Generated_Source\PSoC4/isr_speed.c **** }
 223              		.loc 1 329 0 discriminator 4
 224              		@ sp needed
 225 000e 7047     		bx	lr
 226              	.L21:
 227              		.align	2
 228              	.L20:
 229 0010 00E100E0 		.word	-536813312
 230              		.cfi_endproc
 231              	.LFE9:
 232              		.size	isr_speed_GetState, .-isr_speed_GetState
 233              		.section	.text.isr_speed_Disable,"ax",%progbits
 234              		.align	2
 235              		.global	isr_speed_Disable
 236              		.code	16
 237              		.thumb_func
 238              		.type	isr_speed_Disable, %function
 239              	isr_speed_Disable:
 240              	.LFB10:
ARM GAS  C:\Users\JOSEAN~1\AppData\Local\Temp\cctph3Gx.s 			page 11


 330:Generated_Source\PSoC4/isr_speed.c **** 
 331:Generated_Source\PSoC4/isr_speed.c **** 
 332:Generated_Source\PSoC4/isr_speed.c **** /*******************************************************************************
 333:Generated_Source\PSoC4/isr_speed.c **** * Function Name: isr_speed_Disable
 334:Generated_Source\PSoC4/isr_speed.c **** ********************************************************************************
 335:Generated_Source\PSoC4/isr_speed.c **** *
 336:Generated_Source\PSoC4/isr_speed.c **** * Summary:
 337:Generated_Source\PSoC4/isr_speed.c **** *   Disables the Interrupt in the interrupt controller.
 338:Generated_Source\PSoC4/isr_speed.c **** *
 339:Generated_Source\PSoC4/isr_speed.c **** * Parameters:
 340:Generated_Source\PSoC4/isr_speed.c **** *   None
 341:Generated_Source\PSoC4/isr_speed.c **** *
 342:Generated_Source\PSoC4/isr_speed.c **** * Return:
 343:Generated_Source\PSoC4/isr_speed.c **** *   None
 344:Generated_Source\PSoC4/isr_speed.c **** *
 345:Generated_Source\PSoC4/isr_speed.c **** *******************************************************************************/
 346:Generated_Source\PSoC4/isr_speed.c **** void isr_speed_Disable(void)
 347:Generated_Source\PSoC4/isr_speed.c **** {
 241              		.loc 1 347 0
 242              		.cfi_startproc
 243              		@ args = 0, pretend = 0, frame = 0
 244              		@ frame_needed = 0, uses_anonymous_args = 0
 245              		@ link register save eliminated.
 348:Generated_Source\PSoC4/isr_speed.c ****     /* Disable the general interrupt. */
 349:Generated_Source\PSoC4/isr_speed.c ****     *isr_speed_INTC_CLR_EN = isr_speed__INTC_MASK;
 246              		.loc 1 349 0
 247 0000 8022     		movs	r2, #128
 248 0002 5202     		lsls	r2, r2, #9
 249 0004 014B     		ldr	r3, .L23
 250 0006 1A60     		str	r2, [r3]
 350:Generated_Source\PSoC4/isr_speed.c **** }
 251              		.loc 1 350 0
 252              		@ sp needed
 253 0008 7047     		bx	lr
 254              	.L24:
 255 000a C046     		.align	2
 256              	.L23:
 257 000c 80E100E0 		.word	-536813184
 258              		.cfi_endproc
 259              	.LFE10:
 260              		.size	isr_speed_Disable, .-isr_speed_Disable
 261              		.section	.text.isr_speed_Start,"ax",%progbits
 262              		.align	2
 263              		.global	isr_speed_Start
 264              		.code	16
 265              		.thumb_func
 266              		.type	isr_speed_Start, %function
 267              	isr_speed_Start:
 268              	.LFB0:
  57:Generated_Source\PSoC4/isr_speed.c ****     /* For all we know the interrupt is active. */
 269              		.loc 1 57 0
 270              		.cfi_startproc
 271              		@ args = 0, pretend = 0, frame = 0
 272              		@ frame_needed = 0, uses_anonymous_args = 0
 273 0000 10B5     		push	{r4, lr}
 274              		.cfi_def_cfa_offset 8
 275              		.cfi_offset 4, -8
ARM GAS  C:\Users\JOSEAN~1\AppData\Local\Temp\cctph3Gx.s 			page 12


 276              		.cfi_offset 14, -4
  59:Generated_Source\PSoC4/isr_speed.c **** 
 277              		.loc 1 59 0
 278 0002 FFF7FEFF 		bl	isr_speed_Disable
 279              	.LVL8:
  62:Generated_Source\PSoC4/isr_speed.c **** 
 280              		.loc 1 62 0
 281 0006 0448     		ldr	r0, .L26
 282 0008 FFF7FEFF 		bl	isr_speed_SetVector
 283              	.LVL9:
  65:Generated_Source\PSoC4/isr_speed.c **** 
 284              		.loc 1 65 0
 285 000c 0120     		movs	r0, #1
 286 000e FFF7FEFF 		bl	isr_speed_SetPriority
 287              	.LVL10:
  68:Generated_Source\PSoC4/isr_speed.c **** }
 288              		.loc 1 68 0
 289 0012 FFF7FEFF 		bl	isr_speed_Enable
 290              	.LVL11:
  69:Generated_Source\PSoC4/isr_speed.c **** 
 291              		.loc 1 69 0
 292              		@ sp needed
 293 0016 10BD     		pop	{r4, pc}
 294              	.L27:
 295              		.align	2
 296              	.L26:
 297 0018 00000000 		.word	isr_speed_Interrupt
 298              		.cfi_endproc
 299              	.LFE0:
 300              		.size	isr_speed_Start, .-isr_speed_Start
 301              		.section	.text.isr_speed_StartEx,"ax",%progbits
 302              		.align	2
 303              		.global	isr_speed_StartEx
 304              		.code	16
 305              		.thumb_func
 306              		.type	isr_speed_StartEx, %function
 307              	isr_speed_StartEx:
 308              	.LFB1:
 100:Generated_Source\PSoC4/isr_speed.c ****     /* For all we know the interrupt is active. */
 309              		.loc 1 100 0
 310              		.cfi_startproc
 311              		@ args = 0, pretend = 0, frame = 0
 312              		@ frame_needed = 0, uses_anonymous_args = 0
 313              	.LVL12:
 314 0000 10B5     		push	{r4, lr}
 315              		.cfi_def_cfa_offset 8
 316              		.cfi_offset 4, -8
 317              		.cfi_offset 14, -4
 318 0002 0400     		movs	r4, r0
 102:Generated_Source\PSoC4/isr_speed.c **** 
 319              		.loc 1 102 0
 320 0004 FFF7FEFF 		bl	isr_speed_Disable
 321              	.LVL13:
 105:Generated_Source\PSoC4/isr_speed.c **** 
 322              		.loc 1 105 0
 323 0008 2000     		movs	r0, r4
 324 000a FFF7FEFF 		bl	isr_speed_SetVector
ARM GAS  C:\Users\JOSEAN~1\AppData\Local\Temp\cctph3Gx.s 			page 13


 325              	.LVL14:
 108:Generated_Source\PSoC4/isr_speed.c **** 
 326              		.loc 1 108 0
 327 000e 0120     		movs	r0, #1
 328 0010 FFF7FEFF 		bl	isr_speed_SetPriority
 329              	.LVL15:
 111:Generated_Source\PSoC4/isr_speed.c **** }
 330              		.loc 1 111 0
 331 0014 FFF7FEFF 		bl	isr_speed_Enable
 332              	.LVL16:
 112:Generated_Source\PSoC4/isr_speed.c **** 
 333              		.loc 1 112 0
 334              		@ sp needed
 335              	.LVL17:
 336 0018 10BD     		pop	{r4, pc}
 337              		.cfi_endproc
 338              	.LFE1:
 339              		.size	isr_speed_StartEx, .-isr_speed_StartEx
 340 001a C046     		.section	.text.isr_speed_Stop,"ax",%progbits
 341              		.align	2
 342              		.global	isr_speed_Stop
 343              		.code	16
 344              		.thumb_func
 345              		.type	isr_speed_Stop, %function
 346              	isr_speed_Stop:
 347              	.LFB2:
 130:Generated_Source\PSoC4/isr_speed.c ****     /* Disable this interrupt. */
 348              		.loc 1 130 0
 349              		.cfi_startproc
 350              		@ args = 0, pretend = 0, frame = 0
 351              		@ frame_needed = 0, uses_anonymous_args = 0
 352 0000 10B5     		push	{r4, lr}
 353              		.cfi_def_cfa_offset 8
 354              		.cfi_offset 4, -8
 355              		.cfi_offset 14, -4
 132:Generated_Source\PSoC4/isr_speed.c **** 
 356              		.loc 1 132 0
 357 0002 FFF7FEFF 		bl	isr_speed_Disable
 358              	.LVL18:
 135:Generated_Source\PSoC4/isr_speed.c **** }
 359              		.loc 1 135 0
 360 0006 0248     		ldr	r0, .L30
 361 0008 FFF7FEFF 		bl	isr_speed_SetVector
 362              	.LVL19:
 136:Generated_Source\PSoC4/isr_speed.c **** 
 363              		.loc 1 136 0
 364              		@ sp needed
 365 000c 10BD     		pop	{r4, pc}
 366              	.L31:
 367 000e C046     		.align	2
 368              	.L30:
 369 0010 00000000 		.word	IntDefaultHandler
 370              		.cfi_endproc
 371              	.LFE2:
 372              		.size	isr_speed_Stop, .-isr_speed_Stop
 373              		.section	.text.isr_speed_SetPending,"ax",%progbits
 374              		.align	2
ARM GAS  C:\Users\JOSEAN~1\AppData\Local\Temp\cctph3Gx.s 			page 14


 375              		.global	isr_speed_SetPending
 376              		.code	16
 377              		.thumb_func
 378              		.type	isr_speed_SetPending, %function
 379              	isr_speed_SetPending:
 380              	.LFB11:
 351:Generated_Source\PSoC4/isr_speed.c **** 
 352:Generated_Source\PSoC4/isr_speed.c **** 
 353:Generated_Source\PSoC4/isr_speed.c **** /*******************************************************************************
 354:Generated_Source\PSoC4/isr_speed.c **** * Function Name: isr_speed_SetPending
 355:Generated_Source\PSoC4/isr_speed.c **** ********************************************************************************
 356:Generated_Source\PSoC4/isr_speed.c **** *
 357:Generated_Source\PSoC4/isr_speed.c **** * Summary:
 358:Generated_Source\PSoC4/isr_speed.c **** *   Causes the Interrupt to enter the pending state, a software method of
 359:Generated_Source\PSoC4/isr_speed.c **** *   generating the interrupt.
 360:Generated_Source\PSoC4/isr_speed.c **** *
 361:Generated_Source\PSoC4/isr_speed.c **** * Parameters:
 362:Generated_Source\PSoC4/isr_speed.c **** *   None
 363:Generated_Source\PSoC4/isr_speed.c **** *
 364:Generated_Source\PSoC4/isr_speed.c **** * Return:
 365:Generated_Source\PSoC4/isr_speed.c **** *   None
 366:Generated_Source\PSoC4/isr_speed.c **** *
 367:Generated_Source\PSoC4/isr_speed.c **** * Side Effects:
 368:Generated_Source\PSoC4/isr_speed.c **** *   If interrupts are enabled and the interrupt is set up properly, the ISR is
 369:Generated_Source\PSoC4/isr_speed.c **** *   entered (depending on the priority of this interrupt and other pending 
 370:Generated_Source\PSoC4/isr_speed.c **** *   interrupts).
 371:Generated_Source\PSoC4/isr_speed.c **** *
 372:Generated_Source\PSoC4/isr_speed.c **** *******************************************************************************/
 373:Generated_Source\PSoC4/isr_speed.c **** void isr_speed_SetPending(void)
 374:Generated_Source\PSoC4/isr_speed.c **** {
 381              		.loc 1 374 0
 382              		.cfi_startproc
 383              		@ args = 0, pretend = 0, frame = 0
 384              		@ frame_needed = 0, uses_anonymous_args = 0
 385              		@ link register save eliminated.
 375:Generated_Source\PSoC4/isr_speed.c ****     *isr_speed_INTC_SET_PD = isr_speed__INTC_MASK;
 386              		.loc 1 375 0
 387 0000 8022     		movs	r2, #128
 388 0002 5202     		lsls	r2, r2, #9
 389 0004 014B     		ldr	r3, .L33
 390 0006 1A60     		str	r2, [r3]
 376:Generated_Source\PSoC4/isr_speed.c **** }
 391              		.loc 1 376 0
 392              		@ sp needed
 393 0008 7047     		bx	lr
 394              	.L34:
 395 000a C046     		.align	2
 396              	.L33:
 397 000c 00E200E0 		.word	-536813056
 398              		.cfi_endproc
 399              	.LFE11:
 400              		.size	isr_speed_SetPending, .-isr_speed_SetPending
 401              		.section	.text.isr_speed_ClearPending,"ax",%progbits
 402              		.align	2
 403              		.global	isr_speed_ClearPending
 404              		.code	16
 405              		.thumb_func
ARM GAS  C:\Users\JOSEAN~1\AppData\Local\Temp\cctph3Gx.s 			page 15


 406              		.type	isr_speed_ClearPending, %function
 407              	isr_speed_ClearPending:
 408              	.LFB12:
 377:Generated_Source\PSoC4/isr_speed.c **** 
 378:Generated_Source\PSoC4/isr_speed.c **** 
 379:Generated_Source\PSoC4/isr_speed.c **** /*******************************************************************************
 380:Generated_Source\PSoC4/isr_speed.c **** * Function Name: isr_speed_ClearPending
 381:Generated_Source\PSoC4/isr_speed.c **** ********************************************************************************
 382:Generated_Source\PSoC4/isr_speed.c **** *
 383:Generated_Source\PSoC4/isr_speed.c **** * Summary:
 384:Generated_Source\PSoC4/isr_speed.c **** *   Clears a pending interrupt in the interrupt controller.
 385:Generated_Source\PSoC4/isr_speed.c **** *
 386:Generated_Source\PSoC4/isr_speed.c **** *   Note Some interrupt sources are clear-on-read and require the block 
 387:Generated_Source\PSoC4/isr_speed.c **** *   interrupt/status register to be read/cleared with the appropriate block API 
 388:Generated_Source\PSoC4/isr_speed.c **** *   (GPIO, UART, and so on). Otherwise the ISR will continue to remain in 
 389:Generated_Source\PSoC4/isr_speed.c **** *   pending state even though the interrupt itself is cleared using this API.
 390:Generated_Source\PSoC4/isr_speed.c **** *
 391:Generated_Source\PSoC4/isr_speed.c **** * Parameters:
 392:Generated_Source\PSoC4/isr_speed.c **** *   None
 393:Generated_Source\PSoC4/isr_speed.c **** *
 394:Generated_Source\PSoC4/isr_speed.c **** * Return:
 395:Generated_Source\PSoC4/isr_speed.c **** *   None
 396:Generated_Source\PSoC4/isr_speed.c **** *
 397:Generated_Source\PSoC4/isr_speed.c **** *******************************************************************************/
 398:Generated_Source\PSoC4/isr_speed.c **** void isr_speed_ClearPending(void)
 399:Generated_Source\PSoC4/isr_speed.c **** {
 409              		.loc 1 399 0
 410              		.cfi_startproc
 411              		@ args = 0, pretend = 0, frame = 0
 412              		@ frame_needed = 0, uses_anonymous_args = 0
 413              		@ link register save eliminated.
 400:Generated_Source\PSoC4/isr_speed.c ****     *isr_speed_INTC_CLR_PD = isr_speed__INTC_MASK;
 414              		.loc 1 400 0
 415 0000 8022     		movs	r2, #128
 416 0002 5202     		lsls	r2, r2, #9
 417 0004 014B     		ldr	r3, .L36
 418 0006 1A60     		str	r2, [r3]
 401:Generated_Source\PSoC4/isr_speed.c **** }
 419              		.loc 1 401 0
 420              		@ sp needed
 421 0008 7047     		bx	lr
 422              	.L37:
 423 000a C046     		.align	2
 424              	.L36:
 425 000c 80E200E0 		.word	-536812928
 426              		.cfi_endproc
 427              	.LFE12:
 428              		.size	isr_speed_ClearPending, .-isr_speed_ClearPending
 429              		.text
 430              	.Letext0:
 431              		.file 2 "Generated_Source\\PSoC4/cytypes.h"
 432              		.file 3 "Generated_Source\\PSoC4/CyLib.h"
 433              		.section	.debug_info,"",%progbits
 434              	.Ldebug_info0:
 435 0000 01030000 		.4byte	0x301
 436 0004 0400     		.2byte	0x4
 437 0006 00000000 		.4byte	.Ldebug_abbrev0
ARM GAS  C:\Users\JOSEAN~1\AppData\Local\Temp\cctph3Gx.s 			page 16


 438 000a 04       		.byte	0x4
 439 000b 01       		.uleb128 0x1
 440 000c 10020000 		.4byte	.LASF36
 441 0010 0C       		.byte	0xc
 442 0011 AF020000 		.4byte	.LASF37
 443 0015 50000000 		.4byte	.LASF38
 444 0019 00000000 		.4byte	.Ldebug_ranges0+0
 445 001d 00000000 		.4byte	0
 446 0021 00000000 		.4byte	.Ldebug_line0
 447 0025 02       		.uleb128 0x2
 448 0026 01       		.byte	0x1
 449 0027 06       		.byte	0x6
 450 0028 2C030000 		.4byte	.LASF0
 451 002c 02       		.uleb128 0x2
 452 002d 01       		.byte	0x1
 453 002e 08       		.byte	0x8
 454 002f 13010000 		.4byte	.LASF1
 455 0033 02       		.uleb128 0x2
 456 0034 02       		.byte	0x2
 457 0035 05       		.byte	0x5
 458 0036 EE020000 		.4byte	.LASF2
 459 003a 02       		.uleb128 0x2
 460 003b 02       		.byte	0x2
 461 003c 07       		.byte	0x7
 462 003d 27000000 		.4byte	.LASF3
 463 0041 02       		.uleb128 0x2
 464 0042 04       		.byte	0x4
 465 0043 05       		.byte	0x5
 466 0044 17030000 		.4byte	.LASF4
 467 0048 02       		.uleb128 0x2
 468 0049 04       		.byte	0x4
 469 004a 07       		.byte	0x7
 470 004b 30010000 		.4byte	.LASF5
 471 004f 02       		.uleb128 0x2
 472 0050 08       		.byte	0x8
 473 0051 05       		.byte	0x5
 474 0052 DB020000 		.4byte	.LASF6
 475 0056 02       		.uleb128 0x2
 476 0057 08       		.byte	0x8
 477 0058 07       		.byte	0x7
 478 0059 E6000000 		.4byte	.LASF7
 479 005d 03       		.uleb128 0x3
 480 005e 04       		.byte	0x4
 481 005f 05       		.byte	0x5
 482 0060 696E7400 		.ascii	"int\000"
 483 0064 02       		.uleb128 0x2
 484 0065 04       		.byte	0x4
 485 0066 07       		.byte	0x7
 486 0067 C9010000 		.4byte	.LASF8
 487 006b 04       		.uleb128 0x4
 488 006c 55010000 		.4byte	.LASF9
 489 0070 02       		.byte	0x2
 490 0071 E401     		.2byte	0x1e4
 491 0073 2C000000 		.4byte	0x2c
 492 0077 04       		.uleb128 0x4
 493 0078 AB010000 		.4byte	.LASF10
 494 007c 02       		.byte	0x2
ARM GAS  C:\Users\JOSEAN~1\AppData\Local\Temp\cctph3Gx.s 			page 17


 495 007d E601     		.2byte	0x1e6
 496 007f 48000000 		.4byte	0x48
 497 0083 02       		.uleb128 0x2
 498 0084 04       		.byte	0x4
 499 0085 04       		.byte	0x4
 500 0086 CE000000 		.4byte	.LASF11
 501 008a 02       		.uleb128 0x2
 502 008b 08       		.byte	0x8
 503 008c 04       		.byte	0x4
 504 008d 78010000 		.4byte	.LASF12
 505 0091 02       		.uleb128 0x2
 506 0092 01       		.byte	0x1
 507 0093 08       		.byte	0x8
 508 0094 E9020000 		.4byte	.LASF13
 509 0098 04       		.uleb128 0x4
 510 0099 14000000 		.4byte	.LASF14
 511 009d 02       		.byte	0x2
 512 009e 9002     		.2byte	0x290
 513 00a0 A4000000 		.4byte	0xa4
 514 00a4 05       		.uleb128 0x5
 515 00a5 77000000 		.4byte	0x77
 516 00a9 04       		.uleb128 0x4
 517 00aa 03020000 		.4byte	.LASF15
 518 00ae 02       		.byte	0x2
 519 00af A002     		.2byte	0x2a0
 520 00b1 B5000000 		.4byte	0xb5
 521 00b5 06       		.uleb128 0x6
 522 00b6 04       		.byte	0x4
 523 00b7 BB000000 		.4byte	0xbb
 524 00bb 07       		.uleb128 0x7
 525 00bc 02       		.uleb128 0x2
 526 00bd 08       		.byte	0x8
 527 00be 04       		.byte	0x4
 528 00bf 20030000 		.4byte	.LASF16
 529 00c3 02       		.uleb128 0x2
 530 00c4 04       		.byte	0x4
 531 00c5 07       		.byte	0x7
 532 00c6 D2020000 		.4byte	.LASF17
 533 00ca 08       		.uleb128 0x8
 534 00cb 00000000 		.4byte	.LASF24
 535 00cf 01       		.byte	0x1
 536 00d0 9F       		.byte	0x9f
 537 00d1 00000000 		.4byte	.LFB3
 538 00d5 02000000 		.4byte	.LFE3-.LFB3
 539 00d9 01       		.uleb128 0x1
 540 00da 9C       		.byte	0x9c
 541 00db 09       		.uleb128 0x9
 542 00dc 5B010000 		.4byte	.LASF18
 543 00e0 01       		.byte	0x1
 544 00e1 C7       		.byte	0xc7
 545 00e2 00000000 		.4byte	.LFB4
 546 00e6 0C000000 		.4byte	.LFE4-.LFB4
 547 00ea 01       		.uleb128 0x1
 548 00eb 9C       		.byte	0x9c
 549 00ec FE000000 		.4byte	0xfe
 550 00f0 0A       		.uleb128 0xa
 551 00f1 D6010000 		.4byte	.LASF20
ARM GAS  C:\Users\JOSEAN~1\AppData\Local\Temp\cctph3Gx.s 			page 18


 552 00f5 01       		.byte	0x1
 553 00f6 C7       		.byte	0xc7
 554 00f7 A9000000 		.4byte	0xa9
 555 00fb 01       		.uleb128 0x1
 556 00fc 50       		.byte	0x50
 557 00fd 00       		.byte	0
 558 00fe 0B       		.uleb128 0xb
 559 00ff 4A030000 		.4byte	.LASF26
 560 0103 01       		.byte	0x1
 561 0104 DB       		.byte	0xdb
 562 0105 A9000000 		.4byte	0xa9
 563 0109 00000000 		.4byte	.LFB5
 564 010d 0C000000 		.4byte	.LFE5-.LFB5
 565 0111 01       		.uleb128 0x1
 566 0112 9C       		.byte	0x9c
 567 0113 09       		.uleb128 0x9
 568 0114 3A000000 		.4byte	.LASF19
 569 0118 01       		.byte	0x1
 570 0119 F9       		.byte	0xf9
 571 011a 00000000 		.4byte	.LFB6
 572 011e 20000000 		.4byte	.LFE6-.LFB6
 573 0122 01       		.uleb128 0x1
 574 0123 9C       		.byte	0x9c
 575 0124 65010000 		.4byte	0x165
 576 0128 0C       		.uleb128 0xc
 577 0129 6F010000 		.4byte	.LASF21
 578 012d 01       		.byte	0x1
 579 012e F9       		.byte	0xf9
 580 012f 6B000000 		.4byte	0x6b
 581 0133 00000000 		.4byte	.LLST0
 582 0137 0D       		.uleb128 0xd
 583 0138 21010000 		.4byte	.LASF22
 584 013c 01       		.byte	0x1
 585 013d FB       		.byte	0xfb
 586 013e 6B000000 		.4byte	0x6b
 587 0142 21000000 		.4byte	.LLST1
 588 0146 0E       		.uleb128 0xe
 589 0147 08030000 		.4byte	.LASF23
 590 014b 01       		.byte	0x1
 591 014c FC       		.byte	0xfc
 592 014d 77000000 		.4byte	0x77
 593 0151 06       		.byte	0x6
 594 0152 0F       		.uleb128 0xf
 595 0153 08000000 		.4byte	.LVL3
 596 0157 EE020000 		.4byte	0x2ee
 597 015b 0F       		.uleb128 0xf
 598 015c 1A000000 		.4byte	.LVL4
 599 0160 F9020000 		.4byte	0x2f9
 600 0164 00       		.byte	0
 601 0165 10       		.uleb128 0x10
 602 0166 FD000000 		.4byte	.LASF39
 603 016a 01       		.byte	0x1
 604 016b 1501     		.2byte	0x115
 605 016d 6B000000 		.4byte	0x6b
 606 0171 00000000 		.4byte	.LFB7
 607 0175 10000000 		.4byte	.LFE7-.LFB7
 608 0179 01       		.uleb128 0x1
ARM GAS  C:\Users\JOSEAN~1\AppData\Local\Temp\cctph3Gx.s 			page 19


 609 017a 9C       		.byte	0x9c
 610 017b 9D010000 		.4byte	0x19d
 611 017f 11       		.uleb128 0x11
 612 0180 6F010000 		.4byte	.LASF21
 613 0184 01       		.byte	0x1
 614 0185 1701     		.2byte	0x117
 615 0187 77000000 		.4byte	0x77
 616 018b 34000000 		.4byte	.LLST2
 617 018f 12       		.uleb128 0x12
 618 0190 08030000 		.4byte	.LASF23
 619 0194 01       		.byte	0x1
 620 0195 1801     		.2byte	0x118
 621 0197 77000000 		.4byte	0x77
 622 019b 06       		.byte	0x6
 623 019c 00       		.byte	0
 624 019d 13       		.uleb128 0x13
 625 019e 9E020000 		.4byte	.LASF25
 626 01a2 01       		.byte	0x1
 627 01a3 3001     		.2byte	0x130
 628 01a5 00000000 		.4byte	.LFB8
 629 01a9 10000000 		.4byte	.LFE8-.LFB8
 630 01ad 01       		.uleb128 0x1
 631 01ae 9C       		.byte	0x9c
 632 01af 14       		.uleb128 0x14
 633 01b0 42010000 		.4byte	.LASF27
 634 01b4 01       		.byte	0x1
 635 01b5 4501     		.2byte	0x145
 636 01b7 6B000000 		.4byte	0x6b
 637 01bb 00000000 		.4byte	.LFB9
 638 01bf 14000000 		.4byte	.LFE9-.LFB9
 639 01c3 01       		.uleb128 0x1
 640 01c4 9C       		.byte	0x9c
 641 01c5 13       		.uleb128 0x13
 642 01c6 38030000 		.4byte	.LASF28
 643 01ca 01       		.byte	0x1
 644 01cb 5A01     		.2byte	0x15a
 645 01cd 00000000 		.4byte	.LFB10
 646 01d1 10000000 		.4byte	.LFE10-.LFB10
 647 01d5 01       		.uleb128 0x1
 648 01d6 9C       		.byte	0x9c
 649 01d7 09       		.uleb128 0x9
 650 01d8 F8020000 		.4byte	.LASF29
 651 01dc 01       		.byte	0x1
 652 01dd 38       		.byte	0x38
 653 01de 00000000 		.4byte	.LFB0
 654 01e2 1C000000 		.4byte	.LFE0-.LFB0
 655 01e6 01       		.uleb128 0x1
 656 01e7 9C       		.byte	0x9c
 657 01e8 29020000 		.4byte	0x229
 658 01ec 0F       		.uleb128 0xf
 659 01ed 06000000 		.4byte	.LVL8
 660 01f1 C5010000 		.4byte	0x1c5
 661 01f5 15       		.uleb128 0x15
 662 01f6 0C000000 		.4byte	.LVL9
 663 01fa DB000000 		.4byte	0xdb
 664 01fe 0C020000 		.4byte	0x20c
 665 0202 16       		.uleb128 0x16
ARM GAS  C:\Users\JOSEAN~1\AppData\Local\Temp\cctph3Gx.s 			page 20


 666 0203 01       		.uleb128 0x1
 667 0204 50       		.byte	0x50
 668 0205 05       		.uleb128 0x5
 669 0206 03       		.byte	0x3
 670 0207 00000000 		.4byte	isr_speed_Interrupt
 671 020b 00       		.byte	0
 672 020c 15       		.uleb128 0x15
 673 020d 12000000 		.4byte	.LVL10
 674 0211 13010000 		.4byte	0x113
 675 0215 1F020000 		.4byte	0x21f
 676 0219 16       		.uleb128 0x16
 677 021a 01       		.uleb128 0x1
 678 021b 50       		.byte	0x50
 679 021c 01       		.uleb128 0x1
 680 021d 31       		.byte	0x31
 681 021e 00       		.byte	0
 682 021f 0F       		.uleb128 0xf
 683 0220 16000000 		.4byte	.LVL11
 684 0224 9D010000 		.4byte	0x19d
 685 0228 00       		.byte	0
 686 0229 09       		.uleb128 0x9
 687 022a D4000000 		.4byte	.LASF30
 688 022e 01       		.byte	0x1
 689 022f 63       		.byte	0x63
 690 0230 00000000 		.4byte	.LFB1
 691 0234 1A000000 		.4byte	.LFE1-.LFB1
 692 0238 01       		.uleb128 0x1
 693 0239 9C       		.byte	0x9c
 694 023a 87020000 		.4byte	0x287
 695 023e 0C       		.uleb128 0xc
 696 023f D6010000 		.4byte	.LASF20
 697 0243 01       		.byte	0x1
 698 0244 63       		.byte	0x63
 699 0245 A9000000 		.4byte	0xa9
 700 0249 56000000 		.4byte	.LLST3
 701 024d 0F       		.uleb128 0xf
 702 024e 08000000 		.4byte	.LVL13
 703 0252 C5010000 		.4byte	0x1c5
 704 0256 15       		.uleb128 0x15
 705 0257 0E000000 		.4byte	.LVL14
 706 025b DB000000 		.4byte	0xdb
 707 025f 6A020000 		.4byte	0x26a
 708 0263 16       		.uleb128 0x16
 709 0264 01       		.uleb128 0x1
 710 0265 50       		.byte	0x50
 711 0266 02       		.uleb128 0x2
 712 0267 74       		.byte	0x74
 713 0268 00       		.sleb128 0
 714 0269 00       		.byte	0
 715 026a 15       		.uleb128 0x15
 716 026b 14000000 		.4byte	.LVL15
 717 026f 13010000 		.4byte	0x113
 718 0273 7D020000 		.4byte	0x27d
 719 0277 16       		.uleb128 0x16
 720 0278 01       		.uleb128 0x1
 721 0279 50       		.byte	0x50
 722 027a 01       		.uleb128 0x1
ARM GAS  C:\Users\JOSEAN~1\AppData\Local\Temp\cctph3Gx.s 			page 21


 723 027b 31       		.byte	0x31
 724 027c 00       		.byte	0
 725 027d 0F       		.uleb128 0xf
 726 027e 18000000 		.4byte	.LVL16
 727 0282 9D010000 		.4byte	0x19d
 728 0286 00       		.byte	0
 729 0287 09       		.uleb128 0x9
 730 0288 F4010000 		.4byte	.LASF31
 731 028c 01       		.byte	0x1
 732 028d 81       		.byte	0x81
 733 028e 00000000 		.4byte	.LFB2
 734 0292 14000000 		.4byte	.LFE2-.LFB2
 735 0296 01       		.uleb128 0x1
 736 0297 9C       		.byte	0x9c
 737 0298 AF020000 		.4byte	0x2af
 738 029c 0F       		.uleb128 0xf
 739 029d 06000000 		.4byte	.LVL18
 740 02a1 C5010000 		.4byte	0x1c5
 741 02a5 0F       		.uleb128 0xf
 742 02a6 0C000000 		.4byte	.LVL19
 743 02aa DB000000 		.4byte	0xdb
 744 02ae 00       		.byte	0
 745 02af 13       		.uleb128 0x13
 746 02b0 96010000 		.4byte	.LASF32
 747 02b4 01       		.byte	0x1
 748 02b5 7501     		.2byte	0x175
 749 02b7 00000000 		.4byte	.LFB11
 750 02bb 10000000 		.4byte	.LFE11-.LFB11
 751 02bf 01       		.uleb128 0x1
 752 02c0 9C       		.byte	0x9c
 753 02c1 13       		.uleb128 0x13
 754 02c2 7F010000 		.4byte	.LASF33
 755 02c6 01       		.byte	0x1
 756 02c7 8E01     		.2byte	0x18e
 757 02c9 00000000 		.4byte	.LFB12
 758 02cd 10000000 		.4byte	.LFE12-.LFB12
 759 02d1 01       		.uleb128 0x1
 760 02d2 9C       		.byte	0x9c
 761 02d3 17       		.uleb128 0x17
 762 02d4 A9000000 		.4byte	0xa9
 763 02d8 E3020000 		.4byte	0x2e3
 764 02dc 18       		.uleb128 0x18
 765 02dd C3000000 		.4byte	0xc3
 766 02e1 2F       		.byte	0x2f
 767 02e2 00       		.byte	0
 768 02e3 19       		.uleb128 0x19
 769 02e4 1A000000 		.4byte	.LASF40
 770 02e8 01       		.byte	0x1
 771 02e9 21       		.byte	0x21
 772 02ea D3020000 		.4byte	0x2d3
 773 02ee 1A       		.uleb128 0x1a
 774 02ef B2010000 		.4byte	.LASF34
 775 02f3 B2010000 		.4byte	.LASF34
 776 02f7 03       		.byte	0x3
 777 02f8 E5       		.byte	0xe5
 778 02f9 1A       		.uleb128 0x1a
 779 02fa DE010000 		.4byte	.LASF35
ARM GAS  C:\Users\JOSEAN~1\AppData\Local\Temp\cctph3Gx.s 			page 22


 780 02fe DE010000 		.4byte	.LASF35
 781 0302 03       		.byte	0x3
 782 0303 E6       		.byte	0xe6
 783 0304 00       		.byte	0
 784              		.section	.debug_abbrev,"",%progbits
 785              	.Ldebug_abbrev0:
 786 0000 01       		.uleb128 0x1
 787 0001 11       		.uleb128 0x11
 788 0002 01       		.byte	0x1
 789 0003 25       		.uleb128 0x25
 790 0004 0E       		.uleb128 0xe
 791 0005 13       		.uleb128 0x13
 792 0006 0B       		.uleb128 0xb
 793 0007 03       		.uleb128 0x3
 794 0008 0E       		.uleb128 0xe
 795 0009 1B       		.uleb128 0x1b
 796 000a 0E       		.uleb128 0xe
 797 000b 55       		.uleb128 0x55
 798 000c 17       		.uleb128 0x17
 799 000d 11       		.uleb128 0x11
 800 000e 01       		.uleb128 0x1
 801 000f 10       		.uleb128 0x10
 802 0010 17       		.uleb128 0x17
 803 0011 00       		.byte	0
 804 0012 00       		.byte	0
 805 0013 02       		.uleb128 0x2
 806 0014 24       		.uleb128 0x24
 807 0015 00       		.byte	0
 808 0016 0B       		.uleb128 0xb
 809 0017 0B       		.uleb128 0xb
 810 0018 3E       		.uleb128 0x3e
 811 0019 0B       		.uleb128 0xb
 812 001a 03       		.uleb128 0x3
 813 001b 0E       		.uleb128 0xe
 814 001c 00       		.byte	0
 815 001d 00       		.byte	0
 816 001e 03       		.uleb128 0x3
 817 001f 24       		.uleb128 0x24
 818 0020 00       		.byte	0
 819 0021 0B       		.uleb128 0xb
 820 0022 0B       		.uleb128 0xb
 821 0023 3E       		.uleb128 0x3e
 822 0024 0B       		.uleb128 0xb
 823 0025 03       		.uleb128 0x3
 824 0026 08       		.uleb128 0x8
 825 0027 00       		.byte	0
 826 0028 00       		.byte	0
 827 0029 04       		.uleb128 0x4
 828 002a 16       		.uleb128 0x16
 829 002b 00       		.byte	0
 830 002c 03       		.uleb128 0x3
 831 002d 0E       		.uleb128 0xe
 832 002e 3A       		.uleb128 0x3a
 833 002f 0B       		.uleb128 0xb
 834 0030 3B       		.uleb128 0x3b
 835 0031 05       		.uleb128 0x5
 836 0032 49       		.uleb128 0x49
ARM GAS  C:\Users\JOSEAN~1\AppData\Local\Temp\cctph3Gx.s 			page 23


 837 0033 13       		.uleb128 0x13
 838 0034 00       		.byte	0
 839 0035 00       		.byte	0
 840 0036 05       		.uleb128 0x5
 841 0037 35       		.uleb128 0x35
 842 0038 00       		.byte	0
 843 0039 49       		.uleb128 0x49
 844 003a 13       		.uleb128 0x13
 845 003b 00       		.byte	0
 846 003c 00       		.byte	0
 847 003d 06       		.uleb128 0x6
 848 003e 0F       		.uleb128 0xf
 849 003f 00       		.byte	0
 850 0040 0B       		.uleb128 0xb
 851 0041 0B       		.uleb128 0xb
 852 0042 49       		.uleb128 0x49
 853 0043 13       		.uleb128 0x13
 854 0044 00       		.byte	0
 855 0045 00       		.byte	0
 856 0046 07       		.uleb128 0x7
 857 0047 15       		.uleb128 0x15
 858 0048 00       		.byte	0
 859 0049 27       		.uleb128 0x27
 860 004a 19       		.uleb128 0x19
 861 004b 00       		.byte	0
 862 004c 00       		.byte	0
 863 004d 08       		.uleb128 0x8
 864 004e 2E       		.uleb128 0x2e
 865 004f 00       		.byte	0
 866 0050 3F       		.uleb128 0x3f
 867 0051 19       		.uleb128 0x19
 868 0052 03       		.uleb128 0x3
 869 0053 0E       		.uleb128 0xe
 870 0054 3A       		.uleb128 0x3a
 871 0055 0B       		.uleb128 0xb
 872 0056 3B       		.uleb128 0x3b
 873 0057 0B       		.uleb128 0xb
 874 0058 27       		.uleb128 0x27
 875 0059 19       		.uleb128 0x19
 876 005a 11       		.uleb128 0x11
 877 005b 01       		.uleb128 0x1
 878 005c 12       		.uleb128 0x12
 879 005d 06       		.uleb128 0x6
 880 005e 40       		.uleb128 0x40
 881 005f 18       		.uleb128 0x18
 882 0060 9742     		.uleb128 0x2117
 883 0062 19       		.uleb128 0x19
 884 0063 00       		.byte	0
 885 0064 00       		.byte	0
 886 0065 09       		.uleb128 0x9
 887 0066 2E       		.uleb128 0x2e
 888 0067 01       		.byte	0x1
 889 0068 3F       		.uleb128 0x3f
 890 0069 19       		.uleb128 0x19
 891 006a 03       		.uleb128 0x3
 892 006b 0E       		.uleb128 0xe
 893 006c 3A       		.uleb128 0x3a
ARM GAS  C:\Users\JOSEAN~1\AppData\Local\Temp\cctph3Gx.s 			page 24


 894 006d 0B       		.uleb128 0xb
 895 006e 3B       		.uleb128 0x3b
 896 006f 0B       		.uleb128 0xb
 897 0070 27       		.uleb128 0x27
 898 0071 19       		.uleb128 0x19
 899 0072 11       		.uleb128 0x11
 900 0073 01       		.uleb128 0x1
 901 0074 12       		.uleb128 0x12
 902 0075 06       		.uleb128 0x6
 903 0076 40       		.uleb128 0x40
 904 0077 18       		.uleb128 0x18
 905 0078 9742     		.uleb128 0x2117
 906 007a 19       		.uleb128 0x19
 907 007b 01       		.uleb128 0x1
 908 007c 13       		.uleb128 0x13
 909 007d 00       		.byte	0
 910 007e 00       		.byte	0
 911 007f 0A       		.uleb128 0xa
 912 0080 05       		.uleb128 0x5
 913 0081 00       		.byte	0
 914 0082 03       		.uleb128 0x3
 915 0083 0E       		.uleb128 0xe
 916 0084 3A       		.uleb128 0x3a
 917 0085 0B       		.uleb128 0xb
 918 0086 3B       		.uleb128 0x3b
 919 0087 0B       		.uleb128 0xb
 920 0088 49       		.uleb128 0x49
 921 0089 13       		.uleb128 0x13
 922 008a 02       		.uleb128 0x2
 923 008b 18       		.uleb128 0x18
 924 008c 00       		.byte	0
 925 008d 00       		.byte	0
 926 008e 0B       		.uleb128 0xb
 927 008f 2E       		.uleb128 0x2e
 928 0090 00       		.byte	0
 929 0091 3F       		.uleb128 0x3f
 930 0092 19       		.uleb128 0x19
 931 0093 03       		.uleb128 0x3
 932 0094 0E       		.uleb128 0xe
 933 0095 3A       		.uleb128 0x3a
 934 0096 0B       		.uleb128 0xb
 935 0097 3B       		.uleb128 0x3b
 936 0098 0B       		.uleb128 0xb
 937 0099 27       		.uleb128 0x27
 938 009a 19       		.uleb128 0x19
 939 009b 49       		.uleb128 0x49
 940 009c 13       		.uleb128 0x13
 941 009d 11       		.uleb128 0x11
 942 009e 01       		.uleb128 0x1
 943 009f 12       		.uleb128 0x12
 944 00a0 06       		.uleb128 0x6
 945 00a1 40       		.uleb128 0x40
 946 00a2 18       		.uleb128 0x18
 947 00a3 9742     		.uleb128 0x2117
 948 00a5 19       		.uleb128 0x19
 949 00a6 00       		.byte	0
 950 00a7 00       		.byte	0
ARM GAS  C:\Users\JOSEAN~1\AppData\Local\Temp\cctph3Gx.s 			page 25


 951 00a8 0C       		.uleb128 0xc
 952 00a9 05       		.uleb128 0x5
 953 00aa 00       		.byte	0
 954 00ab 03       		.uleb128 0x3
 955 00ac 0E       		.uleb128 0xe
 956 00ad 3A       		.uleb128 0x3a
 957 00ae 0B       		.uleb128 0xb
 958 00af 3B       		.uleb128 0x3b
 959 00b0 0B       		.uleb128 0xb
 960 00b1 49       		.uleb128 0x49
 961 00b2 13       		.uleb128 0x13
 962 00b3 02       		.uleb128 0x2
 963 00b4 17       		.uleb128 0x17
 964 00b5 00       		.byte	0
 965 00b6 00       		.byte	0
 966 00b7 0D       		.uleb128 0xd
 967 00b8 34       		.uleb128 0x34
 968 00b9 00       		.byte	0
 969 00ba 03       		.uleb128 0x3
 970 00bb 0E       		.uleb128 0xe
 971 00bc 3A       		.uleb128 0x3a
 972 00bd 0B       		.uleb128 0xb
 973 00be 3B       		.uleb128 0x3b
 974 00bf 0B       		.uleb128 0xb
 975 00c0 49       		.uleb128 0x49
 976 00c1 13       		.uleb128 0x13
 977 00c2 02       		.uleb128 0x2
 978 00c3 17       		.uleb128 0x17
 979 00c4 00       		.byte	0
 980 00c5 00       		.byte	0
 981 00c6 0E       		.uleb128 0xe
 982 00c7 34       		.uleb128 0x34
 983 00c8 00       		.byte	0
 984 00c9 03       		.uleb128 0x3
 985 00ca 0E       		.uleb128 0xe
 986 00cb 3A       		.uleb128 0x3a
 987 00cc 0B       		.uleb128 0xb
 988 00cd 3B       		.uleb128 0x3b
 989 00ce 0B       		.uleb128 0xb
 990 00cf 49       		.uleb128 0x49
 991 00d0 13       		.uleb128 0x13
 992 00d1 1C       		.uleb128 0x1c
 993 00d2 0B       		.uleb128 0xb
 994 00d3 00       		.byte	0
 995 00d4 00       		.byte	0
 996 00d5 0F       		.uleb128 0xf
 997 00d6 898201   		.uleb128 0x4109
 998 00d9 00       		.byte	0
 999 00da 11       		.uleb128 0x11
 1000 00db 01       		.uleb128 0x1
 1001 00dc 31       		.uleb128 0x31
 1002 00dd 13       		.uleb128 0x13
 1003 00de 00       		.byte	0
 1004 00df 00       		.byte	0
 1005 00e0 10       		.uleb128 0x10
 1006 00e1 2E       		.uleb128 0x2e
 1007 00e2 01       		.byte	0x1
ARM GAS  C:\Users\JOSEAN~1\AppData\Local\Temp\cctph3Gx.s 			page 26


 1008 00e3 3F       		.uleb128 0x3f
 1009 00e4 19       		.uleb128 0x19
 1010 00e5 03       		.uleb128 0x3
 1011 00e6 0E       		.uleb128 0xe
 1012 00e7 3A       		.uleb128 0x3a
 1013 00e8 0B       		.uleb128 0xb
 1014 00e9 3B       		.uleb128 0x3b
 1015 00ea 05       		.uleb128 0x5
 1016 00eb 27       		.uleb128 0x27
 1017 00ec 19       		.uleb128 0x19
 1018 00ed 49       		.uleb128 0x49
 1019 00ee 13       		.uleb128 0x13
 1020 00ef 11       		.uleb128 0x11
 1021 00f0 01       		.uleb128 0x1
 1022 00f1 12       		.uleb128 0x12
 1023 00f2 06       		.uleb128 0x6
 1024 00f3 40       		.uleb128 0x40
 1025 00f4 18       		.uleb128 0x18
 1026 00f5 9742     		.uleb128 0x2117
 1027 00f7 19       		.uleb128 0x19
 1028 00f8 01       		.uleb128 0x1
 1029 00f9 13       		.uleb128 0x13
 1030 00fa 00       		.byte	0
 1031 00fb 00       		.byte	0
 1032 00fc 11       		.uleb128 0x11
 1033 00fd 34       		.uleb128 0x34
 1034 00fe 00       		.byte	0
 1035 00ff 03       		.uleb128 0x3
 1036 0100 0E       		.uleb128 0xe
 1037 0101 3A       		.uleb128 0x3a
 1038 0102 0B       		.uleb128 0xb
 1039 0103 3B       		.uleb128 0x3b
 1040 0104 05       		.uleb128 0x5
 1041 0105 49       		.uleb128 0x49
 1042 0106 13       		.uleb128 0x13
 1043 0107 02       		.uleb128 0x2
 1044 0108 17       		.uleb128 0x17
 1045 0109 00       		.byte	0
 1046 010a 00       		.byte	0
 1047 010b 12       		.uleb128 0x12
 1048 010c 34       		.uleb128 0x34
 1049 010d 00       		.byte	0
 1050 010e 03       		.uleb128 0x3
 1051 010f 0E       		.uleb128 0xe
 1052 0110 3A       		.uleb128 0x3a
 1053 0111 0B       		.uleb128 0xb
 1054 0112 3B       		.uleb128 0x3b
 1055 0113 05       		.uleb128 0x5
 1056 0114 49       		.uleb128 0x49
 1057 0115 13       		.uleb128 0x13
 1058 0116 1C       		.uleb128 0x1c
 1059 0117 0B       		.uleb128 0xb
 1060 0118 00       		.byte	0
 1061 0119 00       		.byte	0
 1062 011a 13       		.uleb128 0x13
 1063 011b 2E       		.uleb128 0x2e
 1064 011c 00       		.byte	0
ARM GAS  C:\Users\JOSEAN~1\AppData\Local\Temp\cctph3Gx.s 			page 27


 1065 011d 3F       		.uleb128 0x3f
 1066 011e 19       		.uleb128 0x19
 1067 011f 03       		.uleb128 0x3
 1068 0120 0E       		.uleb128 0xe
 1069 0121 3A       		.uleb128 0x3a
 1070 0122 0B       		.uleb128 0xb
 1071 0123 3B       		.uleb128 0x3b
 1072 0124 05       		.uleb128 0x5
 1073 0125 27       		.uleb128 0x27
 1074 0126 19       		.uleb128 0x19
 1075 0127 11       		.uleb128 0x11
 1076 0128 01       		.uleb128 0x1
 1077 0129 12       		.uleb128 0x12
 1078 012a 06       		.uleb128 0x6
 1079 012b 40       		.uleb128 0x40
 1080 012c 18       		.uleb128 0x18
 1081 012d 9742     		.uleb128 0x2117
 1082 012f 19       		.uleb128 0x19
 1083 0130 00       		.byte	0
 1084 0131 00       		.byte	0
 1085 0132 14       		.uleb128 0x14
 1086 0133 2E       		.uleb128 0x2e
 1087 0134 00       		.byte	0
 1088 0135 3F       		.uleb128 0x3f
 1089 0136 19       		.uleb128 0x19
 1090 0137 03       		.uleb128 0x3
 1091 0138 0E       		.uleb128 0xe
 1092 0139 3A       		.uleb128 0x3a
 1093 013a 0B       		.uleb128 0xb
 1094 013b 3B       		.uleb128 0x3b
 1095 013c 05       		.uleb128 0x5
 1096 013d 27       		.uleb128 0x27
 1097 013e 19       		.uleb128 0x19
 1098 013f 49       		.uleb128 0x49
 1099 0140 13       		.uleb128 0x13
 1100 0141 11       		.uleb128 0x11
 1101 0142 01       		.uleb128 0x1
 1102 0143 12       		.uleb128 0x12
 1103 0144 06       		.uleb128 0x6
 1104 0145 40       		.uleb128 0x40
 1105 0146 18       		.uleb128 0x18
 1106 0147 9742     		.uleb128 0x2117
 1107 0149 19       		.uleb128 0x19
 1108 014a 00       		.byte	0
 1109 014b 00       		.byte	0
 1110 014c 15       		.uleb128 0x15
 1111 014d 898201   		.uleb128 0x4109
 1112 0150 01       		.byte	0x1
 1113 0151 11       		.uleb128 0x11
 1114 0152 01       		.uleb128 0x1
 1115 0153 31       		.uleb128 0x31
 1116 0154 13       		.uleb128 0x13
 1117 0155 01       		.uleb128 0x1
 1118 0156 13       		.uleb128 0x13
 1119 0157 00       		.byte	0
 1120 0158 00       		.byte	0
 1121 0159 16       		.uleb128 0x16
ARM GAS  C:\Users\JOSEAN~1\AppData\Local\Temp\cctph3Gx.s 			page 28


 1122 015a 8A8201   		.uleb128 0x410a
 1123 015d 00       		.byte	0
 1124 015e 02       		.uleb128 0x2
 1125 015f 18       		.uleb128 0x18
 1126 0160 9142     		.uleb128 0x2111
 1127 0162 18       		.uleb128 0x18
 1128 0163 00       		.byte	0
 1129 0164 00       		.byte	0
 1130 0165 17       		.uleb128 0x17
 1131 0166 01       		.uleb128 0x1
 1132 0167 01       		.byte	0x1
 1133 0168 49       		.uleb128 0x49
 1134 0169 13       		.uleb128 0x13
 1135 016a 01       		.uleb128 0x1
 1136 016b 13       		.uleb128 0x13
 1137 016c 00       		.byte	0
 1138 016d 00       		.byte	0
 1139 016e 18       		.uleb128 0x18
 1140 016f 21       		.uleb128 0x21
 1141 0170 00       		.byte	0
 1142 0171 49       		.uleb128 0x49
 1143 0172 13       		.uleb128 0x13
 1144 0173 2F       		.uleb128 0x2f
 1145 0174 0B       		.uleb128 0xb
 1146 0175 00       		.byte	0
 1147 0176 00       		.byte	0
 1148 0177 19       		.uleb128 0x19
 1149 0178 34       		.uleb128 0x34
 1150 0179 00       		.byte	0
 1151 017a 03       		.uleb128 0x3
 1152 017b 0E       		.uleb128 0xe
 1153 017c 3A       		.uleb128 0x3a
 1154 017d 0B       		.uleb128 0xb
 1155 017e 3B       		.uleb128 0x3b
 1156 017f 0B       		.uleb128 0xb
 1157 0180 49       		.uleb128 0x49
 1158 0181 13       		.uleb128 0x13
 1159 0182 3F       		.uleb128 0x3f
 1160 0183 19       		.uleb128 0x19
 1161 0184 3C       		.uleb128 0x3c
 1162 0185 19       		.uleb128 0x19
 1163 0186 00       		.byte	0
 1164 0187 00       		.byte	0
 1165 0188 1A       		.uleb128 0x1a
 1166 0189 2E       		.uleb128 0x2e
 1167 018a 00       		.byte	0
 1168 018b 3F       		.uleb128 0x3f
 1169 018c 19       		.uleb128 0x19
 1170 018d 3C       		.uleb128 0x3c
 1171 018e 19       		.uleb128 0x19
 1172 018f 6E       		.uleb128 0x6e
 1173 0190 0E       		.uleb128 0xe
 1174 0191 03       		.uleb128 0x3
 1175 0192 0E       		.uleb128 0xe
 1176 0193 3A       		.uleb128 0x3a
 1177 0194 0B       		.uleb128 0xb
 1178 0195 3B       		.uleb128 0x3b
ARM GAS  C:\Users\JOSEAN~1\AppData\Local\Temp\cctph3Gx.s 			page 29


 1179 0196 0B       		.uleb128 0xb
 1180 0197 00       		.byte	0
 1181 0198 00       		.byte	0
 1182 0199 00       		.byte	0
 1183              		.section	.debug_loc,"",%progbits
 1184              	.Ldebug_loc0:
 1185              	.LLST0:
 1186 0000 00000000 		.4byte	.LVL1
 1187 0004 07000000 		.4byte	.LVL3-1
 1188 0008 0100     		.2byte	0x1
 1189 000a 50       		.byte	0x50
 1190 000b 07000000 		.4byte	.LVL3-1
 1191 000f 20000000 		.4byte	.LFE6
 1192 0013 0400     		.2byte	0x4
 1193 0015 F3       		.byte	0xf3
 1194 0016 01       		.uleb128 0x1
 1195 0017 50       		.byte	0x50
 1196 0018 9F       		.byte	0x9f
 1197 0019 00000000 		.4byte	0
 1198 001d 00000000 		.4byte	0
 1199              	.LLST1:
 1200 0021 08000000 		.4byte	.LVL3
 1201 0025 19000000 		.4byte	.LVL4-1
 1202 0029 0100     		.2byte	0x1
 1203 002b 50       		.byte	0x50
 1204 002c 00000000 		.4byte	0
 1205 0030 00000000 		.4byte	0
 1206              	.LLST2:
 1207 0034 06000000 		.4byte	.LVL6
 1208 0038 0A000000 		.4byte	.LVL7
 1209 003c 0500     		.2byte	0x5
 1210 003e 70       		.byte	0x70
 1211 003f 00       		.sleb128 0
 1212 0040 33       		.byte	0x33
 1213 0041 1A       		.byte	0x1a
 1214 0042 9F       		.byte	0x9f
 1215 0043 0A000000 		.4byte	.LVL7
 1216 0047 10000000 		.4byte	.LFE7
 1217 004b 0100     		.2byte	0x1
 1218 004d 50       		.byte	0x50
 1219 004e 00000000 		.4byte	0
 1220 0052 00000000 		.4byte	0
 1221              	.LLST3:
 1222 0056 00000000 		.4byte	.LVL12
 1223 005a 07000000 		.4byte	.LVL13-1
 1224 005e 0100     		.2byte	0x1
 1225 0060 50       		.byte	0x50
 1226 0061 07000000 		.4byte	.LVL13-1
 1227 0065 18000000 		.4byte	.LVL17
 1228 0069 0100     		.2byte	0x1
 1229 006b 54       		.byte	0x54
 1230 006c 18000000 		.4byte	.LVL17
 1231 0070 1A000000 		.4byte	.LFE1
 1232 0074 0400     		.2byte	0x4
 1233 0076 F3       		.byte	0xf3
 1234 0077 01       		.uleb128 0x1
 1235 0078 50       		.byte	0x50
ARM GAS  C:\Users\JOSEAN~1\AppData\Local\Temp\cctph3Gx.s 			page 30


 1236 0079 9F       		.byte	0x9f
 1237 007a 00000000 		.4byte	0
 1238 007e 00000000 		.4byte	0
 1239              		.section	.debug_aranges,"",%progbits
 1240 0000 7C000000 		.4byte	0x7c
 1241 0004 0200     		.2byte	0x2
 1242 0006 00000000 		.4byte	.Ldebug_info0
 1243 000a 04       		.byte	0x4
 1244 000b 00       		.byte	0
 1245 000c 0000     		.2byte	0
 1246 000e 0000     		.2byte	0
 1247 0010 00000000 		.4byte	.LFB3
 1248 0014 02000000 		.4byte	.LFE3-.LFB3
 1249 0018 00000000 		.4byte	.LFB4
 1250 001c 0C000000 		.4byte	.LFE4-.LFB4
 1251 0020 00000000 		.4byte	.LFB5
 1252 0024 0C000000 		.4byte	.LFE5-.LFB5
 1253 0028 00000000 		.4byte	.LFB6
 1254 002c 20000000 		.4byte	.LFE6-.LFB6
 1255 0030 00000000 		.4byte	.LFB7
 1256 0034 10000000 		.4byte	.LFE7-.LFB7
 1257 0038 00000000 		.4byte	.LFB8
 1258 003c 10000000 		.4byte	.LFE8-.LFB8
 1259 0040 00000000 		.4byte	.LFB9
 1260 0044 14000000 		.4byte	.LFE9-.LFB9
 1261 0048 00000000 		.4byte	.LFB10
 1262 004c 10000000 		.4byte	.LFE10-.LFB10
 1263 0050 00000000 		.4byte	.LFB0
 1264 0054 1C000000 		.4byte	.LFE0-.LFB0
 1265 0058 00000000 		.4byte	.LFB1
 1266 005c 1A000000 		.4byte	.LFE1-.LFB1
 1267 0060 00000000 		.4byte	.LFB2
 1268 0064 14000000 		.4byte	.LFE2-.LFB2
 1269 0068 00000000 		.4byte	.LFB11
 1270 006c 10000000 		.4byte	.LFE11-.LFB11
 1271 0070 00000000 		.4byte	.LFB12
 1272 0074 10000000 		.4byte	.LFE12-.LFB12
 1273 0078 00000000 		.4byte	0
 1274 007c 00000000 		.4byte	0
 1275              		.section	.debug_ranges,"",%progbits
 1276              	.Ldebug_ranges0:
 1277 0000 00000000 		.4byte	.LFB3
 1278 0004 02000000 		.4byte	.LFE3
 1279 0008 00000000 		.4byte	.LFB4
 1280 000c 0C000000 		.4byte	.LFE4
 1281 0010 00000000 		.4byte	.LFB5
 1282 0014 0C000000 		.4byte	.LFE5
 1283 0018 00000000 		.4byte	.LFB6
 1284 001c 20000000 		.4byte	.LFE6
 1285 0020 00000000 		.4byte	.LFB7
 1286 0024 10000000 		.4byte	.LFE7
 1287 0028 00000000 		.4byte	.LFB8
 1288 002c 10000000 		.4byte	.LFE8
 1289 0030 00000000 		.4byte	.LFB9
 1290 0034 14000000 		.4byte	.LFE9
 1291 0038 00000000 		.4byte	.LFB10
 1292 003c 10000000 		.4byte	.LFE10
ARM GAS  C:\Users\JOSEAN~1\AppData\Local\Temp\cctph3Gx.s 			page 31


 1293 0040 00000000 		.4byte	.LFB0
 1294 0044 1C000000 		.4byte	.LFE0
 1295 0048 00000000 		.4byte	.LFB1
 1296 004c 1A000000 		.4byte	.LFE1
 1297 0050 00000000 		.4byte	.LFB2
 1298 0054 14000000 		.4byte	.LFE2
 1299 0058 00000000 		.4byte	.LFB11
 1300 005c 10000000 		.4byte	.LFE11
 1301 0060 00000000 		.4byte	.LFB12
 1302 0064 10000000 		.4byte	.LFE12
 1303 0068 00000000 		.4byte	0
 1304 006c 00000000 		.4byte	0
 1305              		.section	.debug_line,"",%progbits
 1306              	.Ldebug_line0:
 1307 0000 51010000 		.section	.debug_str,"MS",%progbits,1
 1307      02005100 
 1307      00000201 
 1307      FB0E0D00 
 1307      01010101 
 1308              	.LASF24:
 1309 0000 6973725F 		.ascii	"isr_speed_Interrupt\000"
 1309      73706565 
 1309      645F496E 
 1309      74657272 
 1309      75707400 
 1310              	.LASF14:
 1311 0014 72656733 		.ascii	"reg32\000"
 1311      3200
 1312              	.LASF40:
 1313 001a 43795261 		.ascii	"CyRamVectors\000"
 1313      6D566563 
 1313      746F7273 
 1313      00
 1314              	.LASF3:
 1315 0027 73686F72 		.ascii	"short unsigned int\000"
 1315      7420756E 
 1315      7369676E 
 1315      65642069 
 1315      6E7400
 1316              	.LASF19:
 1317 003a 6973725F 		.ascii	"isr_speed_SetPriority\000"
 1317      73706565 
 1317      645F5365 
 1317      74507269 
 1317      6F726974 
 1318              	.LASF38:
 1319 0050 443A5C44 		.ascii	"D:\\Documentos\\UNIVERSIDAD\\TFG\\CY8CKIT-037_Docum"
 1319      6F63756D 
 1319      656E746F 
 1319      735C554E 
 1319      49564552 
 1320 007f 656E7461 		.ascii	"entacion\\CONTROLBRUSHLESScodigoLimpio\\Sensored\\B"
 1320      63696F6E 
 1320      5C434F4E 
 1320      54524F4C 
 1320      42525553 
 1321 00af 4C44436D 		.ascii	"LDCmotorControl\\Sensored.cydsn\000"
ARM GAS  C:\Users\JOSEAN~1\AppData\Local\Temp\cctph3Gx.s 			page 32


 1321      6F746F72 
 1321      436F6E74 
 1321      726F6C5C 
 1321      53656E73 
 1322              	.LASF11:
 1323 00ce 666C6F61 		.ascii	"float\000"
 1323      7400
 1324              	.LASF30:
 1325 00d4 6973725F 		.ascii	"isr_speed_StartEx\000"
 1325      73706565 
 1325      645F5374 
 1325      61727445 
 1325      7800
 1326              	.LASF7:
 1327 00e6 6C6F6E67 		.ascii	"long long unsigned int\000"
 1327      206C6F6E 
 1327      6720756E 
 1327      7369676E 
 1327      65642069 
 1328              	.LASF39:
 1329 00fd 6973725F 		.ascii	"isr_speed_GetPriority\000"
 1329      73706565 
 1329      645F4765 
 1329      74507269 
 1329      6F726974 
 1330              	.LASF1:
 1331 0113 756E7369 		.ascii	"unsigned char\000"
 1331      676E6564 
 1331      20636861 
 1331      7200
 1332              	.LASF22:
 1333 0121 696E7465 		.ascii	"interruptState\000"
 1333      72727570 
 1333      74537461 
 1333      746500
 1334              	.LASF5:
 1335 0130 6C6F6E67 		.ascii	"long unsigned int\000"
 1335      20756E73 
 1335      69676E65 
 1335      6420696E 
 1335      7400
 1336              	.LASF27:
 1337 0142 6973725F 		.ascii	"isr_speed_GetState\000"
 1337      73706565 
 1337      645F4765 
 1337      74537461 
 1337      746500
 1338              	.LASF9:
 1339 0155 75696E74 		.ascii	"uint8\000"
 1339      3800
 1340              	.LASF18:
 1341 015b 6973725F 		.ascii	"isr_speed_SetVector\000"
 1341      73706565 
 1341      645F5365 
 1341      74566563 
 1341      746F7200 
 1342              	.LASF21:
ARM GAS  C:\Users\JOSEAN~1\AppData\Local\Temp\cctph3Gx.s 			page 33


 1343 016f 7072696F 		.ascii	"priority\000"
 1343      72697479 
 1343      00
 1344              	.LASF12:
 1345 0178 646F7562 		.ascii	"double\000"
 1345      6C6500
 1346              	.LASF33:
 1347 017f 6973725F 		.ascii	"isr_speed_ClearPending\000"
 1347      73706565 
 1347      645F436C 
 1347      65617250 
 1347      656E6469 
 1348              	.LASF32:
 1349 0196 6973725F 		.ascii	"isr_speed_SetPending\000"
 1349      73706565 
 1349      645F5365 
 1349      7450656E 
 1349      64696E67 
 1350              	.LASF10:
 1351 01ab 75696E74 		.ascii	"uint32\000"
 1351      333200
 1352              	.LASF34:
 1353 01b2 4379456E 		.ascii	"CyEnterCriticalSection\000"
 1353      74657243 
 1353      72697469 
 1353      63616C53 
 1353      65637469 
 1354              	.LASF8:
 1355 01c9 756E7369 		.ascii	"unsigned int\000"
 1355      676E6564 
 1355      20696E74 
 1355      00
 1356              	.LASF20:
 1357 01d6 61646472 		.ascii	"address\000"
 1357      65737300 
 1358              	.LASF35:
 1359 01de 43794578 		.ascii	"CyExitCriticalSection\000"
 1359      69744372 
 1359      69746963 
 1359      616C5365 
 1359      6374696F 
 1360              	.LASF31:
 1361 01f4 6973725F 		.ascii	"isr_speed_Stop\000"
 1361      73706565 
 1361      645F5374 
 1361      6F7000
 1362              	.LASF15:
 1363 0203 63796973 		.ascii	"cyisraddress\000"
 1363      72616464 
 1363      72657373 
 1363      00
 1364              	.LASF36:
 1365 0210 474E5520 		.ascii	"GNU C11 5.4.1 20160609 (release) [ARM/embedded-5-br"
 1365      43313120 
 1365      352E342E 
 1365      31203230 
 1365      31363036 
ARM GAS  C:\Users\JOSEAN~1\AppData\Local\Temp\cctph3Gx.s 			page 34


 1366 0243 616E6368 		.ascii	"anch revision 237715] -mcpu=cortex-m0 -mthumb -g -O"
 1366      20726576 
 1366      6973696F 
 1366      6E203233 
 1366      37373135 
 1367 0276 67202D66 		.ascii	"g -ffunction-sections -ffat-lto-objects\000"
 1367      66756E63 
 1367      74696F6E 
 1367      2D736563 
 1367      74696F6E 
 1368              	.LASF25:
 1369 029e 6973725F 		.ascii	"isr_speed_Enable\000"
 1369      73706565 
 1369      645F456E 
 1369      61626C65 
 1369      00
 1370              	.LASF37:
 1371 02af 47656E65 		.ascii	"Generated_Source\\PSoC4\\isr_speed.c\000"
 1371      72617465 
 1371      645F536F 
 1371      75726365 
 1371      5C50536F 
 1372              	.LASF17:
 1373 02d2 73697A65 		.ascii	"sizetype\000"
 1373      74797065 
 1373      00
 1374              	.LASF6:
 1375 02db 6C6F6E67 		.ascii	"long long int\000"
 1375      206C6F6E 
 1375      6720696E 
 1375      7400
 1376              	.LASF13:
 1377 02e9 63686172 		.ascii	"char\000"
 1377      00
 1378              	.LASF2:
 1379 02ee 73686F72 		.ascii	"short int\000"
 1379      7420696E 
 1379      7400
 1380              	.LASF29:
 1381 02f8 6973725F 		.ascii	"isr_speed_Start\000"
 1381      73706565 
 1381      645F5374 
 1381      61727400 
 1382              	.LASF23:
 1383 0308 7072696F 		.ascii	"priorityOffset\000"
 1383      72697479 
 1383      4F666673 
 1383      657400
 1384              	.LASF4:
 1385 0317 6C6F6E67 		.ascii	"long int\000"
 1385      20696E74 
 1385      00
 1386              	.LASF16:
 1387 0320 6C6F6E67 		.ascii	"long double\000"
 1387      20646F75 
 1387      626C6500 
 1388              	.LASF0:
ARM GAS  C:\Users\JOSEAN~1\AppData\Local\Temp\cctph3Gx.s 			page 35


 1389 032c 7369676E 		.ascii	"signed char\000"
 1389      65642063 
 1389      68617200 
 1390              	.LASF28:
 1391 0338 6973725F 		.ascii	"isr_speed_Disable\000"
 1391      73706565 
 1391      645F4469 
 1391      7361626C 
 1391      6500
 1392              	.LASF26:
 1393 034a 6973725F 		.ascii	"isr_speed_GetVector\000"
 1393      73706565 
 1393      645F4765 
 1393      74566563 
 1393      746F7200 
 1394              		.ident	"GCC: (GNU Tools for ARM Embedded Processors) 5.4.1 20160609 (release) [ARM/embedded-5-bran
