ARM GAS  C:\Users\JOSEAN~1\AppData\Local\Temp\ccDbBqAA.s 			page 1


   1              		.syntax unified
   2              		.cpu cortex-m3
   3              		.fpu softvfp
   4              		.eabi_attribute 20, 1
   5              		.eabi_attribute 21, 1
   6              		.eabi_attribute 23, 3
   7              		.eabi_attribute 24, 1
   8              		.eabi_attribute 25, 1
   9              		.eabi_attribute 26, 1
  10              		.eabi_attribute 30, 6
  11              		.eabi_attribute 34, 1
  12              		.eabi_attribute 18, 4
  13              		.thumb
  14              		.file	"cyutils.c"
  15              		.text
  16              	.Ltext0:
  17              		.cfi_sections	.debug_frame
  18              		.section	.text.CySetReg24,"ax",%progbits
  19              		.align	2
  20              		.global	CySetReg24
  21              		.thumb
  22              		.thumb_func
  23              		.type	CySetReg24, %function
  24              	CySetReg24:
  25              	.LFB0:
  26              		.file 1 ".\\Generated_Source\\PSoC5\\cyutils.c"
   1:.\Generated_Source\PSoC5/cyutils.c **** /*******************************************************************************
   2:.\Generated_Source\PSoC5/cyutils.c **** * FILENAME: cyutils.c
   3:.\Generated_Source\PSoC5/cyutils.c **** * Version 4.20
   4:.\Generated_Source\PSoC5/cyutils.c **** *
   5:.\Generated_Source\PSoC5/cyutils.c **** *  Description:
   6:.\Generated_Source\PSoC5/cyutils.c **** *   CyUtils provides a function to handle 24-bit value writes.
   7:.\Generated_Source\PSoC5/cyutils.c **** *
   8:.\Generated_Source\PSoC5/cyutils.c **** ********************************************************************************
   9:.\Generated_Source\PSoC5/cyutils.c **** * Copyright 2008-2014, Cypress Semiconductor Corporation.  All rights reserved.
  10:.\Generated_Source\PSoC5/cyutils.c **** * You may use this file only in accordance with the license, terms, conditions,
  11:.\Generated_Source\PSoC5/cyutils.c **** * disclaimers, and limitations in the end user license agreement accompanying
  12:.\Generated_Source\PSoC5/cyutils.c **** * the software package with which this file was provided.
  13:.\Generated_Source\PSoC5/cyutils.c **** *******************************************************************************/
  14:.\Generated_Source\PSoC5/cyutils.c **** 
  15:.\Generated_Source\PSoC5/cyutils.c **** #include "cytypes.h"
  16:.\Generated_Source\PSoC5/cyutils.c **** 
  17:.\Generated_Source\PSoC5/cyutils.c **** #if (!CY_PSOC3)
  18:.\Generated_Source\PSoC5/cyutils.c **** 
  19:.\Generated_Source\PSoC5/cyutils.c ****     /***************************************************************************
  20:.\Generated_Source\PSoC5/cyutils.c ****     * Function Name: CySetReg24
  21:.\Generated_Source\PSoC5/cyutils.c ****     ****************************************************************************
  22:.\Generated_Source\PSoC5/cyutils.c ****     *
  23:.\Generated_Source\PSoC5/cyutils.c ****     * Summary:
  24:.\Generated_Source\PSoC5/cyutils.c ****     *  Writes a 24-bit value to the specified register.
  25:.\Generated_Source\PSoC5/cyutils.c ****     *
  26:.\Generated_Source\PSoC5/cyutils.c ****     * Parameters:
  27:.\Generated_Source\PSoC5/cyutils.c ****     *  addr : the address where data must be written.
  28:.\Generated_Source\PSoC5/cyutils.c ****     *  value: the data that must be written.
  29:.\Generated_Source\PSoC5/cyutils.c ****     *
  30:.\Generated_Source\PSoC5/cyutils.c ****     * Return:
  31:.\Generated_Source\PSoC5/cyutils.c ****     *  None
ARM GAS  C:\Users\JOSEAN~1\AppData\Local\Temp\ccDbBqAA.s 			page 2


  32:.\Generated_Source\PSoC5/cyutils.c ****     *
  33:.\Generated_Source\PSoC5/cyutils.c ****     * Reentrant:
  34:.\Generated_Source\PSoC5/cyutils.c ****     *  No
  35:.\Generated_Source\PSoC5/cyutils.c ****     *
  36:.\Generated_Source\PSoC5/cyutils.c ****     ***************************************************************************/
  37:.\Generated_Source\PSoC5/cyutils.c ****     void CySetReg24(uint32 volatile * addr, uint32 value)
  38:.\Generated_Source\PSoC5/cyutils.c ****     {
  27              		.loc 1 38 0
  28              		.cfi_startproc
  29              		@ args = 0, pretend = 0, frame = 16
  30              		@ frame_needed = 1, uses_anonymous_args = 0
  31              		@ link register save eliminated.
  32 0000 80B4     		push	{r7}
  33              		.cfi_def_cfa_offset 4
  34              		.cfi_offset 7, -4
  35 0002 85B0     		sub	sp, sp, #20
  36              		.cfi_def_cfa_offset 24
  37 0004 00AF     		add	r7, sp, #0
  38              		.cfi_def_cfa_register 7
  39 0006 7860     		str	r0, [r7, #4]
  40 0008 3960     		str	r1, [r7]
  39:.\Generated_Source\PSoC5/cyutils.c ****         uint8 volatile *tmpAddr;
  40:.\Generated_Source\PSoC5/cyutils.c **** 
  41:.\Generated_Source\PSoC5/cyutils.c ****         tmpAddr = (uint8 volatile *) addr;
  41              		.loc 1 41 0
  42 000a 7B68     		ldr	r3, [r7, #4]
  43 000c FB60     		str	r3, [r7, #12]
  42:.\Generated_Source\PSoC5/cyutils.c **** 
  43:.\Generated_Source\PSoC5/cyutils.c ****         tmpAddr[0u] = (uint8) value;
  44              		.loc 1 43 0
  45 000e 3B68     		ldr	r3, [r7]
  46 0010 DAB2     		uxtb	r2, r3
  47 0012 FB68     		ldr	r3, [r7, #12]
  48 0014 1A70     		strb	r2, [r3]
  44:.\Generated_Source\PSoC5/cyutils.c ****         tmpAddr[1u] = (uint8) (value >> 8u);
  49              		.loc 1 44 0
  50 0016 FB68     		ldr	r3, [r7, #12]
  51 0018 0133     		adds	r3, r3, #1
  52 001a 3A68     		ldr	r2, [r7]
  53 001c 120A     		lsrs	r2, r2, #8
  54 001e D2B2     		uxtb	r2, r2
  55 0020 1A70     		strb	r2, [r3]
  45:.\Generated_Source\PSoC5/cyutils.c ****         tmpAddr[2u] = (uint8) (value >> 16u);
  56              		.loc 1 45 0
  57 0022 FB68     		ldr	r3, [r7, #12]
  58 0024 0233     		adds	r3, r3, #2
  59 0026 3A68     		ldr	r2, [r7]
  60 0028 120C     		lsrs	r2, r2, #16
  61 002a D2B2     		uxtb	r2, r2
  62 002c 1A70     		strb	r2, [r3]
  46:.\Generated_Source\PSoC5/cyutils.c ****     }
  63              		.loc 1 46 0
  64 002e 1437     		adds	r7, r7, #20
  65 0030 BD46     		mov	sp, r7
  66              		@ sp needed
  67 0032 5DF8047B 		ldr	r7, [sp], #4
  68 0036 7047     		bx	lr
ARM GAS  C:\Users\JOSEAN~1\AppData\Local\Temp\ccDbBqAA.s 			page 3


  69              		.cfi_endproc
  70              	.LFE0:
  71              		.size	CySetReg24, .-CySetReg24
  72              		.text
  73              	.Letext0:
  74              		.file 2 ".\\Generated_Source\\PSoC5\\cytypes.h"
  75              		.section	.debug_info,"",%progbits
  76              	.Ldebug_info0:
  77 0000 E9000000 		.4byte	0xe9
  78 0004 0400     		.2byte	0x4
  79 0006 00000000 		.4byte	.Ldebug_abbrev0
  80 000a 04       		.byte	0x4
  81 000b 01       		.uleb128 0x1
  82 000c AC000000 		.4byte	.LASF16
  83 0010 01       		.byte	0x1
  84 0011 06000000 		.4byte	.LASF17
  85 0015 60010000 		.4byte	.LASF18
  86 0019 00000000 		.4byte	.Ldebug_ranges0+0
  87 001d 00000000 		.4byte	0
  88 0021 00000000 		.4byte	.Ldebug_line0
  89 0025 02       		.uleb128 0x2
  90 0026 01       		.byte	0x1
  91 0027 06       		.byte	0x6
  92 0028 54010000 		.4byte	.LASF0
  93 002c 02       		.uleb128 0x2
  94 002d 01       		.byte	0x1
  95 002e 08       		.byte	0x8
  96 002f 3F000000 		.4byte	.LASF1
  97 0033 02       		.uleb128 0x2
  98 0034 02       		.byte	0x2
  99 0035 05       		.byte	0x5
 100 0036 3B010000 		.4byte	.LASF2
 101 003a 02       		.uleb128 0x2
 102 003b 02       		.byte	0x2
 103 003c 07       		.byte	0x7
 104 003d 67000000 		.4byte	.LASF3
 105 0041 02       		.uleb128 0x2
 106 0042 04       		.byte	0x4
 107 0043 05       		.byte	0x5
 108 0044 4B010000 		.4byte	.LASF4
 109 0048 02       		.uleb128 0x2
 110 0049 04       		.byte	0x4
 111 004a 07       		.byte	0x7
 112 004b 55000000 		.4byte	.LASF5
 113 004f 02       		.uleb128 0x2
 114 0050 08       		.byte	0x8
 115 0051 05       		.byte	0x5
 116 0052 28010000 		.4byte	.LASF6
 117 0056 02       		.uleb128 0x2
 118 0057 08       		.byte	0x8
 119 0058 07       		.byte	0x7
 120 0059 95000000 		.4byte	.LASF7
 121 005d 03       		.uleb128 0x3
 122 005e 04       		.byte	0x4
 123 005f 05       		.byte	0x5
 124 0060 696E7400 		.ascii	"int\000"
 125 0064 02       		.uleb128 0x2
ARM GAS  C:\Users\JOSEAN~1\AppData\Local\Temp\ccDbBqAA.s 			page 4


 126 0065 04       		.byte	0x4
 127 0066 07       		.byte	0x7
 128 0067 88000000 		.4byte	.LASF8
 129 006b 04       		.uleb128 0x4
 130 006c 45010000 		.4byte	.LASF9
 131 0070 02       		.byte	0x2
 132 0071 A1       		.byte	0xa1
 133 0072 2C000000 		.4byte	0x2c
 134 0076 04       		.uleb128 0x4
 135 0077 81000000 		.4byte	.LASF10
 136 007b 02       		.byte	0x2
 137 007c A3       		.byte	0xa3
 138 007d 48000000 		.4byte	0x48
 139 0081 02       		.uleb128 0x2
 140 0082 04       		.byte	0x4
 141 0083 04       		.byte	0x4
 142 0084 39000000 		.4byte	.LASF11
 143 0088 02       		.uleb128 0x2
 144 0089 08       		.byte	0x8
 145 008a 04       		.byte	0x4
 146 008b 7A000000 		.4byte	.LASF12
 147 008f 02       		.uleb128 0x2
 148 0090 01       		.byte	0x1
 149 0091 08       		.byte	0x8
 150 0092 36010000 		.4byte	.LASF13
 151 0096 05       		.uleb128 0x5
 152 0097 6B000000 		.4byte	0x6b
 153 009b 05       		.uleb128 0x5
 154 009c 76000000 		.4byte	0x76
 155 00a0 06       		.uleb128 0x6
 156 00a1 29000000 		.4byte	.LASF19
 157 00a5 01       		.byte	0x1
 158 00a6 25       		.byte	0x25
 159 00a7 00000000 		.4byte	.LFB0
 160 00ab 38000000 		.4byte	.LFE0-.LFB0
 161 00af 01       		.uleb128 0x1
 162 00b0 9C       		.byte	0x9c
 163 00b1 E0000000 		.4byte	0xe0
 164 00b5 07       		.uleb128 0x7
 165 00b6 34000000 		.4byte	.LASF14
 166 00ba 01       		.byte	0x1
 167 00bb 25       		.byte	0x25
 168 00bc E0000000 		.4byte	0xe0
 169 00c0 02       		.uleb128 0x2
 170 00c1 91       		.byte	0x91
 171 00c2 6C       		.sleb128 -20
 172 00c3 07       		.uleb128 0x7
 173 00c4 00000000 		.4byte	.LASF15
 174 00c8 01       		.byte	0x1
 175 00c9 25       		.byte	0x25
 176 00ca 76000000 		.4byte	0x76
 177 00ce 02       		.uleb128 0x2
 178 00cf 91       		.byte	0x91
 179 00d0 68       		.sleb128 -24
 180 00d1 08       		.uleb128 0x8
 181 00d2 4D000000 		.4byte	.LASF20
 182 00d6 01       		.byte	0x1
ARM GAS  C:\Users\JOSEAN~1\AppData\Local\Temp\ccDbBqAA.s 			page 5


 183 00d7 27       		.byte	0x27
 184 00d8 E6000000 		.4byte	0xe6
 185 00dc 02       		.uleb128 0x2
 186 00dd 91       		.byte	0x91
 187 00de 74       		.sleb128 -12
 188 00df 00       		.byte	0
 189 00e0 09       		.uleb128 0x9
 190 00e1 04       		.byte	0x4
 191 00e2 9B000000 		.4byte	0x9b
 192 00e6 09       		.uleb128 0x9
 193 00e7 04       		.byte	0x4
 194 00e8 96000000 		.4byte	0x96
 195 00ec 00       		.byte	0
 196              		.section	.debug_abbrev,"",%progbits
 197              	.Ldebug_abbrev0:
 198 0000 01       		.uleb128 0x1
 199 0001 11       		.uleb128 0x11
 200 0002 01       		.byte	0x1
 201 0003 25       		.uleb128 0x25
 202 0004 0E       		.uleb128 0xe
 203 0005 13       		.uleb128 0x13
 204 0006 0B       		.uleb128 0xb
 205 0007 03       		.uleb128 0x3
 206 0008 0E       		.uleb128 0xe
 207 0009 1B       		.uleb128 0x1b
 208 000a 0E       		.uleb128 0xe
 209 000b 55       		.uleb128 0x55
 210 000c 17       		.uleb128 0x17
 211 000d 11       		.uleb128 0x11
 212 000e 01       		.uleb128 0x1
 213 000f 10       		.uleb128 0x10
 214 0010 17       		.uleb128 0x17
 215 0011 00       		.byte	0
 216 0012 00       		.byte	0
 217 0013 02       		.uleb128 0x2
 218 0014 24       		.uleb128 0x24
 219 0015 00       		.byte	0
 220 0016 0B       		.uleb128 0xb
 221 0017 0B       		.uleb128 0xb
 222 0018 3E       		.uleb128 0x3e
 223 0019 0B       		.uleb128 0xb
 224 001a 03       		.uleb128 0x3
 225 001b 0E       		.uleb128 0xe
 226 001c 00       		.byte	0
 227 001d 00       		.byte	0
 228 001e 03       		.uleb128 0x3
 229 001f 24       		.uleb128 0x24
 230 0020 00       		.byte	0
 231 0021 0B       		.uleb128 0xb
 232 0022 0B       		.uleb128 0xb
 233 0023 3E       		.uleb128 0x3e
 234 0024 0B       		.uleb128 0xb
 235 0025 03       		.uleb128 0x3
 236 0026 08       		.uleb128 0x8
 237 0027 00       		.byte	0
 238 0028 00       		.byte	0
 239 0029 04       		.uleb128 0x4
ARM GAS  C:\Users\JOSEAN~1\AppData\Local\Temp\ccDbBqAA.s 			page 6


 240 002a 16       		.uleb128 0x16
 241 002b 00       		.byte	0
 242 002c 03       		.uleb128 0x3
 243 002d 0E       		.uleb128 0xe
 244 002e 3A       		.uleb128 0x3a
 245 002f 0B       		.uleb128 0xb
 246 0030 3B       		.uleb128 0x3b
 247 0031 0B       		.uleb128 0xb
 248 0032 49       		.uleb128 0x49
 249 0033 13       		.uleb128 0x13
 250 0034 00       		.byte	0
 251 0035 00       		.byte	0
 252 0036 05       		.uleb128 0x5
 253 0037 35       		.uleb128 0x35
 254 0038 00       		.byte	0
 255 0039 49       		.uleb128 0x49
 256 003a 13       		.uleb128 0x13
 257 003b 00       		.byte	0
 258 003c 00       		.byte	0
 259 003d 06       		.uleb128 0x6
 260 003e 2E       		.uleb128 0x2e
 261 003f 01       		.byte	0x1
 262 0040 3F       		.uleb128 0x3f
 263 0041 19       		.uleb128 0x19
 264 0042 03       		.uleb128 0x3
 265 0043 0E       		.uleb128 0xe
 266 0044 3A       		.uleb128 0x3a
 267 0045 0B       		.uleb128 0xb
 268 0046 3B       		.uleb128 0x3b
 269 0047 0B       		.uleb128 0xb
 270 0048 27       		.uleb128 0x27
 271 0049 19       		.uleb128 0x19
 272 004a 11       		.uleb128 0x11
 273 004b 01       		.uleb128 0x1
 274 004c 12       		.uleb128 0x12
 275 004d 06       		.uleb128 0x6
 276 004e 40       		.uleb128 0x40
 277 004f 18       		.uleb128 0x18
 278 0050 9742     		.uleb128 0x2117
 279 0052 19       		.uleb128 0x19
 280 0053 01       		.uleb128 0x1
 281 0054 13       		.uleb128 0x13
 282 0055 00       		.byte	0
 283 0056 00       		.byte	0
 284 0057 07       		.uleb128 0x7
 285 0058 05       		.uleb128 0x5
 286 0059 00       		.byte	0
 287 005a 03       		.uleb128 0x3
 288 005b 0E       		.uleb128 0xe
 289 005c 3A       		.uleb128 0x3a
 290 005d 0B       		.uleb128 0xb
 291 005e 3B       		.uleb128 0x3b
 292 005f 0B       		.uleb128 0xb
 293 0060 49       		.uleb128 0x49
 294 0061 13       		.uleb128 0x13
 295 0062 02       		.uleb128 0x2
 296 0063 18       		.uleb128 0x18
ARM GAS  C:\Users\JOSEAN~1\AppData\Local\Temp\ccDbBqAA.s 			page 7


 297 0064 00       		.byte	0
 298 0065 00       		.byte	0
 299 0066 08       		.uleb128 0x8
 300 0067 34       		.uleb128 0x34
 301 0068 00       		.byte	0
 302 0069 03       		.uleb128 0x3
 303 006a 0E       		.uleb128 0xe
 304 006b 3A       		.uleb128 0x3a
 305 006c 0B       		.uleb128 0xb
 306 006d 3B       		.uleb128 0x3b
 307 006e 0B       		.uleb128 0xb
 308 006f 49       		.uleb128 0x49
 309 0070 13       		.uleb128 0x13
 310 0071 02       		.uleb128 0x2
 311 0072 18       		.uleb128 0x18
 312 0073 00       		.byte	0
 313 0074 00       		.byte	0
 314 0075 09       		.uleb128 0x9
 315 0076 0F       		.uleb128 0xf
 316 0077 00       		.byte	0
 317 0078 0B       		.uleb128 0xb
 318 0079 0B       		.uleb128 0xb
 319 007a 49       		.uleb128 0x49
 320 007b 13       		.uleb128 0x13
 321 007c 00       		.byte	0
 322 007d 00       		.byte	0
 323 007e 00       		.byte	0
 324              		.section	.debug_aranges,"",%progbits
 325 0000 1C000000 		.4byte	0x1c
 326 0004 0200     		.2byte	0x2
 327 0006 00000000 		.4byte	.Ldebug_info0
 328 000a 04       		.byte	0x4
 329 000b 00       		.byte	0
 330 000c 0000     		.2byte	0
 331 000e 0000     		.2byte	0
 332 0010 00000000 		.4byte	.LFB0
 333 0014 38000000 		.4byte	.LFE0-.LFB0
 334 0018 00000000 		.4byte	0
 335 001c 00000000 		.4byte	0
 336              		.section	.debug_ranges,"",%progbits
 337              	.Ldebug_ranges0:
 338 0000 00000000 		.4byte	.LFB0
 339 0004 38000000 		.4byte	.LFE0
 340 0008 00000000 		.4byte	0
 341 000c 00000000 		.4byte	0
 342              		.section	.debug_line,"",%progbits
 343              	.Ldebug_line0:
 344 0000 60000000 		.section	.debug_str,"MS",%progbits,1
 344      02004600 
 344      00000201 
 344      FB0E0D00 
 344      01010101 
 345              	.LASF15:
 346 0000 76616C75 		.ascii	"value\000"
 346      6500
 347              	.LASF17:
 348 0006 2E5C4765 		.ascii	".\\Generated_Source\\PSoC5\\cyutils.c\000"
ARM GAS  C:\Users\JOSEAN~1\AppData\Local\Temp\ccDbBqAA.s 			page 8


 348      6E657261 
 348      7465645F 
 348      536F7572 
 348      63655C50 
 349              	.LASF19:
 350 0029 43795365 		.ascii	"CySetReg24\000"
 350      74526567 
 350      323400
 351              	.LASF14:
 352 0034 61646472 		.ascii	"addr\000"
 352      00
 353              	.LASF11:
 354 0039 666C6F61 		.ascii	"float\000"
 354      7400
 355              	.LASF1:
 356 003f 756E7369 		.ascii	"unsigned char\000"
 356      676E6564 
 356      20636861 
 356      7200
 357              	.LASF20:
 358 004d 746D7041 		.ascii	"tmpAddr\000"
 358      64647200 
 359              	.LASF5:
 360 0055 6C6F6E67 		.ascii	"long unsigned int\000"
 360      20756E73 
 360      69676E65 
 360      6420696E 
 360      7400
 361              	.LASF3:
 362 0067 73686F72 		.ascii	"short unsigned int\000"
 362      7420756E 
 362      7369676E 
 362      65642069 
 362      6E7400
 363              	.LASF12:
 364 007a 646F7562 		.ascii	"double\000"
 364      6C6500
 365              	.LASF10:
 366 0081 75696E74 		.ascii	"uint32\000"
 366      333200
 367              	.LASF8:
 368 0088 756E7369 		.ascii	"unsigned int\000"
 368      676E6564 
 368      20696E74 
 368      00
 369              	.LASF7:
 370 0095 6C6F6E67 		.ascii	"long long unsigned int\000"
 370      206C6F6E 
 370      6720756E 
 370      7369676E 
 370      65642069 
 371              	.LASF16:
 372 00ac 474E5520 		.ascii	"GNU C 4.8.4 20140526 (release) [ARM/embedded-4_8-br"
 372      4320342E 
 372      382E3420 
 372      32303134 
 372      30353236 
ARM GAS  C:\Users\JOSEAN~1\AppData\Local\Temp\ccDbBqAA.s 			page 9


 373 00df 616E6368 		.ascii	"anch revision 211358] -mcpu=cortex-m3 -mthumb -g -O"
 373      20726576 
 373      6973696F 
 373      6E203231 
 373      31333538 
 374 0112 30202D66 		.ascii	"0 -ffunction-sections\000"
 374      66756E63 
 374      74696F6E 
 374      2D736563 
 374      74696F6E 
 375              	.LASF6:
 376 0128 6C6F6E67 		.ascii	"long long int\000"
 376      206C6F6E 
 376      6720696E 
 376      7400
 377              	.LASF13:
 378 0136 63686172 		.ascii	"char\000"
 378      00
 379              	.LASF2:
 380 013b 73686F72 		.ascii	"short int\000"
 380      7420696E 
 380      7400
 381              	.LASF9:
 382 0145 75696E74 		.ascii	"uint8\000"
 382      3800
 383              	.LASF4:
 384 014b 6C6F6E67 		.ascii	"long int\000"
 384      20696E74 
 384      00
 385              	.LASF0:
 386 0154 7369676E 		.ascii	"signed char\000"
 386      65642063 
 386      68617200 
 387              	.LASF18:
 388 0160 473A5C44 		.ascii	"G:\\Documentos\\UNIVERSIDAD\\TFG\\Psoc_Practicas\\P"
 388      6F63756D 
 388      656E746F 
 388      735C554E 
 388      49564552 
 389 018e 72616374 		.ascii	"racticas\\LAB1A.cydsn\000"
 389      69636173 
 389      5C4C4142 
 389      31412E63 
 389      7964736E 
 390              		.ident	"GCC: (GNU Tools for ARM Embedded Processors) 4.8.4 20140526 (release) [ARM/embedded-4_8-br
