\relax 
\providecommand\hyper@newdestlabel[2]{}
\@nameuse{bbl@beforestart}
\catcode `"\active 
\catcode `<\active 
\catcode `>\active 
\@nameuse{es@quoting}
\providecommand\HyperFirstAtBeginDocument{\AtBeginDocument}
\HyperFirstAtBeginDocument{\ifx\hyper@anchor\@undefined
\global\let\oldcontentsline\contentsline
\gdef\contentsline#1#2#3#4{\oldcontentsline{#1}{#2}{#3}}
\global\let\oldnewlabel\newlabel
\gdef\newlabel#1#2{\newlabelxx{#1}#2}
\gdef\newlabelxx#1#2#3#4#5#6{\oldnewlabel{#1}{{#2}{#3}}}
\AtEndDocument{\ifx\hyper@anchor\@undefined
\let\contentsline\oldcontentsline
\let\newlabel\oldnewlabel
\fi}
\fi}
\global\let\hyper@last\relax 
\gdef\HyperFirstAtBeginDocument#1{#1}
\providecommand\HyField@AuxAddToFields[1]{}
\providecommand\HyField@AuxAddToCoFields[2]{}
\babel@aux{spanish}{}
\babel@aux{spanish}{}
\@writefile{toc}{\contentsline {section}{\numberline {1}Comando graficar}{1}{section.1}\protected@file@percent }
\@writefile{toc}{\contentsline {subsection}{\numberline {1.1}Parámetro: trapezoidal}{1}{subsection.1.1}\protected@file@percent }
\@writefile{lof}{\contentsline {figure}{\numberline {1}{\ignorespaces Primera gráfica sólo con las señales de las fases}}{1}{figure.1}\protected@file@percent }
\newlabel{fig:primera}{{1}{1}{Primera gráfica sólo con las señales de las fases}{figure.1}{}}
\@writefile{lof}{\contentsline {figure}{\numberline {2}{\ignorespaces Segunda gráfica}}{2}{figure.2}\protected@file@percent }
\newlabel{fig:segunda}{{2}{2}{Segunda gráfica}{figure.2}{}}
\@writefile{toc}{\contentsline {subsection}{\numberline {1.2}Parámetro: trapezoidaltorque}{3}{subsection.1.2}\protected@file@percent }
\@writefile{lof}{\contentsline {figure}{\numberline {3}{\ignorespaces Graficamos la señal trapezoidal con el torque}}{3}{figure.3}\protected@file@percent }
\newlabel{fig:torquesito}{{3}{3}{Graficamos la señal trapezoidal con el torque}{figure.3}{}}
\@writefile{toc}{\contentsline {subsection}{\numberline {1.3}Parámetro: Todo}{4}{subsection.1.3}\protected@file@percent }
\@writefile{lof}{\contentsline {figure}{\numberline {4}{\ignorespaces Graficamos todo}}{4}{figure.4}\protected@file@percent }
\newlabel{fig:todito}{{4}{4}{Graficamos todo}{figure.4}{}}
\@writefile{toc}{\contentsline {subsection}{\numberline {1.4}Parametro: bemf}{5}{subsection.1.4}\protected@file@percent }
\@writefile{lof}{\contentsline {figure}{\numberline {5}{\ignorespaces Graficamos solo con bemf}}{5}{figure.5}\protected@file@percent }
\newlabel{fig:bemf}{{5}{5}{Graficamos solo con bemf}{figure.5}{}}
\@writefile{toc}{\contentsline {subsection}{\numberline {1.5}Parametro: sinusoidal}{6}{subsection.1.5}\protected@file@percent }
\@writefile{lof}{\contentsline {figure}{\numberline {6}{\ignorespaces Graficamos el modo de control sinusoidal}}{6}{figure.6}\protected@file@percent }
\newlabel{fig:sinu}{{6}{6}{Graficamos el modo de control sinusoidal}{figure.6}{}}
\@writefile{toc}{\contentsline {section}{\numberline {2}Modelos del motor}{6}{section.2}\protected@file@percent }
\@writefile{toc}{\contentsline {subsection}{\numberline {2.1}Parametro: model}{6}{subsection.2.1}\protected@file@percent }
\@writefile{lof}{\contentsline {figure}{\numberline {7}{\ignorespaces Modelo simplificado}}{6}{figure.7}\protected@file@percent }
\newlabel{fig:modmotor}{{7}{6}{Modelo simplificado}{figure.7}{}}
\@writefile{toc}{\contentsline {subsection}{\numberline {2.2}Parametro: conmutacion}{6}{subsection.2.2}\protected@file@percent }
\@writefile{lof}{\contentsline {figure}{\numberline {8}{\ignorespaces Secuencia de conmutacion}}{7}{figure.8}\protected@file@percent }
\newlabel{fig:conmutacion}{{8}{7}{Secuencia de conmutacion}{figure.8}{}}
\@writefile{toc}{\contentsline {section}{\numberline {3}Sensores hall funcionamiento}{7}{section.3}\protected@file@percent }
\@writefile{lof}{\contentsline {figure}{\numberline {9}{\ignorespaces hallb}}{7}{figure.9}\protected@file@percent }
\newlabel{fig:H}{{9}{7}{hallb}{figure.9}{}}
\@writefile{toc}{\contentsline {section}{\numberline {4}BEMF gráficas}{8}{section.4}\protected@file@percent }
\@writefile{toc}{\contentsline {subsection}{\numberline {4.1}Modelo eléctrico del motor brushless}{8}{subsection.4.1}\protected@file@percent }
\@writefile{lof}{\contentsline {figure}{\numberline {10}{\ignorespaces hallb}}{8}{figure.10}\protected@file@percent }
\newlabel{fig:H}{{10}{8}{hallb}{figure.10}{}}
\@writefile{toc}{\contentsline {subsection}{\numberline {4.2}Señal en detalle BEMF}{8}{subsection.4.2}\protected@file@percent }
\@writefile{lof}{\contentsline {figure}{\numberline {11}{\ignorespaces Demostración del cruce por 0 para duty cycle = 100}}{8}{figure.11}\protected@file@percent }
\newlabel{fig:bemfd100}{{11}{8}{Demostración del cruce por 0 para duty cycle = 100}{figure.11}{}}
