ARM GAS  C:\Users\JOSEAN~1\AppData\Local\Temp\ccB3mGwl.s 			page 1


   1              		.syntax unified
   2              		.cpu cortex-m3
   3              		.fpu softvfp
   4              		.eabi_attribute 20, 1
   5              		.eabi_attribute 21, 1
   6              		.eabi_attribute 23, 3
   7              		.eabi_attribute 24, 1
   8              		.eabi_attribute 25, 1
   9              		.eabi_attribute 26, 1
  10              		.eabi_attribute 30, 1
  11              		.eabi_attribute 34, 1
  12              		.eabi_attribute 18, 4
  13              		.thumb
  14              		.syntax unified
  15              		.file	"main.c"
  16              		.text
  17              	.Ltext0:
  18              		.cfi_sections	.debug_frame
  19              		.global	__aeabi_f2d
  20              		.global	__aeabi_fsub
  21              		.global	__aeabi_dmul
  22              		.global	__aeabi_dsub
  23              		.global	__aeabi_d2f
  24              		.section	.text.main,"ax",%progbits
  25              		.align	2
  26              		.global	main
  27              		.thumb
  28              		.thumb_func
  29              		.type	main, %function
  30              	main:
  31              	.LFB64:
  32              		.file 1 "main.c"
   1:main.c        **** /* ========================================
   2:main.c        ****  *
   3:main.c        ****  * Copyright YOUR COMPANY, THE YEAR
   4:main.c        ****  * All Rights Reserved
   5:main.c        ****  * UNPUBLISHED, LICENSED SOFTWARE.
   6:main.c        ****  *
   7:main.c        ****  * CONFIDENTIAL AND PROPRIETARY INFORMATION
   8:main.c        ****  * WHICH IS THE PROPERTY OF your company.
   9:main.c        ****  *
  10:main.c        ****  * ========================================
  11:main.c        **** */
  12:main.c        **** #include "project.h"
  13:main.c        **** #include "stdio.h"
  14:main.c        **** #include "math.h"
  15:main.c        **** 
  16:main.c        **** int32 adc_result; //Lectura del ADC
  17:main.c        **** float v1 = 0.0e-9; //Valor de tensión 1
  18:main.c        **** float v2 = 0.0e-9; //Valor de tensión 2
  19:main.c        **** float temp; //Variable para almacenar la temperatura
  20:main.c        **** 
  21:main.c        **** char str[100]; //String para representar los datos
  22:main.c        **** 
  23:main.c        **** int main(void)
  24:main.c        **** {
  33              		.loc 1 24 0
ARM GAS  C:\Users\JOSEAN~1\AppData\Local\Temp\ccB3mGwl.s 			page 2


  34              		.cfi_startproc
  35              		@ Volatile: function does not return.
  36              		@ args = 0, pretend = 0, frame = 0
  37              		@ frame_needed = 0, uses_anonymous_args = 0
  38 0000 80B5     		push	{r7, lr}
  39              		.cfi_def_cfa_offset 8
  40              		.cfi_offset 7, -8
  41              		.cfi_offset 14, -4
  42 0002 82B0     		sub	sp, sp, #8
  43              		.cfi_def_cfa_offset 16
  25:main.c        ****     CyGlobalIntEnable; /* Enable global interrupts. */
  44              		.loc 1 25 0
  45              		.syntax unified
  46              	@ 25 "main.c" 1
  47 0004 62B6     		CPSIE   i
  48              	@ 0 "" 2
  26:main.c        **** 
  27:main.c        ****     IDAC8_Start();
  49              		.loc 1 27 0
  50              		.thumb
  51              		.syntax unified
  52 0006 FFF7FEFF 		bl	IDAC8_Start
  53              	.LVL0:
  28:main.c        ****     ADC_Start();
  54              		.loc 1 28 0
  55 000a FFF7FEFF 		bl	ADC_Start
  56              	.LVL1:
  29:main.c        ****     UART_Start();
  57              		.loc 1 29 0
  58 000e FFF7FEFF 		bl	UART_Start
  59              	.LVL2:
  60              	.L2:
  30:main.c        ****     
  31:main.c        ****     for(;;)
  32:main.c        ****     {
  33:main.c        ****         IDAC8_SetValue(10); //Ponemos la fuente de corriente a 10uA
  61              		.loc 1 33 0 discriminator 1
  62 0012 0A20     		movs	r0, #10
  63 0014 FFF7FEFF 		bl	IDAC8_SetValue
  64              	.LVL3:
  34:main.c        ****         CyDelay(600);
  65              		.loc 1 34 0 discriminator 1
  66 0018 4FF41670 		mov	r0, #600
  67 001c FFF7FEFF 		bl	CyDelay
  68              	.LVL4:
  35:main.c        ****         ADC_StartConvert(); //Leemos el valor
  69              		.loc 1 35 0 discriminator 1
  70 0020 FFF7FEFF 		bl	ADC_StartConvert
  71              	.LVL5:
  36:main.c        ****         ADC_IsEndConversion(ADC_WAIT_FOR_RESULT);
  72              		.loc 1 36 0 discriminator 1
  73 0024 0020     		movs	r0, #0
  74 0026 FFF7FEFF 		bl	ADC_IsEndConversion
  75              	.LVL6:
  37:main.c        ****         adc_result = ADC_GetResult32(); //Resultado en binario
  76              		.loc 1 37 0 discriminator 1
  77 002a FFF7FEFF 		bl	ADC_GetResult32
ARM GAS  C:\Users\JOSEAN~1\AppData\Local\Temp\ccB3mGwl.s 			page 3


  78              	.LVL7:
  79 002e 324E     		ldr	r6, .L4+16
  80 0030 3060     		str	r0, [r6]
  38:main.c        ****         v1 = ADC_CountsTo_Volts(adc_result); //Resultado en voltios
  81              		.loc 1 38 0 discriminator 1
  82 0032 FFF7FEFF 		bl	ADC_CountsTo_Volts
  83              	.LVL8:
  84 0036 314D     		ldr	r5, .L4+20
  85 0038 2860     		str	r0, [r5]	@ float
  39:main.c        ****         
  40:main.c        ****         sprintf(str, "ADC1: %ld bits, Volts1: %f\n", adc_result, v1);
  86              		.loc 1 40 0 discriminator 1
  87 003a 3768     		ldr	r7, [r6]
  88 003c 304C     		ldr	r4, .L4+24
  89 003e FFF7FEFF 		bl	__aeabi_f2d
  90              	.LVL9:
  91 0042 CDE90001 		strd	r0, [sp]
  92 0046 3A46     		mov	r2, r7
  93 0048 2E49     		ldr	r1, .L4+28
  94 004a 2046     		mov	r0, r4
  95 004c FFF7FEFF 		bl	sprintf
  96              	.LVL10:
  41:main.c        ****         UART_PutString(str);
  97              		.loc 1 41 0 discriminator 1
  98 0050 2046     		mov	r0, r4
  99 0052 FFF7FEFF 		bl	UART_PutString
 100              	.LVL11:
  42:main.c        ****         
  43:main.c        ****         IDAC8_SetValue(100); //Ponemos la fuente de corriente a 100uA  
 101              		.loc 1 43 0 discriminator 1
 102 0056 6420     		movs	r0, #100
 103 0058 FFF7FEFF 		bl	IDAC8_SetValue
 104              	.LVL12:
  44:main.c        ****         CyDelay(600);
 105              		.loc 1 44 0 discriminator 1
 106 005c 4FF41670 		mov	r0, #600
 107 0060 FFF7FEFF 		bl	CyDelay
 108              	.LVL13:
  45:main.c        ****         ADC_StartConvert(); //Leemos el valor de tensión
 109              		.loc 1 45 0 discriminator 1
 110 0064 FFF7FEFF 		bl	ADC_StartConvert
 111              	.LVL14:
  46:main.c        ****         ADC_IsEndConversion(ADC_WAIT_FOR_RESULT);
 112              		.loc 1 46 0 discriminator 1
 113 0068 0020     		movs	r0, #0
 114 006a FFF7FEFF 		bl	ADC_IsEndConversion
 115              	.LVL15:
  47:main.c        ****         adc_result = ADC_GetResult32(); //Resultado en binario
 116              		.loc 1 47 0 discriminator 1
 117 006e FFF7FEFF 		bl	ADC_GetResult32
 118              	.LVL16:
 119 0072 3060     		str	r0, [r6]
  48:main.c        ****         v2 = ADC_CountsTo_Volts(adc_result); //Resultado en voltios
 120              		.loc 1 48 0 discriminator 1
 121 0074 FFF7FEFF 		bl	ADC_CountsTo_Volts
 122              	.LVL17:
 123 0078 6860     		str	r0, [r5, #4]	@ float
ARM GAS  C:\Users\JOSEAN~1\AppData\Local\Temp\ccB3mGwl.s 			page 4


  49:main.c        ****         
  50:main.c        ****         sprintf(str, "ADC2: %ld bits, Volts2: %f\n", adc_result, v2);
 124              		.loc 1 50 0 discriminator 1
 125 007a 3668     		ldr	r6, [r6]
 126 007c FFF7FEFF 		bl	__aeabi_f2d
 127              	.LVL18:
 128 0080 CDE90001 		strd	r0, [sp]
 129 0084 3246     		mov	r2, r6
 130 0086 2049     		ldr	r1, .L4+32
 131 0088 2046     		mov	r0, r4
 132 008a FFF7FEFF 		bl	sprintf
 133              	.LVL19:
  51:main.c        ****         UART_PutString(str);
 134              		.loc 1 51 0 discriminator 1
 135 008e 2046     		mov	r0, r4
 136 0090 FFF7FEFF 		bl	UART_PutString
 137              	.LVL20:
  52:main.c        ****         
  53:main.c        ****         temp = ((v2-v1)*5039.55)-273; //Valor de la temperatura en grados celsius
 138              		.loc 1 53 0 discriminator 1
 139 0094 2968     		ldr	r1, [r5]	@ float
 140 0096 6868     		ldr	r0, [r5, #4]	@ float
 141 0098 FFF7FEFF 		bl	__aeabi_fsub
 142              	.LVL21:
 143 009c FFF7FEFF 		bl	__aeabi_f2d
 144              	.LVL22:
 145 00a0 11A3     		adr	r3, .L4
 146 00a2 D3E90023 		ldrd	r2, [r3]
 147 00a6 FFF7FEFF 		bl	__aeabi_dmul
 148              	.LVL23:
 149 00aa 11A3     		adr	r3, .L4+8
 150 00ac D3E90023 		ldrd	r2, [r3]
 151 00b0 FFF7FEFF 		bl	__aeabi_dsub
 152              	.LVL24:
 153 00b4 FFF7FEFF 		bl	__aeabi_d2f
 154              	.LVL25:
 155 00b8 144B     		ldr	r3, .L4+36
 156 00ba 1860     		str	r0, [r3]	@ float
  54:main.c        ****         
  55:main.c        ****         sprintf(str, "Temperatura: %0.2f\n", temp);
 157              		.loc 1 55 0 discriminator 1
 158 00bc FFF7FEFF 		bl	__aeabi_f2d
 159              	.LVL26:
 160 00c0 0246     		mov	r2, r0
 161 00c2 0B46     		mov	r3, r1
 162 00c4 1249     		ldr	r1, .L4+40
 163 00c6 2046     		mov	r0, r4
 164 00c8 FFF7FEFF 		bl	sprintf
 165              	.LVL27:
  56:main.c        ****         UART_PutString(str);
 166              		.loc 1 56 0 discriminator 1
 167 00cc 2046     		mov	r0, r4
 168 00ce FFF7FEFF 		bl	UART_PutString
 169              	.LVL28:
  57:main.c        ****         UART_PutString("***********************\n");
 170              		.loc 1 57 0 discriminator 1
 171 00d2 1048     		ldr	r0, .L4+44
ARM GAS  C:\Users\JOSEAN~1\AppData\Local\Temp\ccB3mGwl.s 			page 5


 172 00d4 FFF7FEFF 		bl	UART_PutString
 173              	.LVL29:
  58:main.c        ****         CyDelay(2000);
 174              		.loc 1 58 0 discriminator 1
 175 00d8 4FF4FA60 		mov	r0, #2000
 176 00dc FFF7FEFF 		bl	CyDelay
 177              	.LVL30:
 178 00e0 97E7     		b	.L2
 179              	.L5:
 180 00e2 00BFAFF3 		.align	3
 180      0080
 181              	.L4:
 182 00e8 CDCCCCCC 		.word	-858993459
 183 00ec 8CAFB340 		.word	1085517708
 184 00f0 00000000 		.word	0
 185 00f4 00107140 		.word	1081151488
 186 00f8 00000000 		.word	adc_result
 187 00fc 00000000 		.word	.LANCHOR0
 188 0100 00000000 		.word	str
 189 0104 00000000 		.word	.LC0
 190 0108 1C000000 		.word	.LC1
 191 010c 00000000 		.word	temp
 192 0110 38000000 		.word	.LC2
 193 0114 4C000000 		.word	.LC3
 194              		.cfi_endproc
 195              	.LFE64:
 196              		.size	main, .-main
 197              		.comm	str,100,4
 198              		.comm	temp,4,4
 199              		.global	v2
 200              		.global	v1
 201              		.comm	adc_result,4,4
 202              		.section	.rodata.str1.4,"aMS",%progbits,1
 203              		.align	2
 204              	.LC0:
 205 0000 41444331 		.ascii	"ADC1: %ld bits, Volts1: %f\012\000"
 205      3A20256C 
 205      64206269 
 205      74732C20 
 205      566F6C74 
 206              	.LC1:
 207 001c 41444332 		.ascii	"ADC2: %ld bits, Volts2: %f\012\000"
 207      3A20256C 
 207      64206269 
 207      74732C20 
 207      566F6C74 
 208              	.LC2:
 209 0038 54656D70 		.ascii	"Temperatura: %0.2f\012\000"
 209      65726174 
 209      7572613A 
 209      2025302E 
 209      32660A00 
 210              	.LC3:
 211 004c 2A2A2A2A 		.ascii	"***********************\012\000"
 211      2A2A2A2A 
 211      2A2A2A2A 
 211      2A2A2A2A 
ARM GAS  C:\Users\JOSEAN~1\AppData\Local\Temp\ccB3mGwl.s 			page 6


 211      2A2A2A2A 
 212              		.bss
 213              		.align	2
 214              		.set	.LANCHOR0,. + 0
 215              		.type	v1, %object
 216              		.size	v1, 4
 217              	v1:
 218 0000 00000000 		.space	4
 219              		.type	v2, %object
 220              		.size	v2, 4
 221              	v2:
 222 0004 00000000 		.space	4
 223              		.text
 224              	.Letext0:
 225              		.file 2 "c:\\program files (x86)\\cypress\\psoc creator\\4.2\\psoc creator\\import\\gnu\\arm\\5.4.
 226              		.file 3 "c:\\program files (x86)\\cypress\\psoc creator\\4.2\\psoc creator\\import\\gnu\\arm\\5.4.
 227              		.file 4 "Generated_Source\\PSoC5/cytypes.h"
 228              		.file 5 "Generated_Source\\PSoC5/core_cm3.h"
 229              		.file 6 "Generated_Source\\PSoC5/IDAC8.h"
 230              		.file 7 "Generated_Source\\PSoC5/ADC.h"
 231              		.file 8 "Generated_Source\\PSoC5/UART.h"
 232              		.file 9 "Generated_Source\\PSoC5/CyLib.h"
 233              		.file 10 "c:\\program files (x86)\\cypress\\psoc creator\\4.2\\psoc creator\\import\\gnu\\arm\\5.4
 234              		.section	.debug_info,"",%progbits
 235              	.Ldebug_info0:
 236 0000 43030000 		.4byte	0x343
 237 0004 0400     		.2byte	0x4
 238 0006 00000000 		.4byte	.Ldebug_abbrev0
 239 000a 04       		.byte	0x4
 240 000b 01       		.uleb128 0x1
 241 000c 38000000 		.4byte	.LASF31
 242 0010 0C       		.byte	0xc
 243 0011 B0010000 		.4byte	.LASF32
 244 0015 C6010000 		.4byte	.LASF33
 245 0019 00000000 		.4byte	.Ldebug_ranges0+0
 246 001d 00000000 		.4byte	0
 247 0021 00000000 		.4byte	.Ldebug_line0
 248 0025 02       		.uleb128 0x2
 249 0026 01       		.byte	0x1
 250 0027 06       		.byte	0x6
 251 0028 8F020000 		.4byte	.LASF0
 252 002c 02       		.uleb128 0x2
 253 002d 01       		.byte	0x1
 254 002e 08       		.byte	0x8
 255 002f 2A000000 		.4byte	.LASF1
 256 0033 02       		.uleb128 0x2
 257 0034 02       		.byte	0x2
 258 0035 05       		.byte	0x5
 259 0036 BC010000 		.4byte	.LASF2
 260 003a 02       		.uleb128 0x2
 261 003b 02       		.byte	0x2
 262 003c 07       		.byte	0x7
 263 003d 0A000000 		.4byte	.LASF3
 264 0041 03       		.uleb128 0x3
 265 0042 00000000 		.4byte	.LASF9
 266 0046 02       		.byte	0x2
 267 0047 3F       		.byte	0x3f
ARM GAS  C:\Users\JOSEAN~1\AppData\Local\Temp\ccB3mGwl.s 			page 7


 268 0048 4C000000 		.4byte	0x4c
 269 004c 02       		.uleb128 0x2
 270 004d 04       		.byte	0x4
 271 004e 05       		.byte	0x5
 272 004f 7A020000 		.4byte	.LASF4
 273 0053 02       		.uleb128 0x2
 274 0054 04       		.byte	0x4
 275 0055 07       		.byte	0x7
 276 0056 1E010000 		.4byte	.LASF5
 277 005a 02       		.uleb128 0x2
 278 005b 08       		.byte	0x8
 279 005c 05       		.byte	0x5
 280 005d 93010000 		.4byte	.LASF6
 281 0061 02       		.uleb128 0x2
 282 0062 08       		.byte	0x8
 283 0063 07       		.byte	0x7
 284 0064 4E010000 		.4byte	.LASF7
 285 0068 04       		.uleb128 0x4
 286 0069 04       		.byte	0x4
 287 006a 05       		.byte	0x5
 288 006b 696E7400 		.ascii	"int\000"
 289 006f 02       		.uleb128 0x2
 290 0070 04       		.byte	0x4
 291 0071 07       		.byte	0x7
 292 0072 41010000 		.4byte	.LASF8
 293 0076 03       		.uleb128 0x3
 294 0077 6F010000 		.4byte	.LASF10
 295 007b 03       		.byte	0x3
 296 007c 2C       		.byte	0x2c
 297 007d 41000000 		.4byte	0x41
 298 0081 05       		.uleb128 0x5
 299 0082 F0000000 		.4byte	.LASF11
 300 0086 04       		.byte	0x4
 301 0087 E901     		.2byte	0x1e9
 302 0089 4C000000 		.4byte	0x4c
 303 008d 02       		.uleb128 0x2
 304 008e 04       		.byte	0x4
 305 008f 04       		.byte	0x4
 306 0090 24000000 		.4byte	.LASF12
 307 0094 02       		.uleb128 0x2
 308 0095 08       		.byte	0x8
 309 0096 04       		.byte	0x4
 310 0097 1D000000 		.4byte	.LASF13
 311 009b 02       		.uleb128 0x2
 312 009c 01       		.byte	0x1
 313 009d 08       		.byte	0x8
 314 009e B7010000 		.4byte	.LASF14
 315 00a2 02       		.uleb128 0x2
 316 00a3 08       		.byte	0x8
 317 00a4 04       		.byte	0x4
 318 00a5 83020000 		.4byte	.LASF15
 319 00a9 02       		.uleb128 0x2
 320 00aa 04       		.byte	0x4
 321 00ab 07       		.byte	0x7
 322 00ac 77010000 		.4byte	.LASF16
 323 00b0 06       		.uleb128 0x6
 324 00b1 3C010000 		.4byte	.LASF34
ARM GAS  C:\Users\JOSEAN~1\AppData\Local\Temp\ccB3mGwl.s 			page 8


 325 00b5 01       		.byte	0x1
 326 00b6 17       		.byte	0x17
 327 00b7 68000000 		.4byte	0x68
 328 00bb 00000000 		.4byte	.LFB64
 329 00bf 18010000 		.4byte	.LFE64-.LFB64
 330 00c3 01       		.uleb128 0x1
 331 00c4 9C       		.byte	0x9c
 332 00c5 59020000 		.4byte	0x259
 333 00c9 07       		.uleb128 0x7
 334 00ca 0A000000 		.4byte	.LVL0
 335 00ce CD020000 		.4byte	0x2cd
 336 00d2 07       		.uleb128 0x7
 337 00d3 0E000000 		.4byte	.LVL1
 338 00d7 D8020000 		.4byte	0x2d8
 339 00db 07       		.uleb128 0x7
 340 00dc 12000000 		.4byte	.LVL2
 341 00e0 E3020000 		.4byte	0x2e3
 342 00e4 08       		.uleb128 0x8
 343 00e5 18000000 		.4byte	.LVL3
 344 00e9 EE020000 		.4byte	0x2ee
 345 00ed F7000000 		.4byte	0xf7
 346 00f1 09       		.uleb128 0x9
 347 00f2 01       		.uleb128 0x1
 348 00f3 50       		.byte	0x50
 349 00f4 01       		.uleb128 0x1
 350 00f5 3A       		.byte	0x3a
 351 00f6 00       		.byte	0
 352 00f7 08       		.uleb128 0x8
 353 00f8 20000000 		.4byte	.LVL4
 354 00fc F9020000 		.4byte	0x2f9
 355 0100 0C010000 		.4byte	0x10c
 356 0104 09       		.uleb128 0x9
 357 0105 01       		.uleb128 0x1
 358 0106 50       		.byte	0x50
 359 0107 03       		.uleb128 0x3
 360 0108 0A       		.byte	0xa
 361 0109 5802     		.2byte	0x258
 362 010b 00       		.byte	0
 363 010c 07       		.uleb128 0x7
 364 010d 24000000 		.4byte	.LVL5
 365 0111 04030000 		.4byte	0x304
 366 0115 08       		.uleb128 0x8
 367 0116 2A000000 		.4byte	.LVL6
 368 011a 0F030000 		.4byte	0x30f
 369 011e 28010000 		.4byte	0x128
 370 0122 09       		.uleb128 0x9
 371 0123 01       		.uleb128 0x1
 372 0124 50       		.byte	0x50
 373 0125 01       		.uleb128 0x1
 374 0126 30       		.byte	0x30
 375 0127 00       		.byte	0
 376 0128 07       		.uleb128 0x7
 377 0129 2E000000 		.4byte	.LVL7
 378 012d 1A030000 		.4byte	0x31a
 379 0131 07       		.uleb128 0x7
 380 0132 36000000 		.4byte	.LVL8
 381 0136 25030000 		.4byte	0x325
ARM GAS  C:\Users\JOSEAN~1\AppData\Local\Temp\ccB3mGwl.s 			page 9


 382 013a 08       		.uleb128 0x8
 383 013b 50000000 		.4byte	.LVL10
 384 013f 30030000 		.4byte	0x330
 385 0143 5D010000 		.4byte	0x15d
 386 0147 09       		.uleb128 0x9
 387 0148 01       		.uleb128 0x1
 388 0149 50       		.byte	0x50
 389 014a 02       		.uleb128 0x2
 390 014b 74       		.byte	0x74
 391 014c 00       		.sleb128 0
 392 014d 09       		.uleb128 0x9
 393 014e 01       		.uleb128 0x1
 394 014f 51       		.byte	0x51
 395 0150 05       		.uleb128 0x5
 396 0151 03       		.byte	0x3
 397 0152 00000000 		.4byte	.LC0
 398 0156 09       		.uleb128 0x9
 399 0157 01       		.uleb128 0x1
 400 0158 52       		.byte	0x52
 401 0159 02       		.uleb128 0x2
 402 015a 77       		.byte	0x77
 403 015b 00       		.sleb128 0
 404 015c 00       		.byte	0
 405 015d 08       		.uleb128 0x8
 406 015e 56000000 		.4byte	.LVL11
 407 0162 3B030000 		.4byte	0x33b
 408 0166 71010000 		.4byte	0x171
 409 016a 09       		.uleb128 0x9
 410 016b 01       		.uleb128 0x1
 411 016c 50       		.byte	0x50
 412 016d 02       		.uleb128 0x2
 413 016e 74       		.byte	0x74
 414 016f 00       		.sleb128 0
 415 0170 00       		.byte	0
 416 0171 08       		.uleb128 0x8
 417 0172 5C000000 		.4byte	.LVL12
 418 0176 EE020000 		.4byte	0x2ee
 419 017a 85010000 		.4byte	0x185
 420 017e 09       		.uleb128 0x9
 421 017f 01       		.uleb128 0x1
 422 0180 50       		.byte	0x50
 423 0181 02       		.uleb128 0x2
 424 0182 08       		.byte	0x8
 425 0183 64       		.byte	0x64
 426 0184 00       		.byte	0
 427 0185 08       		.uleb128 0x8
 428 0186 64000000 		.4byte	.LVL13
 429 018a F9020000 		.4byte	0x2f9
 430 018e 9A010000 		.4byte	0x19a
 431 0192 09       		.uleb128 0x9
 432 0193 01       		.uleb128 0x1
 433 0194 50       		.byte	0x50
 434 0195 03       		.uleb128 0x3
 435 0196 0A       		.byte	0xa
 436 0197 5802     		.2byte	0x258
 437 0199 00       		.byte	0
 438 019a 07       		.uleb128 0x7
ARM GAS  C:\Users\JOSEAN~1\AppData\Local\Temp\ccB3mGwl.s 			page 10


 439 019b 68000000 		.4byte	.LVL14
 440 019f 04030000 		.4byte	0x304
 441 01a3 08       		.uleb128 0x8
 442 01a4 6E000000 		.4byte	.LVL15
 443 01a8 0F030000 		.4byte	0x30f
 444 01ac B6010000 		.4byte	0x1b6
 445 01b0 09       		.uleb128 0x9
 446 01b1 01       		.uleb128 0x1
 447 01b2 50       		.byte	0x50
 448 01b3 01       		.uleb128 0x1
 449 01b4 30       		.byte	0x30
 450 01b5 00       		.byte	0
 451 01b6 07       		.uleb128 0x7
 452 01b7 72000000 		.4byte	.LVL16
 453 01bb 1A030000 		.4byte	0x31a
 454 01bf 07       		.uleb128 0x7
 455 01c0 78000000 		.4byte	.LVL17
 456 01c4 25030000 		.4byte	0x325
 457 01c8 08       		.uleb128 0x8
 458 01c9 8E000000 		.4byte	.LVL19
 459 01cd 30030000 		.4byte	0x330
 460 01d1 EB010000 		.4byte	0x1eb
 461 01d5 09       		.uleb128 0x9
 462 01d6 01       		.uleb128 0x1
 463 01d7 50       		.byte	0x50
 464 01d8 02       		.uleb128 0x2
 465 01d9 74       		.byte	0x74
 466 01da 00       		.sleb128 0
 467 01db 09       		.uleb128 0x9
 468 01dc 01       		.uleb128 0x1
 469 01dd 51       		.byte	0x51
 470 01de 05       		.uleb128 0x5
 471 01df 03       		.byte	0x3
 472 01e0 1C000000 		.4byte	.LC1
 473 01e4 09       		.uleb128 0x9
 474 01e5 01       		.uleb128 0x1
 475 01e6 52       		.byte	0x52
 476 01e7 02       		.uleb128 0x2
 477 01e8 76       		.byte	0x76
 478 01e9 00       		.sleb128 0
 479 01ea 00       		.byte	0
 480 01eb 08       		.uleb128 0x8
 481 01ec 94000000 		.4byte	.LVL20
 482 01f0 3B030000 		.4byte	0x33b
 483 01f4 FF010000 		.4byte	0x1ff
 484 01f8 09       		.uleb128 0x9
 485 01f9 01       		.uleb128 0x1
 486 01fa 50       		.byte	0x50
 487 01fb 02       		.uleb128 0x2
 488 01fc 74       		.byte	0x74
 489 01fd 00       		.sleb128 0
 490 01fe 00       		.byte	0
 491 01ff 08       		.uleb128 0x8
 492 0200 CC000000 		.4byte	.LVL27
 493 0204 30030000 		.4byte	0x330
 494 0208 1C020000 		.4byte	0x21c
 495 020c 09       		.uleb128 0x9
ARM GAS  C:\Users\JOSEAN~1\AppData\Local\Temp\ccB3mGwl.s 			page 11


 496 020d 01       		.uleb128 0x1
 497 020e 50       		.byte	0x50
 498 020f 02       		.uleb128 0x2
 499 0210 74       		.byte	0x74
 500 0211 00       		.sleb128 0
 501 0212 09       		.uleb128 0x9
 502 0213 01       		.uleb128 0x1
 503 0214 51       		.byte	0x51
 504 0215 05       		.uleb128 0x5
 505 0216 03       		.byte	0x3
 506 0217 38000000 		.4byte	.LC2
 507 021b 00       		.byte	0
 508 021c 08       		.uleb128 0x8
 509 021d D2000000 		.4byte	.LVL28
 510 0221 3B030000 		.4byte	0x33b
 511 0225 30020000 		.4byte	0x230
 512 0229 09       		.uleb128 0x9
 513 022a 01       		.uleb128 0x1
 514 022b 50       		.byte	0x50
 515 022c 02       		.uleb128 0x2
 516 022d 74       		.byte	0x74
 517 022e 00       		.sleb128 0
 518 022f 00       		.byte	0
 519 0230 08       		.uleb128 0x8
 520 0231 D8000000 		.4byte	.LVL29
 521 0235 3B030000 		.4byte	0x33b
 522 0239 47020000 		.4byte	0x247
 523 023d 09       		.uleb128 0x9
 524 023e 01       		.uleb128 0x1
 525 023f 50       		.byte	0x50
 526 0240 05       		.uleb128 0x5
 527 0241 03       		.byte	0x3
 528 0242 4C000000 		.4byte	.LC3
 529 0246 00       		.byte	0
 530 0247 0A       		.uleb128 0xa
 531 0248 E0000000 		.4byte	.LVL30
 532 024c F9020000 		.4byte	0x2f9
 533 0250 09       		.uleb128 0x9
 534 0251 01       		.uleb128 0x1
 535 0252 50       		.byte	0x50
 536 0253 03       		.uleb128 0x3
 537 0254 0A       		.byte	0xa
 538 0255 D007     		.2byte	0x7d0
 539 0257 00       		.byte	0
 540 0258 00       		.byte	0
 541 0259 0B       		.uleb128 0xb
 542 025a 01010000 		.4byte	.LASF17
 543 025e 05       		.byte	0x5
 544 025f 1207     		.2byte	0x712
 545 0261 65020000 		.4byte	0x265
 546 0265 0C       		.uleb128 0xc
 547 0266 76000000 		.4byte	0x76
 548 026a 0D       		.uleb128 0xd
 549 026b BA020000 		.4byte	.LASF18
 550 026f 01       		.byte	0x1
 551 0270 10       		.byte	0x10
 552 0271 81000000 		.4byte	0x81
ARM GAS  C:\Users\JOSEAN~1\AppData\Local\Temp\ccB3mGwl.s 			page 12


 553 0275 05       		.uleb128 0x5
 554 0276 03       		.byte	0x3
 555 0277 00000000 		.4byte	adc_result
 556 027b 0E       		.uleb128 0xe
 557 027c 763100   		.ascii	"v1\000"
 558 027f 01       		.byte	0x1
 559 0280 11       		.byte	0x11
 560 0281 8D000000 		.4byte	0x8d
 561 0285 05       		.uleb128 0x5
 562 0286 03       		.byte	0x3
 563 0287 00000000 		.4byte	v1
 564 028b 0E       		.uleb128 0xe
 565 028c 763200   		.ascii	"v2\000"
 566 028f 01       		.byte	0x1
 567 0290 12       		.byte	0x12
 568 0291 8D000000 		.4byte	0x8d
 569 0295 05       		.uleb128 0x5
 570 0296 03       		.byte	0x3
 571 0297 00000000 		.4byte	v2
 572 029b 0D       		.uleb128 0xd
 573 029c EB000000 		.4byte	.LASF19
 574 02a0 01       		.byte	0x1
 575 02a1 13       		.byte	0x13
 576 02a2 8D000000 		.4byte	0x8d
 577 02a6 05       		.uleb128 0x5
 578 02a7 03       		.byte	0x3
 579 02a8 00000000 		.4byte	temp
 580 02ac 0F       		.uleb128 0xf
 581 02ad 9B000000 		.4byte	0x9b
 582 02b1 BC020000 		.4byte	0x2bc
 583 02b5 10       		.uleb128 0x10
 584 02b6 A9000000 		.4byte	0xa9
 585 02ba 63       		.byte	0x63
 586 02bb 00       		.byte	0
 587 02bc 0E       		.uleb128 0xe
 588 02bd 73747200 		.ascii	"str\000"
 589 02c1 01       		.byte	0x1
 590 02c2 15       		.byte	0x15
 591 02c3 AC020000 		.4byte	0x2ac
 592 02c7 05       		.uleb128 0x5
 593 02c8 03       		.byte	0x3
 594 02c9 00000000 		.4byte	str
 595 02cd 11       		.uleb128 0x11
 596 02ce 30010000 		.4byte	.LASF20
 597 02d2 30010000 		.4byte	.LASF20
 598 02d6 06       		.byte	0x6
 599 02d7 3C       		.byte	0x3c
 600 02d8 11       		.uleb128 0x11
 601 02d9 65010000 		.4byte	.LASF21
 602 02dd 65010000 		.4byte	.LASF21
 603 02e1 07       		.byte	0x7
 604 02e2 3A       		.byte	0x3a
 605 02e3 11       		.uleb128 0x11
 606 02e4 F6000000 		.4byte	.LASF22
 607 02e8 F6000000 		.4byte	.LASF22
 608 02ec 08       		.byte	0x8
 609 02ed 1F       		.byte	0x1f
ARM GAS  C:\Users\JOSEAN~1\AppData\Local\Temp\ccB3mGwl.s 			page 13


 610 02ee 11       		.uleb128 0x11
 611 02ef A1010000 		.4byte	.LASF23
 612 02f3 A1010000 		.4byte	.LASF23
 613 02f7 06       		.byte	0x6
 614 02f8 41       		.byte	0x41
 615 02f9 11       		.uleb128 0x11
 616 02fa B2020000 		.4byte	.LASF24
 617 02fe B2020000 		.4byte	.LASF24
 618 0302 09       		.byte	0x9
 619 0303 76       		.byte	0x76
 620 0304 11       		.uleb128 0x11
 621 0305 C6000000 		.4byte	.LASF25
 622 0309 C6000000 		.4byte	.LASF25
 623 030d 07       		.byte	0x7
 624 030e 3D       		.byte	0x3d
 625 030f 11       		.uleb128 0x11
 626 0310 D7000000 		.4byte	.LASF26
 627 0314 D7000000 		.4byte	.LASF26
 628 0318 07       		.byte	0x7
 629 0319 3F       		.byte	0x3f
 630 031a 11       		.uleb128 0x11
 631 031b 0E010000 		.4byte	.LASF27
 632 031f 0E010000 		.4byte	.LASF27
 633 0323 07       		.byte	0x7
 634 0324 42       		.byte	0x42
 635 0325 11       		.uleb128 0x11
 636 0326 80010000 		.4byte	.LASF28
 637 032a 80010000 		.4byte	.LASF28
 638 032e 07       		.byte	0x7
 639 032f 49       		.byte	0x49
 640 0330 11       		.uleb128 0x11
 641 0331 AA020000 		.4byte	.LASF29
 642 0335 AA020000 		.4byte	.LASF29
 643 0339 0A       		.byte	0xa
 644 033a E7       		.byte	0xe7
 645 033b 11       		.uleb128 0x11
 646 033c 9B020000 		.4byte	.LASF30
 647 0340 9B020000 		.4byte	.LASF30
 648 0344 08       		.byte	0x8
 649 0345 26       		.byte	0x26
 650 0346 00       		.byte	0
 651              		.section	.debug_abbrev,"",%progbits
 652              	.Ldebug_abbrev0:
 653 0000 01       		.uleb128 0x1
 654 0001 11       		.uleb128 0x11
 655 0002 01       		.byte	0x1
 656 0003 25       		.uleb128 0x25
 657 0004 0E       		.uleb128 0xe
 658 0005 13       		.uleb128 0x13
 659 0006 0B       		.uleb128 0xb
 660 0007 03       		.uleb128 0x3
 661 0008 0E       		.uleb128 0xe
 662 0009 1B       		.uleb128 0x1b
 663 000a 0E       		.uleb128 0xe
 664 000b 55       		.uleb128 0x55
 665 000c 17       		.uleb128 0x17
 666 000d 11       		.uleb128 0x11
ARM GAS  C:\Users\JOSEAN~1\AppData\Local\Temp\ccB3mGwl.s 			page 14


 667 000e 01       		.uleb128 0x1
 668 000f 10       		.uleb128 0x10
 669 0010 17       		.uleb128 0x17
 670 0011 00       		.byte	0
 671 0012 00       		.byte	0
 672 0013 02       		.uleb128 0x2
 673 0014 24       		.uleb128 0x24
 674 0015 00       		.byte	0
 675 0016 0B       		.uleb128 0xb
 676 0017 0B       		.uleb128 0xb
 677 0018 3E       		.uleb128 0x3e
 678 0019 0B       		.uleb128 0xb
 679 001a 03       		.uleb128 0x3
 680 001b 0E       		.uleb128 0xe
 681 001c 00       		.byte	0
 682 001d 00       		.byte	0
 683 001e 03       		.uleb128 0x3
 684 001f 16       		.uleb128 0x16
 685 0020 00       		.byte	0
 686 0021 03       		.uleb128 0x3
 687 0022 0E       		.uleb128 0xe
 688 0023 3A       		.uleb128 0x3a
 689 0024 0B       		.uleb128 0xb
 690 0025 3B       		.uleb128 0x3b
 691 0026 0B       		.uleb128 0xb
 692 0027 49       		.uleb128 0x49
 693 0028 13       		.uleb128 0x13
 694 0029 00       		.byte	0
 695 002a 00       		.byte	0
 696 002b 04       		.uleb128 0x4
 697 002c 24       		.uleb128 0x24
 698 002d 00       		.byte	0
 699 002e 0B       		.uleb128 0xb
 700 002f 0B       		.uleb128 0xb
 701 0030 3E       		.uleb128 0x3e
 702 0031 0B       		.uleb128 0xb
 703 0032 03       		.uleb128 0x3
 704 0033 08       		.uleb128 0x8
 705 0034 00       		.byte	0
 706 0035 00       		.byte	0
 707 0036 05       		.uleb128 0x5
 708 0037 16       		.uleb128 0x16
 709 0038 00       		.byte	0
 710 0039 03       		.uleb128 0x3
 711 003a 0E       		.uleb128 0xe
 712 003b 3A       		.uleb128 0x3a
 713 003c 0B       		.uleb128 0xb
 714 003d 3B       		.uleb128 0x3b
 715 003e 05       		.uleb128 0x5
 716 003f 49       		.uleb128 0x49
 717 0040 13       		.uleb128 0x13
 718 0041 00       		.byte	0
 719 0042 00       		.byte	0
 720 0043 06       		.uleb128 0x6
 721 0044 2E       		.uleb128 0x2e
 722 0045 01       		.byte	0x1
 723 0046 3F       		.uleb128 0x3f
ARM GAS  C:\Users\JOSEAN~1\AppData\Local\Temp\ccB3mGwl.s 			page 15


 724 0047 19       		.uleb128 0x19
 725 0048 03       		.uleb128 0x3
 726 0049 0E       		.uleb128 0xe
 727 004a 3A       		.uleb128 0x3a
 728 004b 0B       		.uleb128 0xb
 729 004c 3B       		.uleb128 0x3b
 730 004d 0B       		.uleb128 0xb
 731 004e 27       		.uleb128 0x27
 732 004f 19       		.uleb128 0x19
 733 0050 49       		.uleb128 0x49
 734 0051 13       		.uleb128 0x13
 735 0052 8701     		.uleb128 0x87
 736 0054 19       		.uleb128 0x19
 737 0055 11       		.uleb128 0x11
 738 0056 01       		.uleb128 0x1
 739 0057 12       		.uleb128 0x12
 740 0058 06       		.uleb128 0x6
 741 0059 40       		.uleb128 0x40
 742 005a 18       		.uleb128 0x18
 743 005b 9642     		.uleb128 0x2116
 744 005d 19       		.uleb128 0x19
 745 005e 01       		.uleb128 0x1
 746 005f 13       		.uleb128 0x13
 747 0060 00       		.byte	0
 748 0061 00       		.byte	0
 749 0062 07       		.uleb128 0x7
 750 0063 898201   		.uleb128 0x4109
 751 0066 00       		.byte	0
 752 0067 11       		.uleb128 0x11
 753 0068 01       		.uleb128 0x1
 754 0069 31       		.uleb128 0x31
 755 006a 13       		.uleb128 0x13
 756 006b 00       		.byte	0
 757 006c 00       		.byte	0
 758 006d 08       		.uleb128 0x8
 759 006e 898201   		.uleb128 0x4109
 760 0071 01       		.byte	0x1
 761 0072 11       		.uleb128 0x11
 762 0073 01       		.uleb128 0x1
 763 0074 31       		.uleb128 0x31
 764 0075 13       		.uleb128 0x13
 765 0076 01       		.uleb128 0x1
 766 0077 13       		.uleb128 0x13
 767 0078 00       		.byte	0
 768 0079 00       		.byte	0
 769 007a 09       		.uleb128 0x9
 770 007b 8A8201   		.uleb128 0x410a
 771 007e 00       		.byte	0
 772 007f 02       		.uleb128 0x2
 773 0080 18       		.uleb128 0x18
 774 0081 9142     		.uleb128 0x2111
 775 0083 18       		.uleb128 0x18
 776 0084 00       		.byte	0
 777 0085 00       		.byte	0
 778 0086 0A       		.uleb128 0xa
 779 0087 898201   		.uleb128 0x4109
 780 008a 01       		.byte	0x1
ARM GAS  C:\Users\JOSEAN~1\AppData\Local\Temp\ccB3mGwl.s 			page 16


 781 008b 11       		.uleb128 0x11
 782 008c 01       		.uleb128 0x1
 783 008d 31       		.uleb128 0x31
 784 008e 13       		.uleb128 0x13
 785 008f 00       		.byte	0
 786 0090 00       		.byte	0
 787 0091 0B       		.uleb128 0xb
 788 0092 34       		.uleb128 0x34
 789 0093 00       		.byte	0
 790 0094 03       		.uleb128 0x3
 791 0095 0E       		.uleb128 0xe
 792 0096 3A       		.uleb128 0x3a
 793 0097 0B       		.uleb128 0xb
 794 0098 3B       		.uleb128 0x3b
 795 0099 05       		.uleb128 0x5
 796 009a 49       		.uleb128 0x49
 797 009b 13       		.uleb128 0x13
 798 009c 3F       		.uleb128 0x3f
 799 009d 19       		.uleb128 0x19
 800 009e 3C       		.uleb128 0x3c
 801 009f 19       		.uleb128 0x19
 802 00a0 00       		.byte	0
 803 00a1 00       		.byte	0
 804 00a2 0C       		.uleb128 0xc
 805 00a3 35       		.uleb128 0x35
 806 00a4 00       		.byte	0
 807 00a5 49       		.uleb128 0x49
 808 00a6 13       		.uleb128 0x13
 809 00a7 00       		.byte	0
 810 00a8 00       		.byte	0
 811 00a9 0D       		.uleb128 0xd
 812 00aa 34       		.uleb128 0x34
 813 00ab 00       		.byte	0
 814 00ac 03       		.uleb128 0x3
 815 00ad 0E       		.uleb128 0xe
 816 00ae 3A       		.uleb128 0x3a
 817 00af 0B       		.uleb128 0xb
 818 00b0 3B       		.uleb128 0x3b
 819 00b1 0B       		.uleb128 0xb
 820 00b2 49       		.uleb128 0x49
 821 00b3 13       		.uleb128 0x13
 822 00b4 3F       		.uleb128 0x3f
 823 00b5 19       		.uleb128 0x19
 824 00b6 02       		.uleb128 0x2
 825 00b7 18       		.uleb128 0x18
 826 00b8 00       		.byte	0
 827 00b9 00       		.byte	0
 828 00ba 0E       		.uleb128 0xe
 829 00bb 34       		.uleb128 0x34
 830 00bc 00       		.byte	0
 831 00bd 03       		.uleb128 0x3
 832 00be 08       		.uleb128 0x8
 833 00bf 3A       		.uleb128 0x3a
 834 00c0 0B       		.uleb128 0xb
 835 00c1 3B       		.uleb128 0x3b
 836 00c2 0B       		.uleb128 0xb
 837 00c3 49       		.uleb128 0x49
ARM GAS  C:\Users\JOSEAN~1\AppData\Local\Temp\ccB3mGwl.s 			page 17


 838 00c4 13       		.uleb128 0x13
 839 00c5 3F       		.uleb128 0x3f
 840 00c6 19       		.uleb128 0x19
 841 00c7 02       		.uleb128 0x2
 842 00c8 18       		.uleb128 0x18
 843 00c9 00       		.byte	0
 844 00ca 00       		.byte	0
 845 00cb 0F       		.uleb128 0xf
 846 00cc 01       		.uleb128 0x1
 847 00cd 01       		.byte	0x1
 848 00ce 49       		.uleb128 0x49
 849 00cf 13       		.uleb128 0x13
 850 00d0 01       		.uleb128 0x1
 851 00d1 13       		.uleb128 0x13
 852 00d2 00       		.byte	0
 853 00d3 00       		.byte	0
 854 00d4 10       		.uleb128 0x10
 855 00d5 21       		.uleb128 0x21
 856 00d6 00       		.byte	0
 857 00d7 49       		.uleb128 0x49
 858 00d8 13       		.uleb128 0x13
 859 00d9 2F       		.uleb128 0x2f
 860 00da 0B       		.uleb128 0xb
 861 00db 00       		.byte	0
 862 00dc 00       		.byte	0
 863 00dd 11       		.uleb128 0x11
 864 00de 2E       		.uleb128 0x2e
 865 00df 00       		.byte	0
 866 00e0 3F       		.uleb128 0x3f
 867 00e1 19       		.uleb128 0x19
 868 00e2 3C       		.uleb128 0x3c
 869 00e3 19       		.uleb128 0x19
 870 00e4 6E       		.uleb128 0x6e
 871 00e5 0E       		.uleb128 0xe
 872 00e6 03       		.uleb128 0x3
 873 00e7 0E       		.uleb128 0xe
 874 00e8 3A       		.uleb128 0x3a
 875 00e9 0B       		.uleb128 0xb
 876 00ea 3B       		.uleb128 0x3b
 877 00eb 0B       		.uleb128 0xb
 878 00ec 00       		.byte	0
 879 00ed 00       		.byte	0
 880 00ee 00       		.byte	0
 881              		.section	.debug_aranges,"",%progbits
 882 0000 1C000000 		.4byte	0x1c
 883 0004 0200     		.2byte	0x2
 884 0006 00000000 		.4byte	.Ldebug_info0
 885 000a 04       		.byte	0x4
 886 000b 00       		.byte	0
 887 000c 0000     		.2byte	0
 888 000e 0000     		.2byte	0
 889 0010 00000000 		.4byte	.LFB64
 890 0014 18010000 		.4byte	.LFE64-.LFB64
 891 0018 00000000 		.4byte	0
 892 001c 00000000 		.4byte	0
 893              		.section	.debug_ranges,"",%progbits
 894              	.Ldebug_ranges0:
ARM GAS  C:\Users\JOSEAN~1\AppData\Local\Temp\ccB3mGwl.s 			page 18


 895 0000 00000000 		.4byte	.LFB64
 896 0004 18010000 		.4byte	.LFE64
 897 0008 00000000 		.4byte	0
 898 000c 00000000 		.4byte	0
 899              		.section	.debug_line,"",%progbits
 900              	.Ldebug_line0:
 901 0000 6B020000 		.section	.debug_str,"MS",%progbits,1
 901      0200E801 
 901      00000201 
 901      FB0E0D00 
 901      01010101 
 902              	.LASF9:
 903 0000 5F5F696E 		.ascii	"__int32_t\000"
 903      7433325F 
 903      7400
 904              	.LASF3:
 905 000a 73686F72 		.ascii	"short unsigned int\000"
 905      7420756E 
 905      7369676E 
 905      65642069 
 905      6E7400
 906              	.LASF13:
 907 001d 646F7562 		.ascii	"double\000"
 907      6C6500
 908              	.LASF12:
 909 0024 666C6F61 		.ascii	"float\000"
 909      7400
 910              	.LASF1:
 911 002a 756E7369 		.ascii	"unsigned char\000"
 911      676E6564 
 911      20636861 
 911      7200
 912              	.LASF31:
 913 0038 474E5520 		.ascii	"GNU C11 5.4.1 20160609 (release) [ARM/embedded-5-br"
 913      43313120 
 913      352E342E 
 913      31203230 
 913      31363036 
 914 006b 616E6368 		.ascii	"anch revision 237715] -mcpu=cortex-m3 -mthumb -g -O"
 914      20726576 
 914      6973696F 
 914      6E203233 
 914      37373135 
 915 009e 67202D66 		.ascii	"g -ffunction-sections -ffat-lto-objects\000"
 915      66756E63 
 915      74696F6E 
 915      2D736563 
 915      74696F6E 
 916              	.LASF25:
 917 00c6 4144435F 		.ascii	"ADC_StartConvert\000"
 917      53746172 
 917      74436F6E 
 917      76657274 
 917      00
 918              	.LASF26:
 919 00d7 4144435F 		.ascii	"ADC_IsEndConversion\000"
 919      4973456E 
ARM GAS  C:\Users\JOSEAN~1\AppData\Local\Temp\ccB3mGwl.s 			page 19


 919      64436F6E 
 919      76657273 
 919      696F6E00 
 920              	.LASF19:
 921 00eb 74656D70 		.ascii	"temp\000"
 921      00
 922              	.LASF11:
 923 00f0 696E7433 		.ascii	"int32\000"
 923      3200
 924              	.LASF22:
 925 00f6 55415254 		.ascii	"UART_Start\000"
 925      5F537461 
 925      727400
 926              	.LASF17:
 927 0101 49544D5F 		.ascii	"ITM_RxBuffer\000"
 927      52784275 
 927      66666572 
 927      00
 928              	.LASF27:
 929 010e 4144435F 		.ascii	"ADC_GetResult32\000"
 929      47657452 
 929      6573756C 
 929      74333200 
 930              	.LASF5:
 931 011e 6C6F6E67 		.ascii	"long unsigned int\000"
 931      20756E73 
 931      69676E65 
 931      6420696E 
 931      7400
 932              	.LASF20:
 933 0130 49444143 		.ascii	"IDAC8_Start\000"
 933      385F5374 
 933      61727400 
 934              	.LASF34:
 935 013c 6D61696E 		.ascii	"main\000"
 935      00
 936              	.LASF8:
 937 0141 756E7369 		.ascii	"unsigned int\000"
 937      676E6564 
 937      20696E74 
 937      00
 938              	.LASF7:
 939 014e 6C6F6E67 		.ascii	"long long unsigned int\000"
 939      206C6F6E 
 939      6720756E 
 939      7369676E 
 939      65642069 
 940              	.LASF21:
 941 0165 4144435F 		.ascii	"ADC_Start\000"
 941      53746172 
 941      7400
 942              	.LASF10:
 943 016f 696E7433 		.ascii	"int32_t\000"
 943      325F7400 
 944              	.LASF16:
 945 0177 73697A65 		.ascii	"sizetype\000"
 945      74797065 
ARM GAS  C:\Users\JOSEAN~1\AppData\Local\Temp\ccB3mGwl.s 			page 20


 945      00
 946              	.LASF28:
 947 0180 4144435F 		.ascii	"ADC_CountsTo_Volts\000"
 947      436F756E 
 947      7473546F 
 947      5F566F6C 
 947      747300
 948              	.LASF6:
 949 0193 6C6F6E67 		.ascii	"long long int\000"
 949      206C6F6E 
 949      6720696E 
 949      7400
 950              	.LASF23:
 951 01a1 49444143 		.ascii	"IDAC8_SetValue\000"
 951      385F5365 
 951      7456616C 
 951      756500
 952              	.LASF32:
 953 01b0 6D61696E 		.ascii	"main.c\000"
 953      2E6300
 954              	.LASF14:
 955 01b7 63686172 		.ascii	"char\000"
 955      00
 956              	.LASF2:
 957 01bc 73686F72 		.ascii	"short int\000"
 957      7420696E 
 957      7400
 958              	.LASF33:
 959 01c6 443A5C44 		.ascii	"D:\\Documentos\\UNIVERSIDAD\\TFG\\Application Notes"
 959      6F63756D 
 959      656E746F 
 959      735C554E 
 959      49564552 
 960 01f5 20792050 		.ascii	" y Proyectos\\AN88619_HardwareConsiderations\\PSoC5"
 960      726F7965 
 960      63746F73 
 960      5C414E38 
 960      38363139 
 961 0226 5F486172 		.ascii	"_HardwareRoutingConsiderations\\AN58827_Termometro_"
 961      64776172 
 961      65526F75 
 961      74696E67 
 961      436F6E73 
 962 0258 50536F43 		.ascii	"PSoC5_RoutingConsiderations.cydsn\000"
 962      355F526F 
 962      7574696E 
 962      67436F6E 
 962      73696465 
 963              	.LASF4:
 964 027a 6C6F6E67 		.ascii	"long int\000"
 964      20696E74 
 964      00
 965              	.LASF15:
 966 0283 6C6F6E67 		.ascii	"long double\000"
 966      20646F75 
 966      626C6500 
 967              	.LASF0:
ARM GAS  C:\Users\JOSEAN~1\AppData\Local\Temp\ccB3mGwl.s 			page 21


 968 028f 7369676E 		.ascii	"signed char\000"
 968      65642063 
 968      68617200 
 969              	.LASF30:
 970 029b 55415254 		.ascii	"UART_PutString\000"
 970      5F507574 
 970      53747269 
 970      6E6700
 971              	.LASF29:
 972 02aa 73707269 		.ascii	"sprintf\000"
 972      6E746600 
 973              	.LASF24:
 974 02b2 43794465 		.ascii	"CyDelay\000"
 974      6C617900 
 975              	.LASF18:
 976 02ba 6164635F 		.ascii	"adc_result\000"
 976      72657375 
 976      6C7400
 977              		.ident	"GCC: (GNU Tools for ARM Embedded Processors) 5.4.1 20160609 (release) [ARM/embedded-5-bran
