===========Generating Bitstream===========
# IDMUX (count=6)
00000000: 00 00 00 00 00 00
# IOPORT_0 (count=7)
00000006: 00 00 00 00 00 00 00
# IOPINS0_0 (count=16)
0000000d: 00 00 00 00 00 00 00 00 00 00 00 00 00 00 00 00

# IOPORT_1 (count=7)
0000001d: 00 00 00 00 00 00 00
# IOPINS0_1 (count=8)
00000024: 00 0b 0b 00 00 00 00 00
# IOPINS1_1 + 0x00000009 (count=5)
0000002c: 00 00 00 00 00
# PICU_1 (count=8)
00000031: 00 00 00 00 00 00 00 00
# IOPORT_2 (count=7)
00000039: 00 00 00 00 00 00 00
# IOPINS0_2 (count=10)
00000040: 04 00 00 04 00 00 00 00 00 00
# IOPINS1_2 + 0x0000000B (count=5)
0000004a: 00 00 00 00 00
# PICU_2 (count=8)
0000004f: 00 00 00 00 00 00 00 00
# IOPORT_3 (count=7)
00000057: 00 00 00 00 00 00 00
# IOPINS0_3 (count=8)
0000005e: 00 08 08 00 08 00 00 00
# IOPINS1_3 + 0x00000009 (count=5)
00000066: 00 00 00 00 00
# PICU_3 (count=8)
0000006b: 00 00 00 00 00 00 00 00
# IOPORT_4 (count=7)
00000073: 00 00 00 00 00 00 00
# IOPINS0_4 (count=16)
0000007a: 00 00 00 00 00 00 00 00 00 00 00 00 00 00 00 00

# IOPORT_5 (count=7)
0000008a: 00 00 00 00 00 00 00
# IOPINS0_5 (count=16)
00000091: 00 00 00 00 00 00 00 00 00 00 00 00 00 00 00 00

# IOPORT_6 (count=7)
000000a1: 00 00 00 00 00 00 00
# IOPINS0_6 (count=16)
000000a8: 00 00 00 00 00 00 00 00 00 00 00 00 00 00 00 00

# IOPORT_7 (count=6)
000000b8: 00 80 00 00 40 00
# IOPINS0_7 (count=10)
000000be: 80 00 40 80 80 00 80 00 00 00
# IOPINS1_7 + 0x0000000B (count=5)
000000c8: 00 00 00 00 00
# PICU_7 (count=8)
000000cd: 00 00 00 00 00 00 00 00
# IOPORT_8 (count=7)
000000d5: 00 00 00 00 00 00 00
# IOPINS0_8 (count=16)
000000dc: 00 00 00 00 00 00 00 00 00 00 00 00 00 00 00 00

# IDMUX_IRQ (count=8)
000000ec: 0f 00 00 00 00 00 00 00
# CYDEV_CLKDIST_DCFG0_CFG0 (count=3)
000000f4: 38 01 18
# CYDEV_CLKDIST_DCFG1_CFG0 (count=3)
000000f7: ff ff 18
# CYDEV_SLOWCLK_ILO_CR0 (count=1)
000000fa: 02
# CYDEV_CLKDIST_CR (count=1)
000000fb: 08
# CYDEV_FASTCLK_IMO_CR (count=1)
000000fc: 03
# CYDEV_FASTCLK_PLL_P (count=2)
000000fd: 08 00
# CYDEV_FASTCLK_PLL_CFG0 (count=2)
000000ff: 51 12
# CYDEV_CLKDIST_MSTR0 (count=2)
00000101: 00 01
# CYDEV_CLKDIST_MSTR0 (count=1)
00000103: 07
# CYDEV_CLKDIST_BCFG0 (count=1)
00000104: 00
# CYDEV_CLKDIST_BCFG2 (count=1)
00000105: 48
# CYDEV_CLKDIST_MSTR0 (count=1)
00000106: 00
# CYDEV_CLKDIST_LD (count=1)
00000107: 02
# CYDEV_PM_ACT_CFG2 (count=1)
00000108: 03
# UDB_1_5_0_CONFIG (count=128)
00000109: 00 00 00 00 00 00 00 00 00 00 00 00 00 00 00 00
00000119: 00 00 00 00 00 00 00 00 00 00 00 00 00 00 00 00
00000129: 00 00 00 00 00 00 00 00 00 00 00 00 00 00 00 00
00000139: 00 00 00 00 00 00 00 00 00 00 00 00 00 00 00 00
00000149: 00 00 00 00 00 00 00 00 00 00 00 00 00 00 00 00
00000159: 00 00 00 00 00 00 00 00 00 00 00 00 00 00 00 00
00000169: 00 00 00 00 00 00 00 00 00 00 00 00 00 00 00 00
00000179: 00 00 00 00 00 00 00 00 00 00 00 00 00 00 00 00

# UDB_1_5_1_CONFIG (count=128)
00000189: 00 00 00 00 00 00 00 00 00 00 00 00 00 00 00 00
00000199: 00 00 00 00 00 00 00 00 00 00 00 00 00 00 00 00
000001a9: 00 00 00 00 00 00 00 00 00 00 00 00 00 00 00 00
000001b9: 00 00 00 00 00 00 00 00 00 00 00 00 00 00 00 00
000001c9: 00 00 00 00 00 00 00 00 00 00 00 00 00 00 00 00
000001d9: 00 00 00 00 00 00 00 00 00 00 00 00 00 00 00 00
000001e9: 00 00 00 00 00 00 00 00 00 00 00 00 00 00 00 00
000001f9: 00 00 00 00 00 00 00 00 00 00 00 00 00 00 00 00

# UDB_1_4_1_CONFIG (count=128)
00000209: 00 00 00 00 00 00 00 00 00 00 00 00 00 00 00 00
00000219: 00 00 00 00 00 00 00 00 00 00 00 00 00 00 00 00
00000229: 00 00 00 00 00 00 00 00 00 00 00 00 00 00 00 00
00000239: 00 00 00 00 00 00 00 00 00 00 00 00 00 00 00 00
00000249: 00 00 00 00 00 00 00 00 00 00 00 00 00 00 00 00
00000259: 00 00 00 00 00 00 00 00 00 00 00 00 00 00 00 00
00000269: 00 00 00 00 00 00 00 00 00 00 00 00 00 00 00 00
00000279: 00 00 00 00 00 00 00 00 00 00 00 00 00 00 00 00

# UDB_1_4_0_CONFIG (count=128)
00000289: 00 00 00 00 00 00 00 00 00 00 00 00 00 00 00 00
00000299: 00 00 00 00 00 00 00 00 00 00 00 00 00 00 00 00
000002a9: 00 00 00 00 00 00 00 00 00 00 00 00 00 00 00 00
000002b9: 00 00 00 00 00 00 00 00 00 00 00 00 00 00 00 00
000002c9: 00 00 00 00 00 00 00 00 00 00 00 00 00 00 00 00
000002d9: 00 00 00 00 00 00 00 00 00 00 00 00 00 00 00 00
000002e9: 00 00 00 00 00 00 00 00 00 00 00 00 00 00 00 00
000002f9: 00 00 00 00 00 00 00 00 00 00 00 00 00 00 00 00

# UDB_1_3_0_CONFIG (count=128)
00000309: 00 00 00 00 00 00 00 00 00 00 00 00 00 00 00 00
00000319: 00 00 00 00 00 00 00 00 00 00 00 00 00 00 00 00
00000329: 00 00 00 00 00 00 00 00 00 00 00 00 00 00 00 00
00000339: 00 00 00 00 00 00 00 00 00 00 00 00 00 00 00 00
00000349: 00 00 00 00 00 00 00 00 00 00 00 00 00 00 00 00
00000359: 00 00 00 00 00 00 00 00 00 00 00 00 00 00 00 00
00000369: 00 00 00 00 00 00 00 00 00 00 00 00 00 00 00 00
00000379: 00 00 00 00 00 00 00 00 00 00 00 00 00 00 00 00

# UDB_1_3_1_CONFIG (count=128)
00000389: 00 00 00 00 00 00 00 00 00 00 00 00 00 00 00 00
00000399: 00 00 00 00 00 00 00 00 00 00 00 00 00 00 00 00
000003a9: 00 00 00 00 00 00 00 00 00 00 00 00 00 00 00 00
000003b9: 00 00 00 00 00 00 00 00 00 00 00 00 00 00 00 00
000003c9: 00 00 00 00 00 00 00 00 00 00 00 00 00 00 00 00
000003d9: 00 00 00 00 00 00 00 00 00 00 00 00 00 00 00 00
000003e9: 00 00 00 00 00 00 00 00 00 00 00 00 00 00 00 00
000003f9: 00 00 00 00 00 00 00 00 00 00 00 00 00 00 00 00

# UDB_1_2_1_CONFIG (count=128)
00000409: 00 00 00 00 00 00 00 00 00 00 00 00 00 00 00 00
00000419: 00 00 00 00 00 00 00 00 00 00 00 00 00 00 00 00
00000429: 00 00 00 00 00 00 00 00 00 00 00 00 00 00 00 00
00000439: 00 00 00 00 00 00 00 00 00 00 00 00 00 00 00 00
00000449: 00 00 00 00 00 00 00 00 00 00 00 00 00 00 00 00
00000459: 00 00 00 00 00 00 00 00 00 00 00 00 00 00 00 00
00000469: 00 00 00 00 00 00 00 00 00 00 00 00 00 00 00 00
00000479: 00 00 00 00 00 00 00 00 00 00 00 00 00 00 00 00

# UDB_1_2_0_CONFIG (count=128)
00000489: 00 00 00 00 00 00 00 00 00 00 00 00 00 00 00 00
00000499: 00 00 00 00 00 00 00 00 00 00 00 00 00 00 00 00
000004a9: 00 00 00 00 00 00 00 00 00 00 00 00 00 00 00 00
000004b9: 00 00 00 00 00 00 00 00 00 00 00 00 00 00 00 00
000004c9: 00 00 00 00 00 00 00 00 00 00 00 00 00 00 00 00
000004d9: 00 00 00 00 00 00 00 00 00 00 00 00 00 00 00 00
000004e9: 00 00 00 00 00 00 00 00 00 00 00 00 00 00 00 00
000004f9: 00 00 00 00 00 00 00 00 00 00 00 00 00 00 00 00

# UDB_0_2_1_CONFIG (count=128)
00000509: 00 00 00 00 08 00 01 00 00 00 00 00 02 00 04 00
00000519: 07 00 00 00 07 00 00 00 00 00 00 00 00 00 00 00
00000529: 00 00 00 00 00 00 00 00 00 00 00 00 00 00 00 00
00000539: 00 00 00 00 03 00 0c 00 a0 00 00 00 00 00 10 00
00000549: 00 00 00 00 00 00 00 00 00 00 00 00 00 00 00 00
00000559: 00 00 00 00 00 00 00 00 04 00 00 00 00 00 00 01
00000569: 00 00 00 00 00 00 00 00 00 00 00 00 00 00 00 00
00000579: 00 00 00 00 00 00 00 00 00 00 00 00 00 00 00 00

# UDB_0_2_0_CONFIG (count=128)
00000589: b8 00 05 00 00 06 40 00 00 02 06 00 bf 07 00 00
00000599: 00 06 40 01 8f 01 30 06 08 00 00 08 00 04 08 00
000005a9: 20 06 00 01 10 00 00 00 30 00 00 01 b8 00 03 08
000005b9: 80 07 01 00 3e 08 40 00 08 00 20 02 00 00 41 10
000005c9: 23 04 05 00 01 00 ce 00 0c ff ff ff 62 a0 f0 41
000005d9: 0c 00 00 00 00 00 02 13 04 04 04 04 00 00 00 01
000005e9: 00 00 00 00 00 00 40 02 00 10 30 10 00 10 10 12
000005f9: 00 00 00 00 00 00 00 00 00 00 00 00 00 00 00 00

# UDB_0_3_0_CONFIG (count=128)
00000609: 00 00 00 00 00 00 00 00 00 00 00 00 00 00 00 00
00000619: 00 00 00 00 00 00 00 00 00 00 00 00 00 00 00 00
00000629: 00 00 00 00 00 00 00 00 00 00 00 00 00 00 00 00
00000639: 00 00 00 00 00 00 00 00 00 00 00 00 00 00 00 00
00000649: 00 00 00 00 00 00 00 00 00 00 00 00 00 00 00 00
00000659: 00 00 00 00 00 00 00 00 00 00 00 00 00 00 00 00
00000669: 00 00 00 00 00 00 00 00 00 00 00 00 00 00 00 00
00000679: 00 00 00 00 00 00 00 00 00 00 00 00 00 00 00 00

# UDB_0_3_1_CONFIG (count=128)
00000689: 00 00 00 00 00 00 00 00 00 00 00 00 00 00 00 00
00000699: 00 00 00 00 00 00 00 00 00 00 00 00 00 00 00 00
000006a9: 00 00 00 00 00 00 00 00 00 00 00 00 00 00 00 00
000006b9: 00 00 00 00 00 00 00 00 00 00 00 00 00 00 00 00
000006c9: 00 00 00 00 00 00 00 00 00 00 00 00 00 00 00 00
000006d9: 00 00 00 00 00 00 00 00 00 00 00 00 00 00 00 00
000006e9: 00 00 00 00 00 00 00 00 00 00 00 00 00 00 00 00
000006f9: 00 00 00 00 00 00 00 00 00 00 00 00 00 00 00 00

# UDB_0_4_1_CONFIG (count=128)
00000709: 00 00 00 00 00 00 00 00 00 00 00 00 00 00 00 00
00000719: 00 00 00 00 00 00 00 00 00 00 00 00 00 00 00 00
00000729: 00 00 00 00 00 00 00 00 00 00 00 00 00 00 00 00
00000739: 00 00 00 00 00 00 00 00 00 00 00 00 00 00 00 00
00000749: 00 00 00 00 00 00 00 00 00 00 00 00 00 00 00 00
00000759: 00 00 00 00 00 00 00 00 00 00 00 00 00 00 00 00
00000769: 00 00 00 00 00 00 00 00 00 00 00 00 00 00 00 00
00000779: 00 00 00 00 00 00 00 00 00 00 00 00 00 00 00 00

# UDB_0_4_0_CONFIG (count=128)
00000789: 00 00 00 00 00 00 00 00 00 00 00 00 00 00 00 00
00000799: 00 00 00 00 00 00 00 00 00 00 00 00 00 00 00 00
000007a9: 00 00 00 00 00 00 00 00 00 00 00 00 00 00 00 00
000007b9: 00 00 00 00 00 00 00 00 00 00 00 00 00 00 00 00
000007c9: 00 00 00 00 00 00 00 00 00 00 00 00 00 00 00 00
000007d9: 00 00 00 00 00 00 00 00 00 00 00 00 00 00 00 00
000007e9: 00 00 00 00 00 00 00 00 00 00 00 00 00 00 00 00
000007f9: 00 00 00 00 00 00 00 00 00 00 00 00 00 00 00 00

# UDB_0_5_0_CONFIG (count=128)
00000809: 00 00 00 00 00 00 00 00 00 00 00 00 00 00 00 00
00000819: 00 00 00 00 00 00 00 00 00 00 00 00 00 00 00 00
00000829: 00 00 00 00 00 00 00 00 00 00 00 00 00 00 00 00
00000839: 00 00 00 00 00 00 00 00 00 00 00 00 00 00 00 00
00000849: 00 00 00 00 00 00 00 00 00 00 00 00 00 00 00 00
00000859: 00 00 00 00 00 00 00 00 00 00 00 00 00 00 00 00
00000869: 00 00 00 00 00 00 00 00 00 00 00 00 00 00 00 00
00000879: 00 00 00 00 00 00 00 00 00 00 00 00 00 00 00 00

# UDB_0_5_1_CONFIG (count=128)
00000889: 00 00 00 00 00 00 00 00 00 00 00 00 00 00 00 00
00000899: 00 00 00 00 00 00 00 00 00 00 00 00 00 00 00 00
000008a9: 00 00 00 00 00 00 00 00 00 00 00 00 00 00 00 00
000008b9: 00 00 00 00 00 00 00 00 00 00 00 00 00 00 00 00
000008c9: 00 00 00 00 00 00 00 00 00 00 00 00 00 00 00 00
000008d9: 00 00 00 00 00 00 00 00 00 00 00 00 00 00 00 00
000008e9: 00 00 00 00 00 00 00 00 00 00 00 00 00 00 00 00
000008f9: 00 00 00 00 00 00 00 00 00 00 00 00 00 00 00 00

# UDB_1_0_0_CONFIG (count=128)
00000909: 00 00 00 00 00 00 00 00 00 00 00 00 00 00 00 00
00000919: 00 00 00 00 00 00 00 00 00 00 00 00 00 00 00 00
00000929: 00 00 00 00 00 00 00 00 00 00 00 00 00 00 00 00
00000939: 00 00 00 00 00 00 00 00 00 00 00 00 00 00 00 00
00000949: 00 00 00 00 00 00 00 00 00 00 00 00 00 00 00 00
00000959: 00 00 00 00 00 00 00 00 00 00 00 00 00 00 00 00
00000969: 00 00 00 00 00 00 00 00 00 00 00 00 00 00 00 00
00000979: 00 00 00 00 00 00 00 00 00 00 00 00 00 00 00 00

# UDB_1_0_1_CONFIG (count=128)
00000989: 00 00 00 00 00 00 00 00 00 00 00 00 00 00 00 00
00000999: 00 00 00 00 00 00 00 00 00 00 00 00 00 00 00 00
000009a9: 00 00 00 00 00 00 00 00 00 00 00 00 00 00 00 00
000009b9: 00 00 00 00 00 00 00 00 00 00 00 00 00 00 00 00
000009c9: 00 00 00 00 00 00 00 00 00 00 00 00 00 00 00 00
000009d9: 00 00 00 00 00 00 00 00 00 00 00 00 00 00 00 00
000009e9: 00 00 00 00 00 00 00 00 00 00 00 00 00 00 00 00
000009f9: 00 00 00 00 00 00 00 00 00 00 00 00 00 00 00 00

# UDB_1_1_1_CONFIG (count=128)
00000a09: 00 00 00 00 00 00 00 00 00 00 00 00 00 00 00 00
00000a19: 00 00 00 00 00 00 00 00 00 00 00 00 00 00 00 00
00000a29: 00 00 00 00 00 00 00 00 00 00 00 00 00 00 00 00
00000a39: 00 00 00 00 00 00 00 00 00 00 00 00 00 00 00 00
00000a49: 00 00 00 00 00 00 00 00 00 00 00 00 00 00 00 00
00000a59: 00 00 00 00 00 00 00 00 00 00 00 00 00 00 00 00
00000a69: 00 00 00 00 00 00 00 00 00 00 00 00 00 00 00 00
00000a79: 00 00 00 00 00 00 00 00 00 00 00 00 00 00 00 00

# UDB_1_1_0_CONFIG (count=128)
00000a89: 00 00 00 00 00 00 00 00 00 00 00 00 00 00 00 00
00000a99: 00 00 00 00 00 00 00 00 00 00 00 00 00 00 00 00
00000aa9: 00 00 00 00 00 00 00 00 00 00 00 00 00 00 00 00
00000ab9: 00 00 00 00 00 00 00 00 00 00 00 00 00 00 00 00
00000ac9: 00 00 00 00 00 00 00 00 00 00 00 00 00 00 00 00
00000ad9: 00 00 00 00 00 00 00 00 00 00 00 00 00 00 00 00
00000ae9: 00 00 00 00 00 00 00 00 00 00 00 00 00 00 00 00
00000af9: 00 00 00 00 00 00 00 00 00 00 00 00 00 00 00 00

# UDB_0_1_1_CONFIG (count=128)
00000b09: 00 00 00 18 00 00 00 00 00 03 00 0c 1c 03 02 1c
00000b19: 0c 18 11 07 10 00 0c 07 00 00 03 00 09 00 10 00
00000b29: 00 00 00 00 10 00 00 01 14 00 00 10 00 00 00 00
00000b39: 00 00 00 01 1f 00 00 1e 00 00 00 80 00 00 00 04
00000b49: 00 00 00 00 00 00 00 00 00 00 00 00 00 00 00 00
00000b59: 00 00 01 01 00 00 10 00 04 04 00 04 00 90 00 01
00000b69: 00 00 00 00 00 00 00 00 00 00 00 00 00 00 00 00
00000b79: 00 00 00 00 00 00 00 00 00 00 00 00 00 00 00 00

# UDB_0_1_0_CONFIG (count=128)
00000b89: 00 00 00 00 03 0c 04 00 00 04 20 00 40 0f 00 00
00000b99: 00 0f 00 00 00 00 15 03 03 03 1c 10 00 08 28 00
00000ba9: 2a 02 14 20 40 01 00 20 40 0c 00 03 03 03 34 0c
00000bb9: 38 00 40 0f 0f 00 00 30 00 00 22 0a 00 00 00 40
00000bc9: 00 00 00 00 00 00 00 00 00 00 00 00 00 00 00 00
00000bd9: 00 00 00 00 18 00 00 00 04 04 00 04 00 00 00 01
00000be9: 00 00 00 00 00 00 00 00 00 00 00 00 00 00 00 00
00000bf9: 00 00 00 00 00 00 00 00 00 00 00 00 00 00 00 00

# UDB_0_0_0_CONFIG (count=128)
00000c09: 00 00 60 00 00 06 00 00 00 02 60 00 60 07 00 00
00000c19: 00 06 00 01 61 00 06 01 2a 00 91 00 00 04 60 00
00000c29: 54 07 09 00 1f 00 00 00 1f 00 00 00 60 01 00 06
00000c39: 60 07 07 00 18 00 80 00 00 00 00 00 00 00 00 00
00000c49: 06 00 00 00 00 00 00 04 00 ff 07 ff 40 20 f0 05
00000c59: 08 00 00 00 00 00 00 00 04 04 04 00 00 00 00 01
00000c69: 40 a8 40 20 00 00 00 00 00 00 00 00 00 00 00 00
00000c79: 00 00 00 00 00 00 00 00 00 00 00 00 00 00 00 00

# UDB_0_0_1_CONFIG (count=128)
00000c89: 00 00 00 00 00 00 00 00 00 00 00 00 00 00 00 00
00000c99: 00 00 00 00 00 01 00 00 02 00 00 00 00 00 00 00
00000ca9: 00 01 00 00 00 00 00 00 01 00 00 00 00 00 00 00
00000cb9: 00 00 01 00 02 00 00 01 80 88 00 00 80 08 14 40
00000cc9: 62 05 00 00 00 ee c0 0b 1b ff ff ff 00 00 f0 44
00000cd9: 0c 00 00 00 01 00 00 00 24 04 04 04 88 00 00 31
00000ce9: 00 00 00 00 00 00 c0 00 00 00 40 02 00 00 00 00
00000cf9: 00 00 00 00 00 00 00 00 00 00 00 00 00 00 00 00

# UWRK_B0_WRK_DP_BITS (count=64)
00000d09: 00 00 00 00 00 00 00 00 00 00 00 00 00 00 00 00
00000d19: 00 00 00 00 00 00 00 00 00 00 00 00 00 00 00 00
00000d29: 00 00 00 00 00 00 00 00 00 00 00 00 00 00 00 00
00000d39: 00 00 00 00 00 00 00 00 00 00 00 00 00 00 00 00

# UWRK_B0_WRK_STATCTL_BITS + 0x00000070 (count=32)
00000d49: 00 00 00 00 00 00 00 00 00 00 00 00 00 00 00 00
00000d59: 00 00 00 00 00 00 00 00 00 72 00 00 00 00 00 00

# UWRK_B1_WRK_DP_BITS (count=64)
00000d69: 00 00 00 00 00 00 00 00 00 00 00 00 00 00 00 00
00000d79: 00 00 00 00 00 00 00 00 00 00 00 00 00 00 00 00
00000d89: 00 00 00 00 00 00 00 00 00 00 00 00 00 00 00 00
00000d99: 00 00 00 00 00 00 00 00 00 00 00 00 00 00 00 00

# UWRK_B1_WRK_STATCTL_BITS + 0x00000070 (count=32)
00000da9: 00 00 00 00 00 00 00 00 00 00 00 00 00 00 00 00
00000db9: 00 00 00 00 00 00 00 00 00 38 00 0f 00 00 00 00

# UCFG_BCTL1 (count=16)
00000dc9: 01 01 00 00 00 00 00 00 00 00 00 00 01 01 00 00

# UCFG_BCTL0 (count=16)
00000dd9: 01 00 00 00 00 00 00 00 00 00 00 00 01 00 00 00

# DSISWITCH_0_0 (count=128)
00000de9: 00 00 00 00 00 00 00 00 00 00 00 00 00 00 00 00
00000df9: 40 00 00 00 00 00 00 00 00 00 00 00 00 00 00 00
00000e09: 00 00 00 00 00 00 00 00 00 00 00 00 00 00 00 00
00000e19: 00 00 00 00 00 00 00 00 00 00 00 00 00 00 00 00
00000e29: 00 00 00 00 00 00 00 00 00 00 00 00 00 00 00 00
00000e39: 00 00 00 00 00 00 00 00 00 00 00 00 00 00 00 00
00000e49: 00 00 00 00 00 00 00 00 00 00 00 00 00 00 00 00
00000e59: 00 02 00 00 00 00 00 00 00 00 00 00 00 00 00 00

# DSI0_0_HV_ROUTING + 0x00000080 (count=128)
00000e69: 00 02 00 00 00 00 00 00 40 00 00 00 00 00 00 00
00000e79: 00 00 00 00 00 00 00 00 00 00 00 00 00 00 00 00
00000e89: 00 00 00 00 00 00 00 00 00 00 00 00 00 00 00 00
00000e99: 00 00 00 00 00 00 00 00 00 00 00 00 00 00 00 00
00000ea9: 00 00 00 00 08 00 00 00 00 00 00 00 00 00 00 00
00000eb9: 00 00 00 00 00 00 00 00 00 00 00 00 01 00 00 00
00000ec9: 00 00 01 00 00 00 00 00 00 00 00 00 00 00 00 00
00000ed9: 00 00 00 00 00 00 00 00 00 00 00 00 00 00 00 00

# DSISWITCH_0_1 (count=128)
00000ee9: 00 00 00 00 00 00 00 00 00 00 00 00 00 00 00 00
00000ef9: 00 00 00 00 00 00 00 00 00 00 00 00 00 00 00 00
00000f09: 00 00 00 00 00 00 00 00 00 00 00 00 00 00 00 00
00000f19: 00 00 00 00 00 00 00 00 00 00 00 00 00 00 00 00
00000f29: 00 00 00 00 00 00 00 00 00 00 00 00 00 00 00 00
00000f39: 00 00 00 00 00 00 00 00 00 00 00 00 00 00 00 00
00000f49: 00 00 00 00 00 00 00 00 00 00 00 00 00 00 00 00
00000f59: 00 00 00 00 00 00 00 00 00 00 00 00 00 00 00 00

# DSI0_1_HV_ROUTING + 0x00000080 (count=128)
00000f69: 00 00 00 00 00 00 00 00 00 00 00 00 00 00 00 00
00000f79: 00 00 00 00 00 00 00 00 00 00 00 00 00 00 00 00
00000f89: 00 00 00 00 00 00 00 00 00 00 00 00 00 00 00 00
00000f99: 00 20 00 00 00 00 00 00 00 00 00 00 00 00 00 00
00000fa9: 00 00 00 00 00 00 00 00 00 00 00 00 00 00 00 00
00000fb9: 00 00 00 00 00 00 00 00 00 00 00 00 00 00 00 00
00000fc9: 00 00 00 00 00 00 00 00 00 00 04 00 00 00 00 00
00000fd9: 00 00 00 00 00 00 00 00 00 00 00 00 00 00 00 00

# DSISWITCH_0_2 (count=128)
00000fe9: 00 00 00 00 00 00 00 00 00 00 00 00 00 00 00 00
00000ff9: 00 00 00 00 00 00 00 00 00 00 00 00 00 00 00 00
00001009: 00 00 00 00 00 00 00 00 00 00 00 00 00 00 00 00
00001019: 00 00 00 00 00 00 00 00 00 00 00 00 00 00 00 00
00001029: 00 00 00 00 00 00 00 00 00 00 00 00 00 00 00 00
00001039: 00 00 00 00 00 00 00 00 00 00 00 00 00 00 00 00
00001049: 00 00 00 00 00 00 00 00 00 00 00 00 00 00 00 00
00001059: 00 00 00 00 00 00 00 00 00 00 00 00 00 00 00 00

# DSI0_2_HV_ROUTING + 0x00000080 (count=128)
00001069: 00 00 00 00 00 00 00 00 00 00 00 00 00 00 00 00
00001079: 00 00 00 00 00 00 00 00 00 20 00 00 00 00 00 00
00001089: 00 00 00 00 00 00 00 00 00 00 00 00 00 00 00 00
00001099: 00 00 00 00 00 00 00 00 00 00 00 00 00 00 00 00
000010a9: 00 00 00 00 00 00 00 00 00 00 00 00 00 00 00 00
000010b9: 00 00 00 00 00 00 00 00 00 00 00 00 00 00 00 00
000010c9: 00 00 00 00 00 00 00 00 00 00 00 00 00 00 00 00
000010d9: 00 00 00 00 00 00 00 00 00 00 00 00 00 00 00 00

# DSISWITCH_0_3 (count=128)
000010e9: 00 00 00 00 00 00 00 00 00 00 00 00 00 00 00 00
000010f9: 00 00 00 00 00 00 00 00 00 00 00 00 00 00 00 00
00001109: 00 00 00 00 00 00 00 00 00 00 00 00 00 00 00 00
00001119: 00 00 00 00 00 00 00 00 00 00 00 00 00 00 00 00
00001129: 00 00 00 00 00 00 00 00 00 00 00 00 00 00 00 00
00001139: 00 00 00 00 00 00 00 00 00 00 00 00 00 00 00 00
00001149: 00 00 00 00 00 00 00 00 00 00 00 00 00 00 00 00
00001159: 00 00 00 00 00 00 00 00 00 00 00 00 00 00 00 00

# DSI0_3_HV_ROUTING + 0x00000080 (count=128)
00001169: 00 00 00 00 00 00 00 00 00 00 00 00 00 00 00 00
00001179: 00 00 00 00 00 00 00 00 00 20 00 00 00 00 00 00
00001189: 00 00 00 00 00 00 00 00 00 00 00 00 00 00 00 00
00001199: 00 00 00 00 00 00 00 00 00 00 00 00 00 00 00 00
000011a9: 00 00 00 00 00 00 00 00 00 00 00 00 00 00 00 00
000011b9: 00 00 00 00 00 00 00 00 00 00 00 00 00 00 00 00
000011c9: 00 00 00 00 00 00 00 00 00 00 00 00 00 00 00 00
000011d9: 00 00 00 00 00 00 00 00 00 00 00 00 00 00 00 00

# DSISWITCH_0_4 (count=128)
000011e9: 00 20 00 00 00 00 00 00 00 00 00 00 00 00 00 00
000011f9: 00 00 00 00 00 00 00 00 00 00 00 00 00 00 00 00
00001209: 00 00 00 00 00 00 00 00 00 00 00 00 00 00 00 00
00001219: 00 00 00 00 00 00 00 00 00 00 00 00 00 00 00 00
00001229: 00 00 00 00 00 00 00 00 00 00 00 00 00 00 00 00
00001239: 00 00 00 00 00 00 00 00 00 00 00 00 00 00 00 00
00001249: 00 00 00 00 00 00 00 00 00 00 00 00 00 00 00 00
00001259: 00 00 00 00 00 00 00 00 00 00 00 00 00 00 00 00

# DSI0_4_HV_ROUTING + 0x00000080 (count=128)
00001269: 00 00 00 00 00 00 00 00 00 00 00 00 00 00 00 00
00001279: 00 00 00 00 00 00 00 00 00 00 00 00 00 00 00 00
00001289: 00 00 00 00 00 00 00 00 00 00 00 00 00 00 00 00
00001299: 00 00 00 00 00 00 00 00 00 00 00 00 00 00 00 00
000012a9: 02 00 00 00 00 00 00 00 00 00 00 00 00 00 00 00
000012b9: 00 00 00 00 00 00 00 00 00 00 00 00 00 00 00 00
000012c9: 00 00 00 00 00 00 00 00 00 00 00 00 00 00 00 00
000012d9: 00 00 00 00 00 00 00 00 00 00 00 00 00 00 00 00

# DSISWITCH_0_5 (count=128)
000012e9: 00 00 00 00 00 00 00 00 00 00 00 00 00 00 00 00
000012f9: 00 00 00 00 00 00 00 00 00 00 00 00 00 00 00 00
00001309: 00 00 00 00 00 00 00 00 00 00 00 00 00 00 00 00
00001319: 00 00 00 00 00 00 00 00 00 00 00 00 00 00 00 00
00001329: 00 00 00 00 00 00 00 00 00 00 00 00 00 00 00 00
00001339: 00 00 00 00 00 00 00 00 00 00 00 00 00 00 00 00
00001349: 00 00 00 00 00 00 00 00 00 00 00 00 00 00 00 00
00001359: 00 00 00 00 00 00 00 00 00 00 00 00 00 00 00 00

# DSI0_5_HV_ROUTING + 0x00000080 (count=128)
00001369: 00 00 00 00 00 00 00 00 00 00 00 00 00 00 00 00
00001379: 00 00 00 00 00 00 00 00 00 00 00 00 00 00 00 00
00001389: 00 00 00 00 00 00 00 00 00 00 00 00 00 00 00 00
00001399: 00 00 00 00 00 00 00 00 00 00 00 00 00 00 00 00
000013a9: 00 00 00 00 00 00 00 00 00 00 00 00 00 00 00 00
000013b9: 00 00 00 00 00 00 00 00 00 00 00 00 00 00 00 00
000013c9: 00 00 00 00 00 00 00 00 00 00 00 00 00 00 00 00
000013d9: 00 00 00 00 00 00 00 00 00 00 00 00 00 00 00 00

# UDBSWITCH_0_0 (count=128)
000013e9: 40 02 00 08 00 00 00 00 20 00 22 00 00 00 00 08
000013f9: 09 04 00 02 00 20 00 00 00 21 21 00 00 00 18 80
00001409: 00 00 00 40 00 00 48 00 41 06 04 00 00 00 00 80
00001419: 80 00 01 08 00 00 08 00 68 00 00 00 00 00 00 00
00001429: 00 00 00 00 00 00 04 00 04 04 00 00 00 00 00 a9
00001439: 00 04 00 00 00 00 08 20 00 00 00 00 00 90 08 01
00001449: 00 00 00 00 00 00 00 00 00 00 00 00 00 00 00 00
00001459: 00 00 00 00 00 00 00 00 00 00 00 00 02 80 00 00

# UDB_1_0_HV_ROUTING + 0x00000080 (count=128)
00001469: 00 00 10 00 00 10 00 20 20 00 40 00 80 a4 00 02
00001479: 68 24 02 00 00 08 21 40 43 00 00 00 a0 05 08 00
00001489: 8c 44 00 58 00 00 00 20 00 00 00 00 00 00 00 00
00001499: 00 00 00 00 00 00 00 00 00 00 00 00 00 00 00 00
000014a9: 0b 00 47 00 4f 00 00 00 00 00 89 00 4b 00 0e 00
000014b9: 20 00 34 00 00 00 f0 00 00 00 00 00 00 00 90 00
000014c9: 01 00 20 00 00 00 00 00 00 00 00 00 00 00 00 00
000014d9: 00 00 00 00 00 00 00 00 00 00 00 00 00 00 00 00

# UDBSWITCH_1_0 (count=128)
000014e9: 00 00 00 00 00 00 00 00 00 00 00 00 00 00 00 00
000014f9: 00 00 00 00 00 00 00 00 00 00 00 00 00 00 00 00
00001509: 00 00 00 00 00 00 00 00 00 00 00 00 00 00 00 00
00001519: 00 00 00 00 00 00 00 00 00 00 00 00 00 00 00 00
00001529: 00 00 00 00 00 00 00 00 00 00 00 00 00 00 00 00
00001539: 00 00 00 00 00 00 00 00 00 00 00 00 00 00 00 00
00001549: 00 00 00 00 00 00 00 00 00 00 00 00 00 00 00 00
00001559: 00 00 00 00 00 00 00 00 00 00 00 00 00 00 00 00

# UDB_2_0_HV_ROUTING + 0x00000080 (count=128)
00001569: 00 00 00 00 00 00 00 00 00 00 00 00 00 00 00 00
00001579: 00 00 00 00 00 00 00 00 00 00 00 00 00 00 00 00
00001589: 00 00 00 00 00 00 00 00 00 00 00 00 00 00 00 00
00001599: 00 00 00 00 00 00 00 00 00 00 00 00 00 00 00 00
000015a9: 00 00 00 00 00 00 00 00 00 00 00 00 00 00 00 00
000015b9: 00 00 00 00 00 00 00 00 00 00 00 00 00 00 00 00
000015c9: 00 00 20 00 00 00 00 00 00 00 00 00 00 00 00 00
000015d9: 00 00 00 00 00 00 00 00 00 00 00 00 00 00 00 00

# UDBSWITCH_0_1 (count=128)
000015e9: 00 00 00 25 00 00 00 02 08 80 08 00 00 90 44 22
000015f9: 08 44 00 02 00 08 28 04 00 00 48 18 00 00 04 00
00001609: 41 08 00 00 00 04 00 02 a1 20 00 00 00 00 20 20
00001619: 80 00 11 08 08 04 00 02 68 00 00 00 00 40 40 a2
00001629: 00 00 00 00 00 00 00 00 00 00 00 00 00 00 00 00
00001639: 00 00 00 00 00 00 00 00 00 01 00 00 00 00 00 00
00001649: 00 40 20 00 00 00 00 00 00 00 00 00 00 80 00 00
00001659: 00 00 00 00 00 00 00 00 00 00 00 00 00 00 00 00

# UDB_1_1_HV_ROUTING + 0x00000080 (count=128)
00001669: 00 00 00 00 00 00 00 00 01 08 00 00 00 00 00 00
00001679: 28 04 02 00 41 00 41 40 42 60 00 01 20 04 00 02
00001689: 8c 80 20 00 00 08 00 18 00 00 00 00 00 00 00 00
00001699: 42 00 84 00 00 00 00 00 00 00 00 00 00 00 00 00
000016a9: 87 00 f7 00 6f 00 00 00 00 00 6f 00 cf 00 be 00
000016b9: 00 00 00 00 00 00 01 00 0c 00 00 00 00 00 00 00
000016c9: 00 00 00 00 00 00 00 00 00 00 00 00 00 00 00 00
000016d9: 00 00 00 00 00 00 00 00 00 00 00 00 00 00 00 00

# UDBSWITCH_1_1 (count=128)
000016e9: 00 00 00 00 00 00 00 00 00 00 00 00 00 00 00 00
000016f9: 00 00 00 00 00 00 00 00 00 00 00 00 00 00 00 00
00001709: 00 00 00 00 00 00 00 00 00 00 00 00 00 00 00 00
00001719: 00 00 00 00 00 00 00 00 00 00 00 00 00 00 00 00
00001729: 00 00 00 00 00 00 00 00 00 00 00 00 00 00 00 00
00001739: 00 00 00 00 00 00 00 00 00 00 00 00 00 00 00 00
00001749: 00 00 00 00 00 00 00 00 00 00 00 00 00 00 00 00
00001759: 00 00 00 00 00 00 00 00 00 00 00 00 00 00 00 00

# UDB_2_1_HV_ROUTING + 0x00000080 (count=128)
00001769: 00 00 00 00 00 00 00 00 00 00 00 00 00 00 00 00
00001779: 00 00 00 00 00 00 00 00 00 00 00 00 00 00 00 00
00001789: 00 00 00 00 00 00 00 00 00 00 00 00 00 00 00 00
00001799: 00 00 00 00 00 00 00 00 00 00 00 00 00 00 00 00
000017a9: 00 00 00 00 00 00 00 00 00 00 00 00 00 00 00 00
000017b9: 00 00 00 00 00 00 00 00 00 00 00 00 00 00 00 00
000017c9: 00 00 00 00 00 00 00 00 00 00 00 00 00 00 00 00
000017d9: 00 00 00 00 00 00 00 00 00 00 00 00 00 00 00 00

# UDBSWITCH_0_2 (count=128)
000017e9: 40 00 90 08 00 04 00 02 28 08 01 40 00 00 40 20
000017f9: 80 00 02 18 00 00 00 00 00 61 28 00 08 80 00 00
00001809: 00 00 23 00 00 00 00 00 40 00 40 08 00 00 00 00
00001819: 80 08 11 00 00 00 00 00 68 00 00 00 00 00 00 00
00001829: 49 00 00 08 00 00 00 00 00 00 00 40 00 00 00 00
00001839: 00 00 50 00 00 00 00 00 00 01 00 00 00 00 00 00
00001849: 00 00 00 00 00 00 00 00 08 04 00 01 00 00 00 00
00001859: 94 00 00 18 00 00 00 00 00 00 00 00 00 00 00 00

# UDB_1_2_HV_ROUTING + 0x00000080 (count=128)
00001869: 00 00 00 00 00 00 00 00 00 00 00 00 00 00 00 00
00001879: 00 00 00 00 00 00 00 00 00 00 00 00 00 00 00 00
00001889: 00 00 00 00 00 00 00 00 00 00 00 00 00 00 00 00
00001899: 00 00 00 00 00 00 00 00 00 00 00 00 00 00 00 00
000018a9: af 00 3f 00 0f 00 00 00 00 00 0d 00 0f 00 0e 00
000018b9: 0f 00 08 00 00 00 01 00 00 00 00 00 00 00 00 00
000018c9: 00 00 00 00 00 00 00 00 00 00 00 00 00 00 00 00
000018d9: 00 00 00 00 00 00 00 00 00 00 00 00 00 00 00 00

# UDBSWITCH_1_2 (count=128)
000018e9: 00 00 00 00 00 00 00 00 00 00 00 00 00 00 00 00
000018f9: 00 00 00 00 00 00 00 00 00 00 00 00 00 00 00 00
00001909: 00 00 00 00 00 00 00 00 00 00 00 00 00 00 00 00
00001919: 00 00 00 00 00 00 00 00 00 00 00 00 00 00 00 00
00001929: 00 00 00 00 00 00 00 00 00 00 00 00 00 00 00 00
00001939: 00 00 00 00 00 00 00 00 00 00 00 00 00 00 00 00
00001949: 00 00 00 00 00 00 00 00 00 00 00 00 00 00 00 00
00001959: 00 00 00 00 00 00 00 00 00 00 00 00 00 00 00 00

# UDB_2_2_HV_ROUTING + 0x00000080 (count=128)
00001969: 00 00 00 00 00 00 00 00 00 00 00 00 00 00 00 00
00001979: 00 00 00 00 00 00 00 00 00 00 00 00 00 00 00 00
00001989: 00 00 00 00 00 00 00 00 00 00 00 00 00 00 00 00
00001999: 00 00 00 00 00 00 00 00 00 00 00 00 00 00 00 00
000019a9: 00 00 00 00 00 00 00 00 00 00 00 00 00 00 00 00
000019b9: 00 00 00 00 00 00 00 00 00 00 00 00 00 00 00 00
000019c9: 00 00 00 00 00 00 00 00 00 00 00 00 00 00 00 00
000019d9: 00 00 00 00 00 00 00 00 00 00 00 00 00 00 00 00

# UDBSWITCH_0_3 (count=128)
000019e9: 00 00 00 00 00 00 00 00 00 00 00 00 00 00 00 00
000019f9: 00 00 00 00 00 00 00 00 00 00 00 00 00 00 00 00
00001a09: 00 00 00 00 00 00 00 00 00 00 00 00 00 00 00 00
00001a19: 00 00 00 00 00 00 00 00 00 00 00 00 00 00 00 00
00001a29: 00 00 00 00 00 00 00 00 00 00 00 00 00 00 00 00
00001a39: 00 00 00 00 00 00 00 00 00 00 00 00 00 00 00 00
00001a49: 00 00 00 00 00 00 00 00 00 00 00 00 00 00 00 00
00001a59: 00 00 00 00 00 00 00 00 00 00 00 00 00 00 00 00

# UDB_1_3_HV_ROUTING + 0x00000080 (count=128)
00001a69: 00 00 00 00 00 00 00 00 00 00 00 00 00 00 00 00
00001a79: 00 00 00 00 00 00 00 00 00 00 00 00 00 00 00 00
00001a89: 00 00 00 00 00 00 00 00 00 00 00 00 00 00 00 00
00001a99: 00 00 00 00 00 00 00 00 00 00 00 00 00 00 00 00
00001aa9: 00 00 00 00 00 00 00 00 00 00 00 00 00 00 00 00
00001ab9: 00 00 00 00 00 00 00 00 00 00 00 00 00 00 00 00
00001ac9: 00 00 00 00 00 00 00 00 00 00 00 00 00 00 00 00
00001ad9: 00 00 00 00 00 00 00 00 00 00 00 00 00 00 00 00

# UDBSWITCH_1_3 (count=128)
00001ae9: 00 00 00 00 00 00 00 00 00 00 00 00 00 00 00 00
00001af9: 00 00 00 00 00 00 00 00 00 00 00 00 00 00 00 00
00001b09: 00 00 00 00 00 00 00 00 00 00 00 00 00 00 00 00
00001b19: 00 00 00 00 00 00 00 00 00 00 00 00 00 00 00 00
00001b29: 00 00 00 00 00 00 00 00 00 00 00 00 00 00 00 00
00001b39: 00 00 00 00 00 00 00 00 00 00 00 00 00 00 00 00
00001b49: 00 00 00 00 00 00 00 00 00 00 00 00 00 00 00 00
00001b59: 00 00 00 00 00 00 00 00 00 00 00 00 00 00 00 00

# UDB_2_3_HV_ROUTING + 0x00000080 (count=128)
00001b69: 00 00 00 00 00 00 00 00 00 00 00 00 00 00 00 00
00001b79: 00 00 00 00 00 00 00 00 00 00 00 00 00 00 00 00
00001b89: 00 00 00 00 00 00 00 00 00 00 00 00 00 00 00 00
00001b99: 00 00 00 00 00 00 00 00 00 00 00 00 00 00 00 00
00001ba9: 00 00 00 00 00 00 00 00 00 00 00 00 00 00 00 00
00001bb9: 00 00 00 00 00 00 00 00 00 00 00 00 00 00 00 00
00001bc9: 00 00 00 00 00 00 00 00 00 00 00 00 00 00 00 00
00001bd9: 00 00 00 00 00 00 00 00 00 00 00 00 00 00 00 00

# UDBSWITCH_0_4 (count=128)
00001be9: 00 00 00 00 00 00 00 00 00 00 00 00 00 00 00 00
00001bf9: 00 00 00 00 00 00 00 00 00 00 00 00 00 00 00 00
00001c09: 00 00 00 00 00 00 00 00 00 00 00 00 00 00 00 00
00001c19: 00 00 00 00 00 00 00 00 00 00 00 00 00 00 00 00
00001c29: 00 00 00 00 00 00 00 00 00 00 00 00 00 00 00 00
00001c39: 00 00 00 00 00 00 00 00 00 00 00 00 00 00 00 00
00001c49: 00 00 00 00 00 00 00 00 00 00 00 00 00 00 00 00
00001c59: 00 00 00 00 00 00 00 00 00 00 00 00 00 00 00 00

# UDB_1_4_HV_ROUTING + 0x00000080 (count=128)
00001c69: 00 00 00 00 00 00 00 00 00 00 00 00 00 00 00 00
00001c79: 00 00 00 00 00 00 00 00 00 00 00 00 00 00 00 00
00001c89: 00 00 00 00 00 00 00 00 00 00 00 00 00 00 00 00
00001c99: 00 00 00 00 00 00 00 00 00 00 00 00 00 00 00 00
00001ca9: 00 00 00 00 00 00 00 00 00 00 00 00 00 00 00 00
00001cb9: 00 00 00 00 00 00 00 00 00 00 00 00 00 00 00 00
00001cc9: 00 00 00 00 00 00 00 00 00 00 00 00 00 00 00 00
00001cd9: 00 00 00 00 00 00 00 00 00 00 00 00 00 00 00 00

# UDBSWITCH_1_4 (count=128)
00001ce9: 00 00 00 00 00 00 00 00 00 00 00 00 00 00 00 00
00001cf9: 00 00 00 00 00 00 00 00 00 00 00 00 00 00 00 00
00001d09: 00 00 00 00 00 00 00 00 00 00 00 00 00 00 00 00
00001d19: 00 00 00 00 00 00 00 00 00 00 00 00 00 00 00 00
00001d29: 00 00 00 00 00 00 00 00 00 00 00 00 00 00 00 00
00001d39: 00 00 00 00 00 00 00 00 00 00 00 00 00 00 00 00
00001d49: 00 00 00 00 00 00 00 00 00 00 00 00 00 00 00 00
00001d59: 00 00 00 00 00 00 00 00 00 00 00 00 00 00 00 00

# UDB_2_4_HV_ROUTING + 0x00000080 (count=128)
00001d69: 00 00 00 00 00 00 00 00 00 00 00 00 00 00 00 00
00001d79: 00 00 00 00 00 00 00 00 00 00 00 00 00 00 00 00
00001d89: 00 00 00 00 00 00 00 00 00 00 00 00 00 00 00 00
00001d99: 00 00 00 00 00 00 00 00 00 00 00 00 00 00 00 00
00001da9: 00 00 00 00 00 00 00 00 00 00 00 00 00 00 00 00
00001db9: 00 00 00 00 00 00 00 00 00 00 00 00 00 00 00 00
00001dc9: 00 00 00 00 00 00 00 00 00 00 00 00 00 00 00 00
00001dd9: 00 00 00 00 00 00 00 00 00 00 00 00 00 00 00 00

# UDBSWITCH_0_5 (count=128)
00001de9: 00 00 00 00 00 00 00 00 00 00 00 00 00 00 00 00
00001df9: 00 00 00 00 00 00 00 00 00 00 00 00 00 00 00 00
00001e09: 00 00 00 00 00 00 00 00 00 00 00 00 00 00 00 00
00001e19: 00 00 00 00 00 00 00 00 00 00 00 00 00 00 00 00
00001e29: 00 00 00 00 00 00 00 00 00 00 00 00 00 00 00 00
00001e39: 00 00 00 00 00 00 00 00 00 00 00 00 00 00 00 00
00001e49: 00 00 00 00 00 00 00 00 00 00 00 00 00 00 00 00
00001e59: 00 00 00 00 00 00 00 00 00 00 00 00 00 00 00 00

# UDB_1_5_HV_ROUTING + 0x00000080 (count=128)
00001e69: 00 00 00 00 00 00 00 00 00 00 00 00 00 00 00 00
00001e79: 00 00 00 00 00 00 00 00 00 00 00 00 00 00 00 00
00001e89: 00 00 00 00 00 00 00 00 00 00 00 00 00 00 00 00
00001e99: 00 00 00 00 00 00 00 00 00 00 00 00 00 00 00 00
00001ea9: 00 00 00 00 00 00 00 00 00 00 00 00 00 00 00 00
00001eb9: 00 00 00 00 00 00 00 00 00 00 00 00 00 00 00 00
00001ec9: 00 00 00 00 00 00 00 00 00 00 00 00 00 00 00 00
00001ed9: 00 00 00 00 00 00 00 00 00 00 00 00 00 00 00 00

# UDBSWITCH_1_5 (count=128)
00001ee9: 00 00 00 00 00 00 00 00 00 00 00 00 00 00 00 00
00001ef9: 00 00 00 00 00 00 00 00 00 00 00 00 00 00 00 00
00001f09: 00 00 00 00 00 00 00 00 00 00 00 00 00 00 00 00
00001f19: 00 00 00 00 00 00 00 00 00 00 00 00 00 00 00 00
00001f29: 00 00 00 00 00 00 00 00 00 00 00 00 00 00 00 00
00001f39: 00 00 00 00 00 00 00 00 00 00 00 00 00 00 00 00
00001f49: 00 00 00 00 00 00 00 00 00 00 00 00 00 00 00 00
00001f59: 00 00 00 00 00 00 00 00 00 00 00 00 00 00 00 00

# UDB_2_5_HV_ROUTING + 0x00000080 (count=128)
00001f69: 00 00 00 00 00 00 00 00 00 00 00 00 00 00 00 00
00001f79: 00 00 00 00 00 00 00 00 00 00 00 00 00 00 00 00
00001f89: 00 00 00 00 00 00 00 00 00 00 00 00 00 00 00 00
00001f99: 00 00 00 00 00 00 00 00 00 00 00 00 00 00 00 00
00001fa9: 00 00 00 00 00 00 00 00 00 00 00 00 00 00 00 00
00001fb9: 00 00 00 00 00 00 00 00 00 00 00 00 00 00 00 00
00001fc9: 00 00 00 00 00 00 00 00 00 00 00 00 00 00 00 00
00001fd9: 00 00 00 00 00 00 00 00 00 00 00 00 00 00 00 00

# DSISWITCH_1_0 (count=128)
00001fe9: 00 00 00 00 00 00 00 00 00 00 00 00 00 00 00 00
00001ff9: 00 00 00 00 00 00 00 00 00 00 00 00 00 00 00 00
00002009: 00 00 00 00 00 00 00 00 00 00 00 00 00 00 00 00
00002019: 00 00 00 00 00 00 00 00 00 00 00 00 00 00 00 00
00002029: 00 00 00 00 00 00 00 00 00 00 00 00 00 00 00 00
00002039: 00 00 00 10 00 00 00 00 00 00 00 00 00 00 00 00
00002049: 00 00 00 00 00 00 00 00 00 00 00 00 00 00 00 00
00002059: 00 00 00 00 00 00 00 00 00 00 00 00 00 00 00 00

# DSI3_0_HV_ROUTING + 0x00000080 (count=128)
00002069: 00 00 00 00 00 00 00 00 00 20 00 10 00 00 00 00
00002079: 00 00 00 00 00 00 00 00 00 00 00 00 00 20 00 00
00002089: 00 00 00 00 00 00 00 00 00 00 00 00 00 00 21 00
00002099: 00 00 00 00 00 00 00 00 00 00 00 00 00 00 00 00
000020a9: 00 00 00 00 00 00 00 00 00 00 00 00 00 00 00 00
000020b9: 00 00 00 00 20 00 00 00 00 00 00 00 00 00 00 00
000020c9: 00 00 00 00 00 00 00 00 00 00 00 00 00 00 00 00
000020d9: 00 00 00 00 00 00 00 00 00 00 00 00 00 00 00 00

# DSISWITCH_1_1 (count=128)
000020e9: 00 00 00 00 00 00 00 00 00 00 00 00 00 00 00 00
000020f9: 00 00 00 00 00 00 00 00 00 00 00 00 00 00 00 00
00002109: 00 00 01 00 00 00 00 00 00 00 00 00 00 00 00 00
00002119: 00 00 00 00 00 00 00 00 00 00 00 00 00 00 00 00
00002129: 00 00 00 00 00 00 00 00 00 00 00 00 00 00 00 00
00002139: 00 00 00 00 00 00 00 00 00 00 00 00 00 00 00 00
00002149: 00 00 00 00 00 00 00 00 00 00 00 00 00 00 00 00
00002159: 00 00 00 00 00 00 00 00 00 00 00 00 00 00 00 00

# DSI3_1_HV_ROUTING + 0x00000080 (count=128)
00002169: 00 00 00 00 00 00 00 00 00 00 00 00 00 00 00 00
00002179: 00 00 00 00 00 00 00 00 00 00 00 00 00 20 00 00
00002189: 00 00 00 00 00 00 20 00 00 00 00 00 00 00 00 00
00002199: 00 00 00 00 00 00 00 00 00 00 00 00 00 00 00 00
000021a9: 00 00 00 00 00 00 00 00 40 00 00 00 00 00 00 00
000021b9: 00 00 00 00 00 00 00 00 00 00 00 00 00 00 00 00
000021c9: 00 00 00 00 00 00 00 00 00 00 00 00 00 00 00 00
000021d9: 00 00 00 00 00 00 00 00 00 00 00 00 00 00 00 00

# DSISWITCH_1_2 (count=128)
000021e9: 00 00 00 00 00 00 00 00 00 00 00 00 00 00 00 00
000021f9: 00 00 00 00 00 00 00 00 00 00 00 00 00 00 00 00
00002209: 00 00 00 00 00 00 00 00 00 00 00 00 00 00 00 00
00002219: 00 00 00 00 00 00 00 00 00 00 00 00 00 00 00 00
00002229: 00 00 00 00 00 00 00 00 00 00 00 00 00 00 00 00
00002239: 00 00 00 00 00 00 00 00 00 00 00 00 00 00 00 00
00002249: 00 00 00 00 00 00 00 00 00 00 00 00 00 00 00 00
00002259: 00 00 00 00 00 00 00 00 00 00 00 00 00 00 00 00

# DSI3_2_HV_ROUTING + 0x00000080 (count=128)
00002269: 00 00 00 00 00 00 00 00 00 00 00 00 00 00 00 00
00002279: 00 00 00 00 00 00 00 00 00 00 00 00 00 20 00 00
00002289: 00 00 00 00 00 00 20 00 00 00 00 00 00 00 00 00
00002299: 00 00 00 00 00 00 00 00 00 00 00 00 00 00 00 00
000022a9: 00 00 00 00 00 00 00 00 00 00 00 00 00 00 00 00
000022b9: 00 00 00 00 00 00 00 00 00 00 00 00 00 00 00 00
000022c9: 00 00 00 00 00 00 00 00 00 00 00 00 00 00 00 00
000022d9: 00 00 00 00 00 00 00 00 00 00 00 00 00 00 00 00

# DSISWITCH_1_3 (count=128)
000022e9: 00 00 00 00 00 00 00 00 00 00 00 00 00 00 00 00
000022f9: 00 00 00 00 00 00 00 00 00 00 00 00 00 00 00 00
00002309: 00 00 00 00 00 00 00 00 00 00 00 00 00 00 00 00
00002319: 00 00 00 00 00 00 00 00 00 00 00 00 00 00 00 00
00002329: 00 00 00 00 00 00 00 00 00 00 00 00 00 00 00 00
00002339: 00 00 00 00 00 00 00 00 00 00 00 00 00 00 00 00
00002349: 00 00 00 00 00 00 00 00 00 00 00 00 00 00 00 00
00002359: 00 00 00 00 00 00 00 00 00 00 00 00 00 00 00 00

# DSI3_3_HV_ROUTING + 0x00000080 (count=128)
00002369: 00 00 00 00 00 00 00 00 00 00 00 00 00 00 00 00
00002379: 00 00 00 00 00 00 00 00 00 00 00 00 00 20 00 00
00002389: 00 00 00 00 00 00 20 00 00 00 00 00 00 00 00 00
00002399: 00 00 00 00 00 00 00 00 00 00 00 00 00 00 00 00
000023a9: 00 00 00 00 00 00 00 00 00 00 00 00 00 00 00 00
000023b9: 00 00 00 00 00 00 00 00 00 00 00 00 00 00 00 00
000023c9: 00 00 00 00 00 00 00 00 00 00 00 00 00 00 00 00
000023d9: 00 00 00 00 00 00 00 00 00 00 00 00 00 00 00 00

# DSISWITCH_1_4 (count=128)
000023e9: 00 00 00 00 00 00 00 00 00 00 00 00 00 00 00 00
000023f9: 00 00 00 00 00 00 00 00 00 00 00 00 00 00 00 00
00002409: 00 00 00 00 00 00 00 00 00 00 00 00 00 00 00 00
00002419: 00 00 00 00 00 00 00 00 00 00 00 00 00 00 00 00
00002429: 00 00 00 00 00 00 00 00 00 00 00 00 00 00 00 00
00002439: 00 00 00 00 00 00 00 00 00 00 00 00 00 00 00 00
00002449: 00 00 00 00 00 00 00 00 00 00 00 00 00 00 00 00
00002459: 00 00 00 00 00 00 00 00 00 00 00 00 00 00 00 00

# DSI3_4_HV_ROUTING + 0x00000080 (count=128)
00002469: 00 00 00 00 00 00 00 00 00 00 00 00 00 00 00 00
00002479: 00 00 00 00 00 00 00 00 00 00 00 00 00 20 00 00
00002489: 00 00 00 00 00 00 20 00 00 00 00 00 00 00 00 00
00002499: 00 00 00 00 00 00 00 00 00 00 00 00 00 00 00 00
000024a9: 00 00 00 00 00 00 00 00 00 00 00 00 00 00 00 00
000024b9: 00 00 00 00 00 00 00 00 00 00 00 00 00 00 00 00
000024c9: 00 00 00 00 00 00 00 00 00 00 00 00 00 00 00 00
000024d9: 00 00 00 00 00 00 00 00 00 00 00 00 00 00 00 00

# DSISWITCH_1_5 (count=128)
000024e9: 00 00 00 00 00 00 00 00 00 00 00 00 00 00 00 00
000024f9: 00 00 00 00 00 00 00 00 00 00 00 00 00 00 00 00
00002509: 00 00 00 00 00 00 00 00 00 00 00 00 00 00 00 00
00002519: 00 00 20 00 00 20 00 00 00 00 00 00 00 00 00 00
00002529: 00 00 00 00 00 00 00 00 00 00 00 00 00 00 00 00
00002539: 00 00 00 00 00 00 00 00 00 00 00 00 00 00 00 00
00002549: 00 00 00 00 00 00 00 00 00 00 00 00 00 00 00 00
00002559: 00 00 00 00 00 00 00 00 00 00 00 00 00 00 00 00

# DSI3_5_HV_ROUTING + 0x00000080 (count=128)
00002569: 00 00 00 00 00 00 00 00 00 00 00 00 00 00 00 00
00002579: 00 00 00 00 00 00 00 00 00 00 00 00 00 00 00 00
00002589: 00 00 00 00 00 00 00 00 00 00 00 00 00 00 00 00
00002599: 00 00 00 00 00 00 00 00 00 00 00 00 00 00 00 00
000025a9: 00 00 00 00 00 00 00 00 00 00 00 00 30 00 00 00
000025b9: 00 00 00 00 00 00 00 00 00 00 00 00 00 00 00 00
000025c9: 00 00 00 00 00 00 00 00 00 00 00 00 00 00 00 00
000025d9: 00 00 00 00 00 00 00 00 00 00 00 00 00 00 00 00

