ARM GAS  C:\Users\JOSEAN~1\AppData\Local\Temp\ccI3w3Hv.s 			page 1


   1              		.syntax unified
   2              		.cpu cortex-m3
   3              		.fpu softvfp
   4              		.eabi_attribute 20, 1
   5              		.eabi_attribute 21, 1
   6              		.eabi_attribute 23, 3
   7              		.eabi_attribute 24, 1
   8              		.eabi_attribute 25, 1
   9              		.eabi_attribute 26, 1
  10              		.eabi_attribute 30, 6
  11              		.eabi_attribute 34, 1
  12              		.eabi_attribute 18, 4
  13              		.thumb
  14              		.syntax unified
  15              		.file	"cyfitter_cfg.c"
  16              		.text
  17              	.Ltext0:
  18              		.cfi_sections	.debug_frame
  19              		.section	.text.CYMEMZERO,"ax",%progbits
  20              		.align	2
  21              		.thumb
  22              		.thumb_func
  23              		.type	CYMEMZERO, %function
  24              	CYMEMZERO:
  25              	.LFB0:
  26              		.file 1 "Generated_Source\\PSoC5\\cyfitter_cfg.c"
   1:Generated_Source\PSoC5/cyfitter_cfg.c **** 
   2:Generated_Source\PSoC5/cyfitter_cfg.c **** /*******************************************************************************
   3:Generated_Source\PSoC5/cyfitter_cfg.c **** * File Name: cyfitter_cfg.c
   4:Generated_Source\PSoC5/cyfitter_cfg.c **** * 
   5:Generated_Source\PSoC5/cyfitter_cfg.c **** * PSoC Creator  4.2
   6:Generated_Source\PSoC5/cyfitter_cfg.c **** *
   7:Generated_Source\PSoC5/cyfitter_cfg.c **** * Description:
   8:Generated_Source\PSoC5/cyfitter_cfg.c **** * This file contains device initialization code.
   9:Generated_Source\PSoC5/cyfitter_cfg.c **** * Except for the user defined sections in CyClockStartupError(), this file should not be modified.
  10:Generated_Source\PSoC5/cyfitter_cfg.c **** * This file is automatically generated by PSoC Creator.
  11:Generated_Source\PSoC5/cyfitter_cfg.c **** *
  12:Generated_Source\PSoC5/cyfitter_cfg.c **** ********************************************************************************
  13:Generated_Source\PSoC5/cyfitter_cfg.c **** * Copyright (c) 2007-2018 Cypress Semiconductor.  All rights reserved.
  14:Generated_Source\PSoC5/cyfitter_cfg.c **** * You may use this file only in accordance with the license, terms, conditions, 
  15:Generated_Source\PSoC5/cyfitter_cfg.c **** * disclaimers, and limitations in the end user license agreement accompanying 
  16:Generated_Source\PSoC5/cyfitter_cfg.c **** * the software package with which this file was provided.
  17:Generated_Source\PSoC5/cyfitter_cfg.c **** ********************************************************************************/
  18:Generated_Source\PSoC5/cyfitter_cfg.c **** 
  19:Generated_Source\PSoC5/cyfitter_cfg.c **** #include <string.h>
  20:Generated_Source\PSoC5/cyfitter_cfg.c **** #include "cytypes.h"
  21:Generated_Source\PSoC5/cyfitter_cfg.c **** #include "cydevice_trm.h"
  22:Generated_Source\PSoC5/cyfitter_cfg.c **** #include "cyfitter.h"
  23:Generated_Source\PSoC5/cyfitter_cfg.c **** #include "CyLib.h"
  24:Generated_Source\PSoC5/cyfitter_cfg.c **** #include "cyfitter_cfg.h"
  25:Generated_Source\PSoC5/cyfitter_cfg.c **** 
  26:Generated_Source\PSoC5/cyfitter_cfg.c **** #define CY_NEED_CYCLOCKSTARTUPERROR 1
  27:Generated_Source\PSoC5/cyfitter_cfg.c **** 
  28:Generated_Source\PSoC5/cyfitter_cfg.c **** 
  29:Generated_Source\PSoC5/cyfitter_cfg.c **** #if defined(__GNUC__) || defined(__ARMCC_VERSION)
  30:Generated_Source\PSoC5/cyfitter_cfg.c ****     #define CYPACKED 
  31:Generated_Source\PSoC5/cyfitter_cfg.c ****     #define CYPACKED_ATTR __attribute__ ((packed))
ARM GAS  C:\Users\JOSEAN~1\AppData\Local\Temp\ccI3w3Hv.s 			page 2


  32:Generated_Source\PSoC5/cyfitter_cfg.c ****     #define CYALIGNED __attribute__ ((aligned))
  33:Generated_Source\PSoC5/cyfitter_cfg.c ****     #define CY_CFG_UNUSED __attribute__ ((unused))
  34:Generated_Source\PSoC5/cyfitter_cfg.c ****     #ifndef CY_CFG_SECTION
  35:Generated_Source\PSoC5/cyfitter_cfg.c ****         #define CY_CFG_SECTION __attribute__ ((section(".psocinit")))
  36:Generated_Source\PSoC5/cyfitter_cfg.c ****     #endif
  37:Generated_Source\PSoC5/cyfitter_cfg.c ****     
  38:Generated_Source\PSoC5/cyfitter_cfg.c ****     #if defined(__ARMCC_VERSION)
  39:Generated_Source\PSoC5/cyfitter_cfg.c ****         #define CY_CFG_MEMORY_BARRIER() __memory_changed()
  40:Generated_Source\PSoC5/cyfitter_cfg.c ****     #else
  41:Generated_Source\PSoC5/cyfitter_cfg.c ****         #define CY_CFG_MEMORY_BARRIER() __sync_synchronize()
  42:Generated_Source\PSoC5/cyfitter_cfg.c ****     #endif
  43:Generated_Source\PSoC5/cyfitter_cfg.c ****     
  44:Generated_Source\PSoC5/cyfitter_cfg.c **** #elif defined(__ICCARM__)
  45:Generated_Source\PSoC5/cyfitter_cfg.c ****     #include <intrinsics.h>
  46:Generated_Source\PSoC5/cyfitter_cfg.c **** 
  47:Generated_Source\PSoC5/cyfitter_cfg.c ****     #define CYPACKED __packed
  48:Generated_Source\PSoC5/cyfitter_cfg.c ****     #define CYPACKED_ATTR 
  49:Generated_Source\PSoC5/cyfitter_cfg.c ****     #define CYALIGNED _Pragma("data_alignment=4")
  50:Generated_Source\PSoC5/cyfitter_cfg.c ****     #define CY_CFG_UNUSED _Pragma("diag_suppress=Pe177")
  51:Generated_Source\PSoC5/cyfitter_cfg.c ****     #define CY_CFG_SECTION _Pragma("location=\".psocinit\"")
  52:Generated_Source\PSoC5/cyfitter_cfg.c ****     
  53:Generated_Source\PSoC5/cyfitter_cfg.c ****     #define CY_CFG_MEMORY_BARRIER() __DMB()
  54:Generated_Source\PSoC5/cyfitter_cfg.c ****     
  55:Generated_Source\PSoC5/cyfitter_cfg.c **** #else
  56:Generated_Source\PSoC5/cyfitter_cfg.c ****     #error Unsupported toolchain
  57:Generated_Source\PSoC5/cyfitter_cfg.c **** #endif
  58:Generated_Source\PSoC5/cyfitter_cfg.c **** 
  59:Generated_Source\PSoC5/cyfitter_cfg.c **** #ifndef CYCODE
  60:Generated_Source\PSoC5/cyfitter_cfg.c ****     #define CYCODE
  61:Generated_Source\PSoC5/cyfitter_cfg.c **** #endif
  62:Generated_Source\PSoC5/cyfitter_cfg.c **** #ifndef CYDATA
  63:Generated_Source\PSoC5/cyfitter_cfg.c ****     #define CYDATA
  64:Generated_Source\PSoC5/cyfitter_cfg.c **** #endif
  65:Generated_Source\PSoC5/cyfitter_cfg.c **** #ifndef CYFAR
  66:Generated_Source\PSoC5/cyfitter_cfg.c ****     #define CYFAR
  67:Generated_Source\PSoC5/cyfitter_cfg.c **** #endif
  68:Generated_Source\PSoC5/cyfitter_cfg.c **** #ifndef CYXDATA
  69:Generated_Source\PSoC5/cyfitter_cfg.c ****     #define CYXDATA
  70:Generated_Source\PSoC5/cyfitter_cfg.c **** #endif
  71:Generated_Source\PSoC5/cyfitter_cfg.c **** 
  72:Generated_Source\PSoC5/cyfitter_cfg.c **** 
  73:Generated_Source\PSoC5/cyfitter_cfg.c **** CY_CFG_UNUSED
  74:Generated_Source\PSoC5/cyfitter_cfg.c **** static void CYMEMZERO(void *s, size_t n);
  75:Generated_Source\PSoC5/cyfitter_cfg.c **** CY_CFG_UNUSED
  76:Generated_Source\PSoC5/cyfitter_cfg.c **** static void CYMEMZERO(void *s, size_t n)
  77:Generated_Source\PSoC5/cyfitter_cfg.c **** {
  27              		.loc 1 77 0
  28              		.cfi_startproc
  29              		@ args = 0, pretend = 0, frame = 8
  30              		@ frame_needed = 1, uses_anonymous_args = 0
  31 0000 80B5     		push	{r7, lr}
  32              		.cfi_def_cfa_offset 8
  33              		.cfi_offset 7, -8
  34              		.cfi_offset 14, -4
  35 0002 82B0     		sub	sp, sp, #8
  36              		.cfi_def_cfa_offset 16
  37 0004 00AF     		add	r7, sp, #0
ARM GAS  C:\Users\JOSEAN~1\AppData\Local\Temp\ccI3w3Hv.s 			page 3


  38              		.cfi_def_cfa_register 7
  39 0006 7860     		str	r0, [r7, #4]
  40 0008 3960     		str	r1, [r7]
  78:Generated_Source\PSoC5/cyfitter_cfg.c **** 	(void)memset(s, 0, n);
  41              		.loc 1 78 0
  42 000a 3A68     		ldr	r2, [r7]
  43 000c 0021     		movs	r1, #0
  44 000e 7868     		ldr	r0, [r7, #4]
  45 0010 FFF7FEFF 		bl	memset
  79:Generated_Source\PSoC5/cyfitter_cfg.c **** }
  46              		.loc 1 79 0
  47 0014 00BF     		nop
  48 0016 0837     		adds	r7, r7, #8
  49              		.cfi_def_cfa_offset 8
  50 0018 BD46     		mov	sp, r7
  51              		.cfi_def_cfa_register 13
  52              		@ sp needed
  53 001a 80BD     		pop	{r7, pc}
  54              		.cfi_endproc
  55              	.LFE0:
  56              		.size	CYMEMZERO, .-CYMEMZERO
  57              		.section	.text.CYCONFIGCPY,"ax",%progbits
  58              		.align	2
  59              		.thumb
  60              		.thumb_func
  61              		.type	CYCONFIGCPY, %function
  62              	CYCONFIGCPY:
  63              	.LFB1:
  80:Generated_Source\PSoC5/cyfitter_cfg.c **** CY_CFG_UNUSED
  81:Generated_Source\PSoC5/cyfitter_cfg.c **** static void CYCONFIGCPY(void *dest, const void *src, size_t n);
  82:Generated_Source\PSoC5/cyfitter_cfg.c **** CY_CFG_UNUSED
  83:Generated_Source\PSoC5/cyfitter_cfg.c **** static void CYCONFIGCPY(void *dest, const void *src, size_t n)
  84:Generated_Source\PSoC5/cyfitter_cfg.c **** {
  64              		.loc 1 84 0
  65              		.cfi_startproc
  66              		@ args = 0, pretend = 0, frame = 16
  67              		@ frame_needed = 1, uses_anonymous_args = 0
  68 0000 80B5     		push	{r7, lr}
  69              		.cfi_def_cfa_offset 8
  70              		.cfi_offset 7, -8
  71              		.cfi_offset 14, -4
  72 0002 84B0     		sub	sp, sp, #16
  73              		.cfi_def_cfa_offset 24
  74 0004 00AF     		add	r7, sp, #0
  75              		.cfi_def_cfa_register 7
  76 0006 F860     		str	r0, [r7, #12]
  77 0008 B960     		str	r1, [r7, #8]
  78 000a 7A60     		str	r2, [r7, #4]
  85:Generated_Source\PSoC5/cyfitter_cfg.c **** 	(void)memcpy(dest, src, n);
  79              		.loc 1 85 0
  80 000c 7A68     		ldr	r2, [r7, #4]
  81 000e B968     		ldr	r1, [r7, #8]
  82 0010 F868     		ldr	r0, [r7, #12]
  83 0012 FFF7FEFF 		bl	memcpy
  86:Generated_Source\PSoC5/cyfitter_cfg.c **** }
  84              		.loc 1 86 0
  85 0016 00BF     		nop
ARM GAS  C:\Users\JOSEAN~1\AppData\Local\Temp\ccI3w3Hv.s 			page 4


  86 0018 1037     		adds	r7, r7, #16
  87              		.cfi_def_cfa_offset 8
  88 001a BD46     		mov	sp, r7
  89              		.cfi_def_cfa_register 13
  90              		@ sp needed
  91 001c 80BD     		pop	{r7, pc}
  92              		.cfi_endproc
  93              	.LFE1:
  94              		.size	CYCONFIGCPY, .-CYCONFIGCPY
  95 001e 00BF     		.section	.text.CYCONFIGCPYCODE,"ax",%progbits
  96              		.align	2
  97              		.thumb
  98              		.thumb_func
  99              		.type	CYCONFIGCPYCODE, %function
 100              	CYCONFIGCPYCODE:
 101              	.LFB2:
  87:Generated_Source\PSoC5/cyfitter_cfg.c **** CY_CFG_UNUSED
  88:Generated_Source\PSoC5/cyfitter_cfg.c **** static void CYCONFIGCPYCODE(void *dest, const void *src, size_t n);
  89:Generated_Source\PSoC5/cyfitter_cfg.c **** CY_CFG_UNUSED
  90:Generated_Source\PSoC5/cyfitter_cfg.c **** static void CYCONFIGCPYCODE(void *dest, const void *src, size_t n)
  91:Generated_Source\PSoC5/cyfitter_cfg.c **** {
 102              		.loc 1 91 0
 103              		.cfi_startproc
 104              		@ args = 0, pretend = 0, frame = 16
 105              		@ frame_needed = 1, uses_anonymous_args = 0
 106 0000 80B5     		push	{r7, lr}
 107              		.cfi_def_cfa_offset 8
 108              		.cfi_offset 7, -8
 109              		.cfi_offset 14, -4
 110 0002 84B0     		sub	sp, sp, #16
 111              		.cfi_def_cfa_offset 24
 112 0004 00AF     		add	r7, sp, #0
 113              		.cfi_def_cfa_register 7
 114 0006 F860     		str	r0, [r7, #12]
 115 0008 B960     		str	r1, [r7, #8]
 116 000a 7A60     		str	r2, [r7, #4]
  92:Generated_Source\PSoC5/cyfitter_cfg.c **** 	(void)memcpy(dest, src, n);
 117              		.loc 1 92 0
 118 000c 7A68     		ldr	r2, [r7, #4]
 119 000e B968     		ldr	r1, [r7, #8]
 120 0010 F868     		ldr	r0, [r7, #12]
 121 0012 FFF7FEFF 		bl	memcpy
  93:Generated_Source\PSoC5/cyfitter_cfg.c **** }
 122              		.loc 1 93 0
 123 0016 00BF     		nop
 124 0018 1037     		adds	r7, r7, #16
 125              		.cfi_def_cfa_offset 8
 126 001a BD46     		mov	sp, r7
 127              		.cfi_def_cfa_register 13
 128              		@ sp needed
 129 001c 80BD     		pop	{r7, pc}
 130              		.cfi_endproc
 131              	.LFE2:
 132              		.size	CYCONFIGCPYCODE, .-CYCONFIGCPYCODE
 133 001e 00BF     		.section	.text.CyClockStartupError,"ax",%progbits
 134              		.align	2
 135              		.thumb
ARM GAS  C:\Users\JOSEAN~1\AppData\Local\Temp\ccI3w3Hv.s 			page 5


 136              		.thumb_func
 137              		.type	CyClockStartupError, %function
 138              	CyClockStartupError:
 139              	.LFB3:
  94:Generated_Source\PSoC5/cyfitter_cfg.c **** 
  95:Generated_Source\PSoC5/cyfitter_cfg.c **** 
  96:Generated_Source\PSoC5/cyfitter_cfg.c **** 
  97:Generated_Source\PSoC5/cyfitter_cfg.c **** 
  98:Generated_Source\PSoC5/cyfitter_cfg.c **** /* Clock startup error codes                                                   */
  99:Generated_Source\PSoC5/cyfitter_cfg.c **** #define CYCLOCKSTART_NO_ERROR    0u
 100:Generated_Source\PSoC5/cyfitter_cfg.c **** #define CYCLOCKSTART_XTAL_ERROR  1u
 101:Generated_Source\PSoC5/cyfitter_cfg.c **** #define CYCLOCKSTART_32KHZ_ERROR 2u
 102:Generated_Source\PSoC5/cyfitter_cfg.c **** #define CYCLOCKSTART_PLL_ERROR   3u
 103:Generated_Source\PSoC5/cyfitter_cfg.c **** #define CYCLOCKSTART_FLL_ERROR   4u
 104:Generated_Source\PSoC5/cyfitter_cfg.c **** #define CYCLOCKSTART_WCO_ERROR   5u
 105:Generated_Source\PSoC5/cyfitter_cfg.c **** 
 106:Generated_Source\PSoC5/cyfitter_cfg.c **** 
 107:Generated_Source\PSoC5/cyfitter_cfg.c **** #ifdef CY_NEED_CYCLOCKSTARTUPERROR
 108:Generated_Source\PSoC5/cyfitter_cfg.c **** /*******************************************************************************
 109:Generated_Source\PSoC5/cyfitter_cfg.c **** * Function Name: CyClockStartupError
 110:Generated_Source\PSoC5/cyfitter_cfg.c **** ********************************************************************************
 111:Generated_Source\PSoC5/cyfitter_cfg.c **** * Summary:
 112:Generated_Source\PSoC5/cyfitter_cfg.c **** *  If an error is encountered during clock configuration (crystal startup error,
 113:Generated_Source\PSoC5/cyfitter_cfg.c **** *  PLL lock error, etc.), the system will end up here.  Unless reimplemented by
 114:Generated_Source\PSoC5/cyfitter_cfg.c **** *  the customer, this function will stop in an infinite loop.
 115:Generated_Source\PSoC5/cyfitter_cfg.c **** *
 116:Generated_Source\PSoC5/cyfitter_cfg.c **** * Parameters:
 117:Generated_Source\PSoC5/cyfitter_cfg.c **** *   void
 118:Generated_Source\PSoC5/cyfitter_cfg.c **** *
 119:Generated_Source\PSoC5/cyfitter_cfg.c **** * Return:
 120:Generated_Source\PSoC5/cyfitter_cfg.c **** *   void
 121:Generated_Source\PSoC5/cyfitter_cfg.c **** *
 122:Generated_Source\PSoC5/cyfitter_cfg.c **** *******************************************************************************/
 123:Generated_Source\PSoC5/cyfitter_cfg.c **** CY_CFG_UNUSED
 124:Generated_Source\PSoC5/cyfitter_cfg.c **** static void CyClockStartupError(uint8 errorCode);
 125:Generated_Source\PSoC5/cyfitter_cfg.c **** CY_CFG_UNUSED
 126:Generated_Source\PSoC5/cyfitter_cfg.c **** static void CyClockStartupError(uint8 errorCode)
 127:Generated_Source\PSoC5/cyfitter_cfg.c **** {
 140              		.loc 1 127 0
 141              		.cfi_startproc
 142              		@ args = 0, pretend = 0, frame = 8
 143              		@ frame_needed = 1, uses_anonymous_args = 0
 144              		@ link register save eliminated.
 145 0000 80B4     		push	{r7}
 146              		.cfi_def_cfa_offset 4
 147              		.cfi_offset 7, -4
 148 0002 83B0     		sub	sp, sp, #12
 149              		.cfi_def_cfa_offset 16
 150 0004 00AF     		add	r7, sp, #0
 151              		.cfi_def_cfa_register 7
 152 0006 0346     		mov	r3, r0
 153 0008 FB71     		strb	r3, [r7, #7]
 154              	.L5:
 128:Generated_Source\PSoC5/cyfitter_cfg.c ****     /* To remove the compiler warning if errorCode not used.                */
 129:Generated_Source\PSoC5/cyfitter_cfg.c ****     errorCode = errorCode;
 130:Generated_Source\PSoC5/cyfitter_cfg.c **** 
 131:Generated_Source\PSoC5/cyfitter_cfg.c ****     /* If we have a clock startup error (bad MHz crystal, PLL lock, etc.),  */
ARM GAS  C:\Users\JOSEAN~1\AppData\Local\Temp\ccI3w3Hv.s 			page 6


 132:Generated_Source\PSoC5/cyfitter_cfg.c ****     /* we will end up here to allow the customer to implement something to  */
 133:Generated_Source\PSoC5/cyfitter_cfg.c ****     /* deal with the clock condition.                                       */
 134:Generated_Source\PSoC5/cyfitter_cfg.c **** 
 135:Generated_Source\PSoC5/cyfitter_cfg.c **** #ifdef CY_CFG_CLOCK_STARTUP_ERROR_CALLBACK
 136:Generated_Source\PSoC5/cyfitter_cfg.c ****     CY_CFG_Clock_Startup_ErrorCallback();
 137:Generated_Source\PSoC5/cyfitter_cfg.c **** #else
 138:Generated_Source\PSoC5/cyfitter_cfg.c ****     /*  If not using CY_CFG_CLOCK_STARTUP_ERROR_CALLBACK, place your clock startup code here. */
 139:Generated_Source\PSoC5/cyfitter_cfg.c ****     /* `#START CyClockStartupError` */
 140:Generated_Source\PSoC5/cyfitter_cfg.c **** 
 141:Generated_Source\PSoC5/cyfitter_cfg.c ****     /* If we have a clock startup error (bad MHz crystal, PLL lock, etc.),  */
 142:Generated_Source\PSoC5/cyfitter_cfg.c ****     /* we will end up here to allow the customer to implement something to  */
 143:Generated_Source\PSoC5/cyfitter_cfg.c ****     /* deal with the clock condition.                                       */
 144:Generated_Source\PSoC5/cyfitter_cfg.c **** 
 145:Generated_Source\PSoC5/cyfitter_cfg.c ****     /* `#END` */
 146:Generated_Source\PSoC5/cyfitter_cfg.c **** 
 147:Generated_Source\PSoC5/cyfitter_cfg.c ****     while(1) {}
 155              		.loc 1 147 0 discriminator 1
 156 000a FEE7     		b	.L5
 157              		.cfi_endproc
 158              	.LFE3:
 159              		.size	CyClockStartupError, .-CyClockStartupError
 160              		.section	.text.ClockSetup,"ax",%progbits
 161              		.align	2
 162              		.thumb
 163              		.thumb_func
 164              		.type	ClockSetup, %function
 165              	ClockSetup:
 166              	.LFB4:
 148:Generated_Source\PSoC5/cyfitter_cfg.c **** #endif /* CY_CFG_CLOCK_STARTUP_ERROR_CALLBACK */
 149:Generated_Source\PSoC5/cyfitter_cfg.c **** }
 150:Generated_Source\PSoC5/cyfitter_cfg.c **** #endif
 151:Generated_Source\PSoC5/cyfitter_cfg.c **** 
 152:Generated_Source\PSoC5/cyfitter_cfg.c **** /* IOPINS0_1 Address: CYREG_PRT1_DM0 Size (bytes): 8 */
 153:Generated_Source\PSoC5/cyfitter_cfg.c **** #define BS_IOPINS0_1_VAL ((const uint8 CYFAR *)0x48000000u)
 154:Generated_Source\PSoC5/cyfitter_cfg.c **** 
 155:Generated_Source\PSoC5/cyfitter_cfg.c **** /* IOPINS0_2 Address: CYREG_PRT2_DM0 Size (bytes): 8 */
 156:Generated_Source\PSoC5/cyfitter_cfg.c **** #define BS_IOPINS0_2_VAL ((const uint8 CYFAR *)0x48000008u)
 157:Generated_Source\PSoC5/cyfitter_cfg.c **** 
 158:Generated_Source\PSoC5/cyfitter_cfg.c **** 
 159:Generated_Source\PSoC5/cyfitter_cfg.c **** /*******************************************************************************
 160:Generated_Source\PSoC5/cyfitter_cfg.c **** * Function Name: ClockSetup
 161:Generated_Source\PSoC5/cyfitter_cfg.c **** ********************************************************************************
 162:Generated_Source\PSoC5/cyfitter_cfg.c **** *
 163:Generated_Source\PSoC5/cyfitter_cfg.c **** * Summary:
 164:Generated_Source\PSoC5/cyfitter_cfg.c **** *  Performs the initialization of all of the clocks in the device based on the
 165:Generated_Source\PSoC5/cyfitter_cfg.c **** *  settings in the Clock tab of the DWR.  This includes enabling the requested
 166:Generated_Source\PSoC5/cyfitter_cfg.c **** *  clocks and setting the necessary dividers to produce the desired frequency. 
 167:Generated_Source\PSoC5/cyfitter_cfg.c **** *
 168:Generated_Source\PSoC5/cyfitter_cfg.c **** * Parameters:
 169:Generated_Source\PSoC5/cyfitter_cfg.c **** *  void
 170:Generated_Source\PSoC5/cyfitter_cfg.c **** *
 171:Generated_Source\PSoC5/cyfitter_cfg.c **** * Return:
 172:Generated_Source\PSoC5/cyfitter_cfg.c **** *  void
 173:Generated_Source\PSoC5/cyfitter_cfg.c **** *
 174:Generated_Source\PSoC5/cyfitter_cfg.c **** *******************************************************************************/
 175:Generated_Source\PSoC5/cyfitter_cfg.c **** static void ClockSetup(void);
 176:Generated_Source\PSoC5/cyfitter_cfg.c **** static void ClockSetup(void)
ARM GAS  C:\Users\JOSEAN~1\AppData\Local\Temp\ccI3w3Hv.s 			page 7


 177:Generated_Source\PSoC5/cyfitter_cfg.c **** {
 167              		.loc 1 177 0
 168              		.cfi_startproc
 169              		@ args = 0, pretend = 0, frame = 8
 170              		@ frame_needed = 1, uses_anonymous_args = 0
 171 0000 80B5     		push	{r7, lr}
 172              		.cfi_def_cfa_offset 8
 173              		.cfi_offset 7, -8
 174              		.cfi_offset 14, -4
 175 0002 82B0     		sub	sp, sp, #8
 176              		.cfi_def_cfa_offset 16
 177 0004 00AF     		add	r7, sp, #0
 178              		.cfi_def_cfa_register 7
 178:Generated_Source\PSoC5/cyfitter_cfg.c **** 	uint32 timeout;
 179:Generated_Source\PSoC5/cyfitter_cfg.c **** 	uint8 pllLock;
 180:Generated_Source\PSoC5/cyfitter_cfg.c **** 
 181:Generated_Source\PSoC5/cyfitter_cfg.c **** 
 182:Generated_Source\PSoC5/cyfitter_cfg.c **** 	/* Configure ILO based on settings from Clock DWR */
 183:Generated_Source\PSoC5/cyfitter_cfg.c **** 	CY_SET_XTND_REG8((void CYFAR *)(CYREG_SLOWCLK_ILO_CR0), 0x02u);
 179              		.loc 1 183 0
 180 0006 294B     		ldr	r3, .L11
 181 0008 0222     		movs	r2, #2
 182 000a 1A70     		strb	r2, [r3]
 184:Generated_Source\PSoC5/cyfitter_cfg.c **** 	CY_SET_XTND_REG8((void CYFAR *)(CYREG_CLKDIST_CR), 0x08u);
 183              		.loc 1 184 0
 184 000c 4FF04023 		mov	r3, #1073758208
 185 0010 0822     		movs	r2, #8
 186 0012 1A70     		strb	r2, [r3]
 185:Generated_Source\PSoC5/cyfitter_cfg.c **** 
 186:Generated_Source\PSoC5/cyfitter_cfg.c **** 	/* Configure IMO based on settings from Clock DWR */
 187:Generated_Source\PSoC5/cyfitter_cfg.c **** 	CY_SET_XTND_REG8((void CYFAR *)(CYREG_FASTCLK_IMO_CR), 0x03u);
 187              		.loc 1 187 0
 188 0014 264B     		ldr	r3, .L11+4
 189 0016 0322     		movs	r2, #3
 190 0018 1A70     		strb	r2, [r3]
 188:Generated_Source\PSoC5/cyfitter_cfg.c **** 	CY_SET_XTND_REG8((void CYFAR *)(CYREG_IMO_TR1), (CY_GET_XTND_REG8((void CYFAR *)CYREG_FLSHID_CUST_
 191              		.loc 1 188 0
 192 001a 264B     		ldr	r3, .L11+8
 193 001c 264A     		ldr	r2, .L11+12
 194 001e 1278     		ldrb	r2, [r2]
 195 0020 D2B2     		uxtb	r2, r2
 196 0022 1A70     		strb	r2, [r3]
 189:Generated_Source\PSoC5/cyfitter_cfg.c **** 
 190:Generated_Source\PSoC5/cyfitter_cfg.c **** 	/* Configure PLL based on settings from Clock DWR */
 191:Generated_Source\PSoC5/cyfitter_cfg.c **** 	CY_SET_XTND_REG16((void CYFAR *)(CYREG_FASTCLK_PLL_P), 0x0008u);
 197              		.loc 1 191 0
 198 0024 254B     		ldr	r3, .L11+16
 199 0026 0822     		movs	r2, #8
 200 0028 1A80     		strh	r2, [r3]	@ movhi
 192:Generated_Source\PSoC5/cyfitter_cfg.c **** 	CY_SET_XTND_REG16((void CYFAR *)(CYREG_FASTCLK_PLL_CFG0), 0x1251u);
 201              		.loc 1 192 0
 202 002a 254B     		ldr	r3, .L11+20
 203 002c 41F25122 		movw	r2, #4689
 204 0030 1A80     		strh	r2, [r3]	@ movhi
 193:Generated_Source\PSoC5/cyfitter_cfg.c **** 	/* Wait up to 250us for the PLL to lock */
 194:Generated_Source\PSoC5/cyfitter_cfg.c **** 	pllLock = 0u;
 205              		.loc 1 194 0
ARM GAS  C:\Users\JOSEAN~1\AppData\Local\Temp\ccI3w3Hv.s 			page 8


 206 0032 0023     		movs	r3, #0
 207 0034 FB70     		strb	r3, [r7, #3]
 195:Generated_Source\PSoC5/cyfitter_cfg.c **** 	for (timeout = 250u / 10u; (timeout > 0u) && (pllLock != 0x03u); timeout--)
 208              		.loc 1 195 0
 209 0036 1923     		movs	r3, #25
 210 0038 7B60     		str	r3, [r7, #4]
 211 003a 14E0     		b	.L7
 212              	.L9:
 196:Generated_Source\PSoC5/cyfitter_cfg.c **** 	{ 
 197:Generated_Source\PSoC5/cyfitter_cfg.c **** 		pllLock = 0x03u & ((uint8)((uint8)pllLock << 1) | ((CY_GET_XTND_REG8((void CYFAR *)CYREG_FASTCLK_
 213              		.loc 1 197 0 discriminator 4
 214 003c FB78     		ldrb	r3, [r7, #3]
 215 003e 5B00     		lsls	r3, r3, #1
 216 0040 DAB2     		uxtb	r2, r3
 217 0042 204B     		ldr	r3, .L11+24
 218 0044 1B78     		ldrb	r3, [r3]
 219 0046 DBB2     		uxtb	r3, r3
 220 0048 03F00103 		and	r3, r3, #1
 221 004c DBB2     		uxtb	r3, r3
 222 004e 1343     		orrs	r3, r3, r2
 223 0050 DBB2     		uxtb	r3, r3
 224 0052 03F00303 		and	r3, r3, #3
 225 0056 FB70     		strb	r3, [r7, #3]
 198:Generated_Source\PSoC5/cyfitter_cfg.c **** 		CyDelayCycles(10u * 48u); /* Delay 10us based on 48MHz clock */
 226              		.loc 1 198 0 discriminator 4
 227 0058 4FF4F070 		mov	r0, #480
 228 005c FFF7FEFF 		bl	CyDelayCycles
 195:Generated_Source\PSoC5/cyfitter_cfg.c **** 	for (timeout = 250u / 10u; (timeout > 0u) && (pllLock != 0x03u); timeout--)
 229              		.loc 1 195 0 discriminator 4
 230 0060 7B68     		ldr	r3, [r7, #4]
 231 0062 013B     		subs	r3, r3, #1
 232 0064 7B60     		str	r3, [r7, #4]
 233              	.L7:
 195:Generated_Source\PSoC5/cyfitter_cfg.c **** 	for (timeout = 250u / 10u; (timeout > 0u) && (pllLock != 0x03u); timeout--)
 234              		.loc 1 195 0 is_stmt 0 discriminator 1
 235 0066 7B68     		ldr	r3, [r7, #4]
 236 0068 002B     		cmp	r3, #0
 237 006a 02D0     		beq	.L8
 195:Generated_Source\PSoC5/cyfitter_cfg.c **** 	for (timeout = 250u / 10u; (timeout > 0u) && (pllLock != 0x03u); timeout--)
 238              		.loc 1 195 0 discriminator 3
 239 006c FB78     		ldrb	r3, [r7, #3]	@ zero_extendqisi2
 240 006e 032B     		cmp	r3, #3
 241 0070 E4D1     		bne	.L9
 242              	.L8:
 199:Generated_Source\PSoC5/cyfitter_cfg.c **** 	}
 200:Generated_Source\PSoC5/cyfitter_cfg.c **** 	/* If we ran out of time the PLL didn't lock so go to the error function */
 201:Generated_Source\PSoC5/cyfitter_cfg.c **** 	if (timeout == 0u)
 243              		.loc 1 201 0 is_stmt 1
 244 0072 7B68     		ldr	r3, [r7, #4]
 245 0074 002B     		cmp	r3, #0
 246 0076 02D1     		bne	.L10
 202:Generated_Source\PSoC5/cyfitter_cfg.c **** 	{
 203:Generated_Source\PSoC5/cyfitter_cfg.c **** 		CyClockStartupError(CYCLOCKSTART_PLL_ERROR);
 247              		.loc 1 203 0
 248 0078 0320     		movs	r0, #3
 249 007a FFF7FEFF 		bl	CyClockStartupError
 250              	.L10:
ARM GAS  C:\Users\JOSEAN~1\AppData\Local\Temp\ccI3w3Hv.s 			page 9


 204:Generated_Source\PSoC5/cyfitter_cfg.c **** 	}
 205:Generated_Source\PSoC5/cyfitter_cfg.c **** 
 206:Generated_Source\PSoC5/cyfitter_cfg.c **** 	/* Configure Bus/Master Clock based on settings from Clock DWR */
 207:Generated_Source\PSoC5/cyfitter_cfg.c **** 	CY_SET_XTND_REG16((void CYFAR *)(CYREG_CLKDIST_MSTR0), 0x0100u);
 251              		.loc 1 207 0
 252 007e 124B     		ldr	r3, .L11+28
 253 0080 4FF48072 		mov	r2, #256
 254 0084 1A80     		strh	r2, [r3]	@ movhi
 208:Generated_Source\PSoC5/cyfitter_cfg.c **** 	CY_SET_XTND_REG8((void CYFAR *)(CYREG_CLKDIST_MSTR0), 0x07u);
 255              		.loc 1 208 0
 256 0086 104B     		ldr	r3, .L11+28
 257 0088 0722     		movs	r2, #7
 258 008a 1A70     		strb	r2, [r3]
 209:Generated_Source\PSoC5/cyfitter_cfg.c **** 	CY_SET_XTND_REG8((void CYFAR *)(CYREG_CLKDIST_BCFG0), 0x00u);
 259              		.loc 1 209 0
 260 008c 0F4B     		ldr	r3, .L11+32
 261 008e 0022     		movs	r2, #0
 262 0090 1A70     		strb	r2, [r3]
 210:Generated_Source\PSoC5/cyfitter_cfg.c **** 	CY_SET_XTND_REG8((void CYFAR *)(CYREG_CLKDIST_BCFG2), 0x48u);
 263              		.loc 1 210 0
 264 0092 0F4B     		ldr	r3, .L11+36
 265 0094 4822     		movs	r2, #72
 266 0096 1A70     		strb	r2, [r3]
 211:Generated_Source\PSoC5/cyfitter_cfg.c **** 	CY_SET_XTND_REG8((void CYFAR *)(CYREG_CLKDIST_MSTR0), 0x00u);
 267              		.loc 1 211 0
 268 0098 0B4B     		ldr	r3, .L11+28
 269 009a 0022     		movs	r2, #0
 270 009c 1A70     		strb	r2, [r3]
 212:Generated_Source\PSoC5/cyfitter_cfg.c **** 	CY_SET_XTND_REG8((void CYFAR *)(CYREG_CLKDIST_LD), 0x02u);
 271              		.loc 1 212 0
 272 009e 0D4B     		ldr	r3, .L11+40
 273 00a0 0222     		movs	r2, #2
 274 00a2 1A70     		strb	r2, [r3]
 213:Generated_Source\PSoC5/cyfitter_cfg.c **** }
 275              		.loc 1 213 0
 276 00a4 00BF     		nop
 277 00a6 0837     		adds	r7, r7, #8
 278              		.cfi_def_cfa_offset 8
 279 00a8 BD46     		mov	sp, r7
 280              		.cfi_def_cfa_register 13
 281              		@ sp needed
 282 00aa 80BD     		pop	{r7, pc}
 283              	.L12:
 284              		.align	2
 285              	.L11:
 286 00ac 00430040 		.word	1073758976
 287 00b0 00420040 		.word	1073758720
 288 00b4 A1460040 		.word	1073759905
 289 00b8 08010049 		.word	1224737032
 290 00bc 22420040 		.word	1073758754
 291 00c0 20420040 		.word	1073758752
 292 00c4 25420040 		.word	1073758757
 293 00c8 04400040 		.word	1073758212
 294 00cc 06400040 		.word	1073758214
 295 00d0 08400040 		.word	1073758216
 296 00d4 01400040 		.word	1073758209
 297              		.cfi_endproc
ARM GAS  C:\Users\JOSEAN~1\AppData\Local\Temp\ccI3w3Hv.s 			page 10


 298              	.LFE4:
 299              		.size	ClockSetup, .-ClockSetup
 300              		.section	.text.AnalogSetDefault,"ax",%progbits
 301              		.align	2
 302              		.thumb
 303              		.thumb_func
 304              		.type	AnalogSetDefault, %function
 305              	AnalogSetDefault:
 306              	.LFB5:
 214:Generated_Source\PSoC5/cyfitter_cfg.c **** 
 215:Generated_Source\PSoC5/cyfitter_cfg.c **** 
 216:Generated_Source\PSoC5/cyfitter_cfg.c **** /* Analog API Functions */
 217:Generated_Source\PSoC5/cyfitter_cfg.c **** 
 218:Generated_Source\PSoC5/cyfitter_cfg.c **** 
 219:Generated_Source\PSoC5/cyfitter_cfg.c **** /*******************************************************************************
 220:Generated_Source\PSoC5/cyfitter_cfg.c **** * Function Name: AnalogSetDefault
 221:Generated_Source\PSoC5/cyfitter_cfg.c **** ********************************************************************************
 222:Generated_Source\PSoC5/cyfitter_cfg.c **** *
 223:Generated_Source\PSoC5/cyfitter_cfg.c **** * Summary:
 224:Generated_Source\PSoC5/cyfitter_cfg.c **** *  Sets up the analog portions of the chip to default values based on chip
 225:Generated_Source\PSoC5/cyfitter_cfg.c **** *  configuration options from the project.
 226:Generated_Source\PSoC5/cyfitter_cfg.c **** *
 227:Generated_Source\PSoC5/cyfitter_cfg.c **** * Parameters:
 228:Generated_Source\PSoC5/cyfitter_cfg.c **** *  void
 229:Generated_Source\PSoC5/cyfitter_cfg.c **** *
 230:Generated_Source\PSoC5/cyfitter_cfg.c **** * Return:
 231:Generated_Source\PSoC5/cyfitter_cfg.c **** *  void
 232:Generated_Source\PSoC5/cyfitter_cfg.c **** *
 233:Generated_Source\PSoC5/cyfitter_cfg.c **** *******************************************************************************/
 234:Generated_Source\PSoC5/cyfitter_cfg.c **** static void AnalogSetDefault(void);
 235:Generated_Source\PSoC5/cyfitter_cfg.c **** static void AnalogSetDefault(void)
 236:Generated_Source\PSoC5/cyfitter_cfg.c **** {
 307              		.loc 1 236 0
 308              		.cfi_startproc
 309              		@ args = 0, pretend = 0, frame = 8
 310              		@ frame_needed = 1, uses_anonymous_args = 0
 311              		@ link register save eliminated.
 312 0000 80B4     		push	{r7}
 313              		.cfi_def_cfa_offset 4
 314              		.cfi_offset 7, -4
 315 0002 83B0     		sub	sp, sp, #12
 316              		.cfi_def_cfa_offset 16
 317 0004 00AF     		add	r7, sp, #0
 318              		.cfi_def_cfa_register 7
 237:Generated_Source\PSoC5/cyfitter_cfg.c **** 	uint8 bg_xover_inl_trim = CY_GET_XTND_REG8((void CYFAR *)(CYREG_FLSHID_MFG_CFG_BG_XOVER_INL_TRIM +
 319              		.loc 1 237 0
 320 0006 0B4B     		ldr	r3, .L14
 321 0008 1B78     		ldrb	r3, [r3]
 322 000a FB71     		strb	r3, [r7, #7]
 238:Generated_Source\PSoC5/cyfitter_cfg.c **** 	CY_SET_XTND_REG8((void CYFAR *)(CYREG_BG_DFT0), (bg_xover_inl_trim & 0x07u));
 323              		.loc 1 238 0
 324 000c 0A4A     		ldr	r2, .L14+4
 325 000e FB79     		ldrb	r3, [r7, #7]
 326 0010 03F00703 		and	r3, r3, #7
 327 0014 DBB2     		uxtb	r3, r3
 328 0016 1370     		strb	r3, [r2]
 239:Generated_Source\PSoC5/cyfitter_cfg.c **** 	CY_SET_XTND_REG8((void CYFAR *)(CYREG_BG_DFT1), ((bg_xover_inl_trim >> 4) & 0x0Fu));
ARM GAS  C:\Users\JOSEAN~1\AppData\Local\Temp\ccI3w3Hv.s 			page 11


 329              		.loc 1 239 0
 330 0018 084A     		ldr	r2, .L14+8
 331 001a FB79     		ldrb	r3, [r7, #7]	@ zero_extendqisi2
 332 001c 1B09     		lsrs	r3, r3, #4
 333 001e DBB2     		uxtb	r3, r3
 334 0020 1370     		strb	r3, [r2]
 240:Generated_Source\PSoC5/cyfitter_cfg.c **** 	CY_SET_XTND_REG8((void CYFAR *)CYREG_PUMP_CR0, 0x44u);
 335              		.loc 1 240 0
 336 0022 074B     		ldr	r3, .L14+12
 337 0024 4422     		movs	r2, #68
 338 0026 1A70     		strb	r2, [r3]
 241:Generated_Source\PSoC5/cyfitter_cfg.c **** }
 339              		.loc 1 241 0
 340 0028 00BF     		nop
 341 002a 0C37     		adds	r7, r7, #12
 342              		.cfi_def_cfa_offset 4
 343 002c BD46     		mov	sp, r7
 344              		.cfi_def_cfa_register 13
 345              		@ sp needed
 346 002e 80BC     		pop	{r7}
 347              		.cfi_restore 7
 348              		.cfi_def_cfa_offset 0
 349 0030 7047     		bx	lr
 350              	.L15:
 351 0032 00BF     		.align	2
 352              	.L14:
 353 0034 CF010049 		.word	1224737231
 354 0038 6E580040 		.word	1073764462
 355 003c 6F580040 		.word	1073764463
 356 0040 76580040 		.word	1073764470
 357              		.cfi_endproc
 358              	.LFE5:
 359              		.size	AnalogSetDefault, .-AnalogSetDefault
 360              		.section	.text.SetAnalogRoutingPumps,"ax",%progbits
 361              		.align	2
 362              		.global	SetAnalogRoutingPumps
 363              		.thumb
 364              		.thumb_func
 365              		.type	SetAnalogRoutingPumps, %function
 366              	SetAnalogRoutingPumps:
 367              	.LFB6:
 242:Generated_Source\PSoC5/cyfitter_cfg.c **** 
 243:Generated_Source\PSoC5/cyfitter_cfg.c **** 
 244:Generated_Source\PSoC5/cyfitter_cfg.c **** /*******************************************************************************
 245:Generated_Source\PSoC5/cyfitter_cfg.c **** * Function Name: SetAnalogRoutingPumps
 246:Generated_Source\PSoC5/cyfitter_cfg.c **** ********************************************************************************
 247:Generated_Source\PSoC5/cyfitter_cfg.c **** *
 248:Generated_Source\PSoC5/cyfitter_cfg.c **** * Summary:
 249:Generated_Source\PSoC5/cyfitter_cfg.c **** * Enables or disables the analog pumps feeding analog routing switches.
 250:Generated_Source\PSoC5/cyfitter_cfg.c **** * Intended to be called at startup, based on the Vdda system configuration;
 251:Generated_Source\PSoC5/cyfitter_cfg.c **** * may be called during operation when the user informs us that the Vdda voltage
 252:Generated_Source\PSoC5/cyfitter_cfg.c **** * crossed the pump threshold.
 253:Generated_Source\PSoC5/cyfitter_cfg.c **** *
 254:Generated_Source\PSoC5/cyfitter_cfg.c **** * Parameters:
 255:Generated_Source\PSoC5/cyfitter_cfg.c **** *  enabled - 1 to enable the pumps, 0 to disable the pumps
 256:Generated_Source\PSoC5/cyfitter_cfg.c **** *
 257:Generated_Source\PSoC5/cyfitter_cfg.c **** * Return:
ARM GAS  C:\Users\JOSEAN~1\AppData\Local\Temp\ccI3w3Hv.s 			page 12


 258:Generated_Source\PSoC5/cyfitter_cfg.c **** *  void
 259:Generated_Source\PSoC5/cyfitter_cfg.c **** *
 260:Generated_Source\PSoC5/cyfitter_cfg.c **** *******************************************************************************/
 261:Generated_Source\PSoC5/cyfitter_cfg.c **** void SetAnalogRoutingPumps(uint8 enabled)
 262:Generated_Source\PSoC5/cyfitter_cfg.c **** {
 368              		.loc 1 262 0
 369              		.cfi_startproc
 370              		@ args = 0, pretend = 0, frame = 16
 371              		@ frame_needed = 1, uses_anonymous_args = 0
 372              		@ link register save eliminated.
 373 0000 80B4     		push	{r7}
 374              		.cfi_def_cfa_offset 4
 375              		.cfi_offset 7, -4
 376 0002 85B0     		sub	sp, sp, #20
 377              		.cfi_def_cfa_offset 24
 378 0004 00AF     		add	r7, sp, #0
 379              		.cfi_def_cfa_register 7
 380 0006 0346     		mov	r3, r0
 381 0008 FB71     		strb	r3, [r7, #7]
 263:Generated_Source\PSoC5/cyfitter_cfg.c **** 	uint8 regValue = CY_GET_XTND_REG8((void CYFAR *)CYREG_PUMP_CR0);
 382              		.loc 1 263 0
 383 000a 064B     		ldr	r3, .L19
 384 000c 1B78     		ldrb	r3, [r3]
 385 000e FB73     		strb	r3, [r7, #15]
 264:Generated_Source\PSoC5/cyfitter_cfg.c **** 	if (enabled != 0u)
 386              		.loc 1 264 0
 387 0010 FB79     		ldrb	r3, [r7, #7]	@ zero_extendqisi2
 388 0012 002B     		cmp	r3, #0
 265:Generated_Source\PSoC5/cyfitter_cfg.c **** 	{
 266:Generated_Source\PSoC5/cyfitter_cfg.c **** 		regValue |= 0x00u;
 267:Generated_Source\PSoC5/cyfitter_cfg.c **** 	}
 268:Generated_Source\PSoC5/cyfitter_cfg.c **** 	else
 269:Generated_Source\PSoC5/cyfitter_cfg.c **** 	{
 270:Generated_Source\PSoC5/cyfitter_cfg.c **** 		regValue &= (uint8)~0x00u;
 271:Generated_Source\PSoC5/cyfitter_cfg.c **** 	}
 272:Generated_Source\PSoC5/cyfitter_cfg.c **** 	CY_SET_XTND_REG8((void CYFAR *)CYREG_PUMP_CR0, regValue);
 389              		.loc 1 272 0
 390 0014 034A     		ldr	r2, .L19
 391 0016 FB7B     		ldrb	r3, [r7, #15]
 392 0018 1370     		strb	r3, [r2]
 273:Generated_Source\PSoC5/cyfitter_cfg.c **** }
 393              		.loc 1 273 0
 394 001a 00BF     		nop
 395 001c 1437     		adds	r7, r7, #20
 396              		.cfi_def_cfa_offset 4
 397 001e BD46     		mov	sp, r7
 398              		.cfi_def_cfa_register 13
 399              		@ sp needed
 400 0020 80BC     		pop	{r7}
 401              		.cfi_restore 7
 402              		.cfi_def_cfa_offset 0
 403 0022 7047     		bx	lr
 404              	.L20:
 405              		.align	2
 406              	.L19:
 407 0024 76580040 		.word	1073764470
 408              		.cfi_endproc
ARM GAS  C:\Users\JOSEAN~1\AppData\Local\Temp\ccI3w3Hv.s 			page 13


 409              	.LFE6:
 410              		.size	SetAnalogRoutingPumps, .-SetAnalogRoutingPumps
 411              		.section	.text.cyfitter_cfg,"ax",%progbits
 412              		.align	2
 413              		.global	cyfitter_cfg
 414              		.thumb
 415              		.thumb_func
 416              		.type	cyfitter_cfg, %function
 417              	cyfitter_cfg:
 418              	.LFB7:
 274:Generated_Source\PSoC5/cyfitter_cfg.c **** 
 275:Generated_Source\PSoC5/cyfitter_cfg.c **** 
 276:Generated_Source\PSoC5/cyfitter_cfg.c **** 
 277:Generated_Source\PSoC5/cyfitter_cfg.c **** 
 278:Generated_Source\PSoC5/cyfitter_cfg.c **** /*******************************************************************************
 279:Generated_Source\PSoC5/cyfitter_cfg.c **** * Function Name: cyfitter_cfg
 280:Generated_Source\PSoC5/cyfitter_cfg.c **** ********************************************************************************
 281:Generated_Source\PSoC5/cyfitter_cfg.c **** * Summary:
 282:Generated_Source\PSoC5/cyfitter_cfg.c **** *  This function is called by the start-up code for the selected device. It
 283:Generated_Source\PSoC5/cyfitter_cfg.c **** *  performs all of the necessary device configuration based on the design
 284:Generated_Source\PSoC5/cyfitter_cfg.c **** *  settings.  This includes settings from the Design Wide Resources (DWR) such
 285:Generated_Source\PSoC5/cyfitter_cfg.c **** *  as Clocks and Pins as well as any component configuration that is necessary.
 286:Generated_Source\PSoC5/cyfitter_cfg.c **** *
 287:Generated_Source\PSoC5/cyfitter_cfg.c **** * Parameters:
 288:Generated_Source\PSoC5/cyfitter_cfg.c **** *   void
 289:Generated_Source\PSoC5/cyfitter_cfg.c **** *
 290:Generated_Source\PSoC5/cyfitter_cfg.c **** * Return:
 291:Generated_Source\PSoC5/cyfitter_cfg.c **** *   void
 292:Generated_Source\PSoC5/cyfitter_cfg.c **** *
 293:Generated_Source\PSoC5/cyfitter_cfg.c **** *******************************************************************************/
 294:Generated_Source\PSoC5/cyfitter_cfg.c **** 
 295:Generated_Source\PSoC5/cyfitter_cfg.c **** void cyfitter_cfg(void)
 296:Generated_Source\PSoC5/cyfitter_cfg.c **** {
 419              		.loc 1 296 0
 420              		.cfi_startproc
 421              		@ args = 0, pretend = 0, frame = 8
 422              		@ frame_needed = 1, uses_anonymous_args = 0
 423 0000 80B5     		push	{r7, lr}
 424              		.cfi_def_cfa_offset 8
 425              		.cfi_offset 7, -8
 426              		.cfi_offset 14, -4
 427 0002 82B0     		sub	sp, sp, #8
 428              		.cfi_def_cfa_offset 16
 429 0004 00AF     		add	r7, sp, #0
 430              		.cfi_def_cfa_register 7
 297:Generated_Source\PSoC5/cyfitter_cfg.c **** #ifdef CYGlobalIntDisable
 298:Generated_Source\PSoC5/cyfitter_cfg.c **** 	/* Disable interrupts by default. Let user enable if/when they want. */
 299:Generated_Source\PSoC5/cyfitter_cfg.c **** 	CYGlobalIntDisable
 431              		.loc 1 299 0
 432              		.syntax unified
 433              	@ 299 "Generated_Source\PSoC5\cyfitter_cfg.c" 1
 434 0006 72B6     		CPSID   i
 435              	@ 0 "" 2
 300:Generated_Source\PSoC5/cyfitter_cfg.c **** #endif
 301:Generated_Source\PSoC5/cyfitter_cfg.c **** 
 302:Generated_Source\PSoC5/cyfitter_cfg.c **** 	/* Enable/Disable Debug functionality based on settings from System DWR */
 303:Generated_Source\PSoC5/cyfitter_cfg.c **** 	CY_SET_XTND_REG8((void CYFAR *)CYREG_MLOGIC_DEBUG, (CY_GET_XTND_REG8((void CYFAR *)CYREG_MLOGIC_DE
ARM GAS  C:\Users\JOSEAN~1\AppData\Local\Temp\ccI3w3Hv.s 			page 14


 436              		.loc 1 303 0
 437              		.thumb
 438              		.syntax unified
 439 0008 2D4A     		ldr	r2, .L24
 440 000a 2D4B     		ldr	r3, .L24
 441 000c 1B78     		ldrb	r3, [r3]
 442 000e DBB2     		uxtb	r3, r3
 443 0010 43F00403 		orr	r3, r3, #4
 444 0014 DBB2     		uxtb	r3, r3
 445 0016 1370     		strb	r3, [r2]
 446              	.LBB2:
 304:Generated_Source\PSoC5/cyfitter_cfg.c **** 
 305:Generated_Source\PSoC5/cyfitter_cfg.c **** 	{
 306:Generated_Source\PSoC5/cyfitter_cfg.c **** 
 307:Generated_Source\PSoC5/cyfitter_cfg.c **** 		CYPACKED typedef struct {
 308:Generated_Source\PSoC5/cyfitter_cfg.c **** 			void CYFAR *address;
 309:Generated_Source\PSoC5/cyfitter_cfg.c **** 			uint16 size;
 310:Generated_Source\PSoC5/cyfitter_cfg.c **** 		} CYPACKED_ATTR cfg_memset_t;
 311:Generated_Source\PSoC5/cyfitter_cfg.c **** 
 312:Generated_Source\PSoC5/cyfitter_cfg.c **** 		static const cfg_memset_t CYCODE cfg_memset_list[] = {
 313:Generated_Source\PSoC5/cyfitter_cfg.c **** 			/* address, size */
 314:Generated_Source\PSoC5/cyfitter_cfg.c **** 			{(void CYFAR *)(CYREG_PRT0_DR), 16u},
 315:Generated_Source\PSoC5/cyfitter_cfg.c **** 			{(void CYFAR *)(CYREG_PRT3_DR), 64u},
 316:Generated_Source\PSoC5/cyfitter_cfg.c **** 			{(void CYFAR *)(CYREG_PRT12_DR), 16u},
 317:Generated_Source\PSoC5/cyfitter_cfg.c **** 			{(void CYFAR *)(CYREG_PRT15_DR), 16u},
 318:Generated_Source\PSoC5/cyfitter_cfg.c **** 			{(void CYFAR *)(CYDEV_UCFG_B0_P0_U0_BASE), 4096u},
 319:Generated_Source\PSoC5/cyfitter_cfg.c **** 			{(void CYFAR *)(CYDEV_UCFG_B1_P2_U0_BASE), 2048u},
 320:Generated_Source\PSoC5/cyfitter_cfg.c **** 			{(void CYFAR *)(CYDEV_UCFG_DSI0_BASE), 2560u},
 321:Generated_Source\PSoC5/cyfitter_cfg.c **** 			{(void CYFAR *)(CYDEV_UCFG_DSI12_BASE), 512u},
 322:Generated_Source\PSoC5/cyfitter_cfg.c **** 			{(void CYFAR *)(CYREG_BCTL0_MDCLK_EN), 32u},
 323:Generated_Source\PSoC5/cyfitter_cfg.c **** 		};
 324:Generated_Source\PSoC5/cyfitter_cfg.c **** 
 325:Generated_Source\PSoC5/cyfitter_cfg.c **** 		uint8 CYDATA i;
 326:Generated_Source\PSoC5/cyfitter_cfg.c **** 
 327:Generated_Source\PSoC5/cyfitter_cfg.c **** 		/* Zero out critical memory blocks before beginning configuration */
 328:Generated_Source\PSoC5/cyfitter_cfg.c **** 		for (i = 0u; i < (sizeof(cfg_memset_list)/sizeof(cfg_memset_list[0])); i++)
 447              		.loc 1 328 0
 448 0018 0023     		movs	r3, #0
 449 001a FB71     		strb	r3, [r7, #7]
 450 001c 13E0     		b	.L22
 451              	.L23:
 452              	.LBB3:
 329:Generated_Source\PSoC5/cyfitter_cfg.c **** 		{
 330:Generated_Source\PSoC5/cyfitter_cfg.c **** 			const cfg_memset_t CYCODE * CYDATA ms = &cfg_memset_list[i];
 453              		.loc 1 330 0 discriminator 3
 454 001e FA79     		ldrb	r2, [r7, #7]	@ zero_extendqisi2
 455 0020 1346     		mov	r3, r2
 456 0022 5B00     		lsls	r3, r3, #1
 457 0024 1344     		add	r3, r3, r2
 458 0026 5B00     		lsls	r3, r3, #1
 459 0028 264A     		ldr	r2, .L24+4
 460 002a 1344     		add	r3, r3, r2
 461 002c 3B60     		str	r3, [r7]
 331:Generated_Source\PSoC5/cyfitter_cfg.c **** 			CYMEMZERO(ms->address, (size_t)(uint32)(ms->size));
 462              		.loc 1 331 0 discriminator 3
 463 002e 3B68     		ldr	r3, [r7]
 464 0030 1A68     		ldr	r2, [r3]	@ unaligned
ARM GAS  C:\Users\JOSEAN~1\AppData\Local\Temp\ccI3w3Hv.s 			page 15


 465 0032 3B68     		ldr	r3, [r7]
 466 0034 9B88     		ldrh	r3, [r3, #4]	@ unaligned
 467 0036 9BB2     		uxth	r3, r3
 468 0038 1946     		mov	r1, r3
 469 003a 1046     		mov	r0, r2
 470 003c FFF7FEFF 		bl	CYMEMZERO
 471              	.LBE3:
 328:Generated_Source\PSoC5/cyfitter_cfg.c **** 		{
 472              		.loc 1 328 0 discriminator 3
 473 0040 FB79     		ldrb	r3, [r7, #7]	@ zero_extendqisi2
 474 0042 0133     		adds	r3, r3, #1
 475 0044 FB71     		strb	r3, [r7, #7]
 476              	.L22:
 328:Generated_Source\PSoC5/cyfitter_cfg.c **** 		{
 477              		.loc 1 328 0 is_stmt 0 discriminator 1
 478 0046 FB79     		ldrb	r3, [r7, #7]	@ zero_extendqisi2
 479 0048 082B     		cmp	r3, #8
 480 004a E8D9     		bls	.L23
 332:Generated_Source\PSoC5/cyfitter_cfg.c **** 		}
 333:Generated_Source\PSoC5/cyfitter_cfg.c **** 
 334:Generated_Source\PSoC5/cyfitter_cfg.c **** 		/* Enable digital routing */
 335:Generated_Source\PSoC5/cyfitter_cfg.c **** 		CY_SET_XTND_REG8((void CYFAR *)CYREG_BCTL0_BANK_CTL, CY_GET_XTND_REG8((void CYFAR *)CYREG_BCTL0_B
 481              		.loc 1 335 0 is_stmt 1
 482 004c 1E4A     		ldr	r2, .L24+8
 483 004e 1E4B     		ldr	r3, .L24+8
 484 0050 1B78     		ldrb	r3, [r3]
 485 0052 DBB2     		uxtb	r3, r3
 486 0054 43F00203 		orr	r3, r3, #2
 487 0058 DBB2     		uxtb	r3, r3
 488 005a 1370     		strb	r3, [r2]
 336:Generated_Source\PSoC5/cyfitter_cfg.c **** 		CY_SET_XTND_REG8((void CYFAR *)CYREG_BCTL1_BANK_CTL, CY_GET_XTND_REG8((void CYFAR *)CYREG_BCTL1_B
 489              		.loc 1 336 0
 490 005c 1B4A     		ldr	r2, .L24+12
 491 005e 1B4B     		ldr	r3, .L24+12
 492 0060 1B78     		ldrb	r3, [r3]
 493 0062 DBB2     		uxtb	r3, r3
 494 0064 43F00203 		orr	r3, r3, #2
 495 0068 DBB2     		uxtb	r3, r3
 496 006a 1370     		strb	r3, [r2]
 497              	.LBE2:
 337:Generated_Source\PSoC5/cyfitter_cfg.c **** 	}
 338:Generated_Source\PSoC5/cyfitter_cfg.c **** 
 339:Generated_Source\PSoC5/cyfitter_cfg.c **** 
 340:Generated_Source\PSoC5/cyfitter_cfg.c **** 	/* Perform second pass device configuration. These items must be configured in specific order afte
 341:Generated_Source\PSoC5/cyfitter_cfg.c **** 	CYCONFIGCPY((void CYFAR *)(CYREG_PRT1_DM0), (const void CYFAR *)(BS_IOPINS0_1_VAL), 8u);
 498              		.loc 1 341 0
 499 006c 0822     		movs	r2, #8
 500 006e 4FF09041 		mov	r1, #1207959552
 501 0072 1748     		ldr	r0, .L24+16
 502 0074 FFF7FEFF 		bl	CYCONFIGCPY
 342:Generated_Source\PSoC5/cyfitter_cfg.c **** 	CYCONFIGCPY((void CYFAR *)(CYREG_PRT2_DM0), (const void CYFAR *)(BS_IOPINS0_2_VAL), 8u);
 503              		.loc 1 342 0
 504 0078 0822     		movs	r2, #8
 505 007a 1649     		ldr	r1, .L24+20
 506 007c 1648     		ldr	r0, .L24+24
 507 007e FFF7FEFF 		bl	CYCONFIGCPY
 343:Generated_Source\PSoC5/cyfitter_cfg.c **** 	/* Switch Boost to the precision bandgap reference from its internal reference */
ARM GAS  C:\Users\JOSEAN~1\AppData\Local\Temp\ccI3w3Hv.s 			page 16


 344:Generated_Source\PSoC5/cyfitter_cfg.c **** 	CY_SET_REG8((void CYXDATA *)CYREG_BOOST_CR2, (CY_GET_REG8((void CYXDATA *)CYREG_BOOST_CR2) | 0x08u
 508              		.loc 1 344 0
 509 0082 164A     		ldr	r2, .L24+28
 510 0084 154B     		ldr	r3, .L24+28
 511 0086 1B78     		ldrb	r3, [r3]
 512 0088 DBB2     		uxtb	r3, r3
 513 008a 43F00803 		orr	r3, r3, #8
 514 008e DBB2     		uxtb	r3, r3
 515 0090 1370     		strb	r3, [r2]
 345:Generated_Source\PSoC5/cyfitter_cfg.c **** 
 346:Generated_Source\PSoC5/cyfitter_cfg.c **** 	/* Set Flash Cycles based on max possible frequency in case a glitch occurs during ClockSetup(). *
 347:Generated_Source\PSoC5/cyfitter_cfg.c **** 	CY_SET_XTND_REG8((void CYFAR *)(CYREG_CACHE_CC_CTL), (((CYDEV_INSTRUCT_CACHE_ENABLED) != 0) ? 0x61
 516              		.loc 1 347 0
 517 0092 134B     		ldr	r3, .L24+32
 518 0094 6122     		movs	r2, #97
 519 0096 1A70     		strb	r2, [r3]
 348:Generated_Source\PSoC5/cyfitter_cfg.c **** 	/* Setup clocks based on selections from Clock DWR */
 349:Generated_Source\PSoC5/cyfitter_cfg.c **** 	ClockSetup();
 520              		.loc 1 349 0
 521 0098 FFF7FEFF 		bl	ClockSetup
 350:Generated_Source\PSoC5/cyfitter_cfg.c **** 	/* Set Flash Cycles based on newly configured 24.00MHz Bus Clock. */
 351:Generated_Source\PSoC5/cyfitter_cfg.c **** 	CY_SET_XTND_REG8((void CYFAR *)(CYREG_CACHE_CC_CTL), (((CYDEV_INSTRUCT_CACHE_ENABLED) != 0) ? 0x81
 522              		.loc 1 351 0
 523 009c 104B     		ldr	r3, .L24+32
 524 009e 8122     		movs	r2, #129
 525 00a0 1A70     		strb	r2, [r3]
 352:Generated_Source\PSoC5/cyfitter_cfg.c **** 	CY_SET_XTND_REG8((void CYFAR *)(CYREG_PANTHER_WAITPIPE), 0x01u);
 526              		.loc 1 352 0
 527 00a2 104B     		ldr	r3, .L24+36
 528 00a4 0122     		movs	r2, #1
 529 00a6 1A70     		strb	r2, [r3]
 353:Generated_Source\PSoC5/cyfitter_cfg.c **** 
 354:Generated_Source\PSoC5/cyfitter_cfg.c **** 	/* Perform basic analog initialization to defaults */
 355:Generated_Source\PSoC5/cyfitter_cfg.c **** 	AnalogSetDefault();
 530              		.loc 1 355 0
 531 00a8 FFF7FEFF 		bl	AnalogSetDefault
 356:Generated_Source\PSoC5/cyfitter_cfg.c **** 
 357:Generated_Source\PSoC5/cyfitter_cfg.c **** 	/* Configure alternate active mode */
 358:Generated_Source\PSoC5/cyfitter_cfg.c **** 	CYCONFIGCPY((void CYFAR *)CYDEV_PM_STBY_BASE, (const void CYFAR *)CYDEV_PM_ACT_BASE, 14u);
 532              		.loc 1 358 0
 533 00ac 0E22     		movs	r2, #14
 534 00ae 0E49     		ldr	r1, .L24+40
 535 00b0 0E48     		ldr	r0, .L24+44
 536 00b2 FFF7FEFF 		bl	CYCONFIGCPY
 359:Generated_Source\PSoC5/cyfitter_cfg.c **** }
 537              		.loc 1 359 0
 538 00b6 00BF     		nop
 539 00b8 0837     		adds	r7, r7, #8
 540              		.cfi_def_cfa_offset 8
 541 00ba BD46     		mov	sp, r7
 542              		.cfi_def_cfa_register 13
 543              		@ sp needed
 544 00bc 80BD     		pop	{r7, pc}
 545              	.L25:
 546 00be 00BF     		.align	2
 547              	.L24:
 548 00c0 E8460040 		.word	1073759976
ARM GAS  C:\Users\JOSEAN~1\AppData\Local\Temp\ccI3w3Hv.s 			page 17


 549 00c4 00000000 		.word	cfg_memset_list.4977
 550 00c8 03500140 		.word	1073827843
 551 00cc 13500140 		.word	1073827859
 552 00d0 12510040 		.word	1073762578
 553 00d4 08000048 		.word	1207959560
 554 00d8 22510040 		.word	1073762594
 555 00dc 22430040 		.word	1073759010
 556 00e0 00480040 		.word	1073760256
 557 00e4 04000840 		.word	1074266116
 558 00e8 A0430040 		.word	1073759136
 559 00ec B0430040 		.word	1073759152
 560              		.cfi_endproc
 561              	.LFE7:
 562              		.size	cyfitter_cfg, .-cyfitter_cfg
 563              		.section	.rodata
 564              		.align	2
 565              		.type	cfg_memset_list.4977, %object
 566              		.size	cfg_memset_list.4977, 54
 567              	cfg_memset_list.4977:
 568 0000 00510040 		.word	1073762560
 569 0004 1000     		.short	16
 570 0006 30510040 		.4byte	1073762608
 571 000a 4000     		.short	64
 572 000c C0510040 		.word	1073762752
 573 0010 1000     		.short	16
 574 0012 F0510040 		.4byte	1073762800
 575 0016 1000     		.short	16
 576 0018 00000140 		.word	1073807360
 577 001c 0010     		.short	4096
 578 001e 00140140 		.4byte	1073812480
 579 0022 0008     		.short	2048
 580 0024 00400140 		.word	1073823744
 581 0028 000A     		.short	2560
 582 002a 004C0140 		.4byte	1073826816
 583 002e 0002     		.short	512
 584 0030 00500140 		.word	1073827840
 585 0034 2000     		.short	32
 586              		.text
 587              	.Letext0:
 588              		.file 2 "c:\\program files (x86)\\cypress\\psoc creator\\4.2\\psoc creator\\import\\gnu\\arm\\5.4.
 589              		.file 3 "Generated_Source\\PSoC5\\cytypes.h"
 590              		.section	.debug_info,"",%progbits
 591              	.Ldebug_info0:
 592 0000 DF020000 		.4byte	0x2df
 593 0004 0400     		.2byte	0x4
 594 0006 00000000 		.4byte	.Ldebug_abbrev0
 595 000a 04       		.byte	0x4
 596 000b 01       		.uleb128 0x1
 597 000c 0D000000 		.4byte	.LASF37
 598 0010 0C       		.byte	0xc
 599 0011 AC000000 		.4byte	.LASF38
 600 0015 6A020000 		.4byte	.LASF39
 601 0019 00000000 		.4byte	.Ldebug_ranges0+0
 602 001d 00000000 		.4byte	0
 603 0021 00000000 		.4byte	.Ldebug_line0
 604 0025 02       		.uleb128 0x2
 605 0026 04       		.byte	0x4
ARM GAS  C:\Users\JOSEAN~1\AppData\Local\Temp\ccI3w3Hv.s 			page 18


 606 0027 05       		.byte	0x5
 607 0028 696E7400 		.ascii	"int\000"
 608 002c 03       		.uleb128 0x3
 609 002d 06000000 		.4byte	.LASF12
 610 0031 02       		.byte	0x2
 611 0032 D8       		.byte	0xd8
 612 0033 37000000 		.4byte	0x37
 613 0037 04       		.uleb128 0x4
 614 0038 04       		.byte	0x4
 615 0039 07       		.byte	0x7
 616 003a B3010000 		.4byte	.LASF0
 617 003e 04       		.uleb128 0x4
 618 003f 08       		.byte	0x8
 619 0040 05       		.byte	0x5
 620 0041 F5010000 		.4byte	.LASF1
 621 0045 04       		.uleb128 0x4
 622 0046 08       		.byte	0x8
 623 0047 04       		.byte	0x4
 624 0048 2B020000 		.4byte	.LASF2
 625 004c 04       		.uleb128 0x4
 626 004d 01       		.byte	0x1
 627 004e 06       		.byte	0x6
 628 004f 49020000 		.4byte	.LASF3
 629 0053 04       		.uleb128 0x4
 630 0054 01       		.byte	0x1
 631 0055 08       		.byte	0x8
 632 0056 79010000 		.4byte	.LASF4
 633 005a 04       		.uleb128 0x4
 634 005b 02       		.byte	0x2
 635 005c 05       		.byte	0x5
 636 005d 0B020000 		.4byte	.LASF5
 637 0061 04       		.uleb128 0x4
 638 0062 02       		.byte	0x2
 639 0063 07       		.byte	0x7
 640 0064 FD000000 		.4byte	.LASF6
 641 0068 04       		.uleb128 0x4
 642 0069 04       		.byte	0x4
 643 006a 05       		.byte	0x5
 644 006b 1D020000 		.4byte	.LASF7
 645 006f 04       		.uleb128 0x4
 646 0070 04       		.byte	0x4
 647 0071 07       		.byte	0x7
 648 0072 41010000 		.4byte	.LASF8
 649 0076 04       		.uleb128 0x4
 650 0077 08       		.byte	0x8
 651 0078 07       		.byte	0x7
 652 0079 C8010000 		.4byte	.LASF9
 653 007d 04       		.uleb128 0x4
 654 007e 04       		.byte	0x4
 655 007f 07       		.byte	0x7
 656 0080 EC010000 		.4byte	.LASF10
 657 0084 05       		.uleb128 0x5
 658 0085 04       		.byte	0x4
 659 0086 04       		.uleb128 0x4
 660 0087 01       		.byte	0x1
 661 0088 08       		.byte	0x8
 662 0089 26020000 		.4byte	.LASF11
ARM GAS  C:\Users\JOSEAN~1\AppData\Local\Temp\ccI3w3Hv.s 			page 19


 663 008d 03       		.uleb128 0x3
 664 008e 53010000 		.4byte	.LASF13
 665 0092 03       		.byte	0x3
 666 0093 A1       		.byte	0xa1
 667 0094 53000000 		.4byte	0x53
 668 0098 03       		.uleb128 0x3
 669 0099 9B010000 		.4byte	.LASF14
 670 009d 03       		.byte	0x3
 671 009e A2       		.byte	0xa2
 672 009f 61000000 		.4byte	0x61
 673 00a3 03       		.uleb128 0x3
 674 00a4 AC010000 		.4byte	.LASF15
 675 00a8 03       		.byte	0x3
 676 00a9 A3       		.byte	0xa3
 677 00aa 6F000000 		.4byte	0x6f
 678 00ae 04       		.uleb128 0x4
 679 00af 04       		.byte	0x4
 680 00b0 04       		.byte	0x4
 681 00b1 18010000 		.4byte	.LASF16
 682 00b5 04       		.uleb128 0x4
 683 00b6 08       		.byte	0x8
 684 00b7 04       		.byte	0x4
 685 00b8 87010000 		.4byte	.LASF17
 686 00bc 06       		.uleb128 0x6
 687 00bd 3C010000 		.4byte	.LASF18
 688 00c1 03       		.byte	0x3
 689 00c2 4B01     		.2byte	0x14b
 690 00c4 C8000000 		.4byte	0xc8
 691 00c8 07       		.uleb128 0x7
 692 00c9 8D000000 		.4byte	0x8d
 693 00cd 06       		.uleb128 0x6
 694 00ce 00000000 		.4byte	.LASF19
 695 00d2 03       		.byte	0x3
 696 00d3 4C01     		.2byte	0x14c
 697 00d5 D9000000 		.4byte	0xd9
 698 00d9 07       		.uleb128 0x7
 699 00da 98000000 		.4byte	0x98
 700 00de 08       		.uleb128 0x8
 701 00df 59010000 		.4byte	.LASF20
 702 00e3 01       		.byte	0x1
 703 00e4 4C       		.byte	0x4c
 704 00e5 00000000 		.4byte	.LFB0
 705 00e9 1C000000 		.4byte	.LFE0-.LFB0
 706 00ed 01       		.uleb128 0x1
 707 00ee 9C       		.byte	0x9c
 708 00ef 0C010000 		.4byte	0x10c
 709 00f3 09       		.uleb128 0x9
 710 00f4 7300     		.ascii	"s\000"
 711 00f6 01       		.byte	0x1
 712 00f7 4C       		.byte	0x4c
 713 00f8 84000000 		.4byte	0x84
 714 00fc 02       		.uleb128 0x2
 715 00fd 91       		.byte	0x91
 716 00fe 74       		.sleb128 -12
 717 00ff 09       		.uleb128 0x9
 718 0100 6E00     		.ascii	"n\000"
 719 0102 01       		.byte	0x1
ARM GAS  C:\Users\JOSEAN~1\AppData\Local\Temp\ccI3w3Hv.s 			page 20


 720 0103 4C       		.byte	0x4c
 721 0104 2C000000 		.4byte	0x2c
 722 0108 02       		.uleb128 0x2
 723 0109 91       		.byte	0x91
 724 010a 70       		.sleb128 -16
 725 010b 00       		.byte	0
 726 010c 08       		.uleb128 0x8
 727 010d 5E020000 		.4byte	.LASF21
 728 0111 01       		.byte	0x1
 729 0112 53       		.byte	0x53
 730 0113 00000000 		.4byte	.LFB1
 731 0117 1E000000 		.4byte	.LFE1-.LFB1
 732 011b 01       		.uleb128 0x1
 733 011c 9C       		.byte	0x9c
 734 011d 4A010000 		.4byte	0x14a
 735 0121 0A       		.uleb128 0xa
 736 0122 32010000 		.4byte	.LASF22
 737 0126 01       		.byte	0x1
 738 0127 53       		.byte	0x53
 739 0128 84000000 		.4byte	0x84
 740 012c 02       		.uleb128 0x2
 741 012d 91       		.byte	0x91
 742 012e 74       		.sleb128 -12
 743 012f 09       		.uleb128 0x9
 744 0130 73726300 		.ascii	"src\000"
 745 0134 01       		.byte	0x1
 746 0135 53       		.byte	0x53
 747 0136 4A010000 		.4byte	0x14a
 748 013a 02       		.uleb128 0x2
 749 013b 91       		.byte	0x91
 750 013c 70       		.sleb128 -16
 751 013d 09       		.uleb128 0x9
 752 013e 6E00     		.ascii	"n\000"
 753 0140 01       		.byte	0x1
 754 0141 53       		.byte	0x53
 755 0142 2C000000 		.4byte	0x2c
 756 0146 02       		.uleb128 0x2
 757 0147 91       		.byte	0x91
 758 0148 6C       		.sleb128 -20
 759 0149 00       		.byte	0
 760 014a 0B       		.uleb128 0xb
 761 014b 04       		.byte	0x4
 762 014c 50010000 		.4byte	0x150
 763 0150 0C       		.uleb128 0xc
 764 0151 08       		.uleb128 0x8
 765 0152 E2000000 		.4byte	.LASF23
 766 0156 01       		.byte	0x1
 767 0157 5A       		.byte	0x5a
 768 0158 00000000 		.4byte	.LFB2
 769 015c 1E000000 		.4byte	.LFE2-.LFB2
 770 0160 01       		.uleb128 0x1
 771 0161 9C       		.byte	0x9c
 772 0162 8F010000 		.4byte	0x18f
 773 0166 0A       		.uleb128 0xa
 774 0167 32010000 		.4byte	.LASF22
 775 016b 01       		.byte	0x1
 776 016c 5A       		.byte	0x5a
ARM GAS  C:\Users\JOSEAN~1\AppData\Local\Temp\ccI3w3Hv.s 			page 21


 777 016d 84000000 		.4byte	0x84
 778 0171 02       		.uleb128 0x2
 779 0172 91       		.byte	0x91
 780 0173 74       		.sleb128 -12
 781 0174 09       		.uleb128 0x9
 782 0175 73726300 		.ascii	"src\000"
 783 0179 01       		.byte	0x1
 784 017a 5A       		.byte	0x5a
 785 017b 4A010000 		.4byte	0x14a
 786 017f 02       		.uleb128 0x2
 787 0180 91       		.byte	0x91
 788 0181 70       		.sleb128 -16
 789 0182 09       		.uleb128 0x9
 790 0183 6E00     		.ascii	"n\000"
 791 0185 01       		.byte	0x1
 792 0186 5A       		.byte	0x5a
 793 0187 2C000000 		.4byte	0x2c
 794 018b 02       		.uleb128 0x2
 795 018c 91       		.byte	0x91
 796 018d 6C       		.sleb128 -20
 797 018e 00       		.byte	0
 798 018f 0D       		.uleb128 0xd
 799 0190 1E010000 		.4byte	.LASF24
 800 0194 01       		.byte	0x1
 801 0195 7E       		.byte	0x7e
 802 0196 00000000 		.4byte	.LFB3
 803 019a 0C000000 		.4byte	.LFE3-.LFB3
 804 019e 01       		.uleb128 0x1
 805 019f 9C       		.byte	0x9c
 806 01a0 B3010000 		.4byte	0x1b3
 807 01a4 0A       		.uleb128 0xa
 808 01a5 A2010000 		.4byte	.LASF25
 809 01a9 01       		.byte	0x1
 810 01aa 7E       		.byte	0x7e
 811 01ab 8D000000 		.4byte	0x8d
 812 01af 02       		.uleb128 0x2
 813 01b0 91       		.byte	0x91
 814 01b1 77       		.sleb128 -9
 815 01b2 00       		.byte	0
 816 01b3 08       		.uleb128 0x8
 817 01b4 F2000000 		.4byte	.LASF26
 818 01b8 01       		.byte	0x1
 819 01b9 B0       		.byte	0xb0
 820 01ba 00000000 		.4byte	.LFB4
 821 01be D8000000 		.4byte	.LFE4-.LFB4
 822 01c2 01       		.uleb128 0x1
 823 01c3 9C       		.byte	0x9c
 824 01c4 E5010000 		.4byte	0x1e5
 825 01c8 0E       		.uleb128 0xe
 826 01c9 03020000 		.4byte	.LASF27
 827 01cd 01       		.byte	0x1
 828 01ce B2       		.byte	0xb2
 829 01cf A3000000 		.4byte	0xa3
 830 01d3 02       		.uleb128 0x2
 831 01d4 91       		.byte	0x91
 832 01d5 74       		.sleb128 -12
 833 01d6 0E       		.uleb128 0xe
ARM GAS  C:\Users\JOSEAN~1\AppData\Local\Temp\ccI3w3Hv.s 			page 22


 834 01d7 10010000 		.4byte	.LASF28
 835 01db 01       		.byte	0x1
 836 01dc B3       		.byte	0xb3
 837 01dd 8D000000 		.4byte	0x8d
 838 01e1 02       		.uleb128 0x2
 839 01e2 91       		.byte	0x91
 840 01e3 73       		.sleb128 -13
 841 01e4 00       		.byte	0
 842 01e5 0D       		.uleb128 0xd
 843 01e6 9B000000 		.4byte	.LASF29
 844 01ea 01       		.byte	0x1
 845 01eb EB       		.byte	0xeb
 846 01ec 00000000 		.4byte	.LFB5
 847 01f0 44000000 		.4byte	.LFE5-.LFB5
 848 01f4 01       		.uleb128 0x1
 849 01f5 9C       		.byte	0x9c
 850 01f6 09020000 		.4byte	0x209
 851 01fa 0E       		.uleb128 0xe
 852 01fb 37020000 		.4byte	.LASF30
 853 01ff 01       		.byte	0x1
 854 0200 ED       		.byte	0xed
 855 0201 8D000000 		.4byte	0x8d
 856 0205 02       		.uleb128 0x2
 857 0206 91       		.byte	0x91
 858 0207 77       		.sleb128 -9
 859 0208 00       		.byte	0
 860 0209 0F       		.uleb128 0xf
 861 020a 63010000 		.4byte	.LASF40
 862 020e 01       		.byte	0x1
 863 020f 0501     		.2byte	0x105
 864 0211 00000000 		.4byte	.LFB6
 865 0215 28000000 		.4byte	.LFE6-.LFB6
 866 0219 01       		.uleb128 0x1
 867 021a 9C       		.byte	0x9c
 868 021b 3E020000 		.4byte	0x23e
 869 021f 10       		.uleb128 0x10
 870 0220 15020000 		.4byte	.LASF31
 871 0224 01       		.byte	0x1
 872 0225 0501     		.2byte	0x105
 873 0227 8D000000 		.4byte	0x8d
 874 022b 02       		.uleb128 0x2
 875 022c 91       		.byte	0x91
 876 022d 6F       		.sleb128 -17
 877 022e 11       		.uleb128 0x11
 878 022f 55020000 		.4byte	.LASF32
 879 0233 01       		.byte	0x1
 880 0234 0701     		.2byte	0x107
 881 0236 8D000000 		.4byte	0x8d
 882 023a 02       		.uleb128 0x2
 883 023b 91       		.byte	0x91
 884 023c 77       		.sleb128 -9
 885 023d 00       		.byte	0
 886 023e 12       		.uleb128 0x12
 887 023f 8E010000 		.4byte	.LASF41
 888 0243 01       		.byte	0x1
 889 0244 2701     		.2byte	0x127
 890 0246 00000000 		.4byte	.LFB7
ARM GAS  C:\Users\JOSEAN~1\AppData\Local\Temp\ccI3w3Hv.s 			page 23


 891 024a F0000000 		.4byte	.LFE7-.LFB7
 892 024e 01       		.uleb128 0x1
 893 024f 9C       		.byte	0x9c
 894 0250 13       		.uleb128 0x13
 895 0251 18000000 		.4byte	.LBB2
 896 0255 54000000 		.4byte	.LBE2-.LBB2
 897 0259 14       		.uleb128 0x14
 898 025a 06       		.byte	0x6
 899 025b 01       		.byte	0x1
 900 025c 3301     		.2byte	0x133
 901 025e 7D020000 		.4byte	0x27d
 902 0262 15       		.uleb128 0x15
 903 0263 C0010000 		.4byte	.LASF33
 904 0267 01       		.byte	0x1
 905 0268 3401     		.2byte	0x134
 906 026a 84000000 		.4byte	0x84
 907 026e 00       		.byte	0
 908 026f 15       		.uleb128 0x15
 909 0270 37010000 		.4byte	.LASF34
 910 0274 01       		.byte	0x1
 911 0275 3501     		.2byte	0x135
 912 0277 98000000 		.4byte	0x98
 913 027b 04       		.byte	0x4
 914 027c 00       		.byte	0
 915 027d 06       		.uleb128 0x6
 916 027e DF010000 		.4byte	.LASF35
 917 0282 01       		.byte	0x1
 918 0283 3601     		.2byte	0x136
 919 0285 59020000 		.4byte	0x259
 920 0289 16       		.uleb128 0x16
 921 028a 99020000 		.4byte	0x299
 922 028e 99020000 		.4byte	0x299
 923 0292 17       		.uleb128 0x17
 924 0293 7D000000 		.4byte	0x7d
 925 0297 08       		.byte	0x8
 926 0298 00       		.byte	0
 927 0299 18       		.uleb128 0x18
 928 029a 7D020000 		.4byte	0x27d
 929 029e 11       		.uleb128 0x11
 930 029f D2000000 		.4byte	.LASF36
 931 02a3 01       		.byte	0x1
 932 02a4 3801     		.2byte	0x138
 933 02a6 B0020000 		.4byte	0x2b0
 934 02aa 05       		.uleb128 0x5
 935 02ab 03       		.byte	0x3
 936 02ac 00000000 		.4byte	cfg_memset_list.4977
 937 02b0 18       		.uleb128 0x18
 938 02b1 89020000 		.4byte	0x289
 939 02b5 19       		.uleb128 0x19
 940 02b6 6900     		.ascii	"i\000"
 941 02b8 01       		.byte	0x1
 942 02b9 4501     		.2byte	0x145
 943 02bb 8D000000 		.4byte	0x8d
 944 02bf 02       		.uleb128 0x2
 945 02c0 91       		.byte	0x91
 946 02c1 77       		.sleb128 -9
 947 02c2 13       		.uleb128 0x13
ARM GAS  C:\Users\JOSEAN~1\AppData\Local\Temp\ccI3w3Hv.s 			page 24


 948 02c3 1E000000 		.4byte	.LBB3
 949 02c7 22000000 		.4byte	.LBE3-.LBB3
 950 02cb 19       		.uleb128 0x19
 951 02cc 6D7300   		.ascii	"ms\000"
 952 02cf 01       		.byte	0x1
 953 02d0 4A01     		.2byte	0x14a
 954 02d2 D9020000 		.4byte	0x2d9
 955 02d6 02       		.uleb128 0x2
 956 02d7 91       		.byte	0x91
 957 02d8 70       		.sleb128 -16
 958 02d9 0B       		.uleb128 0xb
 959 02da 04       		.byte	0x4
 960 02db 99020000 		.4byte	0x299
 961 02df 00       		.byte	0
 962 02e0 00       		.byte	0
 963 02e1 00       		.byte	0
 964 02e2 00       		.byte	0
 965              		.section	.debug_abbrev,"",%progbits
 966              	.Ldebug_abbrev0:
 967 0000 01       		.uleb128 0x1
 968 0001 11       		.uleb128 0x11
 969 0002 01       		.byte	0x1
 970 0003 25       		.uleb128 0x25
 971 0004 0E       		.uleb128 0xe
 972 0005 13       		.uleb128 0x13
 973 0006 0B       		.uleb128 0xb
 974 0007 03       		.uleb128 0x3
 975 0008 0E       		.uleb128 0xe
 976 0009 1B       		.uleb128 0x1b
 977 000a 0E       		.uleb128 0xe
 978 000b 55       		.uleb128 0x55
 979 000c 17       		.uleb128 0x17
 980 000d 11       		.uleb128 0x11
 981 000e 01       		.uleb128 0x1
 982 000f 10       		.uleb128 0x10
 983 0010 17       		.uleb128 0x17
 984 0011 00       		.byte	0
 985 0012 00       		.byte	0
 986 0013 02       		.uleb128 0x2
 987 0014 24       		.uleb128 0x24
 988 0015 00       		.byte	0
 989 0016 0B       		.uleb128 0xb
 990 0017 0B       		.uleb128 0xb
 991 0018 3E       		.uleb128 0x3e
 992 0019 0B       		.uleb128 0xb
 993 001a 03       		.uleb128 0x3
 994 001b 08       		.uleb128 0x8
 995 001c 00       		.byte	0
 996 001d 00       		.byte	0
 997 001e 03       		.uleb128 0x3
 998 001f 16       		.uleb128 0x16
 999 0020 00       		.byte	0
 1000 0021 03       		.uleb128 0x3
 1001 0022 0E       		.uleb128 0xe
 1002 0023 3A       		.uleb128 0x3a
 1003 0024 0B       		.uleb128 0xb
 1004 0025 3B       		.uleb128 0x3b
ARM GAS  C:\Users\JOSEAN~1\AppData\Local\Temp\ccI3w3Hv.s 			page 25


 1005 0026 0B       		.uleb128 0xb
 1006 0027 49       		.uleb128 0x49
 1007 0028 13       		.uleb128 0x13
 1008 0029 00       		.byte	0
 1009 002a 00       		.byte	0
 1010 002b 04       		.uleb128 0x4
 1011 002c 24       		.uleb128 0x24
 1012 002d 00       		.byte	0
 1013 002e 0B       		.uleb128 0xb
 1014 002f 0B       		.uleb128 0xb
 1015 0030 3E       		.uleb128 0x3e
 1016 0031 0B       		.uleb128 0xb
 1017 0032 03       		.uleb128 0x3
 1018 0033 0E       		.uleb128 0xe
 1019 0034 00       		.byte	0
 1020 0035 00       		.byte	0
 1021 0036 05       		.uleb128 0x5
 1022 0037 0F       		.uleb128 0xf
 1023 0038 00       		.byte	0
 1024 0039 0B       		.uleb128 0xb
 1025 003a 0B       		.uleb128 0xb
 1026 003b 00       		.byte	0
 1027 003c 00       		.byte	0
 1028 003d 06       		.uleb128 0x6
 1029 003e 16       		.uleb128 0x16
 1030 003f 00       		.byte	0
 1031 0040 03       		.uleb128 0x3
 1032 0041 0E       		.uleb128 0xe
 1033 0042 3A       		.uleb128 0x3a
 1034 0043 0B       		.uleb128 0xb
 1035 0044 3B       		.uleb128 0x3b
 1036 0045 05       		.uleb128 0x5
 1037 0046 49       		.uleb128 0x49
 1038 0047 13       		.uleb128 0x13
 1039 0048 00       		.byte	0
 1040 0049 00       		.byte	0
 1041 004a 07       		.uleb128 0x7
 1042 004b 35       		.uleb128 0x35
 1043 004c 00       		.byte	0
 1044 004d 49       		.uleb128 0x49
 1045 004e 13       		.uleb128 0x13
 1046 004f 00       		.byte	0
 1047 0050 00       		.byte	0
 1048 0051 08       		.uleb128 0x8
 1049 0052 2E       		.uleb128 0x2e
 1050 0053 01       		.byte	0x1
 1051 0054 03       		.uleb128 0x3
 1052 0055 0E       		.uleb128 0xe
 1053 0056 3A       		.uleb128 0x3a
 1054 0057 0B       		.uleb128 0xb
 1055 0058 3B       		.uleb128 0x3b
 1056 0059 0B       		.uleb128 0xb
 1057 005a 27       		.uleb128 0x27
 1058 005b 19       		.uleb128 0x19
 1059 005c 11       		.uleb128 0x11
 1060 005d 01       		.uleb128 0x1
 1061 005e 12       		.uleb128 0x12
ARM GAS  C:\Users\JOSEAN~1\AppData\Local\Temp\ccI3w3Hv.s 			page 26


 1062 005f 06       		.uleb128 0x6
 1063 0060 40       		.uleb128 0x40
 1064 0061 18       		.uleb128 0x18
 1065 0062 9642     		.uleb128 0x2116
 1066 0064 19       		.uleb128 0x19
 1067 0065 01       		.uleb128 0x1
 1068 0066 13       		.uleb128 0x13
 1069 0067 00       		.byte	0
 1070 0068 00       		.byte	0
 1071 0069 09       		.uleb128 0x9
 1072 006a 05       		.uleb128 0x5
 1073 006b 00       		.byte	0
 1074 006c 03       		.uleb128 0x3
 1075 006d 08       		.uleb128 0x8
 1076 006e 3A       		.uleb128 0x3a
 1077 006f 0B       		.uleb128 0xb
 1078 0070 3B       		.uleb128 0x3b
 1079 0071 0B       		.uleb128 0xb
 1080 0072 49       		.uleb128 0x49
 1081 0073 13       		.uleb128 0x13
 1082 0074 02       		.uleb128 0x2
 1083 0075 18       		.uleb128 0x18
 1084 0076 00       		.byte	0
 1085 0077 00       		.byte	0
 1086 0078 0A       		.uleb128 0xa
 1087 0079 05       		.uleb128 0x5
 1088 007a 00       		.byte	0
 1089 007b 03       		.uleb128 0x3
 1090 007c 0E       		.uleb128 0xe
 1091 007d 3A       		.uleb128 0x3a
 1092 007e 0B       		.uleb128 0xb
 1093 007f 3B       		.uleb128 0x3b
 1094 0080 0B       		.uleb128 0xb
 1095 0081 49       		.uleb128 0x49
 1096 0082 13       		.uleb128 0x13
 1097 0083 02       		.uleb128 0x2
 1098 0084 18       		.uleb128 0x18
 1099 0085 00       		.byte	0
 1100 0086 00       		.byte	0
 1101 0087 0B       		.uleb128 0xb
 1102 0088 0F       		.uleb128 0xf
 1103 0089 00       		.byte	0
 1104 008a 0B       		.uleb128 0xb
 1105 008b 0B       		.uleb128 0xb
 1106 008c 49       		.uleb128 0x49
 1107 008d 13       		.uleb128 0x13
 1108 008e 00       		.byte	0
 1109 008f 00       		.byte	0
 1110 0090 0C       		.uleb128 0xc
 1111 0091 26       		.uleb128 0x26
 1112 0092 00       		.byte	0
 1113 0093 00       		.byte	0
 1114 0094 00       		.byte	0
 1115 0095 0D       		.uleb128 0xd
 1116 0096 2E       		.uleb128 0x2e
 1117 0097 01       		.byte	0x1
 1118 0098 03       		.uleb128 0x3
ARM GAS  C:\Users\JOSEAN~1\AppData\Local\Temp\ccI3w3Hv.s 			page 27


 1119 0099 0E       		.uleb128 0xe
 1120 009a 3A       		.uleb128 0x3a
 1121 009b 0B       		.uleb128 0xb
 1122 009c 3B       		.uleb128 0x3b
 1123 009d 0B       		.uleb128 0xb
 1124 009e 27       		.uleb128 0x27
 1125 009f 19       		.uleb128 0x19
 1126 00a0 11       		.uleb128 0x11
 1127 00a1 01       		.uleb128 0x1
 1128 00a2 12       		.uleb128 0x12
 1129 00a3 06       		.uleb128 0x6
 1130 00a4 40       		.uleb128 0x40
 1131 00a5 18       		.uleb128 0x18
 1132 00a6 9742     		.uleb128 0x2117
 1133 00a8 19       		.uleb128 0x19
 1134 00a9 01       		.uleb128 0x1
 1135 00aa 13       		.uleb128 0x13
 1136 00ab 00       		.byte	0
 1137 00ac 00       		.byte	0
 1138 00ad 0E       		.uleb128 0xe
 1139 00ae 34       		.uleb128 0x34
 1140 00af 00       		.byte	0
 1141 00b0 03       		.uleb128 0x3
 1142 00b1 0E       		.uleb128 0xe
 1143 00b2 3A       		.uleb128 0x3a
 1144 00b3 0B       		.uleb128 0xb
 1145 00b4 3B       		.uleb128 0x3b
 1146 00b5 0B       		.uleb128 0xb
 1147 00b6 49       		.uleb128 0x49
 1148 00b7 13       		.uleb128 0x13
 1149 00b8 02       		.uleb128 0x2
 1150 00b9 18       		.uleb128 0x18
 1151 00ba 00       		.byte	0
 1152 00bb 00       		.byte	0
 1153 00bc 0F       		.uleb128 0xf
 1154 00bd 2E       		.uleb128 0x2e
 1155 00be 01       		.byte	0x1
 1156 00bf 3F       		.uleb128 0x3f
 1157 00c0 19       		.uleb128 0x19
 1158 00c1 03       		.uleb128 0x3
 1159 00c2 0E       		.uleb128 0xe
 1160 00c3 3A       		.uleb128 0x3a
 1161 00c4 0B       		.uleb128 0xb
 1162 00c5 3B       		.uleb128 0x3b
 1163 00c6 05       		.uleb128 0x5
 1164 00c7 27       		.uleb128 0x27
 1165 00c8 19       		.uleb128 0x19
 1166 00c9 11       		.uleb128 0x11
 1167 00ca 01       		.uleb128 0x1
 1168 00cb 12       		.uleb128 0x12
 1169 00cc 06       		.uleb128 0x6
 1170 00cd 40       		.uleb128 0x40
 1171 00ce 18       		.uleb128 0x18
 1172 00cf 9742     		.uleb128 0x2117
 1173 00d1 19       		.uleb128 0x19
 1174 00d2 01       		.uleb128 0x1
 1175 00d3 13       		.uleb128 0x13
ARM GAS  C:\Users\JOSEAN~1\AppData\Local\Temp\ccI3w3Hv.s 			page 28


 1176 00d4 00       		.byte	0
 1177 00d5 00       		.byte	0
 1178 00d6 10       		.uleb128 0x10
 1179 00d7 05       		.uleb128 0x5
 1180 00d8 00       		.byte	0
 1181 00d9 03       		.uleb128 0x3
 1182 00da 0E       		.uleb128 0xe
 1183 00db 3A       		.uleb128 0x3a
 1184 00dc 0B       		.uleb128 0xb
 1185 00dd 3B       		.uleb128 0x3b
 1186 00de 05       		.uleb128 0x5
 1187 00df 49       		.uleb128 0x49
 1188 00e0 13       		.uleb128 0x13
 1189 00e1 02       		.uleb128 0x2
 1190 00e2 18       		.uleb128 0x18
 1191 00e3 00       		.byte	0
 1192 00e4 00       		.byte	0
 1193 00e5 11       		.uleb128 0x11
 1194 00e6 34       		.uleb128 0x34
 1195 00e7 00       		.byte	0
 1196 00e8 03       		.uleb128 0x3
 1197 00e9 0E       		.uleb128 0xe
 1198 00ea 3A       		.uleb128 0x3a
 1199 00eb 0B       		.uleb128 0xb
 1200 00ec 3B       		.uleb128 0x3b
 1201 00ed 05       		.uleb128 0x5
 1202 00ee 49       		.uleb128 0x49
 1203 00ef 13       		.uleb128 0x13
 1204 00f0 02       		.uleb128 0x2
 1205 00f1 18       		.uleb128 0x18
 1206 00f2 00       		.byte	0
 1207 00f3 00       		.byte	0
 1208 00f4 12       		.uleb128 0x12
 1209 00f5 2E       		.uleb128 0x2e
 1210 00f6 01       		.byte	0x1
 1211 00f7 3F       		.uleb128 0x3f
 1212 00f8 19       		.uleb128 0x19
 1213 00f9 03       		.uleb128 0x3
 1214 00fa 0E       		.uleb128 0xe
 1215 00fb 3A       		.uleb128 0x3a
 1216 00fc 0B       		.uleb128 0xb
 1217 00fd 3B       		.uleb128 0x3b
 1218 00fe 05       		.uleb128 0x5
 1219 00ff 27       		.uleb128 0x27
 1220 0100 19       		.uleb128 0x19
 1221 0101 11       		.uleb128 0x11
 1222 0102 01       		.uleb128 0x1
 1223 0103 12       		.uleb128 0x12
 1224 0104 06       		.uleb128 0x6
 1225 0105 40       		.uleb128 0x40
 1226 0106 18       		.uleb128 0x18
 1227 0107 9642     		.uleb128 0x2116
 1228 0109 19       		.uleb128 0x19
 1229 010a 00       		.byte	0
 1230 010b 00       		.byte	0
 1231 010c 13       		.uleb128 0x13
 1232 010d 0B       		.uleb128 0xb
ARM GAS  C:\Users\JOSEAN~1\AppData\Local\Temp\ccI3w3Hv.s 			page 29


 1233 010e 01       		.byte	0x1
 1234 010f 11       		.uleb128 0x11
 1235 0110 01       		.uleb128 0x1
 1236 0111 12       		.uleb128 0x12
 1237 0112 06       		.uleb128 0x6
 1238 0113 00       		.byte	0
 1239 0114 00       		.byte	0
 1240 0115 14       		.uleb128 0x14
 1241 0116 13       		.uleb128 0x13
 1242 0117 01       		.byte	0x1
 1243 0118 0B       		.uleb128 0xb
 1244 0119 0B       		.uleb128 0xb
 1245 011a 3A       		.uleb128 0x3a
 1246 011b 0B       		.uleb128 0xb
 1247 011c 3B       		.uleb128 0x3b
 1248 011d 05       		.uleb128 0x5
 1249 011e 01       		.uleb128 0x1
 1250 011f 13       		.uleb128 0x13
 1251 0120 00       		.byte	0
 1252 0121 00       		.byte	0
 1253 0122 15       		.uleb128 0x15
 1254 0123 0D       		.uleb128 0xd
 1255 0124 00       		.byte	0
 1256 0125 03       		.uleb128 0x3
 1257 0126 0E       		.uleb128 0xe
 1258 0127 3A       		.uleb128 0x3a
 1259 0128 0B       		.uleb128 0xb
 1260 0129 3B       		.uleb128 0x3b
 1261 012a 05       		.uleb128 0x5
 1262 012b 49       		.uleb128 0x49
 1263 012c 13       		.uleb128 0x13
 1264 012d 38       		.uleb128 0x38
 1265 012e 0B       		.uleb128 0xb
 1266 012f 00       		.byte	0
 1267 0130 00       		.byte	0
 1268 0131 16       		.uleb128 0x16
 1269 0132 01       		.uleb128 0x1
 1270 0133 01       		.byte	0x1
 1271 0134 49       		.uleb128 0x49
 1272 0135 13       		.uleb128 0x13
 1273 0136 01       		.uleb128 0x1
 1274 0137 13       		.uleb128 0x13
 1275 0138 00       		.byte	0
 1276 0139 00       		.byte	0
 1277 013a 17       		.uleb128 0x17
 1278 013b 21       		.uleb128 0x21
 1279 013c 00       		.byte	0
 1280 013d 49       		.uleb128 0x49
 1281 013e 13       		.uleb128 0x13
 1282 013f 2F       		.uleb128 0x2f
 1283 0140 0B       		.uleb128 0xb
 1284 0141 00       		.byte	0
 1285 0142 00       		.byte	0
 1286 0143 18       		.uleb128 0x18
 1287 0144 26       		.uleb128 0x26
 1288 0145 00       		.byte	0
 1289 0146 49       		.uleb128 0x49
ARM GAS  C:\Users\JOSEAN~1\AppData\Local\Temp\ccI3w3Hv.s 			page 30


 1290 0147 13       		.uleb128 0x13
 1291 0148 00       		.byte	0
 1292 0149 00       		.byte	0
 1293 014a 19       		.uleb128 0x19
 1294 014b 34       		.uleb128 0x34
 1295 014c 00       		.byte	0
 1296 014d 03       		.uleb128 0x3
 1297 014e 08       		.uleb128 0x8
 1298 014f 3A       		.uleb128 0x3a
 1299 0150 0B       		.uleb128 0xb
 1300 0151 3B       		.uleb128 0x3b
 1301 0152 05       		.uleb128 0x5
 1302 0153 49       		.uleb128 0x49
 1303 0154 13       		.uleb128 0x13
 1304 0155 02       		.uleb128 0x2
 1305 0156 18       		.uleb128 0x18
 1306 0157 00       		.byte	0
 1307 0158 00       		.byte	0
 1308 0159 00       		.byte	0
 1309              		.section	.debug_aranges,"",%progbits
 1310 0000 54000000 		.4byte	0x54
 1311 0004 0200     		.2byte	0x2
 1312 0006 00000000 		.4byte	.Ldebug_info0
 1313 000a 04       		.byte	0x4
 1314 000b 00       		.byte	0
 1315 000c 0000     		.2byte	0
 1316 000e 0000     		.2byte	0
 1317 0010 00000000 		.4byte	.LFB0
 1318 0014 1C000000 		.4byte	.LFE0-.LFB0
 1319 0018 00000000 		.4byte	.LFB1
 1320 001c 1E000000 		.4byte	.LFE1-.LFB1
 1321 0020 00000000 		.4byte	.LFB2
 1322 0024 1E000000 		.4byte	.LFE2-.LFB2
 1323 0028 00000000 		.4byte	.LFB3
 1324 002c 0C000000 		.4byte	.LFE3-.LFB3
 1325 0030 00000000 		.4byte	.LFB4
 1326 0034 D8000000 		.4byte	.LFE4-.LFB4
 1327 0038 00000000 		.4byte	.LFB5
 1328 003c 44000000 		.4byte	.LFE5-.LFB5
 1329 0040 00000000 		.4byte	.LFB6
 1330 0044 28000000 		.4byte	.LFE6-.LFB6
 1331 0048 00000000 		.4byte	.LFB7
 1332 004c F0000000 		.4byte	.LFE7-.LFB7
 1333 0050 00000000 		.4byte	0
 1334 0054 00000000 		.4byte	0
 1335              		.section	.debug_ranges,"",%progbits
 1336              	.Ldebug_ranges0:
 1337 0000 00000000 		.4byte	.LFB0
 1338 0004 1C000000 		.4byte	.LFE0
 1339 0008 00000000 		.4byte	.LFB1
 1340 000c 1E000000 		.4byte	.LFE1
 1341 0010 00000000 		.4byte	.LFB2
 1342 0014 1E000000 		.4byte	.LFE2
 1343 0018 00000000 		.4byte	.LFB3
 1344 001c 0C000000 		.4byte	.LFE3
 1345 0020 00000000 		.4byte	.LFB4
 1346 0024 D8000000 		.4byte	.LFE4
ARM GAS  C:\Users\JOSEAN~1\AppData\Local\Temp\ccI3w3Hv.s 			page 31


 1347 0028 00000000 		.4byte	.LFB5
 1348 002c 44000000 		.4byte	.LFE5
 1349 0030 00000000 		.4byte	.LFB6
 1350 0034 28000000 		.4byte	.LFE6
 1351 0038 00000000 		.4byte	.LFB7
 1352 003c F0000000 		.4byte	.LFE7
 1353 0040 00000000 		.4byte	0
 1354 0044 00000000 		.4byte	0
 1355              		.section	.debug_line,"",%progbits
 1356              	.Ldebug_line0:
 1357 0000 BA010000 		.section	.debug_str,"MS",%progbits,1
 1357      0200CB00 
 1357      00000201 
 1357      FB0E0D00 
 1357      01010101 
 1358              	.LASF19:
 1359 0000 72656731 		.ascii	"reg16\000"
 1359      3600
 1360              	.LASF12:
 1361 0006 73697A65 		.ascii	"size_t\000"
 1361      5F7400
 1362              	.LASF37:
 1363 000d 474E5520 		.ascii	"GNU C11 5.4.1 20160609 (release) [ARM/embedded-5-br"
 1363      43313120 
 1363      352E342E 
 1363      31203230 
 1363      31363036 
 1364 0040 616E6368 		.ascii	"anch revision 237715] -mcpu=cortex-m3 -mthumb -g -O"
 1364      20726576 
 1364      6973696F 
 1364      6E203233 
 1364      37373135 
 1365 0073 30202D66 		.ascii	"0 -ffunction-sections -ffat-lto-objects\000"
 1365      66756E63 
 1365      74696F6E 
 1365      2D736563 
 1365      74696F6E 
 1366              	.LASF29:
 1367 009b 416E616C 		.ascii	"AnalogSetDefault\000"
 1367      6F675365 
 1367      74446566 
 1367      61756C74 
 1367      00
 1368              	.LASF38:
 1369 00ac 47656E65 		.ascii	"Generated_Source\\PSoC5\\cyfitter_cfg.c\000"
 1369      72617465 
 1369      645F536F 
 1369      75726365 
 1369      5C50536F 
 1370              	.LASF36:
 1371 00d2 6366675F 		.ascii	"cfg_memset_list\000"
 1371      6D656D73 
 1371      65745F6C 
 1371      69737400 
 1372              	.LASF23:
 1373 00e2 4359434F 		.ascii	"CYCONFIGCPYCODE\000"
 1373      4E464947 
ARM GAS  C:\Users\JOSEAN~1\AppData\Local\Temp\ccI3w3Hv.s 			page 32


 1373      43505943 
 1373      4F444500 
 1374              	.LASF26:
 1375 00f2 436C6F63 		.ascii	"ClockSetup\000"
 1375      6B536574 
 1375      757000
 1376              	.LASF6:
 1377 00fd 73686F72 		.ascii	"short unsigned int\000"
 1377      7420756E 
 1377      7369676E 
 1377      65642069 
 1377      6E7400
 1378              	.LASF28:
 1379 0110 706C6C4C 		.ascii	"pllLock\000"
 1379      6F636B00 
 1380              	.LASF16:
 1381 0118 666C6F61 		.ascii	"float\000"
 1381      7400
 1382              	.LASF24:
 1383 011e 4379436C 		.ascii	"CyClockStartupError\000"
 1383      6F636B53 
 1383      74617274 
 1383      75704572 
 1383      726F7200 
 1384              	.LASF22:
 1385 0132 64657374 		.ascii	"dest\000"
 1385      00
 1386              	.LASF34:
 1387 0137 73697A65 		.ascii	"size\000"
 1387      00
 1388              	.LASF18:
 1389 013c 72656738 		.ascii	"reg8\000"
 1389      00
 1390              	.LASF8:
 1391 0141 6C6F6E67 		.ascii	"long unsigned int\000"
 1391      20756E73 
 1391      69676E65 
 1391      6420696E 
 1391      7400
 1392              	.LASF13:
 1393 0153 75696E74 		.ascii	"uint8\000"
 1393      3800
 1394              	.LASF20:
 1395 0159 43594D45 		.ascii	"CYMEMZERO\000"
 1395      4D5A4552 
 1395      4F00
 1396              	.LASF40:
 1397 0163 53657441 		.ascii	"SetAnalogRoutingPumps\000"
 1397      6E616C6F 
 1397      67526F75 
 1397      74696E67 
 1397      50756D70 
 1398              	.LASF4:
 1399 0179 756E7369 		.ascii	"unsigned char\000"
 1399      676E6564 
 1399      20636861 
 1399      7200
ARM GAS  C:\Users\JOSEAN~1\AppData\Local\Temp\ccI3w3Hv.s 			page 33


 1400              	.LASF17:
 1401 0187 646F7562 		.ascii	"double\000"
 1401      6C6500
 1402              	.LASF41:
 1403 018e 63796669 		.ascii	"cyfitter_cfg\000"
 1403      74746572 
 1403      5F636667 
 1403      00
 1404              	.LASF14:
 1405 019b 75696E74 		.ascii	"uint16\000"
 1405      313600
 1406              	.LASF25:
 1407 01a2 6572726F 		.ascii	"errorCode\000"
 1407      72436F64 
 1407      6500
 1408              	.LASF15:
 1409 01ac 75696E74 		.ascii	"uint32\000"
 1409      333200
 1410              	.LASF0:
 1411 01b3 756E7369 		.ascii	"unsigned int\000"
 1411      676E6564 
 1411      20696E74 
 1411      00
 1412              	.LASF33:
 1413 01c0 61646472 		.ascii	"address\000"
 1413      65737300 
 1414              	.LASF9:
 1415 01c8 6C6F6E67 		.ascii	"long long unsigned int\000"
 1415      206C6F6E 
 1415      6720756E 
 1415      7369676E 
 1415      65642069 
 1416              	.LASF35:
 1417 01df 6366675F 		.ascii	"cfg_memset_t\000"
 1417      6D656D73 
 1417      65745F74 
 1417      00
 1418              	.LASF10:
 1419 01ec 73697A65 		.ascii	"sizetype\000"
 1419      74797065 
 1419      00
 1420              	.LASF1:
 1421 01f5 6C6F6E67 		.ascii	"long long int\000"
 1421      206C6F6E 
 1421      6720696E 
 1421      7400
 1422              	.LASF27:
 1423 0203 74696D65 		.ascii	"timeout\000"
 1423      6F757400 
 1424              	.LASF5:
 1425 020b 73686F72 		.ascii	"short int\000"
 1425      7420696E 
 1425      7400
 1426              	.LASF31:
 1427 0215 656E6162 		.ascii	"enabled\000"
 1427      6C656400 
 1428              	.LASF7:
ARM GAS  C:\Users\JOSEAN~1\AppData\Local\Temp\ccI3w3Hv.s 			page 34


 1429 021d 6C6F6E67 		.ascii	"long int\000"
 1429      20696E74 
 1429      00
 1430              	.LASF11:
 1431 0226 63686172 		.ascii	"char\000"
 1431      00
 1432              	.LASF2:
 1433 022b 6C6F6E67 		.ascii	"long double\000"
 1433      20646F75 
 1433      626C6500 
 1434              	.LASF30:
 1435 0237 62675F78 		.ascii	"bg_xover_inl_trim\000"
 1435      6F766572 
 1435      5F696E6C 
 1435      5F747269 
 1435      6D00
 1436              	.LASF3:
 1437 0249 7369676E 		.ascii	"signed char\000"
 1437      65642063 
 1437      68617200 
 1438              	.LASF32:
 1439 0255 72656756 		.ascii	"regValue\000"
 1439      616C7565 
 1439      00
 1440              	.LASF21:
 1441 025e 4359434F 		.ascii	"CYCONFIGCPY\000"
 1441      4E464947 
 1441      43505900 
 1442              	.LASF39:
 1443 026a 443A5C44 		.ascii	"D:\\Documentos\\UNIVERSIDAD\\TFG\\Psoc_Practicas\\P"
 1443      6F63756D 
 1443      656E746F 
 1443      735C554E 
 1443      49564552 
 1444 0298 72616374 		.ascii	"racticas\\Blink_LED.cydsn\000"
 1444      69636173 
 1444      5C426C69 
 1444      6E6B5F4C 
 1444      45442E63 
 1445              		.ident	"GCC: (GNU Tools for ARM Embedded Processors) 5.4.1 20160609 (release) [ARM/embedded-5-bran
