===========Generating Bitstream===========
# UDB_PA_0 (count=15)
00000000: 00 00 99 00 00 00 00 00 00 00 15 00 00 00 00
# IOPINS0_0 (count=28)
0000000f: 08 00 00 00 00 00 00 00 00 0c 00 00 00 00 00 00
0000001f: 00 00 00 00 00 00 00 00 00 00 00 00
# IOPINS0_1 (count=28)
0000002b: 00 00 00 00 00 00 00 00 00 00 00 00 00 00 00 00
0000003b: 00 00 00 00 00 00 00 00 00 00 00 00
# UDB_PA_1 (count=15)
00000047: 00 00 00 00 00 00 00 00 00 00 00 00 00 00 00
# IOPINS0_2 (count=28)
00000056: 00 00 00 00 00 00 00 00 00 00 00 00 00 00 00 00
00000066: 00 00 00 00 00 00 00 00 00 00 00 00
# UDB_PA_2 (count=15)
00000072: 00 00 00 00 00 00 00 00 00 00 00 00 00 00 00
# UDB_PA_3 (count=15)
00000081: 00 00 99 00 00 00 00 00 00 00 00 00 00 00 00
# IOPINS0_3 (count=28)
00000090: 00 00 00 00 00 00 00 00 80 0d 00 00 00 00 00 00
000000a0: 00 00 00 00 00 00 00 00 00 00 00 00
# IOPINS0_4 (count=28)
000000ac: 00 00 00 00 00 00 00 00 00 00 00 00 00 00 00 00
000000bc: 00 00 00 00 00 00 00 00 00 00 00 00
# INT_SELECT (count=4)
000000c8: 00 00 00 00
# INT_CONFIG (count=4)
000000cc: 00 00 00 00
# CYDEV_CLK_SELECT00 (count=64)
000000d0: 00 00 00 00 00 00 00 00 00 00 00 00 00 00 00 00
000000e0: 00 00 00 00 00 00 00 00 00 00 00 00 00 00 00 00
000000f0: 10 00 00 00 00 00 00 00 00 00 00 00 00 00 00 00
00000100: 00 00 00 00 00 00 00 00 00 00 00 00 00 00 00 00

# CYDEV_CLK_IMO_CONFIG (count=4)
00000110: 00 00 00 80
# CYDEV_CLK_ILO_CONFIG (count=4)
00000114: 06 00 00 80
# CYDEV_CLK_SELECT (count=4)
00000118: 00 00 00 00
# CYDEV_WDT_CONFIG (count=4)
0000011c: 00 00 00 00
# CYDEV_CLK_DIVIDER_A00 (count=4)
00000120: 5f 09 00 00
# CYDEV_CLK_DIVIDER_B00 (count=4)
00000124: 00 00 00 00
# CYDEV_CLK_DIVIDER_C00 (count=4)
00000128: 00 00 00 00
# CYDEV_CLK_DIVIDER_A01 (count=4)
0000012c: 00 00 00 00
# CYDEV_CLK_DIVIDER_B01 (count=4)
00000130: 00 00 00 00
# CYDEV_CLK_DIVIDER_C01 (count=4)
00000134: 00 00 00 00
# CYDEV_CLK_DIVIDER_A02 (count=4)
00000138: 00 00 00 00
# CYDEV_CLK_DIVIDER_B02 (count=4)
0000013c: 00 00 00 00
# CYDEV_CLK_DIVIDER_C02 (count=4)
00000140: 00 00 00 00
# CYDEV_CLK_DIVIDER_FRAC_A00 (count=4)
00000144: 00 00 00 00
# CYDEV_CLK_DIVIDER_FRAC_B00 (count=4)
00000148: 00 00 00 00
# CYDEV_CLK_DIVIDER_FRAC_C00 (count=4)
0000014c: 00 00 00 00
# TCPWM_CNT0 (count=4)
00000150: 10 00 01 00
# UDB_0_1_0_CONFIG (count=128)
00000154: 00 00 00 00 00 00 00 00 00 00 00 00 00 00 00 00
00000164: 00 00 00 00 00 00 00 00 00 00 00 00 00 00 00 00
00000174: 00 00 00 00 00 00 00 00 00 00 00 00 00 00 00 00
00000184: 00 00 00 00 00 00 00 00 00 00 00 00 00 00 00 00
00000194: 00 00 00 00 00 00 00 00 00 00 00 00 00 00 00 00
000001a4: 00 00 00 00 00 00 00 00 00 00 00 00 00 00 00 00
000001b4: 00 00 00 00 00 00 00 00 00 00 00 00 00 00 00 00
000001c4: 00 00 00 00 00 00 00 00 00 00 00 00 00 00 00 00

# UDB_0_1_1_CONFIG (count=128)
000001d4: 00 00 00 00 00 00 00 00 00 00 00 00 00 00 00 00
000001e4: 00 00 00 00 00 00 00 00 00 00 00 00 00 00 00 00
000001f4: 00 00 00 00 00 00 00 00 00 00 00 00 00 00 00 00
00000204: 00 00 00 00 00 00 00 00 00 00 00 00 00 00 00 00
00000214: 00 00 00 00 00 00 00 00 00 00 00 00 00 00 00 00
00000224: 00 00 00 00 00 00 00 00 00 00 00 00 00 00 00 00
00000234: 00 00 00 00 00 00 00 00 00 00 00 00 00 00 00 00
00000244: 00 00 00 00 00 00 00 00 00 00 00 00 00 00 00 00

# UDB_0_0_1_CONFIG (count=128)
00000254: 00 00 00 00 00 00 00 00 00 00 00 00 00 00 00 00
00000264: 00 00 00 00 00 00 00 00 00 00 00 00 00 00 00 00
00000274: 00 00 00 00 00 00 00 00 00 00 00 00 00 00 00 00
00000284: 00 00 00 00 00 00 00 00 00 00 00 00 00 00 00 00
00000294: 00 00 00 00 00 00 00 00 00 00 00 00 00 00 00 00
000002a4: 00 00 00 00 00 00 00 00 00 00 00 00 00 00 00 00
000002b4: 00 00 00 00 00 00 00 00 00 00 00 00 00 00 00 00
000002c4: 00 00 00 00 00 00 00 00 00 00 00 00 00 00 00 00

# UDB_0_0_0_CONFIG (count=128)
000002d4: 00 00 00 00 00 00 00 00 00 00 00 00 00 00 00 00
000002e4: 00 00 00 00 00 00 00 00 00 00 00 00 00 00 00 00
000002f4: 00 00 00 00 00 00 00 00 00 00 00 00 00 00 00 00
00000304: 00 00 00 00 00 00 00 00 00 00 00 00 00 00 00 00
00000314: 00 00 00 00 00 00 00 00 00 00 00 00 00 00 00 00
00000324: 00 00 00 00 00 00 00 00 00 00 00 00 00 00 00 00
00000334: 00 00 00 00 00 00 00 00 00 00 00 00 00 00 00 00
00000344: 00 00 00 00 00 00 00 00 00 00 00 00 00 00 00 00

# UWRK_B0_WRK_DP_BITS (count=64)
00000354: 00 00 00 00 00 00 00 00 00 00 00 00 00 00 00 00
00000364: 00 00 00 00 00 00 00 00 00 00 00 00 00 00 00 00
00000374: 00 00 00 00 00 00 00 00 00 00 00 00 00 00 00 00
00000384: 00 00 00 00 00 00 00 00 00 00 00 00 00 00 00 00

# UWRK_B0_WRK_STATCTL_BITS + 0x00000070 (count=32)
00000394: 00 00 00 00 00 00 00 00 00 00 00 00 00 00 00 00
000003a4: 00 00 00 00 00 00 00 00 00 00 00 00 00 00 00 00

# UDB_BCTL0_DRV (count=3)
000003b4: 00 00 00
# UDB_BCTL0_BOTSEL_L (count=12)
000003b7: 00 00 00 00 00 00 00 00 00 00 00 00
# DSISWITCH_0_0 (count=128)
000003c3: 00 00 00 00 00 00 00 00 00 00 00 00 00 00 00 00
000003d3: 00 00 00 00 00 00 00 00 00 08 00 00 00 00 00 00
000003e3: 00 00 00 00 00 00 00 00 00 00 00 00 00 00 00 00
000003f3: 00 00 00 00 00 00 00 00 00 00 00 00 00 00 00 00
00000403: 00 00 00 00 00 00 00 00 00 00 00 00 00 00 00 00
00000413: 00 00 00 00 00 00 00 00 00 00 00 00 00 00 00 00
00000423: 00 00 00 00 00 00 00 00 00 00 00 00 00 00 00 00
00000433: 00 00 00 00 00 00 00 00 00 00 00 00 00 00 00 00

# DSI0_0_HV_ROUTING + 0x00000080 (count=128)
00000443: 00 00 00 00 00 00 00 00 00 08 00 00 00 00 00 00
00000453: 00 00 00 00 00 00 00 00 00 00 00 00 00 00 00 00
00000463: 00 00 00 00 00 00 00 00 00 00 00 00 00 00 00 00
00000473: 00 00 00 00 00 00 00 00 00 00 00 00 00 00 00 00
00000483: 00 00 00 00 00 00 08 00 00 00 00 00 00 00 00 00
00000493: 00 00 00 00 00 00 00 00 00 00 00 00 00 00 00 00
000004a3: 00 00 01 00 00 00 00 00 00 00 00 00 00 00 00 00
000004b3: 00 00 00 00 00 00 00 00 00 00 00 00 00 00 00 00

# DSISWITCH_0_1 (count=128)
000004c3: 00 00 00 00 00 00 00 00 00 00 00 00 00 00 00 00
000004d3: 00 00 00 00 00 00 00 00 00 00 00 00 00 00 00 00
000004e3: 00 00 00 00 00 00 00 00 00 00 00 00 00 00 00 00
000004f3: 00 00 00 00 00 00 00 00 00 00 00 00 00 00 00 00
00000503: 00 00 00 00 00 00 00 00 00 00 00 00 00 00 00 00
00000513: 00 00 00 00 00 00 00 00 00 00 00 00 00 00 00 00
00000523: 00 00 00 00 00 00 00 00 00 00 00 00 00 00 00 00
00000533: 00 00 00 00 00 00 00 00 00 00 00 00 00 00 00 00

# DSI0_1_HV_ROUTING + 0x00000080 (count=128)
00000543: 00 00 00 00 00 00 00 00 00 00 00 00 00 00 00 00
00000553: 00 00 00 00 00 00 00 00 00 00 00 00 00 00 00 00
00000563: 00 00 00 00 00 00 00 00 00 00 00 00 00 00 00 00
00000573: 00 00 00 00 00 00 00 00 00 00 00 00 00 00 00 00
00000583: 00 00 00 00 00 00 00 00 00 00 00 00 00 00 00 00
00000593: 00 00 00 00 00 00 00 00 00 00 00 00 00 00 00 00
000005a3: 00 00 00 00 00 00 00 00 00 00 00 00 00 00 00 00
000005b3: 00 00 00 00 00 00 00 00 00 00 00 00 00 00 00 00

# UDBSWITCH_0_0 (count=128)
000005c3: 00 00 00 00 00 00 00 00 00 00 00 00 00 00 00 00
000005d3: 00 00 00 00 00 00 00 00 00 00 00 00 00 00 00 00
000005e3: 00 00 00 00 00 00 00 00 00 00 00 00 00 00 00 00
000005f3: 00 00 00 00 00 00 00 00 00 00 00 00 00 00 00 00
00000603: 00 00 00 00 00 00 00 00 00 00 00 00 00 00 00 00
00000613: 00 00 00 00 00 00 00 00 00 00 00 00 00 00 00 00
00000623: 00 00 00 00 00 00 00 00 00 00 00 00 00 00 00 00
00000633: 00 00 00 00 00 00 00 00 00 00 00 00 00 00 00 00

# UDB_1_0_HV_ROUTING + 0x00000080 (count=128)
00000643: 00 00 00 00 00 00 00 00 00 00 00 00 00 00 00 00
00000653: 00 00 00 00 00 00 00 00 00 00 00 00 00 00 00 00
00000663: 00 00 00 00 00 00 00 00 00 00 00 00 00 00 00 00
00000673: 00 00 00 00 00 00 00 00 00 00 00 00 00 00 00 00
00000683: 00 00 00 00 00 00 00 00 00 00 00 00 00 00 00 00
00000693: 00 00 00 00 00 00 00 00 00 00 00 00 00 00 00 00
000006a3: 00 00 80 00 00 00 00 00 00 00 00 00 00 00 00 00
000006b3: 00 00 00 00 00 00 00 00 00 00 00 00 00 00 00 00

# UDBSWITCH_0_1 (count=128)
000006c3: 00 00 00 00 00 00 00 00 00 00 00 00 00 00 00 00
000006d3: 00 00 00 00 00 00 00 00 00 00 00 00 00 00 00 00
000006e3: 00 00 00 00 00 00 00 00 00 00 00 00 00 00 00 00
000006f3: 00 00 00 00 00 00 00 00 00 00 00 00 00 00 00 00
00000703: 00 00 00 00 00 00 00 00 00 00 00 00 00 00 00 00
00000713: 00 00 00 00 00 00 00 00 00 00 00 00 00 00 00 00
00000723: 00 00 00 00 00 00 00 00 00 00 00 00 00 00 00 00
00000733: 00 00 00 00 00 00 00 00 00 00 00 00 00 00 00 00

# UDB_1_1_HV_ROUTING + 0x00000080 (count=128)
00000743: 00 00 00 00 00 00 00 00 00 00 00 00 00 00 00 00
00000753: 00 00 00 00 00 00 00 00 00 00 00 00 00 00 00 00
00000763: 00 00 00 00 00 00 00 00 00 00 00 00 00 00 00 00
00000773: 00 00 00 00 00 00 00 00 00 00 00 00 00 00 00 00
00000783: 00 00 00 00 00 00 00 00 00 00 00 00 00 00 00 00
00000793: 00 00 00 00 00 00 00 00 00 00 00 00 00 00 00 00
000007a3: 00 00 00 00 00 00 00 00 00 00 00 00 00 00 00 00
000007b3: 00 00 00 00 00 00 00 00 00 00 00 00 00 00 00 00

# DSISWITCH_1_0 (count=128)
000007c3: 00 00 00 00 00 00 00 00 00 00 00 00 00 00 00 00
000007d3: 00 00 00 00 00 00 00 00 00 00 00 00 00 00 00 00
000007e3: 00 00 00 00 00 00 00 00 00 00 00 00 00 00 00 00
000007f3: 00 00 00 00 00 00 00 00 00 00 00 00 00 00 00 00
00000803: 00 00 00 00 00 00 00 00 00 00 00 00 00 00 00 00
00000813: 00 00 00 00 00 00 00 00 00 00 00 00 00 00 00 00
00000823: 00 00 00 00 00 00 00 00 00 00 00 00 00 00 00 00
00000833: 00 00 00 00 00 00 00 00 00 00 00 00 00 00 00 00

# DSI2_0_HV_ROUTING + 0x00000080 (count=128)
00000843: 00 00 00 00 00 00 00 00 00 00 00 04 00 00 00 00
00000853: 00 00 00 00 00 00 00 08 00 00 00 00 00 00 00 00
00000863: 00 00 00 00 00 00 00 00 00 00 00 00 00 00 00 00
00000873: 00 00 00 00 00 00 00 00 00 00 00 00 00 00 00 00
00000883: 00 00 00 00 00 00 00 00 00 00 00 00 00 00 00 00
00000893: 00 00 00 00 00 00 00 00 00 00 00 00 00 00 00 00
000008a3: 00 00 00 00 00 00 00 00 00 00 00 00 00 00 00 00
000008b3: 00 00 00 00 00 00 00 00 00 00 00 00 00 00 00 00

# DSISWITCH_1_1 (count=128)
000008c3: 00 00 00 00 00 00 00 00 00 00 00 00 00 00 00 00
000008d3: 00 00 00 00 00 00 00 00 00 00 00 00 00 00 00 00
000008e3: 00 00 00 00 00 00 00 00 00 00 00 00 00 00 00 00
000008f3: 00 00 00 00 00 00 00 00 00 00 00 00 00 00 00 00
00000903: 00 00 00 00 00 00 00 00 00 00 00 00 00 00 00 00
00000913: 00 00 00 04 00 00 00 00 00 00 00 00 00 00 00 00
00000923: 00 00 00 00 00 00 00 00 00 00 00 00 00 00 00 00
00000933: 00 00 00 00 00 00 00 00 00 00 00 00 00 00 00 00

# DSI2_1_HV_ROUTING + 0x00000080 (count=128)
00000943: 00 00 00 00 00 00 00 00 00 00 00 00 00 00 00 00
00000953: 00 00 00 00 00 00 00 00 00 00 00 00 00 00 00 00
00000963: 00 00 00 00 00 00 00 00 00 00 00 00 00 00 00 00
00000973: 00 00 00 00 00 00 00 00 00 00 00 00 00 00 00 00
00000983: 00 00 00 00 00 00 00 00 00 00 00 00 00 00 00 00
00000993: 00 00 00 00 20 00 00 00 00 00 00 00 00 00 00 00
000009a3: 00 00 00 00 00 00 00 00 00 00 00 00 00 00 00 00
000009b3: 00 00 00 00 00 00 00 00 00 00 00 00 00 00 00 00

# HSIOM (count=4096)
000009c3: 00 30 00 00 00 00 00 00 00 00 00 00 00 ee 00 00
000009d3: 00 00 00 00 00 00 00 00 00 00 00 00 00 00 00 00
000009e3: 00 00 00 00 00 00 00 00 00 00 00 00 00 00 00 00
000009f3: 00 00 00 00 00 00 00 00 00 00 00 00 00 00 00 00
00000a03: 00 00 00 00 00 00 00 00 00 00 00 00 00 00 00 00
00000a13: 00 00 00 00 00 00 00 00 00 00 00 00 00 00 00 00
00000a23: 00 00 00 00 00 00 00 00 00 00 00 00 00 00 00 00
00000a33: 00 00 00 00 00 00 00 00 00 00 00 00 00 00 00 00
00000a43: 00 00 00 00 00 00 00 00 00 00 00 00 00 00 00 00
00000a53: 00 00 00 00 00 00 00 00 00 00 00 00 00 00 00 00
00000a63: 00 00 00 00 00 00 00 00 00 00 00 00 00 00 00 00
00000a73: 00 00 00 00 00 00 00 00 00 00 00 00 00 00 00 00
00000a83: 00 00 00 00 00 00 00 00 00 00 00 00 00 00 00 00
00000a93: 00 00 00 00 00 00 00 00 00 00 00 00 00 00 00 00
00000aa3: 00 00 00 00 00 00 00 00 00 00 00 00 00 00 00 00
00000ab3: 00 00 00 00 00 00 00 00 00 00 00 00 00 00 00 00
00000ac3: 00 00 00 00 00 00 00 00 00 00 00 00 00 00 00 00
00000ad3: 00 00 00 00 00 00 00 00 00 00 00 00 00 00 00 00
00000ae3: 00 00 00 00 00 00 00 00 00 00 00 00 00 00 00 00
00000af3: 00 00 00 00 00 00 00 00 00 00 00 00 00 00 00 00
00000b03: 00 00 00 00 00 00 00 00 00 00 00 00 00 00 00 00
00000b13: 00 00 00 00 00 00 00 00 00 00 00 00 00 00 00 00
00000b23: 00 00 00 00 00 00 00 00 00 00 00 00 00 00 00 00
00000b33: 00 00 00 00 00 00 00 00 00 00 00 00 00 00 00 00
00000b43: 00 00 00 00 00 00 00 00 00 00 00 00 00 00 00 00
00000b53: 00 00 00 00 00 00 00 00 00 00 00 00 00 00 00 00
00000b63: 00 00 00 00 00 00 00 00 00 00 00 00 00 00 00 00
00000b73: 00 00 00 00 00 00 00 00 00 00 00 00 00 00 00 00
00000b83: 00 00 00 00 00 00 00 00 00 00 00 00 00 00 00 00
00000b93: 00 00 00 00 00 00 00 00 00 00 00 00 00 00 00 00
00000ba3: 00 00 00 00 00 00 00 00 00 00 00 00 00 00 00 00
00000bb3: 00 00 00 00 00 00 00 00 00 00 00 00 00 00 00 00
00000bc3: 00 00 00 00 00 00 00 00 00 00 00 00 00 00 00 00
00000bd3: 00 00 00 00 00 00 00 00 00 00 00 00 00 00 00 00
00000be3: 00 00 00 00 00 00 00 00 00 00 00 00 00 00 00 00
00000bf3: 00 00 00 00 00 00 00 00 00 00 00 00 00 00 00 00
00000c03: 00 00 00 00 00 00 00 00 00 00 00 00 00 00 00 00
00000c13: 00 00 00 00 00 00 00 00 00 00 00 00 00 00 00 00
00000c23: 00 00 00 00 00 00 00 00 00 00 00 00 00 00 00 00
00000c33: 00 00 00 00 00 00 00 00 00 00 00 00 00 00 00 00
00000c43: 00 00 00 00 00 00 00 00 00 00 00 00 00 00 00 00
00000c53: 00 00 00 00 00 00 00 00 00 00 00 00 00 00 00 00
00000c63: 00 00 00 00 00 00 00 00 00 00 00 00 00 00 00 00
00000c73: 00 00 00 00 00 00 00 00 00 00 00 00 00 00 00 00
00000c83: 00 00 00 00 00 00 00 00 00 00 00 00 00 00 00 00
00000c93: 00 00 00 00 00 00 00 00 00 00 00 00 00 00 00 00
00000ca3: 00 00 00 00 00 00 00 00 00 00 00 00 00 00 00 00
00000cb3: 00 00 00 00 00 00 00 00 00 00 00 00 00 00 00 00
00000cc3: 00 00 00 00 00 00 00 00 00 00 00 00 00 00 00 00
00000cd3: 00 00 00 00 00 00 00 00 00 00 00 00 00 00 00 00
00000ce3: 00 00 00 00 00 00 00 00 00 00 00 00 00 00 00 00
00000cf3: 00 00 00 00 00 00 00 00 00 00 00 00 00 00 00 00
00000d03: 00 00 00 00 00 00 00 00 00 00 00 00 00 00 00 00
00000d13: 00 00 00 00 00 00 00 00 00 00 00 00 00 00 00 00
00000d23: 00 00 00 00 00 00 00 00 00 00 00 00 00 00 00 00
00000d33: 00 00 00 00 00 00 00 00 00 00 00 00 00 00 00 00
00000d43: 00 00 00 00 00 00 00 00 00 00 00 00 00 00 00 00
00000d53: 00 00 00 00 00 00 00 00 00 00 00 00 00 00 00 00
00000d63: 00 00 00 00 00 00 00 00 00 00 00 00 00 00 00 00
00000d73: 00 00 00 00 00 00 00 00 00 00 00 00 00 00 00 00
00000d83: 00 00 00 00 00 00 00 00 00 00 00 00 00 00 00 00
00000d93: 00 00 00 00 00 00 00 00 00 00 00 00 00 00 00 00
00000da3: 00 00 00 00 00 00 00 00 00 00 00 00 00 00 00 00
00000db3: 00 00 00 00 00 00 00 00 00 00 00 00 00 00 00 00
00000dc3: 00 00 00 00 00 00 00 00 00 00 00 00 00 00 00 00
00000dd3: 00 00 00 00 00 00 00 00 00 00 00 00 00 00 00 00
00000de3: 00 00 00 00 00 00 00 00 00 00 00 00 00 00 00 00
00000df3: 00 00 00 00 00 00 00 00 00 00 00 00 00 00 00 00
00000e03: 00 00 00 00 00 00 00 00 00 00 00 00 00 00 00 00
00000e13: 00 00 00 00 00 00 00 00 00 00 00 00 00 00 00 00
00000e23: 00 00 00 00 00 00 00 00 00 00 00 00 00 00 00 00
00000e33: 00 00 00 00 00 00 00 00 00 00 00 00 00 00 00 00
00000e43: 00 00 00 00 00 00 00 00 00 00 00 00 00 00 00 00
00000e53: 00 00 00 00 00 00 00 00 00 00 00 00 00 00 00 00
00000e63: 00 00 00 00 00 00 00 00 00 00 00 00 00 00 00 00
00000e73: 00 00 00 00 00 00 00 00 00 00 00 00 00 00 00 00
00000e83: 00 00 00 00 00 00 00 00 00 00 00 00 00 00 00 00
00000e93: 00 00 00 00 00 00 00 00 00 00 00 00 00 00 00 00
00000ea3: 00 00 00 00 00 00 00 00 00 00 00 00 00 00 00 00
00000eb3: 00 00 00 00 00 00 00 00 00 00 00 00 00 00 00 00
00000ec3: 00 00 00 00 00 00 00 00 00 00 00 00 00 00 00 00
00000ed3: 00 00 00 00 00 00 00 00 00 00 00 00 00 00 00 00
00000ee3: 00 00 00 00 00 00 00 00 00 00 00 00 00 00 00 00
00000ef3: 00 00 00 00 00 00 00 00 00 00 00 00 00 00 00 00
00000f03: 00 00 00 00 00 00 00 00 00 00 00 00 00 00 00 00
00000f13: 00 00 00 00 00 00 00 00 00 00 00 00 00 00 00 00
00000f23: 00 00 00 00 00 00 00 00 00 00 00 00 00 00 00 00
00000f33: 00 00 00 00 00 00 00 00 00 00 00 00 00 00 00 00
00000f43: 00 00 00 00 00 00 00 00 00 00 00 00 00 00 00 00
00000f53: 00 00 00 00 00 00 00 00 00 00 00 00 00 00 00 00
00000f63: 00 00 00 00 00 00 00 00 00 00 00 00 00 00 00 00
00000f73: 00 00 00 00 00 00 00 00 00 00 00 00 00 00 00 00
00000f83: 00 00 00 00 00 00 00 00 00 00 00 00 00 00 00 00
00000f93: 00 00 00 00 00 00 00 00 00 00 00 00 00 00 00 00
00000fa3: 00 00 00 00 00 00 00 00 00 00 00 00 00 00 00 00
00000fb3: 00 00 00 00 00 00 00 00 00 00 00 00 00 00 00 00
00000fc3: 00 00 00 00 00 00 00 00 00 00 00 00 00 00 00 00
00000fd3: 00 00 00 00 00 00 00 00 00 00 00 00 00 00 00 00
00000fe3: 00 00 00 00 00 00 00 00 00 00 00 00 00 00 00 00
00000ff3: 00 00 00 00 00 00 00 00 00 00 00 00 00 00 00 00
00001003: 00 00 00 00 00 00 00 00 00 00 00 00 00 00 00 00
00001013: 00 00 00 00 00 00 00 00 00 00 00 00 00 00 00 00
00001023: 00 00 00 00 00 00 00 00 00 00 00 00 00 00 00 00
00001033: 00 00 00 00 00 00 00 00 00 00 00 00 00 00 00 00
00001043: 00 00 00 00 00 00 00 00 00 00 00 00 00 00 00 00
00001053: 00 00 00 00 00 00 00 00 00 00 00 00 00 00 00 00
00001063: 00 00 00 00 00 00 00 00 00 00 00 00 00 00 00 00
00001073: 00 00 00 00 00 00 00 00 00 00 00 00 00 00 00 00
00001083: 00 00 00 00 00 00 00 00 00 00 00 00 00 00 00 00
00001093: 00 00 00 00 00 00 00 00 00 00 00 00 00 00 00 00
000010a3: 00 00 00 00 00 00 00 00 00 00 00 00 00 00 00 00
000010b3: 00 00 00 00 00 00 00 00 00 00 00 00 00 00 00 00
000010c3: 00 00 00 00 00 00 00 00 00 00 00 00 00 00 00 00
000010d3: 00 00 00 00 00 00 00 00 00 00 00 00 00 00 00 00
000010e3: 00 00 00 00 00 00 00 00 00 00 00 00 00 00 00 00
000010f3: 00 00 00 00 00 00 00 00 00 00 00 00 00 00 00 00
00001103: 00 00 00 00 00 00 00 00 00 00 00 00 00 00 00 00
00001113: 00 00 00 00 00 00 00 00 00 00 00 00 00 00 00 00
00001123: 00 00 00 00 00 00 00 00 00 00 00 00 00 00 00 00
00001133: 00 00 00 00 00 00 00 00 00 00 00 00 00 00 00 00
00001143: 00 00 00 00 00 00 00 00 00 00 00 00 00 00 00 00
00001153: 00 00 00 00 00 00 00 00 00 00 00 00 00 00 00 00
00001163: 00 00 00 00 00 00 00 00 00 00 00 00 00 00 00 00
00001173: 00 00 00 00 00 00 00 00 00 00 00 00 00 00 00 00
00001183: 00 00 00 00 00 00 00 00 00 00 00 00 00 00 00 00
00001193: 00 00 00 00 00 00 00 00 00 00 00 00 00 00 00 00
000011a3: 00 00 00 00 00 00 00 00 00 00 00 00 00 00 00 00
000011b3: 00 00 00 00 00 00 00 00 00 00 00 00 00 00 00 00
000011c3: 00 00 00 00 00 00 00 00 00 00 00 00 00 00 00 00
000011d3: 00 00 00 00 00 00 00 00 00 00 00 00 00 00 00 00
000011e3: 00 00 00 00 00 00 00 00 00 00 00 00 00 00 00 00
000011f3: 00 00 00 00 00 00 00 00 00 00 00 00 00 00 00 00
00001203: 00 00 00 00 00 00 00 00 00 00 00 00 00 00 00 00
00001213: 00 00 00 00 00 00 00 00 00 00 00 00 00 00 00 00
00001223: 00 00 00 00 00 00 00 00 00 00 00 00 00 00 00 00
00001233: 00 00 00 00 00 00 00 00 00 00 00 00 00 00 00 00
00001243: 00 00 00 00 00 00 00 00 00 00 00 00 00 00 00 00
00001253: 00 00 00 00 00 00 00 00 00 00 00 00 00 00 00 00
00001263: 00 00 00 00 00 00 00 00 00 00 00 00 00 00 00 00
00001273: 00 00 00 00 00 00 00 00 00 00 00 00 00 00 00 00
00001283: 00 00 00 00 00 00 00 00 00 00 00 00 00 00 00 00
00001293: 00 00 00 00 00 00 00 00 00 00 00 00 00 00 00 00
000012a3: 00 00 00 00 00 00 00 00 00 00 00 00 00 00 00 00
000012b3: 00 00 00 00 00 00 00 00 00 00 00 00 00 00 00 00
000012c3: 00 00 00 00 00 00 00 00 00 00 00 00 00 00 00 00
000012d3: 00 00 00 00 00 00 00 00 00 00 00 00 00 00 00 00
000012e3: 00 00 00 00 00 00 00 00 00 00 00 00 00 00 00 00
000012f3: 00 00 00 00 00 00 00 00 00 00 00 00 00 00 00 00
00001303: 00 00 00 00 00 00 00 00 00 00 00 00 00 00 00 00
00001313: 00 00 00 00 00 00 00 00 00 00 00 00 00 00 00 00
00001323: 00 00 00 00 00 00 00 00 00 00 00 00 00 00 00 00
00001333: 00 00 00 00 00 00 00 00 00 00 00 00 00 00 00 00
00001343: 00 00 00 00 00 00 00 00 00 00 00 00 00 00 00 00
00001353: 00 00 00 00 00 00 00 00 00 00 00 00 00 00 00 00
00001363: 00 00 00 00 00 00 00 00 00 00 00 00 00 00 00 00
00001373: 00 00 00 00 00 00 00 00 00 00 00 00 00 00 00 00
00001383: 00 00 00 00 00 00 00 00 00 00 00 00 00 00 00 00
00001393: 00 00 00 00 00 00 00 00 00 00 00 00 00 00 00 00
000013a3: 00 00 00 00 00 00 00 00 00 00 00 00 00 00 00 00
000013b3: 00 00 00 00 00 00 00 00 00 00 00 00 00 00 00 00
000013c3: 00 00 00 00 00 00 00 00 00 00 00 00 00 00 00 00
000013d3: 00 00 00 00 00 00 00 00 00 00 00 00 00 00 00 00
000013e3: 00 00 00 00 00 00 00 00 00 00 00 00 00 00 00 00
000013f3: 00 00 00 00 00 00 00 00 00 00 00 00 00 00 00 00
00001403: 00 00 00 00 00 00 00 00 00 00 00 00 00 00 00 00
00001413: 00 00 00 00 00 00 00 00 00 00 00 00 00 00 00 00
00001423: 00 00 00 00 00 00 00 00 00 00 00 00 00 00 00 00
00001433: 00 00 00 00 00 00 00 00 00 00 00 00 00 00 00 00
00001443: 00 00 00 00 00 00 00 00 00 00 00 00 00 00 00 00
00001453: 00 00 00 00 00 00 00 00 00 00 00 00 00 00 00 00
00001463: 00 00 00 00 00 00 00 00 00 00 00 00 00 00 00 00
00001473: 00 00 00 00 00 00 00 00 00 00 00 00 00 00 00 00
00001483: 00 00 00 00 00 00 00 00 00 00 00 00 00 00 00 00
00001493: 00 00 00 00 00 00 00 00 00 00 00 00 00 00 00 00
000014a3: 00 00 00 00 00 00 00 00 00 00 00 00 00 00 00 00
000014b3: 00 00 00 00 00 00 00 00 00 00 00 00 00 00 00 00
000014c3: 00 00 00 00 00 00 00 00 00 00 00 00 00 00 00 00
000014d3: 00 00 00 00 00 00 00 00 00 00 00 00 00 00 00 00
000014e3: 00 00 00 00 00 00 00 00 00 00 00 00 00 00 00 00
000014f3: 00 00 00 00 00 00 00 00 00 00 00 00 00 00 00 00
00001503: 00 00 00 00 00 00 00 00 00 00 00 00 00 00 00 00
00001513: 00 00 00 00 00 00 00 00 00 00 00 00 00 00 00 00
00001523: 00 00 00 00 00 00 00 00 00 00 00 00 00 00 00 00
00001533: 00 00 00 00 00 00 00 00 00 00 00 00 00 00 00 00
00001543: 00 00 00 00 00 00 00 00 00 00 00 00 00 00 00 00
00001553: 00 00 00 00 00 00 00 00 00 00 00 00 00 00 00 00
00001563: 00 00 00 00 00 00 00 00 00 00 00 00 00 00 00 00
00001573: 00 00 00 00 00 00 00 00 00 00 00 00 00 00 00 00
00001583: 00 00 00 00 00 00 00 00 00 00 00 00 00 00 00 00
00001593: 00 00 00 00 00 00 00 00 00 00 00 00 00 00 00 00
000015a3: 00 00 00 00 00 00 00 00 00 00 00 00 00 00 00 00
000015b3: 00 00 00 00 00 00 00 00 00 00 00 00 00 00 00 00
000015c3: 00 00 00 00 00 00 00 00 00 00 00 00 00 00 00 00
000015d3: 00 00 00 00 00 00 00 00 00 00 00 00 00 00 00 00
000015e3: 00 00 00 00 00 00 00 00 00 00 00 00 00 00 00 00
000015f3: 00 00 00 00 00 00 00 00 00 00 00 00 00 00 00 00
00001603: 00 00 00 00 00 00 00 00 00 00 00 00 00 00 00 00
00001613: 00 00 00 00 00 00 00 00 00 00 00 00 00 00 00 00
00001623: 00 00 00 00 00 00 00 00 00 00 00 00 00 00 00 00
00001633: 00 00 00 00 00 00 00 00 00 00 00 00 00 00 00 00
00001643: 00 00 00 00 00 00 00 00 00 00 00 00 00 00 00 00
00001653: 00 00 00 00 00 00 00 00 00 00 00 00 00 00 00 00
00001663: 00 00 00 00 00 00 00 00 00 00 00 00 00 00 00 00
00001673: 00 00 00 00 00 00 00 00 00 00 00 00 00 00 00 00
00001683: 00 00 00 00 00 00 00 00 00 00 00 00 00 00 00 00
00001693: 00 00 00 00 00 00 00 00 00 00 00 00 00 00 00 00
000016a3: 00 00 00 00 00 00 00 00 00 00 00 00 00 00 00 00
000016b3: 00 00 00 00 00 00 00 00 00 00 00 00 00 00 00 00
000016c3: 00 00 00 00 00 00 00 00 00 00 00 00 00 00 00 00
000016d3: 00 00 00 00 00 00 00 00 00 00 00 00 00 00 00 00
000016e3: 00 00 00 00 00 00 00 00 00 00 00 00 00 00 00 00
000016f3: 00 00 00 00 00 00 00 00 00 00 00 00 00 00 00 00
00001703: 00 00 00 00 00 00 00 00 00 00 00 00 00 00 00 00
00001713: 00 00 00 00 00 00 00 00 00 00 00 00 00 00 00 00
00001723: 00 00 00 00 00 00 00 00 00 00 00 00 00 00 00 00
00001733: 00 00 00 00 00 00 00 00 00 00 00 00 00 00 00 00
00001743: 00 00 00 00 00 00 00 00 00 00 00 00 00 00 00 00
00001753: 00 00 00 00 00 00 00 00 00 00 00 00 00 00 00 00
00001763: 00 00 00 00 00 00 00 00 00 00 00 00 00 00 00 00
00001773: 00 00 00 00 00 00 00 00 00 00 00 00 00 00 00 00
00001783: 00 00 00 00 00 00 00 00 00 00 00 00 00 00 00 00
00001793: 00 00 00 00 00 00 00 00 00 00 00 00 00 00 00 00
000017a3: 00 00 00 00 00 00 00 00 00 00 00 00 00 00 00 00
000017b3: 00 00 00 00 00 00 00 00 00 00 00 00 00 00 00 00
000017c3: 00 00 00 00 00 00 00 00 00 00 00 00 00 00 00 00
000017d3: 00 00 00 00 00 00 00 00 00 00 00 00 00 00 00 00
000017e3: 00 00 00 00 00 00 00 00 00 00 00 00 00 00 00 00
000017f3: 00 00 00 00 00 00 00 00 00 00 00 00 00 00 00 00
00001803: 00 00 00 00 00 00 00 00 00 00 00 00 00 00 00 00
00001813: 00 00 00 00 00 00 00 00 00 00 00 00 00 00 00 00
00001823: 00 00 00 00 00 00 00 00 00 00 00 00 00 00 00 00
00001833: 00 00 00 00 00 00 00 00 00 00 00 00 00 00 00 00
00001843: 00 00 00 00 00 00 00 00 00 00 00 00 00 00 00 00
00001853: 00 00 00 00 00 00 00 00 00 00 00 00 00 00 00 00
00001863: 00 00 00 00 00 00 00 00 00 00 00 00 00 00 00 00
00001873: 00 00 00 00 00 00 00 00 00 00 00 00 00 00 00 00
00001883: 00 00 00 00 00 00 00 00 00 00 00 00 00 00 00 00
00001893: 00 00 00 00 00 00 00 00 00 00 00 00 00 00 00 00
000018a3: 00 00 00 00 00 00 00 00 00 00 00 00 00 00 00 00
000018b3: 00 00 00 00 00 00 00 00 00 00 00 00 00 00 00 00
000018c3: 00 00 00 00 00 00 00 00 00 00 00 00 00 00 00 00
000018d3: 00 00 00 00 00 00 00 00 00 00 00 00 00 00 00 00
000018e3: 00 00 00 00 00 00 00 00 00 00 00 00 00 00 00 00
000018f3: 00 00 00 00 00 00 00 00 00 00 00 00 00 00 00 00
00001903: 00 00 00 00 00 00 00 00 00 00 00 00 00 00 00 00
00001913: 00 00 00 00 00 00 00 00 00 00 00 00 00 00 00 00
00001923: 00 00 00 00 00 00 00 00 00 00 00 00 00 00 00 00
00001933: 00 00 00 00 00 00 00 00 00 00 00 00 00 00 00 00
00001943: 00 00 00 00 00 00 00 00 00 00 00 00 00 00 00 00
00001953: 00 00 00 00 00 00 00 00 00 00 00 00 00 00 00 00
00001963: 00 00 00 00 00 00 00 00 00 00 00 00 00 00 00 00
00001973: 00 00 00 00 00 00 00 00 00 00 00 00 00 00 00 00
00001983: 00 00 00 00 00 00 00 00 00 00 00 00 00 00 00 00
00001993: 00 00 00 00 00 00 00 00 00 00 00 00 00 00 00 00
000019a3: 00 00 00 00 00 00 00 00 00 00 00 00 00 00 00 00
000019b3: 00 00 00 00 00 00 00 00 00 00 00 00 00 00 00 00

