<?xml version="1.0" encoding="UTF-8" standalone="no"?>
<!DOCTYPE svg PUBLIC "-//W3C//DTD SVG 1.0//EN" "http://www.w3.org/TR/2001/PR-SVG-20010719/DTD/svg10.dtd">
<svg width="20cm" height="18cm" viewBox="302 141 392 344" xmlns="http://www.w3.org/2000/svg" xmlns:xlink="http://www.w3.org/1999/xlink">
  <g>
    <ellipse style="fill: none; fill-opacity:0; stroke-width: 2; stroke: #000000" cx="345.893" cy="417.036" rx="21.8931" ry="21.8931"/>
    <line style="fill: none; fill-opacity:0; stroke-width: 2; stroke: #000000" x1="345.893" y1="395.143" x2="345.893" y2="373.25"/>
    <line style="fill: none; fill-opacity:0; stroke-width: 2; stroke: #000000" x1="345.893" y1="438.929" x2="345.893" y2="460.823"/>
    <line style="fill: none; fill-opacity:0; stroke-width: 2; stroke: #000000" x1="337.683" y1="406.09" x2="345.893" y2="427.983"/>
    <line style="fill: none; fill-opacity:0; stroke-width: 2; stroke: #000000" x1="345.893" y1="427.983" x2="354.103" y2="406.09"/>
  </g>
  <polyline style="fill: none; fill-opacity:0; stroke-width: 2; stroke: #000000" points="396.031,352.084 422.88,352.084 425.864,344.584 431.83,359.584 437.797,344.584 443.764,359.584 449.73,344.584 455.697,359.584 458.68,352.084 485.53,352.084 "/>
  <g>
    <ellipse style="fill: none; fill-opacity:0; stroke-width: 2; stroke: #000000" cx="548.303" cy="336.591" rx="24.8749" ry="24.8749"/>
    <rect style="fill: none; fill-opacity:0; stroke-width: 2; stroke: #000000" x="542.085" y="317.935" width="3.10936" height="37.3124"/>
    <polyline style="fill: none; fill-opacity:0; stroke-width: 2; stroke: #000000" points="510.991,352.138 538.975,352.138 538.975,321.045 "/>
    <polyline style="fill: none; fill-opacity:0; stroke-width: 2; stroke: #000000" points="545.194,324.154 570.069,324.154 570.069,311.717 "/>
    <line style="fill: none; fill-opacity:0; stroke-width: 2; stroke: #000000" x1="545.194" y1="336.591" x2="582.506" y2="336.591"/>
    <polyline style="fill: none; fill-opacity:0; stroke-width: 2; stroke: #000000" points="545.194,349.029 570.069,349.029 570.069,361.466 "/>
    <polygon style="fill: none; fill-opacity:0; stroke-width: 2; stroke: #000000" points="563.85,334.104 551.413,336.591 563.85,339.079 "/>
  </g>
  <g>
    <line style="fill: none; fill-opacity:0; stroke-width: 2; stroke: #000000" x1="497.222" y1="366.179" x2="497.222" y2="390.179"/>
    <line style="fill: none; fill-opacity:0; stroke-width: 2; stroke: #000000" x1="478.847" y1="390.179" x2="515.597" y2="390.179"/>
    <line style="fill: none; fill-opacity:0; stroke-width: 2; stroke: #000000" x1="478.847" y1="402.179" x2="515.597" y2="402.179"/>
    <line style="fill: none; fill-opacity:0; stroke-width: 2; stroke: #000000" x1="497.222" y1="402.179" x2="497.222" y2="426.179"/>
  </g>
  <polyline style="fill: none; fill-opacity:0; stroke-width: 2; stroke: #000000" points="345.893,373.25 345.893,352.084 396.031,352.084 "/>
  <line style="fill: none; fill-opacity:0; stroke-width: 2; stroke: #000000" x1="485.53" y1="352.119" x2="510.991" y2="352.138"/>
  <g>
    <line style="fill: none; fill-opacity:0; stroke-width: 2; stroke: #000000" x1="497.322" y1="273.439" x2="497.322" y2="297.439"/>
    <line style="fill: none; fill-opacity:0; stroke-width: 2; stroke: #000000" x1="478.948" y1="297.439" x2="515.697" y2="297.439"/>
    <line style="fill: none; fill-opacity:0; stroke-width: 2; stroke: #000000" x1="478.948" y1="309.439" x2="515.697" y2="309.439"/>
    <line style="fill: none; fill-opacity:0; stroke-width: 2; stroke: #000000" x1="497.322" y1="309.439" x2="497.322" y2="333.439"/>
  </g>
  <g>
    <line style="fill: none; fill-opacity:0; stroke-width: 2; stroke: #000000" x1="644.753" y1="306.319" x2="644.753" y2="330.319"/>
    <line style="fill: none; fill-opacity:0; stroke-width: 2; stroke: #000000" x1="626.379" y1="330.319" x2="663.128" y2="330.319"/>
    <line style="fill: none; fill-opacity:0; stroke-width: 2; stroke: #000000" x1="626.379" y1="342.319" x2="663.128" y2="342.319"/>
    <line style="fill: none; fill-opacity:0; stroke-width: 2; stroke: #000000" x1="644.753" y1="342.319" x2="644.753" y2="366.319"/>
  </g>
  <g>
    <line style="fill: none; fill-opacity:0; stroke-width: 2; stroke: #000000" x1="569.952" y1="188.869" x2="569.952" y2="206.193"/>
    <rect style="fill: #ffffff" x="562.174" y="206.193" width="15.5563" height="34.6481"/>
    <rect style="fill: none; fill-opacity:0; stroke-width: 2; stroke: #000000" x="562.174" y="206.193" width="15.5563" height="34.6481"/>
    <line style="fill: none; fill-opacity:0; stroke-width: 2; stroke: #000000" x1="569.952" y1="240.841" x2="569.952" y2="258.165"/>
  </g>
  <g>
    <ellipse style="fill: #ffffff" cx="569.799" cy="164.292" rx="4" ry="4"/>
    <ellipse style="fill: none; fill-opacity:0; stroke-width: 2; stroke: #000000" cx="569.799" cy="164.292" rx="4" ry="4"/>
  </g>
  <line style="fill: none; fill-opacity:0; stroke-width: 2; stroke: #000000" x1="569.952" y1="258.165" x2="570.069" y2="311.717"/>
  <polyline style="fill: none; fill-opacity:0; stroke-width: 2; stroke: #000000" points="497.322,273.439 497.322,263.469 533.637,263.469 533.637,263.469 569.952,263.469 569.952,258.165 "/>
  <line style="fill: none; fill-opacity:0; stroke-width: 2; stroke: #000000" x1="497.322" y1="333.439" x2="497.222" y2="366.179"/>
  <ellipse style="fill: none; fill-opacity:0; stroke-width: 2; stroke: #000000" cx="497.159" cy="351.779" rx="1.70721" ry="1.67105"/>
  <ellipse style="fill: none; fill-opacity:0; stroke-width: 2; stroke: #000000" cx="569.599" cy="263.15" rx="1.25581" ry="1.90153"/>
  <polyline style="fill: none; fill-opacity:0; stroke-width: 2; stroke: #000000" points="644.753,306.319 644.753,285.407 570.487,285.407 570.487,264.495 "/>
  <polyline style="fill: none; fill-opacity:0; stroke-width: 2; stroke: #000000" points="497.222,426.179 497.222,467.837 570.069,467.837 570.069,361.466 "/>
  <polyline style="fill: none; fill-opacity:0; stroke-width: 2; stroke: #000000" points="345.893,460.823 345.893,467.837 570.069,467.837 570.069,361.466 "/>
  <polyline style="fill: none; fill-opacity:0; stroke-width: 2; stroke: #000000" points="644.753,366.319 644.753,387.319 570.069,387.319 570.069,361.466 "/>
  <line style="fill: none; fill-opacity:0; stroke-width: 2; stroke: #000000" x1="569.928" y1="190.262" x2="569.799" y2="164.292"/>
  <text font-size="12.7998" style="fill: #000000;text-anchor:start;font-family:sans-serif;font-style:normal;font-weight:normal" x="587.44" y="229.205">
    <tspan x="587.44" y="229.205">RL</tspan>
  </text>
  <text font-size="12.7998" style="fill: #000000;text-anchor:start;font-family:sans-serif;font-style:normal;font-weight:normal" x="558.449" y="153.9">
    <tspan x="558.449" y="153.9">Vdd</tspan>
  </text>
  <text font-size="12.7998" style="fill: #000000;text-anchor:start;font-family:sans-serif;font-style:normal;font-weight:normal" x="447.081" y="308.047">
    <tspan x="447.081" y="308.047">Cgd</tspan>
  </text>
  <text font-size="12.7998" style="fill: #000000;text-anchor:start;font-family:sans-serif;font-style:normal;font-weight:normal" x="448.142" y="400.676">
    <tspan x="448.142" y="400.676">Cgs</tspan>
  </text>
  <text font-size="12.7998" style="fill: #000000;text-anchor:start;font-family:sans-serif;font-style:normal;font-weight:normal" x="672.998" y="339.512">
    <tspan x="672.998" y="339.512">Cds</tspan>
  </text>
  <text font-size="12.7998" style="fill: #000000;text-anchor:start;font-family:sans-serif;font-style:normal;font-weight:normal" x="433.293" y="337.038">
    <tspan x="433.293" y="337.038">Rg</tspan>
  </text>
  <g>
    <line style="fill: none; fill-opacity:0; stroke-width: 2; stroke: #0000ff" x1="352.33" y1="340.573" x2="385.281" y2="340.573"/>
    <polygon style="fill: #0000ff" points="385.281,343.573 391.281,340.573 385.281,337.573 "/>
    <polygon style="fill: none; fill-opacity:0; stroke-width: 2; stroke: #0000ff" points="385.281,343.573 391.281,340.573 385.281,337.573 "/>
  </g>
  <text font-size="12.7998" style="fill: #0000ff;text-anchor:start;font-family:sans-serif;font-style:normal;font-weight:normal" x="365.411" y="333.856">
    <tspan x="365.411" y="333.856">Ig</tspan>
  </text>
  <text font-size="12.7998" style="fill: #000000;text-anchor:start;font-family:sans-serif;font-style:normal;font-weight:normal" x="574.712" y="401.737">
    <tspan x="574.712" y="401.737">S</tspan>
  </text>
  <text font-size="12.7998" style="fill: #000000;text-anchor:start;font-family:sans-serif;font-style:normal;font-weight:normal" x="575.065" y="280.47">
    <tspan x="575.065" y="280.47">D</tspan>
  </text>
  <text font-size="12.7998" style="fill: #000000;text-anchor:start;font-family:sans-serif;font-style:normal;font-weight:normal" x="503.295" y="345.523">
    <tspan x="503.295" y="345.523">G</tspan>
  </text>
  <g>
    <line style="fill: none; fill-opacity:0; stroke-width: 2; stroke: #000000" x1="570.292" y1="463.608" x2="570.292" y2="473.507"/>
    <line style="fill: none; fill-opacity:0; stroke-width: 2; stroke: #000000" x1="559.156" y1="473.507" x2="581.429" y2="473.507"/>
    <line style="fill: none; fill-opacity:0; stroke-width: 2; stroke: #000000" x1="562.887" y1="478.457" x2="577.698" y2="478.457"/>
    <line style="fill: none; fill-opacity:0; stroke-width: 2; stroke: #000000" x1="566.617" y1="483.407" x2="573.968" y2="483.407"/>
  </g>
  <g>
    <line style="fill: none; fill-opacity:0; stroke-width: 2; stroke: #0000ff" x1="589.351" y1="301.387" x2="589.324" y2="317.828"/>
    <path style="fill: #0000ff" d="M 589.324 317.828 C 588.574,317.827 587.825,317.076 587.826,316.326 C 587.828,315.576 588.579,314.827 589.329,314.828 C 590.079,314.83 590.827,315.581 590.826,316.331 C 590.825,317.081 590.074,317.83 589.324,317.828z"/>
    <path style="fill: none; fill-opacity:0; stroke-width: 2; stroke: #0000ff" d="M 589.324 317.828 C 588.574,317.827 587.825,317.076 587.826,316.326 C 587.828,315.576 588.579,314.827 589.329,314.828 C 590.079,314.83 590.827,315.581 590.826,316.331 C 590.825,317.081 590.074,317.83 589.324,317.828"/>
  </g>
  <g>
    <line style="fill: none; fill-opacity:0; stroke-width: 2; stroke: #0000ff" x1="589.668" y1="365.512" x2="589.668" y2="348.82"/>
    <path style="fill: #0000ff" d="M 589.668 348.82 C 590.418,348.82 591.168,349.57 591.168,350.32 C 591.168,351.07 590.418,351.82 589.668,351.82 C 588.918,351.82 588.168,351.07 588.168,350.32 C 588.168,349.57 588.918,348.82 589.668,348.82z"/>
    <path style="fill: none; fill-opacity:0; stroke-width: 2; stroke: #0000ff" d="M 589.668 348.82 C 590.418,348.82 591.168,349.57 591.168,350.32 C 591.168,351.07 590.418,351.82 589.668,351.82 C 588.918,351.82 588.168,351.07 588.168,350.32 C 588.168,349.57 588.918,348.82 589.668,348.82"/>
  </g>
  <line style="fill: none; fill-opacity:0; stroke-width: 2; stroke: #0000ff" x1="590.064" y1="316.637" x2="589.91" y2="350.439"/>
  <g>
    <line style="fill: none; fill-opacity:0; stroke-width: 2; stroke: #0000ff" x1="590.543" y1="184.769" x2="590.691" y2="204.551"/>
    <polygon style="fill: #0000ff" points="587.691,204.573 590.736,210.551 593.691,204.528 "/>
    <polygon style="fill: none; fill-opacity:0; stroke-width: 2; stroke: #0000ff" points="587.691,204.573 590.736,210.551 593.691,204.528 "/>
  </g>
  <text font-size="12.7998" style="fill: #0000ff;text-anchor:start;font-family:sans-serif;font-style:normal;font-weight:normal" x="514.927" y="367.024">
    <tspan x="514.927" y="367.024">+</tspan>
  </text>
  <text font-size="12.7998" style="fill: #0000ff;text-anchor:start;font-family:sans-serif;font-style:normal;font-weight:normal" x="555.733" y="382.155">
    <tspan x="555.733" y="382.155">-</tspan>
  </text>
  <text font-size="12.7998" style="fill: #0000ff;text-anchor:start;font-family:sans-serif;font-style:normal;font-weight:normal" x="525.931" y="383.53">
    <tspan x="525.931" y="383.53">Vth</tspan>
  </text>
  <text font-size="12.7998" style="fill: #0000ff;text-anchor:start;font-family:sans-serif;font-style:normal;font-weight:normal" x="599.565" y="202.021">
    <tspan x="599.565" y="202.021">Id</tspan>
  </text>
  <text font-size="12.7998" style="fill: #0000ff;text-anchor:start;font-family:sans-serif;font-style:normal;font-weight:normal" x="578.658" y="263.405">
    <tspan x="578.658" y="263.405">Vd -&gt; 0</tspan>
  </text>
  <text font-size="12.7998" style="fill: #0000ff;text-anchor:start;font-family:sans-serif;font-style:normal;font-weight:normal" x="302.187" y="419.293">
    <tspan x="302.187" y="419.293">Vi</tspan>
  </text>
</svg>
