:200000000152004002640040010101400105014001090140280A01400C0B0140340C014086
:20002000120D0140300E0140230F0140041801400219014004400140014101400242014028
:200040000245014002460140035001400151014014048D0D8E67E240EE019502404549FF4C
:200060004AFF4BFF4F01501852805A045B045D995F016040624064406540668068806A800D
:200080006C806E80C045C9FFCAFFCBFFCD83CE03CF01D018DA04DD09DF01E040E240E44043
:2000A000E540E680E880EA80EC80EE804102450248024C0271029502A002A502AA40B404F2
:2000C000D081D218404549FF4AFF4BFF4D834E034F0150185A045D095F01604062406440A2
:2000E0006540668068806A806C806E809201AE01B001B601BE40C045C5ECC720C823C9FFD1
:20010000CAFFCBFFCD83CE03CF01D018D401D804DA04DB04DC09DD99DF01E040E240E44064
:20012000E540E680E880EA80EC80EE800902100219401A8041024502480249054C025002B6
:20014000594594049502C208C401D081D218D60B030306030C04110112011C01220C300860
:20016000310232013404360237013E143F4040354104455246C0470E481F49FF4AFF4BFFB2
:200180004DA04F01501852805407580459045A045B045C995D995F01604062806440654001
:2001A000668068406A506BA86C406D206E506FA800440A41108018401A1521022240310278
:2001C0003B01410142104A104B81508051085210534058205A845C205E206108621072402E
:2001E0008C40C005C209C408CC01CE01D003D208D60ED806E240B902BF01D904DF01210150
:200200009502332035208F20CC309D20A920EE800180C002B580EE0201010D010F01000F69
:200220000400000602000000000000000000000000000000000000000000000000000000B2
:00000001FF
