===========Generating Bitstream===========
# IDMUX (count=6)
00000000: 0a 00 00 00 00 00
# PHUB_CFGMEM0 (count=4)
00000006: 00 00 00 00
# PHUB_CFGMEM1 (count=4)
0000000a: 00 01 00 00
# IOPORT_0 (count=7)
0000000e: 03 02 00 00 00 00 00
# IOPINS0_0 (count=8)
00000015: 00 00 00 00 00 03 03 00
# IOPINS1_0 + 0x00000009 (count=5)
0000001d: 00 00 00 00 00
# PICU_0 (count=8)
00000022: 00 00 00 00 00 00 00 00
# IOPORT_1 (count=7)
0000002a: 00 40 00 00 00 00 00
# IOPINS0_1 (count=8)
00000031: 00 4b 4b 00 40 00 00 00
# IOPINS1_1 + 0x00000009 (count=5)
00000039: 00 00 00 00 00
# PICU_1 (count=8)
0000003e: 00 00 00 00 00 00 00 00
# IOPORT_2 (count=7)
00000046: 00 00 00 00 00 00 00
# IOPINS0_2 (count=16)
0000004d: 00 00 00 00 00 00 00 00 00 00 00 00 00 00 00 00

# IOPORT_3 (count=7)
0000005d: 00 00 00 00 00 00 00
# IOPINS0_3 (count=8)
00000064: 01 00 00 00 00 00 00 00
# IOPINS1_3 + 0x00000009 (count=5)
0000006c: 00 00 00 00 00
# PICU_3 (count=8)
00000071: 00 00 00 00 00 00 00 00
# IOPORT_4 (count=7)
00000079: 00 00 00 00 00 00 00
# IOPINS0_4 (count=16)
00000080: 00 00 00 00 00 00 00 00 00 00 00 00 00 00 00 00

# IOPORT_5 (count=7)
00000090: 00 00 00 00 00 00 00
# IOPINS0_5 (count=16)
00000097: 00 00 00 00 00 00 00 00 00 00 00 00 00 00 00 00

# IOPORT_6 (count=7)
000000a7: 00 00 00 00 00 00 00
# IOPINS0_6 (count=16)
000000ae: 00 00 00 00 00 00 00 00 00 00 00 00 00 00 00 00

# IOPORT_7 (count=6)
000000be: 00 00 00 00 00 00
# IOPINS0_7 (count=10)
000000c4: 80 00 00 80 80 00 00 00 00 00
# IOPINS1_7 + 0x0000000B (count=5)
000000ce: 00 00 00 00 00
# PICU_7 (count=8)
000000d3: 00 00 00 00 00 00 00 00
# IOPORT_8 (count=7)
000000db: 00 00 00 00 00 00 00
# IOPINS0_8 (count=16)
000000e2: 00 00 00 00 00 00 00 00 00 00 00 00 00 00 00 00

# IDMUX_IRQ (count=8)
000000f2: 03 00 00 00 00 00 00 00
# CYDEV_CLKDIST_DCFG0_CFG0 (count=3)
000000fa: 0e 00 18
# CYDEV_SLOWCLK_ILO_CR0 (count=1)
000000fd: 02
# CYDEV_CLKDIST_CR (count=1)
000000fe: 08
# CYDEV_FASTCLK_IMO_CR (count=1)
000000ff: 03
# CYDEV_FASTCLK_PLL_P (count=2)
00000100: 08 00
# CYDEV_FASTCLK_PLL_CFG0 (count=2)
00000102: 51 12
# CYDEV_CLKDIST_MSTR0 (count=2)
00000104: 00 01
# CYDEV_CLKDIST_MSTR0 (count=1)
00000106: 07
# CYDEV_CLKDIST_BCFG0 (count=1)
00000107: 00
# CYDEV_CLKDIST_BCFG2 (count=1)
00000108: 48
# CYDEV_CLKDIST_MSTR0 (count=1)
00000109: 00
# CYDEV_CLKDIST_LD (count=1)
0000010a: 02
# CYDEV_PM_ACT_CFG2 (count=1)
0000010b: 01
# SAR0 (count=8)
0000010c: 00 00 00 00 00 00 00 84
# UDB_1_5_0_CONFIG (count=128)
00000114: 00 00 00 00 00 00 01 00 00 00 00 00 00 00 00 00
00000124: 00 00 00 00 00 00 00 00 00 00 00 00 00 00 02 00
00000134: 00 00 00 00 00 00 00 00 00 00 00 00 00 00 00 00
00000144: 01 00 00 00 02 00 00 00 00 00 00 00 00 00 00 00
00000154: 00 00 00 00 00 00 00 00 00 00 00 00 00 00 00 00
00000164: 00 00 00 00 00 00 00 00 04 04 00 00 00 00 00 01
00000174: 00 00 00 00 00 00 00 00 00 00 00 00 00 00 00 00
00000184: 00 00 00 00 00 00 00 00 00 00 00 00 00 00 00 00

# UDB_1_5_1_CONFIG (count=128)
00000194: 00 00 00 00 00 00 00 00 00 00 00 00 00 00 00 00
000001a4: 00 00 00 00 00 00 00 00 00 00 00 00 00 00 00 00
000001b4: 00 00 00 00 00 00 00 00 00 00 00 00 00 00 00 00
000001c4: 00 00 00 00 00 00 00 00 00 00 00 00 00 00 00 00
000001d4: 00 00 00 00 00 00 00 00 00 00 00 00 00 00 00 00
000001e4: 00 00 00 00 00 00 00 00 04 04 00 00 00 00 00 01
000001f4: 00 00 00 00 00 00 00 00 00 00 00 00 00 00 00 00
00000204: 00 00 00 00 00 00 00 00 00 00 00 00 00 00 00 00

# UDB_1_4_1_CONFIG (count=128)
00000214: 00 00 00 00 00 00 00 00 01 00 00 01 01 00 00 01
00000224: 01 01 00 00 00 00 01 00 01 01 00 00 00 01 00 00
00000234: 01 00 00 00 00 00 00 00 01 01 00 00 00 01 00 00
00000244: 00 00 00 01 00 00 01 00 00 00 00 00 00 00 00 00
00000254: 00 00 00 00 00 00 00 00 00 00 00 00 00 00 00 00
00000264: 00 00 00 00 00 00 00 00 04 04 00 00 00 00 00 01
00000274: 00 00 00 00 00 00 00 00 00 00 00 00 00 00 00 00
00000284: 00 00 00 00 00 00 00 00 00 00 00 00 00 00 00 00

# UDB_1_4_0_CONFIG (count=128)
00000294: 00 08 08 00 08 00 00 01 00 00 04 00 40 00 80 00
000002a4: 10 00 20 04 00 02 01 00 00 01 02 00 04 00 00 10
000002b4: 02 00 00 02 01 04 00 00 20 00 10 08 80 00 40 00
000002c4: 00 00 00 1f 00 00 ff 00 00 08 00 00 00 00 40 04
000002d4: 00 00 00 00 00 00 00 00 00 00 00 00 00 00 00 00
000002e4: 00 00 00 00 01 00 00 00 04 04 00 0c 00 00 00 01
000002f4: 00 00 00 00 00 00 00 00 00 00 00 00 00 00 00 00
00000304: 00 00 00 00 00 00 00 00 00 00 00 00 00 00 00 00

# UDB_1_3_0_CONFIG (count=128)
00000314: 00 00 00 00 00 00 00 00 00 00 00 00 00 00 00 00
00000324: 00 00 00 01 00 00 00 00 00 00 00 00 00 00 00 00
00000334: 00 00 02 00 00 00 01 00 00 00 04 00 00 00 00 00
00000344: 04 01 01 00 02 00 00 00 00 00 00 00 00 00 00 00
00000354: 00 00 00 00 00 00 00 00 00 00 00 00 00 00 00 00
00000364: 00 00 00 00 00 00 02 3a 04 04 00 0c 00 00 00 01
00000374: 00 00 00 00 00 00 00 00 00 00 00 00 00 00 00 00
00000384: 00 00 00 00 00 00 00 00 00 00 00 00 00 00 00 00

# UDB_1_3_1_CONFIG (count=128)
00000394: 00 00 00 00 00 00 00 00 00 00 00 00 00 00 00 00
000003a4: 00 00 00 00 00 00 00 00 00 00 00 00 00 00 00 00
000003b4: 00 00 00 00 00 00 00 00 00 00 00 00 00 00 00 00
000003c4: 00 00 00 00 00 00 00 00 00 00 00 00 00 00 00 00
000003d4: 00 00 00 00 00 00 00 00 00 00 00 00 00 00 00 00
000003e4: 00 00 00 00 00 00 00 00 04 04 00 00 00 00 00 01
000003f4: 00 00 00 00 00 00 00 00 00 00 00 00 00 00 00 00
00000404: 00 00 00 00 00 00 00 00 00 00 00 00 00 00 00 00

# UDB_1_2_1_CONFIG (count=128)
00000414: 00 00 00 00 00 00 00 00 00 00 00 00 00 00 00 00
00000424: 00 00 00 00 00 00 00 00 00 00 00 00 00 00 00 00
00000434: 00 00 00 00 00 00 00 00 00 00 00 00 00 00 00 00
00000444: 00 00 00 00 00 00 00 00 00 00 00 00 00 00 00 00
00000454: 00 00 00 00 00 00 00 00 00 00 00 00 00 00 00 00
00000464: 00 00 00 00 00 00 08 00 04 04 00 04 00 90 00 01
00000474: 00 00 00 00 00 00 00 00 00 00 00 00 00 00 00 00
00000484: 00 00 00 00 00 00 00 00 00 00 00 00 00 00 00 00

# UDB_1_2_0_CONFIG (count=128)
00000494: 00 01 01 00 00 00 10 04 08 00 00 04 00 00 04 00
000004a4: 00 00 02 00 00 00 00 00 08 00 00 08 01 00 00 00
000004b4: 00 00 10 03 04 00 00 00 00 08 00 00 00 00 00 00
000004c4: 03 02 08 08 04 04 10 01 08 00 00 00 00 00 14 14
000004d4: 20 06 00 00 00 d0 21 00 0e ff ff ff 00 a0 00 04
000004e4: 18 00 03 02 00 00 00 00 04 0c 04 04 09 09 00 01
000004f4: 40 00 c0 00 40 40 c0 00 c0 00 c0 00 c0 00 c0 00
00000504: 00 00 00 00 00 00 00 00 00 00 00 00 00 00 00 00

# UDB_0_2_1_CONFIG (count=128)
00000514: 00 00 00 00 00 00 00 00 00 00 00 00 00 00 00 00
00000524: 00 00 00 00 00 00 00 00 00 00 00 00 00 00 00 00
00000534: 00 00 00 00 00 00 00 00 00 00 00 00 00 00 00 00
00000544: 00 00 00 00 00 00 00 00 00 00 00 00 00 00 00 00
00000554: 00 00 00 00 00 00 00 00 00 00 00 00 00 00 00 00
00000564: 00 00 00 00 00 00 00 00 04 04 00 00 00 00 00 01
00000574: 00 00 00 00 00 00 00 00 00 00 00 00 00 00 00 00
00000584: 00 00 00 00 00 00 00 00 00 00 00 00 00 00 00 00

# UDB_0_2_0_CONFIG (count=128)
00000594: 00 00 00 00 00 00 00 00 00 00 00 00 00 00 00 00
000005a4: 00 00 00 00 00 00 00 00 00 00 00 00 00 00 00 00
000005b4: 00 00 00 00 00 00 00 00 00 00 00 00 00 00 00 00
000005c4: 00 00 00 00 00 00 00 00 00 00 00 00 00 00 00 00
000005d4: 00 00 00 00 00 00 00 00 00 00 00 00 00 00 00 00
000005e4: 00 00 00 00 00 00 00 00 04 04 00 00 00 00 00 01
000005f4: 00 00 00 00 00 00 00 00 00 00 00 00 00 00 00 00
00000604: 00 00 00 00 00 00 00 00 00 00 00 00 00 00 00 00

# UDB_0_3_0_CONFIG (count=128)
00000614: 00 00 00 00 00 00 00 00 00 00 00 00 00 00 00 00
00000624: 00 00 00 00 00 00 00 00 00 00 00 00 00 00 00 00
00000634: 00 00 00 00 00 00 00 00 00 00 00 00 00 00 00 00
00000644: 00 00 00 00 00 00 00 00 00 00 00 00 00 00 00 00
00000654: 00 00 00 00 00 00 00 00 00 00 00 00 00 00 00 00
00000664: 00 00 00 00 00 00 00 00 00 00 00 00 00 00 00 00
00000674: 00 00 00 00 00 00 00 00 00 00 00 00 00 00 00 00
00000684: 00 00 00 00 00 00 00 00 00 00 00 00 00 00 00 00

# UDB_0_3_1_CONFIG (count=128)
00000694: 00 00 00 00 00 00 00 00 00 00 00 00 00 00 00 00
000006a4: 00 00 00 00 00 00 00 00 00 00 00 00 00 00 00 00
000006b4: 00 00 00 00 00 00 00 00 00 00 00 00 00 00 00 00
000006c4: 00 00 00 00 00 00 00 00 00 00 00 00 00 00 00 00
000006d4: 00 00 00 00 00 00 00 00 00 00 00 00 00 00 00 00
000006e4: 00 00 00 00 00 00 00 00 00 00 00 00 00 00 00 00
000006f4: 00 00 00 00 00 00 00 00 00 00 00 00 00 00 00 00
00000704: 00 00 00 00 00 00 00 00 00 00 00 00 00 00 00 00

# UDB_0_4_1_CONFIG (count=128)
00000714: 00 00 00 00 00 00 00 00 00 00 00 00 00 00 00 00
00000724: 00 00 00 00 00 00 00 00 00 00 00 00 00 00 00 00
00000734: 00 00 00 00 00 00 00 00 00 00 00 00 00 00 00 00
00000744: 00 00 00 00 00 00 00 00 00 00 00 00 00 00 00 00
00000754: 00 00 00 00 00 00 00 00 00 00 00 00 00 00 00 00
00000764: 00 00 00 00 00 00 00 00 00 00 00 00 00 00 00 00
00000774: 00 00 00 00 00 00 00 00 00 00 00 00 00 00 00 00
00000784: 00 00 00 00 00 00 00 00 00 00 00 00 00 00 00 00

# UDB_0_4_0_CONFIG (count=128)
00000794: 00 00 00 00 00 00 00 00 00 00 00 00 00 00 00 00
000007a4: 00 00 00 00 00 00 00 00 00 00 00 00 00 00 00 00
000007b4: 00 00 00 00 00 00 00 00 00 00 00 00 00 00 00 00
000007c4: 00 00 00 00 00 00 00 00 00 00 00 00 00 00 00 00
000007d4: 00 00 00 00 00 00 00 00 00 00 00 00 00 00 00 00
000007e4: 00 00 00 00 00 00 00 00 00 00 00 00 00 00 00 00
000007f4: 00 00 00 00 00 00 00 00 00 00 00 00 00 00 00 00
00000804: 00 00 00 00 00 00 00 00 00 00 00 00 00 00 00 00

# UDB_0_5_0_CONFIG (count=128)
00000814: 00 00 00 00 00 00 00 00 00 00 00 00 00 00 00 00
00000824: 00 00 00 00 00 00 00 00 00 00 00 00 00 00 00 00
00000834: 00 00 00 00 00 00 00 00 00 00 00 00 00 00 00 00
00000844: 00 00 00 00 00 00 00 00 00 00 00 00 00 00 00 00
00000854: 00 00 00 00 00 00 00 00 00 00 00 00 00 00 00 00
00000864: 00 00 00 00 00 00 00 00 00 00 00 00 00 00 00 00
00000874: 00 00 00 00 00 00 00 00 00 00 00 00 00 00 00 00
00000884: 00 00 00 00 00 00 00 00 00 00 00 00 00 00 00 00

# UDB_0_5_1_CONFIG (count=128)
00000894: 00 00 00 00 00 00 00 00 00 00 00 00 00 00 00 00
000008a4: 00 00 00 00 00 00 00 00 00 00 00 00 00 00 00 00
000008b4: 00 00 00 00 00 00 00 00 00 00 00 00 00 00 00 00
000008c4: 00 00 00 00 00 00 00 00 00 00 00 00 00 00 00 00
000008d4: 00 00 00 00 00 00 00 00 00 00 00 00 00 00 00 00
000008e4: 00 00 00 00 00 00 00 00 00 00 00 00 00 00 00 00
000008f4: 00 00 00 00 00 00 00 00 00 00 00 00 00 00 00 00
00000904: 00 00 00 00 00 00 00 00 00 00 00 00 00 00 00 00

# UDB_1_0_0_CONFIG (count=128)
00000914: 00 00 00 00 00 00 00 00 00 00 00 04 00 00 00 00
00000924: 00 00 00 00 00 00 00 00 00 00 00 00 00 02 00 00
00000934: 00 00 00 00 00 00 00 00 00 00 00 00 00 00 01 03
00000944: 00 00 00 02 01 04 00 01 00 00 00 00 00 00 00 04
00000954: 23 01 06 00 00 00 00 00 00 ff ff ff 00 a0 00 01
00000964: 18 00 80 00 05 00 00 00 04 04 04 04 99 99 00 01
00000974: 40 00 80 00 40 40 80 00 40 00 50 a8 40 20 50 a8
00000984: 00 00 00 00 00 00 00 00 00 00 00 00 00 00 00 00

# UDB_1_0_1_CONFIG (count=128)
00000994: 00 00 00 06 00 00 00 01 01 00 00 00 00 00 03 00
000009a4: 01 00 00 00 04 00 00 00 00 01 00 00 00 04 00 00
000009b4: 00 00 00 00 00 00 00 00 00 00 00 00 00 00 0c 00
000009c4: 02 02 08 03 01 04 04 00 00 00 00 c0 00 00 50 14
000009d4: 23 05 06 00 00 0c 20 5e 3b ff ff ff 00 af 07 01
000009e4: 18 00 00 00 17 00 00 00 04 04 04 04 99 99 00 01
000009f4: 40 00 80 00 40 40 80 00 40 00 50 a8 40 20 50 a8
00000a04: 00 00 00 00 00 00 00 00 00 00 00 00 00 00 00 00

# UDB_1_1_1_CONFIG (count=128)
00000a14: 00 00 00 00 00 00 00 00 00 00 00 00 00 00 00 00
00000a24: 01 00 00 00 00 00 00 00 00 00 00 00 00 00 00 00
00000a34: 00 00 01 00 00 00 00 00 00 00 00 00 00 00 01 00
00000a44: 00 00 00 00 01 00 00 00 00 00 00 00 00 00 10 00
00000a54: 21 05 06 00 00 00 00 00 00 ff ff ff 00 a0 00 01
00000a64: 18 00 00 00 00 00 00 00 04 04 04 00 00 09 00 01
00000a74: 40 00 80 00 40 40 80 00 40 00 50 a8 40 20 50 a8
00000a84: 00 00 00 00 00 00 00 00 00 00 00 00 00 00 00 00

# UDB_1_1_0_CONFIG (count=128)
00000a94: 00 00 00 02 02 00 00 00 00 00 00 00 00 00 00 00
00000aa4: 00 00 00 00 04 00 00 00 00 00 00 01 00 00 00 00
00000ab4: 00 01 0c 00 00 00 03 00 00 00 00 00 00 00 00 00
00000ac4: 02 00 08 00 01 00 04 03 00 00 00 00 00 00 01 40
00000ad4: 21 05 06 00 00 25 c0 0e 3b ff ff ff 00 af 07 01
00000ae4: 18 00 00 00 17 00 00 00 04 04 04 04 09 99 00 01
00000af4: 40 00 80 00 40 40 80 00 40 00 50 a8 40 20 50 a8
00000b04: 00 00 00 00 00 00 00 00 00 00 00 00 00 00 00 00

# UDB_0_1_1_CONFIG (count=128)
00000b14: 00 00 00 00 00 00 00 00 00 00 00 00 00 00 00 00
00000b24: 00 00 00 00 00 00 00 00 00 00 00 00 00 00 00 00
00000b34: 00 00 00 00 00 00 00 00 00 00 00 00 00 00 00 00
00000b44: 00 00 00 00 00 00 00 00 00 00 00 00 00 00 00 00
00000b54: 00 00 00 00 00 00 00 00 00 00 00 00 00 00 00 00
00000b64: 00 00 00 00 00 00 00 00 04 04 00 00 00 00 00 01
00000b74: 00 00 00 00 00 00 00 00 00 00 00 00 00 00 00 00
00000b84: 00 00 00 00 00 00 00 00 00 00 00 00 00 00 00 00

# UDB_0_1_0_CONFIG (count=128)
00000b94: 00 00 00 00 00 00 00 00 00 00 00 00 00 00 00 00
00000ba4: 00 00 00 00 00 00 00 00 00 00 00 00 00 00 00 00
00000bb4: 00 00 00 00 00 00 00 00 00 00 00 00 00 00 00 00
00000bc4: 00 00 00 00 00 00 00 00 00 08 00 00 00 00 00 04
00000bd4: 00 00 00 00 00 00 00 00 00 00 00 00 00 00 00 00
00000be4: 00 00 00 00 00 00 00 00 04 04 00 00 00 00 00 01
00000bf4: 00 00 00 00 00 00 00 00 00 00 00 00 00 00 00 00
00000c04: 00 00 00 00 00 00 00 00 00 00 00 00 00 00 00 00

# UDB_0_0_0_CONFIG (count=128)
00000c14: 00 00 00 00 00 00 00 00 00 00 00 00 00 00 00 00
00000c24: 00 00 00 00 00 00 00 00 00 00 00 00 00 00 00 00
00000c34: 00 00 00 00 00 00 00 00 00 00 00 00 00 00 00 00
00000c44: 00 00 00 00 00 00 00 00 00 00 00 00 00 00 00 00
00000c54: 00 00 00 00 00 00 00 00 00 00 00 00 00 00 00 00
00000c64: 00 00 00 00 00 00 00 00 00 00 00 00 00 00 00 00
00000c74: 00 00 00 00 00 00 00 00 00 00 00 00 00 00 00 00
00000c84: 00 00 00 00 00 00 00 00 00 00 00 00 00 00 00 00

# UDB_0_0_1_CONFIG (count=128)
00000c94: 00 00 00 00 00 00 00 00 00 00 00 00 00 00 00 00
00000ca4: 00 00 00 00 00 00 00 00 00 00 00 00 00 00 00 00
00000cb4: 00 00 00 00 00 00 00 00 00 00 00 00 00 00 00 00
00000cc4: 00 00 00 00 00 00 00 00 00 00 00 00 00 00 00 00
00000cd4: 00 00 00 00 00 00 00 00 00 00 00 00 00 00 00 00
00000ce4: 00 00 00 00 00 00 00 00 00 00 00 00 00 00 00 00
00000cf4: 00 00 00 00 00 00 00 00 00 00 00 00 00 00 00 00
00000d04: 00 00 00 00 00 00 00 00 00 00 00 00 00 00 00 00

# UWRK_B0_WRK_DP_BITS (count=64)
00000d14: 00 00 00 00 00 00 00 00 00 00 00 00 00 00 00 00
00000d24: 00 00 00 00 00 00 00 00 00 00 00 00 00 00 00 00
00000d34: 00 00 00 00 00 00 00 00 00 00 00 00 00 00 00 00
00000d44: 00 00 00 00 00 00 00 00 00 00 00 00 00 00 00 00

# UWRK_B0_WRK_STATCTL_BITS + 0x00000070 (count=32)
00000d54: 00 00 00 00 00 00 00 00 00 00 00 00 00 00 00 00
00000d64: 00 00 00 00 01 00 00 00 00 00 00 00 00 00 00 00

# UWRK_B1_WRK_DP_BITS (count=64)
00000d74: 00 00 00 00 00 00 00 00 00 00 00 00 00 00 00 00
00000d84: 00 00 00 00 00 00 00 00 00 00 00 00 00 00 00 00
00000d94: 00 00 00 00 00 00 00 00 00 00 00 00 00 00 00 00
00000da4: 00 00 00 00 00 00 00 00 00 00 00 00 00 00 00 00

# UWRK_B1_WRK_STATCTL_BITS + 0x00000070 (count=32)
00000db4: 00 00 00 00 00 00 00 00 00 00 00 00 00 00 00 00
00000dc4: 00 00 00 00 0d 77 00 77 00 00 00 00 00 00 00 00

# UCFG_BCTL1 (count=16)
00000dd4: 01 01 00 00 00 00 00 00 00 00 01 01 01 00 00 00

# UCFG_BCTL0 (count=16)
00000de4: 01 01 00 00 00 00 00 00 01 00 01 01 01 00 00 00

# DSISWITCH_0_0 (count=128)
00000df4: 00 00 00 00 00 00 00 00 00 00 00 00 00 00 00 00
00000e04: 00 00 00 00 00 00 00 00 00 00 00 00 00 00 00 00
00000e14: 00 00 00 00 00 00 00 00 00 00 00 00 00 00 00 00
00000e24: 00 00 00 00 00 00 00 00 00 00 00 00 00 00 00 00
00000e34: 00 00 00 00 00 00 00 00 00 00 00 00 00 00 00 00
00000e44: 00 00 00 00 00 00 00 00 00 00 00 00 00 00 00 00
00000e54: 00 00 00 00 00 00 00 00 00 00 00 00 00 00 00 00
00000e64: 00 00 00 00 00 00 00 00 00 00 00 00 00 00 00 00

# DSI0_0_HV_ROUTING + 0x00000080 (count=128)
00000e74: 00 00 00 00 00 00 00 00 00 00 00 00 00 00 00 00
00000e84: 00 00 00 00 00 00 00 00 00 00 00 00 00 00 00 00
00000e94: 00 00 00 00 00 00 00 00 00 00 00 00 00 00 00 00
00000ea4: 00 00 00 00 02 00 00 00 00 00 00 00 00 00 00 00
00000eb4: 00 00 00 00 00 00 00 00 00 00 00 00 00 00 00 00
00000ec4: 00 00 00 00 00 00 00 00 00 00 00 00 00 00 00 00
00000ed4: 00 00 00 00 00 00 00 00 08 00 00 00 00 00 00 00
00000ee4: 00 00 00 00 00 00 00 00 00 00 00 00 00 00 00 00

# DSISWITCH_0_1 (count=128)
00000ef4: 00 00 00 00 00 00 00 00 00 00 00 00 00 00 00 00
00000f04: 00 00 00 00 00 00 00 00 00 00 00 00 00 00 00 00
00000f14: 00 00 00 00 00 00 00 00 00 00 00 00 00 00 00 00
00000f24: 00 00 00 00 00 00 00 00 00 00 00 00 00 00 00 00
00000f34: 00 00 00 00 00 00 00 00 00 00 00 00 00 00 00 00
00000f44: 00 00 00 00 00 00 00 00 00 00 00 00 00 00 00 00
00000f54: 00 00 00 40 00 00 00 00 00 00 00 00 00 00 00 00
00000f64: 00 00 00 00 00 00 00 00 00 00 00 00 00 00 00 00

# DSI0_1_HV_ROUTING + 0x00000080 (count=128)
00000f74: 00 00 00 00 00 00 00 40 00 00 00 00 00 00 00 00
00000f84: 00 00 00 00 00 00 00 00 00 00 00 00 02 00 00 00
00000f94: 00 00 00 00 00 00 00 00 00 00 00 00 00 00 00 00
00000fa4: 00 00 00 00 00 00 00 00 00 00 00 00 00 00 00 00
00000fb4: 00 00 00 00 00 00 00 00 00 00 00 00 00 00 00 00
00000fc4: 00 00 00 00 00 00 00 00 02 00 00 00 00 00 00 00
00000fd4: 00 00 00 00 00 00 00 00 00 00 00 00 00 00 00 00
00000fe4: 00 00 00 00 00 00 00 00 00 00 00 00 00 00 00 00

# DSISWITCH_0_2 (count=128)
00000ff4: 00 00 00 00 00 00 00 00 00 00 00 00 00 00 00 00
00001004: 00 00 00 00 00 00 00 00 00 00 00 00 00 00 00 00
00001014: 00 00 00 00 00 00 00 00 00 00 00 00 00 00 00 00
00001024: 00 00 00 00 00 00 00 00 00 00 00 00 00 00 00 00
00001034: 00 00 00 00 02 00 00 00 00 00 00 00 00 00 00 00
00001044: 00 00 00 00 00 00 00 00 00 00 00 00 00 00 00 00
00001054: 00 00 00 00 00 00 00 00 00 00 00 00 00 00 00 00
00001064: 00 00 00 00 00 00 00 00 00 00 00 00 00 00 00 00

# DSI0_2_HV_ROUTING + 0x00000080 (count=128)
00001074: 00 00 00 20 00 00 00 00 00 00 00 00 00 00 00 00
00001084: 00 00 00 00 00 00 00 00 00 00 00 20 00 00 00 00
00001094: 00 00 00 00 00 00 00 00 00 00 00 04 00 00 00 00
000010a4: 00 00 00 00 00 00 00 00 00 00 00 00 00 00 00 00
000010b4: 00 00 00 00 00 00 00 00 00 00 00 00 00 00 00 00
000010c4: 04 00 00 00 00 00 00 00 00 00 00 00 00 00 00 00
000010d4: 00 00 00 00 00 00 00 00 00 00 00 00 00 00 00 00
000010e4: 00 00 00 00 00 00 00 00 00 00 00 00 00 00 00 00

# DSISWITCH_0_3 (count=128)
000010f4: 00 00 00 00 00 00 00 00 00 00 00 00 00 00 00 00
00001104: 00 00 00 00 00 00 00 00 00 00 00 04 00 00 00 00
00001114: 00 00 00 00 00 00 00 20 00 00 00 00 00 00 00 00
00001124: 00 00 00 00 00 00 00 00 00 00 00 00 00 00 00 00
00001134: 00 00 00 00 00 00 00 00 00 00 00 00 00 00 00 00
00001144: 00 00 00 00 00 00 00 00 00 00 00 00 00 00 00 00
00001154: 00 00 00 00 00 00 00 00 00 00 00 00 00 00 00 00
00001164: 00 00 00 00 00 00 00 00 00 00 00 00 00 00 00 00

# DSI0_3_HV_ROUTING + 0x00000080 (count=128)
00001174: 00 00 00 00 00 00 00 00 00 00 00 00 00 00 00 00
00001184: 00 00 00 00 00 00 00 00 00 00 00 00 00 00 00 00
00001194: 00 00 00 00 00 00 00 00 00 00 00 00 00 00 00 00
000011a4: 00 00 00 00 00 00 00 00 00 00 00 00 00 00 00 00
000011b4: 00 00 00 00 00 00 08 00 01 00 00 00 00 00 00 00
000011c4: 00 00 00 00 00 00 00 00 00 00 00 00 00 00 00 00
000011d4: 00 00 00 00 00 00 00 00 00 00 00 00 00 00 00 00
000011e4: 00 00 00 00 00 00 00 00 00 00 00 00 00 00 00 00

# DSISWITCH_0_4 (count=128)
000011f4: 00 00 00 00 00 00 00 00 00 00 00 00 00 00 00 00
00001204: 00 00 00 00 00 00 00 00 00 00 00 00 00 00 00 00
00001214: 00 00 00 00 00 00 00 00 00 00 00 00 00 00 00 00
00001224: 00 00 00 00 00 00 00 00 00 00 00 00 00 00 00 00
00001234: 00 00 00 00 00 00 00 00 00 00 00 00 00 00 00 00
00001244: 00 00 00 00 00 00 00 00 00 00 00 00 00 00 00 00
00001254: 00 00 00 00 00 00 00 00 00 00 00 00 00 00 00 00
00001264: 00 00 00 00 00 00 00 00 00 00 00 00 00 00 00 00

# DSI0_4_HV_ROUTING + 0x00000080 (count=128)
00001274: 00 00 00 00 00 00 00 00 00 00 00 00 00 00 00 00
00001284: 00 00 00 00 00 00 00 00 00 00 00 00 00 00 00 00
00001294: 00 00 00 00 00 00 00 00 00 00 00 00 00 00 00 00
000012a4: 00 00 00 00 00 00 00 00 00 00 00 00 00 00 00 00
000012b4: 00 00 00 00 00 00 00 00 00 00 00 00 00 00 00 00
000012c4: 00 00 00 00 00 00 00 00 00 00 00 00 00 00 00 00
000012d4: 00 00 00 00 00 00 00 00 00 00 00 00 00 00 00 00
000012e4: 00 00 00 00 00 00 00 00 00 00 00 00 00 00 00 00

# DSISWITCH_0_5 (count=128)
000012f4: 00 00 00 00 00 00 00 00 00 00 00 00 00 00 00 00
00001304: 00 00 00 00 00 00 00 00 00 00 00 00 00 00 00 00
00001314: 00 00 00 00 00 00 00 00 00 00 00 00 00 00 00 00
00001324: 00 00 00 00 00 00 00 00 00 00 00 00 00 00 00 00
00001334: 00 00 00 00 00 00 00 00 00 00 00 00 00 00 00 00
00001344: 00 00 00 00 00 00 00 00 00 00 00 00 00 00 00 00
00001354: 00 00 00 00 00 00 00 00 00 00 00 00 00 00 00 00
00001364: 00 00 00 00 00 00 00 00 00 00 00 00 00 00 00 00

# DSI0_5_HV_ROUTING + 0x00000080 (count=128)
00001374: 00 00 00 00 00 00 00 00 00 00 00 00 00 00 00 00
00001384: 00 00 00 00 00 00 00 00 00 00 00 00 00 00 00 00
00001394: 00 00 00 00 00 00 00 00 00 00 00 00 00 00 00 00
000013a4: 00 00 00 00 00 00 00 00 00 00 00 00 00 00 00 00
000013b4: 00 00 00 00 00 00 00 00 00 00 00 00 00 00 00 00
000013c4: 00 00 00 00 00 00 00 00 00 00 00 00 00 00 00 00
000013d4: 00 00 00 00 00 00 00 00 00 00 00 00 00 00 00 00
000013e4: 00 00 00 00 00 00 00 00 00 00 00 00 00 00 00 00

# UDBSWITCH_0_0 (count=128)
000013f4: 00 00 00 00 00 00 00 00 00 00 00 00 00 00 00 00
00001404: 00 00 00 00 00 00 00 00 00 00 00 00 00 00 00 00
00001414: 00 00 00 00 00 00 00 00 00 00 00 00 00 00 00 00
00001424: 00 00 00 00 00 00 00 00 00 00 00 00 00 00 00 00
00001434: 00 00 00 00 00 00 00 00 00 00 00 00 00 00 00 00
00001444: 00 00 00 00 00 00 00 00 00 00 00 00 00 00 00 00
00001454: 00 00 00 00 00 00 00 00 00 00 00 00 00 00 00 00
00001464: 00 00 00 00 00 00 00 00 00 00 00 00 00 00 00 00

# UDB_1_0_HV_ROUTING + 0x00000080 (count=128)
00001474: 00 00 00 00 00 00 08 00 00 00 00 00 00 00 00 00
00001484: 00 00 00 00 00 00 00 00 00 00 00 00 00 00 00 00
00001494: 00 00 08 00 00 00 00 00 00 00 01 00 00 00 00 00
000014a4: 00 48 00 04 00 40 00 84 00 00 00 00 00 00 00 00
000014b4: 00 00 00 00 00 00 00 00 00 00 00 00 00 00 00 00
000014c4: 00 00 00 00 00 00 00 00 00 00 00 00 00 00 00 00
000014d4: 00 00 00 00 00 00 00 00 d0 00 00 00 00 00 00 00
000014e4: 00 00 00 00 00 00 00 00 00 00 00 00 00 00 00 00

# UDBSWITCH_1_0 (count=128)
000014f4: 00 00 00 00 20 00 00 01 00 00 00 00 00 00 a0 00
00001504: 02 00 00 00 00 00 02 00 08 00 00 00 00 20 a0 40
00001514: 00 80 34 00 14 08 00 41 00 00 00 02 00 00 00 00
00001524: 00 80 00 00 00 00 20 40 20 00 00 c0 00 08 20 12
00001534: 10 20 01 00 00 28 00 00 00 20 00 00 00 a0 00 06
00001544: 00 00 00 00 00 00 2a 00 00 41 00 08 04 00 00 50
00001554: 00 00 00 00 00 00 08 06 00 00 00 00 00 00 00 00
00001564: 02 00 00 00 00 00 00 00 00 00 00 00 00 00 00 00

# UDB_2_0_HV_ROUTING + 0x00000080 (count=128)
00001574: 10 04 00 00 00 80 01 00 00 00 00 00 00 00 00 00
00001584: 00 00 00 02 08 00 28 00 00 61 00 08 00 80 00 01
00001594: 00 00 00 02 00 00 60 00 00 00 08 00 00 00 00 00
000015a4: 00 10 00 00 40 00 00 00 00 00 00 00 00 00 00 00
000015b4: c0 00 30 00 81 00 00 00 00 00 08 00 38 00 c4 00
000015c4: 6e 00 34 00 00 00 7b 00 70 00 00 00 00 00 00 00
000015d4: 00 00 08 00 00 00 00 00 10 00 00 00 00 00 01 00
000015e4: 00 00 00 00 00 00 00 00 00 00 00 00 00 00 00 00

# UDBSWITCH_0_1 (count=128)
000015f4: 00 88 00 80 80 88 00 00 44 00 00 00 46 00 22 04
00001604: 02 00 00 04 00 40 00 00 00 00 00 00 00 00 00 00
00001614: 00 00 08 00 00 00 00 00 40 40 08 04 42 00 00 04
00001624: 06 00 00 00 00 80 10 00 80 00 00 00 00 40 08 04
00001634: 00 00 00 00 00 00 00 00 00 00 00 00 00 00 00 00
00001644: 00 00 00 00 00 00 00 00 00 00 00 00 00 00 00 00
00001654: 00 00 00 00 00 00 00 00 00 00 00 00 00 00 00 00
00001664: 00 00 00 00 00 00 00 00 00 00 00 00 00 00 00 00

# UDB_1_1_HV_ROUTING + 0x00000080 (count=128)
00001674: 00 00 00 00 00 00 00 00 00 00 00 00 00 00 00 00
00001684: 80 00 00 04 00 40 00 08 00 00 00 00 00 48 00 00
00001694: 02 00 11 00 00 00 00 84 00 00 00 00 00 00 00 00
000016a4: 00 00 00 00 00 00 00 00 00 00 00 00 00 00 00 00
000016b4: ad 00 f5 00 85 00 00 00 00 00 bf 00 33 00 58 00
000016c4: 00 00 00 00 00 00 00 00 00 00 00 00 00 00 00 00
000016d4: 00 00 00 00 02 00 00 00 00 00 00 00 00 00 00 00
000016e4: 00 00 00 00 00 00 00 00 00 00 00 00 00 00 00 00

# UDBSWITCH_1_1 (count=128)
000016f4: 04 00 00 00 00 00 00 00 00 00 10 00 00 00 80 00
00001704: a0 00 00 00 00 00 01 01 04 40 50 00 00 20 00 00
00001714: 00 80 00 00 00 00 00 00 00 08 81 00 40 08 80 00
00001724: 40 00 18 00 00 00 08 00 42 10 08 00 40 10 08 00
00001734: 00 a0 00 00 00 a0 00 00 20 82 00 10 00 80 00 10
00001744: 01 00 14 02 00 00 00 00 00 10 48 00 00 00 00 00
00001754: 00 00 54 00 00 00 00 00 00 00 00 00 00 00 00 00
00001764: 00 00 00 00 00 00 00 00 00 00 00 00 00 00 00 00

# UDB_2_1_HV_ROUTING + 0x00000080 (count=128)
00001774: 00 12 00 00 00 00 01 00 00 00 00 00 00 00 00 00
00001784: 40 10 02 12 08 00 00 00 40 29 c1 08 00 00 08 00
00001794: 80 00 08 00 00 00 20 00 00 00 00 21 00 00 40 10
000017a4: 00 00 00 00 00 00 21 00 00 00 00 00 00 00 00 00
000017b4: 04 00 14 00 9c 00 00 00 00 00 db 00 4e 00 7f 00
000017c4: 3c 00 3c 00 00 00 0e 00 0e 00 00 00 00 00 00 00
000017d4: 00 00 00 00 02 00 00 00 00 00 00 00 40 00 00 00
000017e4: 00 00 00 00 00 00 00 00 00 00 00 00 00 00 00 00

# UDBSWITCH_0_2 (count=128)
000017f4: 00 88 00 80 80 88 00 00 44 00 00 00 46 00 22 04
00001804: 02 00 00 04 00 40 00 00 00 00 00 00 00 00 00 00
00001814: 00 00 00 00 00 00 00 00 40 40 08 04 42 00 00 04
00001824: 06 00 00 00 00 80 10 00 80 00 00 00 00 40 08 04
00001834: 00 00 00 00 00 00 00 00 00 00 00 00 00 00 00 00
00001844: 00 00 00 00 00 00 00 00 00 00 00 00 00 00 00 00
00001854: 00 00 00 00 00 00 00 00 00 00 00 00 00 00 00 00
00001864: 00 00 00 00 00 00 00 00 00 00 00 00 00 00 00 00

# UDB_1_2_HV_ROUTING + 0x00000080 (count=128)
00001874: 00 00 00 00 00 00 00 00 00 00 00 00 00 00 00 00
00001884: 80 00 00 04 00 00 00 00 00 00 00 00 00 00 00 00
00001894: 02 00 11 00 00 00 00 00 00 00 00 00 00 00 00 00
000018a4: 00 00 10 00 02 00 00 00 00 00 00 00 00 00 00 00
000018b4: ad 00 f5 00 85 00 00 00 00 00 bf 00 33 00 58 00
000018c4: 00 00 00 00 00 00 00 00 00 00 00 00 00 00 00 00
000018d4: 00 00 01 00 00 00 00 00 80 00 00 00 40 00 04 00
000018e4: 00 00 00 00 00 00 00 00 00 00 00 00 00 00 00 00

# UDBSWITCH_1_2 (count=128)
000018f4: 04 02 01 04 40 00 88 81 01 90 00 00 00 00 50 00
00001904: 80 00 20 00 40 10 00 00 00 26 02 20 00 00 00 00
00001914: 00 81 40 18 00 00 00 00 00 02 20 00 40 08 40 00
00001924: 00 00 20 00 00 00 00 81 2c 02 00 00 20 10 08 00
00001934: 04 00 00 00 00 00 00 00 00 01 00 20 00 00 00 00
00001944: 90 00 00 10 00 00 00 00 00 00 00 00 00 00 80 00
00001954: 00 00 00 00 01 00 00 00 00 40 00 04 00 00 00 00
00001964: 00 00 00 00 00 00 00 00 00 40 00 00 00 00 00 00

# UDB_2_2_HV_ROUTING + 0x00000080 (count=128)
00001974: 00 10 00 00 00 00 00 00 00 00 00 00 00 00 00 00
00001984: 00 00 50 00 00 40 80 00 40 08 00 81 00 04 00 04
00001994: 10 00 48 00 00 00 00 00 00 00 00 00 00 00 00 00
000019a4: 40 00 04 00 00 00 48 00 00 00 00 00 00 00 00 00
000019b4: df 00 3b 00 5c 00 00 00 00 00 d5 00 94 00 67 00
000019c4: 04 00 04 00 00 00 10 00 10 00 00 00 00 00 08 00
000019d4: 00 00 01 00 00 00 00 00 00 00 00 00 00 00 04 00
000019e4: 00 00 00 00 00 00 00 00 00 00 00 00 00 00 00 00

# UDBSWITCH_0_3 (count=128)
000019f4: 00 00 00 00 00 00 00 00 00 00 00 00 00 00 00 00
00001a04: 00 00 00 00 00 00 00 00 00 00 00 00 00 00 00 00
00001a14: 00 00 00 00 00 00 00 00 00 00 00 00 00 00 00 00
00001a24: 00 00 00 00 00 00 00 00 00 00 00 00 00 00 00 00
00001a34: 00 00 00 00 00 00 00 00 00 00 00 00 00 00 00 00
00001a44: 00 00 00 00 00 00 00 00 00 00 00 00 00 00 00 00
00001a54: 00 00 00 00 00 00 00 00 00 00 00 00 00 00 00 00
00001a64: 00 00 00 00 00 00 00 00 00 00 00 00 00 00 00 00

# UDB_1_3_HV_ROUTING + 0x00000080 (count=128)
00001a74: 40 00 00 00 00 00 00 00 00 00 00 04 00 00 00 00
00001a84: 00 00 00 00 00 00 00 00 00 00 00 00 00 00 00 00
00001a94: 00 00 01 00 00 00 00 00 00 00 00 00 00 00 00 00
00001aa4: 00 00 00 00 00 00 01 00 00 00 00 00 00 00 00 00
00001ab4: 00 00 00 00 00 00 00 00 00 00 00 00 00 00 00 00
00001ac4: 00 00 00 00 00 00 00 00 00 00 00 00 00 00 00 00
00001ad4: 00 00 00 00 20 00 00 00 10 00 00 00 00 00 00 00
00001ae4: 00 00 00 00 00 00 00 00 00 00 00 00 00 00 00 00

# UDBSWITCH_1_3 (count=128)
00001af4: 80 0a 00 00 20 02 00 00 80 00 48 10 00 00 40 20
00001b04: 08 00 00 06 80 10 00 80 20 08 58 10 00 00 00 00
00001b14: c0 00 00 80 00 00 00 00 41 28 00 00 40 28 00 00
00001b24: 02 00 08 00 01 02 08 81 40 10 00 00 20 10 00 10
00001b34: 00 00 00 00 00 00 00 00 00 00 00 00 00 00 00 00
00001b44: 00 00 00 00 00 00 00 00 00 00 00 04 00 00 00 00
00001b54: 00 04 00 00 00 00 00 00 0a 04 02 00 00 00 00 00
00001b64: 00 00 00 06 00 00 00 00 00 40 00 00 00 00 00 00

# UDB_2_3_HV_ROUTING + 0x00000080 (count=128)
00001b74: 00 00 10 00 00 00 00 00 40 00 00 00 00 00 00 00
00001b84: 00 00 00 00 00 44 da 04 80 22 00 00 00 00 00 02
00001b94: 10 00 40 00 4a 00 00 00 00 00 00 00 00 00 00 00
00001ba4: 00 00 00 00 80 20 00 80 00 00 00 00 00 00 00 00
00001bb4: 5d 00 3f 00 de 00 00 00 00 00 ef 00 d3 00 2c 00
00001bc4: 00 00 00 00 00 00 02 00 02 00 00 00 00 00 08 00
00001bd4: 01 00 00 00 00 00 00 00 00 00 40 00 00 00 00 00
00001be4: 00 00 00 00 00 00 00 00 00 00 00 00 00 00 00 00

# UDBSWITCH_0_4 (count=128)
00001bf4: 00 00 00 00 00 00 00 00 00 00 00 00 00 00 00 00
00001c04: 00 00 00 00 00 00 00 00 00 00 00 00 00 00 00 00
00001c14: 00 00 00 00 00 00 00 00 00 00 00 00 00 00 00 00
00001c24: 00 00 00 00 00 00 00 00 00 00 00 00 00 00 00 00
00001c34: 00 00 00 00 00 00 00 00 00 00 00 00 00 00 00 00
00001c44: 00 00 00 00 00 00 00 00 00 00 00 00 00 00 00 00
00001c54: 00 00 00 00 00 00 00 00 00 00 00 00 00 00 00 00
00001c64: 00 00 00 00 00 00 00 00 00 00 00 00 00 00 00 00

# UDB_1_4_HV_ROUTING + 0x00000080 (count=128)
00001c74: 00 00 00 00 00 00 00 00 00 00 00 00 00 00 00 00
00001c84: 00 00 00 00 00 00 00 00 00 00 00 00 00 00 00 00
00001c94: 00 00 00 00 00 00 00 00 00 00 00 00 00 00 00 00
00001ca4: 00 00 00 00 00 00 00 00 00 00 00 00 00 00 00 00
00001cb4: 00 00 00 00 00 00 00 00 00 00 00 00 00 00 00 00
00001cc4: 00 00 00 00 00 00 00 00 00 00 00 00 00 00 00 00
00001cd4: 00 00 00 00 00 00 00 00 00 00 00 00 00 00 00 00
00001ce4: 00 00 00 00 00 00 00 00 00 00 00 00 00 00 00 00

# UDBSWITCH_1_4 (count=128)
00001cf4: c0 27 14 01 00 20 00 01 18 00 7a 00 10 00 40 10
00001d04: 4a 00 00 06 08 01 00 00 00 40 00 00 00 00 00 80
00001d14: 20 00 08 10 00 00 00 20 41 00 14 00 01 00 50 00
00001d24: 00 40 15 00 90 02 00 00 40 01 00 14 a0 00 00 00
00001d34: 00 00 00 00 00 00 00 00 00 00 00 00 00 00 00 00
00001d44: 00 00 00 00 00 00 00 00 00 00 80 00 00 00 00 00
00001d54: 00 00 00 00 00 00 00 00 00 00 00 00 00 00 00 00
00001d64: 00 00 00 00 00 00 00 00 00 40 00 00 00 00 00 00

# UDB_2_4_HV_ROUTING + 0x00000080 (count=128)
00001d74: 00 00 40 20 00 00 00 00 00 00 00 00 00 00 00 00
00001d84: 00 00 00 00 00 04 52 00 00 22 00 00 18 00 00 01
00001d94: 00 00 40 00 00 00 08 00 00 00 00 00 00 00 40 00
00001da4: 00 00 00 00 00 00 00 00 00 00 00 00 00 00 00 00
00001db4: cf 00 7f 00 5f 00 00 00 00 00 3f 00 bf 00 3f 00
00001dc4: 00 00 00 00 00 00 08 00 00 00 00 00 00 00 08 00
00001dd4: 00 00 00 00 00 00 00 00 00 00 00 00 00 00 00 00
00001de4: 00 00 00 00 00 00 00 00 00 00 00 00 00 00 00 00

# UDBSWITCH_0_5 (count=128)
00001df4: 00 00 00 00 00 00 00 00 00 00 00 00 00 00 00 00
00001e04: 00 00 00 00 00 00 00 00 00 00 00 00 00 00 00 00
00001e14: 00 00 00 00 00 00 00 00 00 00 00 00 00 00 00 00
00001e24: 00 00 00 00 00 00 00 00 00 00 00 00 00 00 00 00
00001e34: 00 00 00 00 00 00 00 00 00 00 00 00 00 00 00 00
00001e44: 00 00 00 00 00 00 00 00 00 00 00 00 00 00 00 00
00001e54: 00 00 00 00 00 00 00 00 00 00 00 00 00 00 00 00
00001e64: 00 00 00 00 00 00 00 00 00 00 00 00 00 00 00 00

# UDB_1_5_HV_ROUTING + 0x00000080 (count=128)
00001e74: 00 00 00 00 00 00 00 00 00 00 00 00 00 00 00 00
00001e84: 00 00 00 00 00 00 00 00 00 00 00 00 00 00 00 00
00001e94: 00 00 00 00 00 00 00 00 00 00 00 00 00 00 00 00
00001ea4: 00 00 00 00 00 00 00 00 00 00 00 00 00 00 00 00
00001eb4: 00 00 00 00 00 00 00 00 00 00 00 00 00 00 00 00
00001ec4: 00 00 00 00 00 00 00 00 00 00 00 00 00 00 00 00
00001ed4: 00 00 00 00 00 00 00 00 00 00 00 00 00 00 00 00
00001ee4: 00 00 00 00 00 00 00 00 00 00 00 00 00 00 00 00

# UDBSWITCH_1_5 (count=128)
00001ef4: 00 24 00 01 00 00 00 21 01 00 52 80 10 00 40 20
00001f04: 50 00 0c 20 48 00 00 00 00 22 80 10 00 00 00 00
00001f14: 00 00 00 00 00 00 00 00 09 00 00 10 10 00 10 40
00001f24: 50 00 40 01 40 00 00 21 00 00 04 00 00 00 00 20
00001f34: 00 00 00 00 00 00 00 00 00 00 00 00 00 00 00 00
00001f44: 00 00 00 00 00 00 00 00 00 00 00 00 00 00 00 00
00001f54: 00 00 00 00 00 00 00 00 00 00 00 00 00 00 00 00
00001f64: 00 00 00 00 00 00 00 00 00 00 00 00 00 00 00 00

# UDB_2_5_HV_ROUTING + 0x00000080 (count=128)
00001f74: 00 00 00 00 00 00 00 00 00 00 00 00 00 00 00 00
00001f84: 00 00 00 00 00 00 00 00 00 00 00 00 00 00 00 00
00001f94: 00 00 00 00 00 00 00 00 00 00 00 00 00 00 00 00
00001fa4: 00 00 00 00 00 00 00 00 00 00 00 00 00 00 00 00
00001fb4: a7 00 7d 00 5e 00 00 00 00 00 ee 00 bd 00 22 00
00001fc4: 00 00 00 00 00 00 00 00 00 00 00 00 00 00 00 00
00001fd4: 00 00 00 00 00 00 00 00 00 00 00 00 00 00 00 00
00001fe4: 00 00 00 00 00 00 00 00 00 00 00 00 00 00 00 00

# DSISWITCH_1_0 (count=128)
00001ff4: 04 00 00 00 00 00 00 00 00 00 00 00 00 00 00 00
00002004: 00 00 00 00 00 00 00 00 00 00 00 00 00 00 00 00
00002014: 00 00 00 00 00 00 00 00 00 00 00 00 00 00 00 00
00002024: 00 00 00 00 00 00 00 00 00 00 00 00 00 00 00 00
00002034: 00 00 00 00 00 00 00 00 00 00 00 00 00 00 00 00
00002044: 00 00 00 00 00 00 00 00 00 00 00 00 00 00 00 00
00002054: 00 00 00 00 00 00 00 00 00 00 00 00 00 00 00 00
00002064: 00 00 00 00 00 00 00 00 00 00 00 00 00 00 00 00

# DSI3_0_HV_ROUTING + 0x00000080 (count=128)
00002074: 04 00 00 00 00 00 00 00 00 00 00 00 00 00 00 00
00002084: 00 00 00 00 04 00 00 00 00 00 00 00 00 00 00 00
00002094: 00 00 00 00 00 00 00 00 00 00 00 00 00 00 00 00
000020a4: 00 00 00 00 04 00 00 00 00 00 00 00 00 00 00 00
000020b4: 10 00 00 00 00 00 00 00 00 00 00 00 00 00 00 00
000020c4: 00 00 00 00 00 00 00 00 00 00 00 00 00 00 00 00
000020d4: 20 00 00 00 00 00 00 00 00 00 00 00 00 00 00 00
000020e4: 00 00 00 00 00 00 00 00 00 00 00 00 00 00 00 00

# DSISWITCH_1_1 (count=128)
000020f4: 00 00 00 00 00 00 00 00 00 00 00 00 00 00 00 00
00002104: 00 00 00 00 00 00 00 00 00 00 00 00 00 00 00 00
00002114: 00 00 00 00 08 00 00 00 00 00 00 00 00 00 00 00
00002124: 00 00 00 00 00 00 00 00 00 00 00 00 00 00 00 00
00002134: 00 00 00 00 00 00 00 00 00 00 00 00 00 00 00 00
00002144: 00 00 00 00 00 00 00 00 00 00 00 00 00 00 00 00
00002154: 00 00 00 00 00 00 00 00 00 00 00 00 00 00 00 00
00002164: 00 00 00 00 00 00 00 00 00 00 00 00 00 00 00 00

# DSI3_1_HV_ROUTING + 0x00000080 (count=128)
00002174: 00 00 00 00 00 00 00 00 00 00 00 00 00 00 00 00
00002184: 00 00 00 00 04 00 00 00 00 00 00 00 00 00 00 00
00002194: 00 00 00 00 00 00 00 00 00 00 00 00 00 00 00 00
000021a4: 00 00 00 00 04 00 00 00 00 00 00 00 00 00 00 00
000021b4: 00 00 00 00 00 00 00 00 20 00 00 00 00 00 00 00
000021c4: 00 00 00 00 00 00 00 00 00 00 00 00 00 00 00 00
000021d4: 00 00 00 00 00 00 00 00 00 00 00 00 00 00 00 00
000021e4: 00 00 00 00 00 00 00 00 00 00 00 00 00 00 00 00

# DSISWITCH_1_2 (count=128)
000021f4: 00 00 00 00 00 00 00 00 00 00 00 00 00 00 00 00
00002204: 00 00 00 00 00 00 00 00 00 00 00 00 00 00 00 00
00002214: 00 00 00 00 00 00 00 00 00 00 00 00 00 00 00 00
00002224: 00 00 00 00 00 00 00 00 00 00 00 00 00 00 00 00
00002234: 00 00 00 00 00 00 00 00 00 00 00 00 00 00 00 00
00002244: 00 00 00 00 00 00 00 00 00 00 00 00 00 00 00 00
00002254: 00 00 00 00 00 00 00 00 00 00 00 00 00 00 00 00
00002264: 00 00 00 00 00 00 00 00 00 00 00 00 00 00 00 00

# DSI3_2_HV_ROUTING + 0x00000080 (count=128)
00002274: 00 00 00 00 00 00 00 00 00 00 00 00 00 00 00 00
00002284: 00 00 00 00 00 00 00 00 00 00 00 00 00 00 00 00
00002294: 00 00 00 00 00 00 00 00 00 00 00 01 00 00 00 00
000022a4: 00 00 00 00 00 00 00 00 00 00 00 00 00 00 00 00
000022b4: 00 00 00 00 00 00 00 00 00 00 00 00 00 00 00 00
000022c4: 00 00 00 00 00 00 00 00 00 00 00 00 00 00 00 00
000022d4: 00 00 00 00 00 00 00 00 00 00 00 00 00 00 20 00
000022e4: 00 00 00 00 00 00 00 00 00 00 00 00 00 00 00 00

# DSISWITCH_1_3 (count=128)
000022f4: 00 00 00 00 00 00 00 00 00 00 00 00 00 00 00 00
00002304: 00 00 00 00 00 00 00 00 00 00 00 00 00 00 00 00
00002314: 00 00 00 00 00 00 00 00 00 00 00 00 00 00 00 00
00002324: 00 00 00 00 00 00 00 00 00 00 00 00 00 00 00 00
00002334: 00 00 00 00 00 00 00 00 00 00 00 00 00 00 00 00
00002344: 00 00 00 00 00 00 00 00 00 00 00 00 00 00 00 00
00002354: 00 00 00 00 00 00 00 00 00 00 00 00 00 00 00 00
00002364: 00 00 00 00 00 00 00 00 00 00 00 00 00 00 00 00

# DSI3_3_HV_ROUTING + 0x00000080 (count=128)
00002374: 00 00 00 00 00 00 00 00 00 00 00 00 00 00 00 00
00002384: 00 00 00 00 00 00 00 02 00 00 00 00 00 00 00 00
00002394: 00 00 00 00 00 00 00 00 00 00 00 00 00 00 00 00
000023a4: 00 00 00 00 00 00 00 20 00 00 00 00 00 00 00 00
000023b4: 00 00 00 00 00 00 00 00 00 00 00 00 00 00 00 00
000023c4: 00 00 00 00 00 00 00 00 00 00 00 00 00 00 00 00
000023d4: 00 00 00 00 00 00 00 00 00 00 00 00 00 00 00 00
000023e4: 00 00 00 00 00 00 00 00 00 00 00 00 00 00 00 00

# DSISWITCH_1_4 (count=128)
000023f4: 00 00 00 00 00 00 00 00 00 00 00 00 00 00 00 00
00002404: 00 00 00 00 00 00 00 00 00 00 00 00 00 00 00 00
00002414: 00 00 00 00 00 00 00 00 00 00 00 00 00 00 00 00
00002424: 00 00 00 00 00 00 00 00 00 00 00 00 00 00 00 00
00002434: 00 00 00 00 00 00 00 00 00 00 00 00 00 00 00 00
00002444: 00 00 00 00 00 00 00 20 00 00 00 00 00 00 00 80
00002454: 00 00 00 00 00 00 00 00 00 00 00 00 00 00 00 00
00002464: 00 00 00 00 00 00 00 00 00 00 00 00 00 00 00 00

# DSI3_4_HV_ROUTING + 0x00000080 (count=128)
00002474: 00 00 00 c0 00 00 00 00 00 00 00 00 00 00 00 00
00002484: 00 00 00 00 00 00 00 02 00 00 00 00 00 00 00 40
00002494: 00 00 00 00 00 00 00 00 00 00 00 00 00 00 20 00
000024a4: 00 00 00 00 00 00 00 00 00 00 00 00 00 00 00 00
000024b4: 00 00 00 00 00 00 00 00 00 00 00 00 00 00 00 00
000024c4: 00 00 00 00 40 00 20 00 00 00 00 00 00 00 00 00
000024d4: 00 00 80 00 00 00 80 00 00 00 00 00 40 00 00 00
000024e4: 00 00 00 00 00 00 00 00 00 00 00 00 00 00 00 00

# DSISWITCH_1_5 (count=128)
000024f4: 00 00 00 00 00 00 00 00 00 00 00 00 00 00 00 00
00002504: 00 00 20 00 00 00 80 00 00 00 00 00 00 00 00 00
00002514: 00 00 00 00 00 00 00 00 00 00 00 00 00 00 00 00
00002524: 00 00 00 40 00 00 00 00 00 00 00 02 00 00 80 00
00002534: 00 00 00 00 00 00 00 00 00 00 00 00 00 00 00 00
00002544: 00 00 00 00 00 00 00 00 00 00 00 00 00 00 00 00
00002554: 00 00 00 00 00 00 00 00 00 00 00 00 00 00 00 00
00002564: 00 00 00 00 00 00 00 00 00 00 00 00 00 00 00 00

# DSI3_5_HV_ROUTING + 0x00000080 (count=128)
00002574: 00 00 00 00 00 00 00 00 00 00 00 00 00 00 00 00
00002584: 00 00 00 00 00 00 00 00 00 00 00 00 00 00 00 00
00002594: 00 00 00 00 00 00 00 00 00 00 00 00 00 00 00 00
000025a4: 00 00 00 00 00 00 00 00 00 00 00 00 00 00 00 00
000025b4: 00 00 00 00 30 00 00 00 00 00 00 00 10 00 60 00
000025c4: 00 00 00 00 00 00 00 00 00 00 00 00 00 00 00 00
000025d4: 00 00 00 00 00 00 00 00 00 00 00 00 00 00 00 00
000025e4: 00 00 00 00 00 00 00 00 00 00 00 00 00 00 00 00

