ARM GAS  C:\Users\JOSEAN~1\AppData\Local\Temp\ccIzeLPC.s 			page 1


   1              		.syntax unified
   2              		.cpu cortex-m3
   3              		.fpu softvfp
   4              		.eabi_attribute 20, 1
   5              		.eabi_attribute 21, 1
   6              		.eabi_attribute 23, 3
   7              		.eabi_attribute 24, 1
   8              		.eabi_attribute 25, 1
   9              		.eabi_attribute 26, 1
  10              		.eabi_attribute 30, 6
  11              		.eabi_attribute 34, 1
  12              		.eabi_attribute 18, 4
  13              		.thumb
  14              		.file	"main.c"
  15              		.text
  16              	.Ltext0:
  17              		.cfi_sections	.debug_frame
  18              		.section	.text.InterruptC,"ax",%progbits
  19              		.align	2
  20              		.global	InterruptC
  21              		.thumb
  22              		.thumb_func
  23              		.type	InterruptC, %function
  24              	InterruptC:
  25              	.LFB56:
  26              		.file 1 ".\\main.c"
   1:.\main.c      **** /* ========================================
   2:.\main.c      **** *Manejo de INTERRUPCIONES
   3:.\main.c      **** * Al pulsar 4 veces un botón queremos que se active una interrupción
   4:.\main.c      **** * que activará el Timer y mantendrá encendido un LED durante un tiempo
   5:.\main.c      ****  * ========================================
   6:.\main.c      **** */
   7:.\main.c      **** #include <project.h>
   8:.\main.c      **** 
   9:.\main.c      **** CY_ISR(InterruptC){ //Cuando se ha pulsado el botón 4 veces se activa esta interrupción
  27              		.loc 1 9 0
  28              		.cfi_startproc
  29              		@ args = 0, pretend = 0, frame = 0
  30              		@ frame_needed = 1, uses_anonymous_args = 0
  31 0000 80B5     		push	{r7, lr}
  32              		.cfi_def_cfa_offset 8
  33              		.cfi_offset 7, -8
  34              		.cfi_offset 14, -4
  35 0002 00AF     		add	r7, sp, #0
  36              		.cfi_def_cfa_register 7
  10:.\main.c      ****     LED_Write(1); //Encendemos LED
  37              		.loc 1 10 0
  38 0004 0120     		movs	r0, #1
  39 0006 FFF7FEFF 		bl	LED_Write
  11:.\main.c      ****     Timer_Start(); //Activamos el Timer
  40              		.loc 1 11 0
  41 000a FFF7FEFF 		bl	Timer_Start
  12:.\main.c      **** }
  42              		.loc 1 12 0
  43 000e 80BD     		pop	{r7, pc}
  44              		.cfi_endproc
  45              	.LFE56:
ARM GAS  C:\Users\JOSEAN~1\AppData\Local\Temp\ccIzeLPC.s 			page 2


  46              		.size	InterruptC, .-InterruptC
  47              		.section	.text.InterruptT,"ax",%progbits
  48              		.align	2
  49              		.global	InterruptT
  50              		.thumb
  51              		.thumb_func
  52              		.type	InterruptT, %function
  53              	InterruptT:
  54              	.LFB57:
  13:.\main.c      **** 
  14:.\main.c      **** CY_ISR(InterruptT){ //Cuando acaba el Timer
  55              		.loc 1 14 0
  56              		.cfi_startproc
  57              		@ args = 0, pretend = 0, frame = 0
  58              		@ frame_needed = 1, uses_anonymous_args = 0
  59 0000 80B5     		push	{r7, lr}
  60              		.cfi_def_cfa_offset 8
  61              		.cfi_offset 7, -8
  62              		.cfi_offset 14, -4
  63 0002 00AF     		add	r7, sp, #0
  64              		.cfi_def_cfa_register 7
  15:.\main.c      ****     LED_Write(0); //Apagamos el LED
  65              		.loc 1 15 0
  66 0004 0020     		movs	r0, #0
  67 0006 FFF7FEFF 		bl	LED_Write
  16:.\main.c      ****     Counter_Stop(); //Paramos contador
  68              		.loc 1 16 0
  69 000a FFF7FEFF 		bl	Counter_Stop
  17:.\main.c      ****     Timer_Stop(); //Apagamos Timer
  70              		.loc 1 17 0
  71 000e FFF7FEFF 		bl	Timer_Stop
  18:.\main.c      ****     
  19:.\main.c      ****    // Counter_WritePeriod(4);//Escribimos el periodo del contador
  20:.\main.c      ****    // Timer_WritePeriod(48000000);//Escribimos el período del Timer
  21:.\main.c      ****     
  22:.\main.c      ****      Counter_Start(); //Volvemos a encender el contador, que es el que inicializa el programa
  72              		.loc 1 22 0
  73 0012 FFF7FEFF 		bl	Counter_Start
  23:.\main.c      **** }
  74              		.loc 1 23 0
  75 0016 80BD     		pop	{r7, pc}
  76              		.cfi_endproc
  77              	.LFE57:
  78              		.size	InterruptT, .-InterruptT
  79              		.section	.text.main,"ax",%progbits
  80              		.align	2
  81              		.global	main
  82              		.thumb
  83              		.thumb_func
  84              		.type	main, %function
  85              	main:
  86              	.LFB58:
  24:.\main.c      **** 
  25:.\main.c      **** int main()
  26:.\main.c      **** {
  87              		.loc 1 26 0
  88              		.cfi_startproc
ARM GAS  C:\Users\JOSEAN~1\AppData\Local\Temp\ccIzeLPC.s 			page 3


  89              		@ args = 0, pretend = 0, frame = 0
  90              		@ frame_needed = 1, uses_anonymous_args = 0
  91 0000 80B5     		push	{r7, lr}
  92              		.cfi_def_cfa_offset 8
  93              		.cfi_offset 7, -8
  94              		.cfi_offset 14, -4
  95 0002 00AF     		add	r7, sp, #0
  96              		.cfi_def_cfa_register 7
  27:.\main.c      ****     /* Place your initialization/startup code here (e.g. MyInst_Start()) */
  28:.\main.c      **** 
  29:.\main.c      ****     CyGlobalIntEnable; /* Uncomment this line to enable global interrupts. */
  97              		.loc 1 29 0
  98              	@ 29 ".\main.c" 1
  99 0004 62B6     		CPSIE   i
 100              	@ 0 "" 2
  30:.\main.c      ****     
  31:.\main.c      ****    // Clock1_Start(); //Iniciamos relojes
  32:.\main.c      ****     //BUS_CLK_Start();
  33:.\main.c      ****     
  34:.\main.c      ****     Counter_Start(); //Encendemos contador
 101              		.loc 1 34 0
 102              		.thumb
 103 0006 FFF7FEFF 		bl	Counter_Start
  35:.\main.c      ****     isrC_StartEx(InterruptC);
 104              		.loc 1 35 0
 105 000a 0348     		ldr	r0, .L5
 106 000c FFF7FEFF 		bl	isrC_StartEx
  36:.\main.c      ****     isrT_StartEx(InterruptT);
 107              		.loc 1 36 0
 108 0010 0248     		ldr	r0, .L5+4
 109 0012 FFF7FEFF 		bl	isrT_StartEx
 110              	.L4:
  37:.\main.c      ****     
  38:.\main.c      ****     for(;;)
  39:.\main.c      ****     {
  40:.\main.c      ****         /* Place your application code here. */
  41:.\main.c      ****     }
 111              		.loc 1 41 0 discriminator 1
 112 0016 FEE7     		b	.L4
 113              	.L6:
 114              		.align	2
 115              	.L5:
 116 0018 00000000 		.word	InterruptC
 117 001c 00000000 		.word	InterruptT
 118              		.cfi_endproc
 119              	.LFE58:
 120              		.size	main, .-main
 121              		.text
 122              	.Letext0:
 123              		.file 2 "c:\\program files (x86)\\cypress\\psoc creator\\3.1\\psoc creator\\import\\gnu_cs\\arm\\4
 124              		.file 3 "c:\\program files (x86)\\cypress\\psoc creator\\3.1\\psoc creator\\import\\gnu_cs\\arm\\4
 125              		.file 4 ".\\Generated_Source\\PSoC5/core_cm3.h"
 126              		.section	.debug_info,"",%progbits
 127              	.Ldebug_info0:
 128 0000 E2000000 		.4byte	0xe2
 129 0004 0400     		.2byte	0x4
 130 0006 00000000 		.4byte	.Ldebug_abbrev0
ARM GAS  C:\Users\JOSEAN~1\AppData\Local\Temp\ccIzeLPC.s 			page 4


 131 000a 04       		.byte	0x4
 132 000b 01       		.uleb128 0x1
 133 000c 1A010000 		.4byte	.LASF18
 134 0010 01       		.byte	0x1
 135 0011 CC000000 		.4byte	.LASF19
 136 0015 5C000000 		.4byte	.LASF20
 137 0019 00000000 		.4byte	.Ldebug_ranges0+0
 138 001d 00000000 		.4byte	0
 139 0021 00000000 		.4byte	.Ldebug_line0
 140 0025 02       		.uleb128 0x2
 141 0026 01       		.byte	0x1
 142 0027 06       		.byte	0x6
 143 0028 E9000000 		.4byte	.LASF0
 144 002c 02       		.uleb128 0x2
 145 002d 01       		.byte	0x1
 146 002e 08       		.byte	0x8
 147 002f A5000000 		.4byte	.LASF1
 148 0033 02       		.uleb128 0x2
 149 0034 02       		.byte	0x2
 150 0035 05       		.byte	0x5
 151 0036 10010000 		.4byte	.LASF2
 152 003a 02       		.uleb128 0x2
 153 003b 02       		.byte	0x2
 154 003c 07       		.byte	0x7
 155 003d 0E000000 		.4byte	.LASF3
 156 0041 03       		.uleb128 0x3
 157 0042 F5000000 		.4byte	.LASF9
 158 0046 02       		.byte	0x2
 159 0047 37       		.byte	0x37
 160 0048 4C000000 		.4byte	0x4c
 161 004c 02       		.uleb128 0x2
 162 004d 04       		.byte	0x4
 163 004e 05       		.byte	0x5
 164 004f B8000000 		.4byte	.LASF4
 165 0053 02       		.uleb128 0x2
 166 0054 04       		.byte	0x4
 167 0055 07       		.byte	0x7
 168 0056 33000000 		.4byte	.LASF5
 169 005a 02       		.uleb128 0x2
 170 005b 08       		.byte	0x8
 171 005c 05       		.byte	0x5
 172 005d 00000000 		.4byte	.LASF6
 173 0061 02       		.uleb128 0x2
 174 0062 08       		.byte	0x8
 175 0063 07       		.byte	0x7
 176 0064 45000000 		.4byte	.LASF7
 177 0068 04       		.uleb128 0x4
 178 0069 04       		.byte	0x4
 179 006a 05       		.byte	0x5
 180 006b 696E7400 		.ascii	"int\000"
 181 006f 02       		.uleb128 0x2
 182 0070 04       		.byte	0x4
 183 0071 07       		.byte	0x7
 184 0072 21000000 		.4byte	.LASF8
 185 0076 03       		.uleb128 0x3
 186 0077 96010000 		.4byte	.LASF10
 187 007b 03       		.byte	0x3
ARM GAS  C:\Users\JOSEAN~1\AppData\Local\Temp\ccIzeLPC.s 			page 5


 188 007c 41       		.byte	0x41
 189 007d 41000000 		.4byte	0x41
 190 0081 02       		.uleb128 0x2
 191 0082 04       		.byte	0x4
 192 0083 04       		.byte	0x4
 193 0084 FF000000 		.4byte	.LASF11
 194 0088 02       		.uleb128 0x2
 195 0089 08       		.byte	0x8
 196 008a 04       		.byte	0x4
 197 008b D5000000 		.4byte	.LASF12
 198 008f 02       		.uleb128 0x2
 199 0090 01       		.byte	0x1
 200 0091 08       		.byte	0x8
 201 0092 B3000000 		.4byte	.LASF13
 202 0096 02       		.uleb128 0x2
 203 0097 04       		.byte	0x4
 204 0098 07       		.byte	0x7
 205 0099 9E010000 		.4byte	.LASF14
 206 009d 05       		.uleb128 0x5
 207 009e C1000000 		.4byte	.LASF15
 208 00a2 01       		.byte	0x1
 209 00a3 09       		.byte	0x9
 210 00a4 00000000 		.4byte	.LFB56
 211 00a8 10000000 		.4byte	.LFE56-.LFB56
 212 00ac 01       		.uleb128 0x1
 213 00ad 9C       		.byte	0x9c
 214 00ae 05       		.uleb128 0x5
 215 00af 05010000 		.4byte	.LASF16
 216 00b3 01       		.byte	0x1
 217 00b4 0E       		.byte	0xe
 218 00b5 00000000 		.4byte	.LFB57
 219 00b9 18000000 		.4byte	.LFE57-.LFB57
 220 00bd 01       		.uleb128 0x1
 221 00be 9C       		.byte	0x9c
 222 00bf 06       		.uleb128 0x6
 223 00c0 2E000000 		.4byte	.LASF17
 224 00c4 01       		.byte	0x1
 225 00c5 19       		.byte	0x19
 226 00c6 68000000 		.4byte	0x68
 227 00ca 00000000 		.4byte	.LFB58
 228 00ce 20000000 		.4byte	.LFE58-.LFB58
 229 00d2 01       		.uleb128 0x1
 230 00d3 9C       		.byte	0x9c
 231 00d4 07       		.uleb128 0x7
 232 00d5 DC000000 		.4byte	.LASF21
 233 00d9 04       		.byte	0x4
 234 00da 1606     		.2byte	0x616
 235 00dc E0000000 		.4byte	0xe0
 236 00e0 08       		.uleb128 0x8
 237 00e1 76000000 		.4byte	0x76
 238 00e5 00       		.byte	0
 239              		.section	.debug_abbrev,"",%progbits
 240              	.Ldebug_abbrev0:
 241 0000 01       		.uleb128 0x1
 242 0001 11       		.uleb128 0x11
 243 0002 01       		.byte	0x1
 244 0003 25       		.uleb128 0x25
ARM GAS  C:\Users\JOSEAN~1\AppData\Local\Temp\ccIzeLPC.s 			page 6


 245 0004 0E       		.uleb128 0xe
 246 0005 13       		.uleb128 0x13
 247 0006 0B       		.uleb128 0xb
 248 0007 03       		.uleb128 0x3
 249 0008 0E       		.uleb128 0xe
 250 0009 1B       		.uleb128 0x1b
 251 000a 0E       		.uleb128 0xe
 252 000b 55       		.uleb128 0x55
 253 000c 17       		.uleb128 0x17
 254 000d 11       		.uleb128 0x11
 255 000e 01       		.uleb128 0x1
 256 000f 10       		.uleb128 0x10
 257 0010 17       		.uleb128 0x17
 258 0011 00       		.byte	0
 259 0012 00       		.byte	0
 260 0013 02       		.uleb128 0x2
 261 0014 24       		.uleb128 0x24
 262 0015 00       		.byte	0
 263 0016 0B       		.uleb128 0xb
 264 0017 0B       		.uleb128 0xb
 265 0018 3E       		.uleb128 0x3e
 266 0019 0B       		.uleb128 0xb
 267 001a 03       		.uleb128 0x3
 268 001b 0E       		.uleb128 0xe
 269 001c 00       		.byte	0
 270 001d 00       		.byte	0
 271 001e 03       		.uleb128 0x3
 272 001f 16       		.uleb128 0x16
 273 0020 00       		.byte	0
 274 0021 03       		.uleb128 0x3
 275 0022 0E       		.uleb128 0xe
 276 0023 3A       		.uleb128 0x3a
 277 0024 0B       		.uleb128 0xb
 278 0025 3B       		.uleb128 0x3b
 279 0026 0B       		.uleb128 0xb
 280 0027 49       		.uleb128 0x49
 281 0028 13       		.uleb128 0x13
 282 0029 00       		.byte	0
 283 002a 00       		.byte	0
 284 002b 04       		.uleb128 0x4
 285 002c 24       		.uleb128 0x24
 286 002d 00       		.byte	0
 287 002e 0B       		.uleb128 0xb
 288 002f 0B       		.uleb128 0xb
 289 0030 3E       		.uleb128 0x3e
 290 0031 0B       		.uleb128 0xb
 291 0032 03       		.uleb128 0x3
 292 0033 08       		.uleb128 0x8
 293 0034 00       		.byte	0
 294 0035 00       		.byte	0
 295 0036 05       		.uleb128 0x5
 296 0037 2E       		.uleb128 0x2e
 297 0038 00       		.byte	0
 298 0039 3F       		.uleb128 0x3f
 299 003a 19       		.uleb128 0x19
 300 003b 03       		.uleb128 0x3
 301 003c 0E       		.uleb128 0xe
ARM GAS  C:\Users\JOSEAN~1\AppData\Local\Temp\ccIzeLPC.s 			page 7


 302 003d 3A       		.uleb128 0x3a
 303 003e 0B       		.uleb128 0xb
 304 003f 3B       		.uleb128 0x3b
 305 0040 0B       		.uleb128 0xb
 306 0041 27       		.uleb128 0x27
 307 0042 19       		.uleb128 0x19
 308 0043 11       		.uleb128 0x11
 309 0044 01       		.uleb128 0x1
 310 0045 12       		.uleb128 0x12
 311 0046 06       		.uleb128 0x6
 312 0047 40       		.uleb128 0x40
 313 0048 18       		.uleb128 0x18
 314 0049 9642     		.uleb128 0x2116
 315 004b 19       		.uleb128 0x19
 316 004c 00       		.byte	0
 317 004d 00       		.byte	0
 318 004e 06       		.uleb128 0x6
 319 004f 2E       		.uleb128 0x2e
 320 0050 00       		.byte	0
 321 0051 3F       		.uleb128 0x3f
 322 0052 19       		.uleb128 0x19
 323 0053 03       		.uleb128 0x3
 324 0054 0E       		.uleb128 0xe
 325 0055 3A       		.uleb128 0x3a
 326 0056 0B       		.uleb128 0xb
 327 0057 3B       		.uleb128 0x3b
 328 0058 0B       		.uleb128 0xb
 329 0059 49       		.uleb128 0x49
 330 005a 13       		.uleb128 0x13
 331 005b 11       		.uleb128 0x11
 332 005c 01       		.uleb128 0x1
 333 005d 12       		.uleb128 0x12
 334 005e 06       		.uleb128 0x6
 335 005f 40       		.uleb128 0x40
 336 0060 18       		.uleb128 0x18
 337 0061 9642     		.uleb128 0x2116
 338 0063 19       		.uleb128 0x19
 339 0064 00       		.byte	0
 340 0065 00       		.byte	0
 341 0066 07       		.uleb128 0x7
 342 0067 34       		.uleb128 0x34
 343 0068 00       		.byte	0
 344 0069 03       		.uleb128 0x3
 345 006a 0E       		.uleb128 0xe
 346 006b 3A       		.uleb128 0x3a
 347 006c 0B       		.uleb128 0xb
 348 006d 3B       		.uleb128 0x3b
 349 006e 05       		.uleb128 0x5
 350 006f 49       		.uleb128 0x49
 351 0070 13       		.uleb128 0x13
 352 0071 3F       		.uleb128 0x3f
 353 0072 19       		.uleb128 0x19
 354 0073 3C       		.uleb128 0x3c
 355 0074 19       		.uleb128 0x19
 356 0075 00       		.byte	0
 357 0076 00       		.byte	0
 358 0077 08       		.uleb128 0x8
ARM GAS  C:\Users\JOSEAN~1\AppData\Local\Temp\ccIzeLPC.s 			page 8


 359 0078 35       		.uleb128 0x35
 360 0079 00       		.byte	0
 361 007a 49       		.uleb128 0x49
 362 007b 13       		.uleb128 0x13
 363 007c 00       		.byte	0
 364 007d 00       		.byte	0
 365 007e 00       		.byte	0
 366              		.section	.debug_aranges,"",%progbits
 367 0000 2C000000 		.4byte	0x2c
 368 0004 0200     		.2byte	0x2
 369 0006 00000000 		.4byte	.Ldebug_info0
 370 000a 04       		.byte	0x4
 371 000b 00       		.byte	0
 372 000c 0000     		.2byte	0
 373 000e 0000     		.2byte	0
 374 0010 00000000 		.4byte	.LFB56
 375 0014 10000000 		.4byte	.LFE56-.LFB56
 376 0018 00000000 		.4byte	.LFB57
 377 001c 18000000 		.4byte	.LFE57-.LFB57
 378 0020 00000000 		.4byte	.LFB58
 379 0024 20000000 		.4byte	.LFE58-.LFB58
 380 0028 00000000 		.4byte	0
 381 002c 00000000 		.4byte	0
 382              		.section	.debug_ranges,"",%progbits
 383              	.Ldebug_ranges0:
 384 0000 00000000 		.4byte	.LFB56
 385 0004 10000000 		.4byte	.LFE56
 386 0008 00000000 		.4byte	.LFB57
 387 000c 18000000 		.4byte	.LFE57
 388 0010 00000000 		.4byte	.LFB58
 389 0014 20000000 		.4byte	.LFE58
 390 0018 00000000 		.4byte	0
 391 001c 00000000 		.4byte	0
 392              		.section	.debug_line,"",%progbits
 393              	.Ldebug_line0:
 394 0000 86010000 		.section	.debug_str,"MS",%progbits,1
 394      02004401 
 394      00000201 
 394      FB0E0D00 
 394      01010101 
 395              	.LASF6:
 396 0000 6C6F6E67 		.ascii	"long long int\000"
 396      206C6F6E 
 396      6720696E 
 396      7400
 397              	.LASF3:
 398 000e 73686F72 		.ascii	"short unsigned int\000"
 398      7420756E 
 398      7369676E 
 398      65642069 
 398      6E7400
 399              	.LASF8:
 400 0021 756E7369 		.ascii	"unsigned int\000"
 400      676E6564 
 400      20696E74 
 400      00
 401              	.LASF17:
ARM GAS  C:\Users\JOSEAN~1\AppData\Local\Temp\ccIzeLPC.s 			page 9


 402 002e 6D61696E 		.ascii	"main\000"
 402      00
 403              	.LASF5:
 404 0033 6C6F6E67 		.ascii	"long unsigned int\000"
 404      20756E73 
 404      69676E65 
 404      6420696E 
 404      7400
 405              	.LASF7:
 406 0045 6C6F6E67 		.ascii	"long long unsigned int\000"
 406      206C6F6E 
 406      6720756E 
 406      7369676E 
 406      65642069 
 407              	.LASF20:
 408 005c 473A5C44 		.ascii	"G:\\Documentos\\UNIVERSIDAD\\TFG\\Psoc_Practicas\\P"
 408      6F63756D 
 408      656E746F 
 408      735C554E 
 408      49564552 
 409 008a 72616374 		.ascii	"racticas\\Int_ButtLED.cydsn\000"
 409      69636173 
 409      5C496E74 
 409      5F427574 
 409      744C4544 
 410              	.LASF1:
 411 00a5 756E7369 		.ascii	"unsigned char\000"
 411      676E6564 
 411      20636861 
 411      7200
 412              	.LASF13:
 413 00b3 63686172 		.ascii	"char\000"
 413      00
 414              	.LASF4:
 415 00b8 6C6F6E67 		.ascii	"long int\000"
 415      20696E74 
 415      00
 416              	.LASF15:
 417 00c1 496E7465 		.ascii	"InterruptC\000"
 417      72727570 
 417      744300
 418              	.LASF19:
 419 00cc 2E5C6D61 		.ascii	".\\main.c\000"
 419      696E2E63 
 419      00
 420              	.LASF12:
 421 00d5 646F7562 		.ascii	"double\000"
 421      6C6500
 422              	.LASF21:
 423 00dc 49544D5F 		.ascii	"ITM_RxBuffer\000"
 423      52784275 
 423      66666572 
 423      00
 424              	.LASF0:
 425 00e9 7369676E 		.ascii	"signed char\000"
 425      65642063 
 425      68617200 
ARM GAS  C:\Users\JOSEAN~1\AppData\Local\Temp\ccIzeLPC.s 			page 10


 426              	.LASF9:
 427 00f5 5F5F696E 		.ascii	"__int32_t\000"
 427      7433325F 
 427      7400
 428              	.LASF11:
 429 00ff 666C6F61 		.ascii	"float\000"
 429      7400
 430              	.LASF16:
 431 0105 496E7465 		.ascii	"InterruptT\000"
 431      72727570 
 431      745400
 432              	.LASF2:
 433 0110 73686F72 		.ascii	"short int\000"
 433      7420696E 
 433      7400
 434              	.LASF18:
 435 011a 474E5520 		.ascii	"GNU C 4.8.4 20140526 (release) [ARM/embedded-4_8-br"
 435      4320342E 
 435      382E3420 
 435      32303134 
 435      30353236 
 436 014d 616E6368 		.ascii	"anch revision 211358] -mcpu=cortex-m3 -mthumb -g -O"
 436      20726576 
 436      6973696F 
 436      6E203231 
 436      31333538 
 437 0180 30202D66 		.ascii	"0 -ffunction-sections\000"
 437      66756E63 
 437      74696F6E 
 437      2D736563 
 437      74696F6E 
 438              	.LASF10:
 439 0196 696E7433 		.ascii	"int32_t\000"
 439      325F7400 
 440              	.LASF14:
 441 019e 73697A65 		.ascii	"sizetype\000"
 441      74797065 
 441      00
 442              		.ident	"GCC: (GNU Tools for ARM Embedded Processors) 4.8.4 20140526 (release) [ARM/embedded-4_8-br
