ARM GAS  C:\Users\JOSEAN~1\AppData\Local\Temp\ccL29UpK.s 			page 1


   1              		.syntax unified
   2              		.cpu cortex-m3
   3              		.fpu softvfp
   4              		.eabi_attribute 20, 1
   5              		.eabi_attribute 21, 1
   6              		.eabi_attribute 23, 3
   7              		.eabi_attribute 24, 1
   8              		.eabi_attribute 25, 1
   9              		.eabi_attribute 26, 1
  10              		.eabi_attribute 30, 6
  11              		.eabi_attribute 34, 1
  12              		.eabi_attribute 18, 4
  13              		.thumb
  14              		.syntax unified
  15              		.file	"WaveDAC8_1.c"
  16              		.text
  17              	.Ltext0:
  18              		.cfi_sections	.debug_frame
  19              		.global	WaveDAC8_1_initVar
  20              		.bss
  21              		.type	WaveDAC8_1_initVar, %object
  22              		.size	WaveDAC8_1_initVar, 1
  23              	WaveDAC8_1_initVar:
  24 0000 00       		.space	1
  25              		.global	WaveDAC8_1_wave1
  26              		.section	.rodata
  27              		.align	2
  28              		.type	WaveDAC8_1_wave1, %object
  29              		.size	WaveDAC8_1_wave1, 100
  30              	WaveDAC8_1_wave1:
  31 0000 80       		.byte	-128
  32 0001 87       		.byte	-121
  33 0002 8F       		.byte	-113
  34 0003 97       		.byte	-105
  35 0004 9F       		.byte	-97
  36 0005 A6       		.byte	-90
  37 0006 AE       		.byte	-82
  38 0007 B5       		.byte	-75
  39 0008 BC       		.byte	-68
  40 0009 C2       		.byte	-62
  41 000a C9       		.byte	-55
  42 000b CF       		.byte	-49
  43 000c D5       		.byte	-43
  44 000d DB       		.byte	-37
  45 000e E0       		.byte	-32
  46 000f E5       		.byte	-27
  47 0010 E9       		.byte	-23
  48 0011 ED       		.byte	-19
  49 0012 F1       		.byte	-15
  50 0013 F4       		.byte	-12
  51 0014 F6       		.byte	-10
  52 0015 F9       		.byte	-7
  53 0016 FA       		.byte	-6
  54 0017 FC       		.byte	-4
  55 0018 FC       		.byte	-4
  56 0019 FC       		.byte	-4
  57 001a FC       		.byte	-4
ARM GAS  C:\Users\JOSEAN~1\AppData\Local\Temp\ccL29UpK.s 			page 2


  58 001b FC       		.byte	-4
  59 001c FA       		.byte	-6
  60 001d F9       		.byte	-7
  61 001e F6       		.byte	-10
  62 001f F4       		.byte	-12
  63 0020 F1       		.byte	-15
  64 0021 ED       		.byte	-19
  65 0022 E9       		.byte	-23
  66 0023 E5       		.byte	-27
  67 0024 E0       		.byte	-32
  68 0025 DB       		.byte	-37
  69 0026 D5       		.byte	-43
  70 0027 CF       		.byte	-49
  71 0028 C9       		.byte	-55
  72 0029 C2       		.byte	-62
  73 002a BC       		.byte	-68
  74 002b B5       		.byte	-75
  75 002c AE       		.byte	-82
  76 002d A6       		.byte	-90
  77 002e 9F       		.byte	-97
  78 002f 97       		.byte	-105
  79 0030 8F       		.byte	-113
  80 0031 87       		.byte	-121
  81 0032 80       		.byte	-128
  82 0033 78       		.byte	120
  83 0034 70       		.byte	112
  84 0035 68       		.byte	104
  85 0036 60       		.byte	96
  86 0037 59       		.byte	89
  87 0038 51       		.byte	81
  88 0039 4A       		.byte	74
  89 003a 43       		.byte	67
  90 003b 3D       		.byte	61
  91 003c 36       		.byte	54
  92 003d 30       		.byte	48
  93 003e 2A       		.byte	42
  94 003f 24       		.byte	36
  95 0040 1F       		.byte	31
  96 0041 1A       		.byte	26
  97 0042 16       		.byte	22
  98 0043 12       		.byte	18
  99 0044 0E       		.byte	14
 100 0045 0B       		.byte	11
 101 0046 09       		.byte	9
 102 0047 06       		.byte	6
 103 0048 05       		.byte	5
 104 0049 03       		.byte	3
 105 004a 03       		.byte	3
 106 004b 03       		.byte	3
 107 004c 03       		.byte	3
 108 004d 03       		.byte	3
 109 004e 05       		.byte	5
 110 004f 06       		.byte	6
 111 0050 09       		.byte	9
 112 0051 0B       		.byte	11
 113 0052 0E       		.byte	14
 114 0053 12       		.byte	18
ARM GAS  C:\Users\JOSEAN~1\AppData\Local\Temp\ccL29UpK.s 			page 3


 115 0054 16       		.byte	22
 116 0055 1A       		.byte	26
 117 0056 1F       		.byte	31
 118 0057 24       		.byte	36
 119 0058 2A       		.byte	42
 120 0059 30       		.byte	48
 121 005a 36       		.byte	54
 122 005b 3D       		.byte	61
 123 005c 43       		.byte	67
 124 005d 4A       		.byte	74
 125 005e 51       		.byte	81
 126 005f 59       		.byte	89
 127 0060 60       		.byte	96
 128 0061 68       		.byte	104
 129 0062 70       		.byte	112
 130 0063 78       		.byte	120
 131              		.global	WaveDAC8_1_wave2
 132              		.align	2
 133              		.type	WaveDAC8_1_wave2, %object
 134              		.size	WaveDAC8_1_wave2, 50
 135              	WaveDAC8_1_wave2:
 136 0064 80       		.byte	-128
 137 0065 90       		.byte	-112
 138 0066 9F       		.byte	-97
 139 0067 AE       		.byte	-82
 140 0068 BC       		.byte	-68
 141 0069 C9       		.byte	-55
 142 006a D6       		.byte	-42
 143 006b E0       		.byte	-32
 144 006c EA       		.byte	-22
 145 006d F1       		.byte	-15
 146 006e F7       		.byte	-9
 147 006f FB       		.byte	-5
 148 0070 FD       		.byte	-3
 149 0071 FD       		.byte	-3
 150 0072 FB       		.byte	-5
 151 0073 F7       		.byte	-9
 152 0074 F1       		.byte	-15
 153 0075 EA       		.byte	-22
 154 0076 E0       		.byte	-32
 155 0077 D6       		.byte	-42
 156 0078 C9       		.byte	-55
 157 0079 BC       		.byte	-68
 158 007a AE       		.byte	-82
 159 007b 9F       		.byte	-97
 160 007c 90       		.byte	-112
 161 007d 80       		.byte	-128
 162 007e 70       		.byte	112
 163 007f 61       		.byte	97
 164 0080 52       		.byte	82
 165 0081 44       		.byte	68
 166 0082 37       		.byte	55
 167 0083 2A       		.byte	42
 168 0084 20       		.byte	32
 169 0085 16       		.byte	22
 170 0086 0F       		.byte	15
 171 0087 09       		.byte	9
ARM GAS  C:\Users\JOSEAN~1\AppData\Local\Temp\ccL29UpK.s 			page 4


 172 0088 05       		.byte	5
 173 0089 03       		.byte	3
 174 008a 03       		.byte	3
 175 008b 05       		.byte	5
 176 008c 09       		.byte	9
 177 008d 0F       		.byte	15
 178 008e 16       		.byte	22
 179 008f 20       		.byte	32
 180 0090 2A       		.byte	42
 181 0091 37       		.byte	55
 182 0092 44       		.byte	68
 183 0093 52       		.byte	82
 184 0094 61       		.byte	97
 185 0095 70       		.byte	112
 186              		.bss
 187              	WaveDAC8_1_Wave1Chan:
 188 0001 00       		.space	1
 189              	WaveDAC8_1_Wave2Chan:
 190 0002 00       		.space	1
 191              	WaveDAC8_1_Wave1TD:
 192 0003 00       		.space	1
 193              	WaveDAC8_1_Wave2TD:
 194 0004 00       		.space	1
 195              		.section	.text.WaveDAC8_1_Init,"ax",%progbits
 196              		.align	2
 197              		.global	WaveDAC8_1_Init
 198              		.thumb
 199              		.thumb_func
 200              		.type	WaveDAC8_1_Init, %function
 201              	WaveDAC8_1_Init:
 202              	.LFB0:
 203              		.file 1 "Generated_Source\\PSoC5\\WaveDAC8_1.c"
   1:Generated_Source\PSoC5/WaveDAC8_1.c **** /*******************************************************************************
   2:Generated_Source\PSoC5/WaveDAC8_1.c **** * File Name: WaveDAC8_1.c
   3:Generated_Source\PSoC5/WaveDAC8_1.c **** * Version 2.10
   4:Generated_Source\PSoC5/WaveDAC8_1.c **** *
   5:Generated_Source\PSoC5/WaveDAC8_1.c **** * Description:
   6:Generated_Source\PSoC5/WaveDAC8_1.c **** *  This file provides the source code for the 8-bit Waveform DAC 
   7:Generated_Source\PSoC5/WaveDAC8_1.c **** *  (WaveDAC8) Component.
   8:Generated_Source\PSoC5/WaveDAC8_1.c **** *
   9:Generated_Source\PSoC5/WaveDAC8_1.c **** ********************************************************************************
  10:Generated_Source\PSoC5/WaveDAC8_1.c **** * Copyright 2013, Cypress Semiconductor Corporation.  All rights reserved.
  11:Generated_Source\PSoC5/WaveDAC8_1.c **** * You may use this file only in accordance with the license, terms, conditions,
  12:Generated_Source\PSoC5/WaveDAC8_1.c **** * disclaimers, and limitations in the end user license agreement accompanying
  13:Generated_Source\PSoC5/WaveDAC8_1.c **** * the software package with which this file was provided.
  14:Generated_Source\PSoC5/WaveDAC8_1.c **** *******************************************************************************/
  15:Generated_Source\PSoC5/WaveDAC8_1.c **** 
  16:Generated_Source\PSoC5/WaveDAC8_1.c **** #include "WaveDAC8_1.h"
  17:Generated_Source\PSoC5/WaveDAC8_1.c **** 
  18:Generated_Source\PSoC5/WaveDAC8_1.c **** uint8  WaveDAC8_1_initVar = 0u;
  19:Generated_Source\PSoC5/WaveDAC8_1.c **** 
  20:Generated_Source\PSoC5/WaveDAC8_1.c **** const uint8 CYCODE WaveDAC8_1_wave1[WaveDAC8_1_WAVE1_LENGTH] = { 128u,135u,143u,151u,159u,166u,174u
  21:Generated_Source\PSoC5/WaveDAC8_1.c **** const uint8 CYCODE WaveDAC8_1_wave2[WaveDAC8_1_WAVE2_LENGTH] = {  128,144,159,174,188,201,214,224,2
  22:Generated_Source\PSoC5/WaveDAC8_1.c **** 
  23:Generated_Source\PSoC5/WaveDAC8_1.c **** static uint8  WaveDAC8_1_Wave1Chan;
  24:Generated_Source\PSoC5/WaveDAC8_1.c **** static uint8  WaveDAC8_1_Wave2Chan;
  25:Generated_Source\PSoC5/WaveDAC8_1.c **** static uint8  WaveDAC8_1_Wave1TD;
ARM GAS  C:\Users\JOSEAN~1\AppData\Local\Temp\ccL29UpK.s 			page 5


  26:Generated_Source\PSoC5/WaveDAC8_1.c **** static uint8  WaveDAC8_1_Wave2TD;
  27:Generated_Source\PSoC5/WaveDAC8_1.c **** 
  28:Generated_Source\PSoC5/WaveDAC8_1.c **** 
  29:Generated_Source\PSoC5/WaveDAC8_1.c **** /*******************************************************************************
  30:Generated_Source\PSoC5/WaveDAC8_1.c **** * Function Name: WaveDAC8_1_Init
  31:Generated_Source\PSoC5/WaveDAC8_1.c **** ********************************************************************************
  32:Generated_Source\PSoC5/WaveDAC8_1.c **** *
  33:Generated_Source\PSoC5/WaveDAC8_1.c **** * Summary:
  34:Generated_Source\PSoC5/WaveDAC8_1.c **** *  Initializes component with parameters set in the customizer.
  35:Generated_Source\PSoC5/WaveDAC8_1.c **** *
  36:Generated_Source\PSoC5/WaveDAC8_1.c **** * Parameters:  
  37:Generated_Source\PSoC5/WaveDAC8_1.c **** *  None
  38:Generated_Source\PSoC5/WaveDAC8_1.c **** *
  39:Generated_Source\PSoC5/WaveDAC8_1.c **** * Return: 
  40:Generated_Source\PSoC5/WaveDAC8_1.c **** *  None
  41:Generated_Source\PSoC5/WaveDAC8_1.c **** *
  42:Generated_Source\PSoC5/WaveDAC8_1.c **** *******************************************************************************/
  43:Generated_Source\PSoC5/WaveDAC8_1.c **** void WaveDAC8_1_Init(void) 
  44:Generated_Source\PSoC5/WaveDAC8_1.c **** {
 204              		.loc 1 44 0
 205              		.cfi_startproc
 206              		@ args = 0, pretend = 0, frame = 0
 207              		@ frame_needed = 1, uses_anonymous_args = 0
 208 0000 80B5     		push	{r7, lr}
 209              		.cfi_def_cfa_offset 8
 210              		.cfi_offset 7, -8
 211              		.cfi_offset 14, -4
 212 0002 00AF     		add	r7, sp, #0
 213              		.cfi_def_cfa_register 7
  45:Generated_Source\PSoC5/WaveDAC8_1.c **** 	WaveDAC8_1_VDAC8_Init();
 214              		.loc 1 45 0
 215 0004 FFF7FEFF 		bl	WaveDAC8_1_VDAC8_Init
  46:Generated_Source\PSoC5/WaveDAC8_1.c **** 	WaveDAC8_1_VDAC8_SetSpeed(WaveDAC8_1_HIGHSPEED);
 216              		.loc 1 46 0
 217 0008 0220     		movs	r0, #2
 218 000a FFF7FEFF 		bl	WaveDAC8_1_VDAC8_SetSpeed
  47:Generated_Source\PSoC5/WaveDAC8_1.c **** 	WaveDAC8_1_VDAC8_SetRange(WaveDAC8_1_DAC_RANGE);
 219              		.loc 1 47 0
 220 000e 0020     		movs	r0, #0
 221 0010 FFF7FEFF 		bl	WaveDAC8_1_VDAC8_SetRange
  48:Generated_Source\PSoC5/WaveDAC8_1.c **** 
  49:Generated_Source\PSoC5/WaveDAC8_1.c **** 	#if(WaveDAC8_1_DAC_MODE == WaveDAC8_1_CURRENT_MODE)
  50:Generated_Source\PSoC5/WaveDAC8_1.c **** 		WaveDAC8_1_IDAC8_SetPolarity(WaveDAC8_1_DAC_POL);
  51:Generated_Source\PSoC5/WaveDAC8_1.c **** 	#endif /* WaveDAC8_1_DAC_MODE == WaveDAC8_1_CURRENT_MODE */
  52:Generated_Source\PSoC5/WaveDAC8_1.c **** 
  53:Generated_Source\PSoC5/WaveDAC8_1.c **** 	#if(WaveDAC8_1_OUT_MODE == WaveDAC8_1_BUFFER_MODE)
  54:Generated_Source\PSoC5/WaveDAC8_1.c **** 	   WaveDAC8_1_BuffAmp_Init();
 222              		.loc 1 54 0
 223 0014 FFF7FEFF 		bl	WaveDAC8_1_BuffAmp_Init
  55:Generated_Source\PSoC5/WaveDAC8_1.c **** 	#endif /* WaveDAC8_1_OUT_MODE == WaveDAC8_1_BUFFER_MODE */
  56:Generated_Source\PSoC5/WaveDAC8_1.c **** 
  57:Generated_Source\PSoC5/WaveDAC8_1.c **** 	/* Get the TD Number for the DMA channel 1 and 2   */
  58:Generated_Source\PSoC5/WaveDAC8_1.c **** 	WaveDAC8_1_Wave1TD = CyDmaTdAllocate();
 224              		.loc 1 58 0
 225 0018 FFF7FEFF 		bl	CyDmaTdAllocate
 226 001c 0346     		mov	r3, r0
 227 001e 1A46     		mov	r2, r3
ARM GAS  C:\Users\JOSEAN~1\AppData\Local\Temp\ccL29UpK.s 			page 6


 228 0020 084B     		ldr	r3, .L2
 229 0022 1A70     		strb	r2, [r3]
  59:Generated_Source\PSoC5/WaveDAC8_1.c **** 	WaveDAC8_1_Wave2TD = CyDmaTdAllocate();
 230              		.loc 1 59 0
 231 0024 FFF7FEFF 		bl	CyDmaTdAllocate
 232 0028 0346     		mov	r3, r0
 233 002a 1A46     		mov	r2, r3
 234 002c 064B     		ldr	r3, .L2+4
 235 002e 1A70     		strb	r2, [r3]
  60:Generated_Source\PSoC5/WaveDAC8_1.c **** 	
  61:Generated_Source\PSoC5/WaveDAC8_1.c **** 	/* Initialize waveform pointers  */
  62:Generated_Source\PSoC5/WaveDAC8_1.c **** 	WaveDAC8_1_Wave1Setup(WaveDAC8_1_wave1, WaveDAC8_1_WAVE1_LENGTH) ;
 236              		.loc 1 62 0
 237 0030 6421     		movs	r1, #100
 238 0032 0648     		ldr	r0, .L2+8
 239 0034 FFF7FEFF 		bl	WaveDAC8_1_Wave1Setup
  63:Generated_Source\PSoC5/WaveDAC8_1.c **** 	WaveDAC8_1_Wave2Setup(WaveDAC8_1_wave2, WaveDAC8_1_WAVE2_LENGTH) ;
 240              		.loc 1 63 0
 241 0038 3221     		movs	r1, #50
 242 003a 0548     		ldr	r0, .L2+12
 243 003c FFF7FEFF 		bl	WaveDAC8_1_Wave2Setup
  64:Generated_Source\PSoC5/WaveDAC8_1.c **** 	
  65:Generated_Source\PSoC5/WaveDAC8_1.c **** 	/* Initialize the internal clock if one present  */
  66:Generated_Source\PSoC5/WaveDAC8_1.c **** 	#if defined(WaveDAC8_1_DacClk_PHASE)
  67:Generated_Source\PSoC5/WaveDAC8_1.c **** 	   WaveDAC8_1_DacClk_SetPhase(WaveDAC8_1_CLK_PHASE_0nS);
  68:Generated_Source\PSoC5/WaveDAC8_1.c **** 	#endif /* defined(WaveDAC8_1_DacClk_PHASE) */
  69:Generated_Source\PSoC5/WaveDAC8_1.c **** }
 244              		.loc 1 69 0
 245 0040 00BF     		nop
 246 0042 80BD     		pop	{r7, pc}
 247              	.L3:
 248              		.align	2
 249              	.L2:
 250 0044 03000000 		.word	WaveDAC8_1_Wave1TD
 251 0048 04000000 		.word	WaveDAC8_1_Wave2TD
 252 004c 00000000 		.word	WaveDAC8_1_wave1
 253 0050 00000000 		.word	WaveDAC8_1_wave2
 254              		.cfi_endproc
 255              	.LFE0:
 256              		.size	WaveDAC8_1_Init, .-WaveDAC8_1_Init
 257              		.section	.text.WaveDAC8_1_Enable,"ax",%progbits
 258              		.align	2
 259              		.global	WaveDAC8_1_Enable
 260              		.thumb
 261              		.thumb_func
 262              		.type	WaveDAC8_1_Enable, %function
 263              	WaveDAC8_1_Enable:
 264              	.LFB1:
  70:Generated_Source\PSoC5/WaveDAC8_1.c **** 
  71:Generated_Source\PSoC5/WaveDAC8_1.c **** 
  72:Generated_Source\PSoC5/WaveDAC8_1.c **** /*******************************************************************************
  73:Generated_Source\PSoC5/WaveDAC8_1.c **** * Function Name: WaveDAC8_1_Enable
  74:Generated_Source\PSoC5/WaveDAC8_1.c **** ********************************************************************************
  75:Generated_Source\PSoC5/WaveDAC8_1.c **** *  
  76:Generated_Source\PSoC5/WaveDAC8_1.c **** * Summary: 
  77:Generated_Source\PSoC5/WaveDAC8_1.c **** *  Enables the DAC block and DMA operation.
  78:Generated_Source\PSoC5/WaveDAC8_1.c **** *
ARM GAS  C:\Users\JOSEAN~1\AppData\Local\Temp\ccL29UpK.s 			page 7


  79:Generated_Source\PSoC5/WaveDAC8_1.c **** * Parameters:  
  80:Generated_Source\PSoC5/WaveDAC8_1.c **** *  None
  81:Generated_Source\PSoC5/WaveDAC8_1.c **** *
  82:Generated_Source\PSoC5/WaveDAC8_1.c **** * Return: 
  83:Generated_Source\PSoC5/WaveDAC8_1.c **** *  None
  84:Generated_Source\PSoC5/WaveDAC8_1.c **** *
  85:Generated_Source\PSoC5/WaveDAC8_1.c **** *******************************************************************************/
  86:Generated_Source\PSoC5/WaveDAC8_1.c **** void WaveDAC8_1_Enable(void) 
  87:Generated_Source\PSoC5/WaveDAC8_1.c **** {
 265              		.loc 1 87 0
 266              		.cfi_startproc
 267              		@ args = 0, pretend = 0, frame = 0
 268              		@ frame_needed = 1, uses_anonymous_args = 0
 269 0000 80B5     		push	{r7, lr}
 270              		.cfi_def_cfa_offset 8
 271              		.cfi_offset 7, -8
 272              		.cfi_offset 14, -4
 273 0002 00AF     		add	r7, sp, #0
 274              		.cfi_def_cfa_register 7
  88:Generated_Source\PSoC5/WaveDAC8_1.c **** 	WaveDAC8_1_VDAC8_Enable();
 275              		.loc 1 88 0
 276 0004 FFF7FEFF 		bl	WaveDAC8_1_VDAC8_Enable
  89:Generated_Source\PSoC5/WaveDAC8_1.c **** 
  90:Generated_Source\PSoC5/WaveDAC8_1.c **** 	#if(WaveDAC8_1_OUT_MODE == WaveDAC8_1_BUFFER_MODE)
  91:Generated_Source\PSoC5/WaveDAC8_1.c **** 	   WaveDAC8_1_BuffAmp_Enable();
 277              		.loc 1 91 0
 278 0008 FFF7FEFF 		bl	WaveDAC8_1_BuffAmp_Enable
  92:Generated_Source\PSoC5/WaveDAC8_1.c **** 	#endif /* WaveDAC8_1_OUT_MODE == WaveDAC8_1_BUFFER_MODE */
  93:Generated_Source\PSoC5/WaveDAC8_1.c **** 
  94:Generated_Source\PSoC5/WaveDAC8_1.c **** 	/* 
  95:Generated_Source\PSoC5/WaveDAC8_1.c **** 	* Enable the channel. It is configured to remember the TD value so that
  96:Generated_Source\PSoC5/WaveDAC8_1.c **** 	* it can be restored from the place where it has been stopped.
  97:Generated_Source\PSoC5/WaveDAC8_1.c **** 	*/
  98:Generated_Source\PSoC5/WaveDAC8_1.c **** 	(void)CyDmaChEnable(WaveDAC8_1_Wave1Chan, 1u);
 279              		.loc 1 98 0
 280 000c 094B     		ldr	r3, .L5
 281 000e 1B78     		ldrb	r3, [r3]	@ zero_extendqisi2
 282 0010 0121     		movs	r1, #1
 283 0012 1846     		mov	r0, r3
 284 0014 FFF7FEFF 		bl	CyDmaChEnable
  99:Generated_Source\PSoC5/WaveDAC8_1.c **** 	(void)CyDmaChEnable(WaveDAC8_1_Wave2Chan, 1u);
 285              		.loc 1 99 0
 286 0018 074B     		ldr	r3, .L5+4
 287 001a 1B78     		ldrb	r3, [r3]	@ zero_extendqisi2
 288 001c 0121     		movs	r1, #1
 289 001e 1846     		mov	r0, r3
 290 0020 FFF7FEFF 		bl	CyDmaChEnable
 100:Generated_Source\PSoC5/WaveDAC8_1.c **** 	
 101:Generated_Source\PSoC5/WaveDAC8_1.c **** 	/* set the initial value */
 102:Generated_Source\PSoC5/WaveDAC8_1.c **** 	WaveDAC8_1_SetValue(0u);
 291              		.loc 1 102 0
 292 0024 0020     		movs	r0, #0
 293 0026 FFF7FEFF 		bl	WaveDAC8_1_VDAC8_SetValue
 103:Generated_Source\PSoC5/WaveDAC8_1.c **** 	
 104:Generated_Source\PSoC5/WaveDAC8_1.c **** 	#if(WaveDAC8_1_CLOCK_SRC == WaveDAC8_1_CLOCK_INT)  	
 105:Generated_Source\PSoC5/WaveDAC8_1.c **** 	   WaveDAC8_1_DacClk_Start();
 294              		.loc 1 105 0
ARM GAS  C:\Users\JOSEAN~1\AppData\Local\Temp\ccL29UpK.s 			page 8


 295 002a FFF7FEFF 		bl	WaveDAC8_1_DacClk_Start
 106:Generated_Source\PSoC5/WaveDAC8_1.c **** 	#endif /* WaveDAC8_1_CLOCK_SRC == WaveDAC8_1_CLOCK_INT */
 107:Generated_Source\PSoC5/WaveDAC8_1.c **** }
 296              		.loc 1 107 0
 297 002e 00BF     		nop
 298 0030 80BD     		pop	{r7, pc}
 299              	.L6:
 300 0032 00BF     		.align	2
 301              	.L5:
 302 0034 01000000 		.word	WaveDAC8_1_Wave1Chan
 303 0038 02000000 		.word	WaveDAC8_1_Wave2Chan
 304              		.cfi_endproc
 305              	.LFE1:
 306              		.size	WaveDAC8_1_Enable, .-WaveDAC8_1_Enable
 307              		.section	.text.WaveDAC8_1_Start,"ax",%progbits
 308              		.align	2
 309              		.global	WaveDAC8_1_Start
 310              		.thumb
 311              		.thumb_func
 312              		.type	WaveDAC8_1_Start, %function
 313              	WaveDAC8_1_Start:
 314              	.LFB2:
 108:Generated_Source\PSoC5/WaveDAC8_1.c **** 
 109:Generated_Source\PSoC5/WaveDAC8_1.c **** 
 110:Generated_Source\PSoC5/WaveDAC8_1.c **** /*******************************************************************************
 111:Generated_Source\PSoC5/WaveDAC8_1.c **** * Function Name: WaveDAC8_1_Start
 112:Generated_Source\PSoC5/WaveDAC8_1.c **** ********************************************************************************
 113:Generated_Source\PSoC5/WaveDAC8_1.c **** *
 114:Generated_Source\PSoC5/WaveDAC8_1.c **** * Summary:
 115:Generated_Source\PSoC5/WaveDAC8_1.c **** *  The start function initializes the voltage DAC with the default values, 
 116:Generated_Source\PSoC5/WaveDAC8_1.c **** *  and sets the power to the given level.  A power level of 0, is the same as 
 117:Generated_Source\PSoC5/WaveDAC8_1.c **** *  executing the stop function.
 118:Generated_Source\PSoC5/WaveDAC8_1.c **** *
 119:Generated_Source\PSoC5/WaveDAC8_1.c **** * Parameters:  
 120:Generated_Source\PSoC5/WaveDAC8_1.c **** *  None
 121:Generated_Source\PSoC5/WaveDAC8_1.c **** *
 122:Generated_Source\PSoC5/WaveDAC8_1.c **** * Return: 
 123:Generated_Source\PSoC5/WaveDAC8_1.c **** *  None
 124:Generated_Source\PSoC5/WaveDAC8_1.c **** *
 125:Generated_Source\PSoC5/WaveDAC8_1.c **** * Reentrant:
 126:Generated_Source\PSoC5/WaveDAC8_1.c **** *  No
 127:Generated_Source\PSoC5/WaveDAC8_1.c **** *
 128:Generated_Source\PSoC5/WaveDAC8_1.c **** *******************************************************************************/
 129:Generated_Source\PSoC5/WaveDAC8_1.c **** void WaveDAC8_1_Start(void) 
 130:Generated_Source\PSoC5/WaveDAC8_1.c **** {
 315              		.loc 1 130 0
 316              		.cfi_startproc
 317              		@ args = 0, pretend = 0, frame = 0
 318              		@ frame_needed = 1, uses_anonymous_args = 0
 319 0000 80B5     		push	{r7, lr}
 320              		.cfi_def_cfa_offset 8
 321              		.cfi_offset 7, -8
 322              		.cfi_offset 14, -4
 323 0002 00AF     		add	r7, sp, #0
 324              		.cfi_def_cfa_register 7
 131:Generated_Source\PSoC5/WaveDAC8_1.c **** 	/* If not Initialized then initialize all required hardware and software */
 132:Generated_Source\PSoC5/WaveDAC8_1.c **** 	if(WaveDAC8_1_initVar == 0u)
ARM GAS  C:\Users\JOSEAN~1\AppData\Local\Temp\ccL29UpK.s 			page 9


 325              		.loc 1 132 0
 326 0004 064B     		ldr	r3, .L9
 327 0006 1B78     		ldrb	r3, [r3]	@ zero_extendqisi2
 328 0008 002B     		cmp	r3, #0
 329 000a 04D1     		bne	.L8
 133:Generated_Source\PSoC5/WaveDAC8_1.c **** 	{
 134:Generated_Source\PSoC5/WaveDAC8_1.c **** 		WaveDAC8_1_Init();
 330              		.loc 1 134 0
 331 000c FFF7FEFF 		bl	WaveDAC8_1_Init
 135:Generated_Source\PSoC5/WaveDAC8_1.c **** 		WaveDAC8_1_initVar = 1u;
 332              		.loc 1 135 0
 333 0010 034B     		ldr	r3, .L9
 334 0012 0122     		movs	r2, #1
 335 0014 1A70     		strb	r2, [r3]
 336              	.L8:
 136:Generated_Source\PSoC5/WaveDAC8_1.c **** 	}
 137:Generated_Source\PSoC5/WaveDAC8_1.c **** 	
 138:Generated_Source\PSoC5/WaveDAC8_1.c **** 	WaveDAC8_1_Enable();
 337              		.loc 1 138 0
 338 0016 FFF7FEFF 		bl	WaveDAC8_1_Enable
 139:Generated_Source\PSoC5/WaveDAC8_1.c **** }
 339              		.loc 1 139 0
 340 001a 00BF     		nop
 341 001c 80BD     		pop	{r7, pc}
 342              	.L10:
 343 001e 00BF     		.align	2
 344              	.L9:
 345 0020 00000000 		.word	WaveDAC8_1_initVar
 346              		.cfi_endproc
 347              	.LFE2:
 348              		.size	WaveDAC8_1_Start, .-WaveDAC8_1_Start
 349              		.section	.text.WaveDAC8_1_StartEx,"ax",%progbits
 350              		.align	2
 351              		.global	WaveDAC8_1_StartEx
 352              		.thumb
 353              		.thumb_func
 354              		.type	WaveDAC8_1_StartEx, %function
 355              	WaveDAC8_1_StartEx:
 356              	.LFB3:
 140:Generated_Source\PSoC5/WaveDAC8_1.c **** 
 141:Generated_Source\PSoC5/WaveDAC8_1.c **** 
 142:Generated_Source\PSoC5/WaveDAC8_1.c **** /*******************************************************************************
 143:Generated_Source\PSoC5/WaveDAC8_1.c **** * Function Name: WaveDAC8_1_StartEx
 144:Generated_Source\PSoC5/WaveDAC8_1.c **** ********************************************************************************
 145:Generated_Source\PSoC5/WaveDAC8_1.c **** *
 146:Generated_Source\PSoC5/WaveDAC8_1.c **** * Summary:
 147:Generated_Source\PSoC5/WaveDAC8_1.c **** *  The StartEx function sets pointers and sizes for both waveforms
 148:Generated_Source\PSoC5/WaveDAC8_1.c **** *  and then starts the component.
 149:Generated_Source\PSoC5/WaveDAC8_1.c **** *
 150:Generated_Source\PSoC5/WaveDAC8_1.c **** * Parameters:  
 151:Generated_Source\PSoC5/WaveDAC8_1.c **** *   uint8 * wavePtr1:     Pointer to the waveform 1 array.
 152:Generated_Source\PSoC5/WaveDAC8_1.c **** *   uint16  sampleSize1:  The amount of samples in the waveform 1.
 153:Generated_Source\PSoC5/WaveDAC8_1.c **** *   uint8 * wavePtr2:     Pointer to the waveform 2 array.
 154:Generated_Source\PSoC5/WaveDAC8_1.c **** *   uint16  sampleSize2:  The amount of samples in the waveform 2.
 155:Generated_Source\PSoC5/WaveDAC8_1.c **** *
 156:Generated_Source\PSoC5/WaveDAC8_1.c **** * Return: 
 157:Generated_Source\PSoC5/WaveDAC8_1.c **** *  None
ARM GAS  C:\Users\JOSEAN~1\AppData\Local\Temp\ccL29UpK.s 			page 10


 158:Generated_Source\PSoC5/WaveDAC8_1.c **** *
 159:Generated_Source\PSoC5/WaveDAC8_1.c **** * Reentrant:
 160:Generated_Source\PSoC5/WaveDAC8_1.c **** *  No
 161:Generated_Source\PSoC5/WaveDAC8_1.c **** *
 162:Generated_Source\PSoC5/WaveDAC8_1.c **** *******************************************************************************/
 163:Generated_Source\PSoC5/WaveDAC8_1.c **** void WaveDAC8_1_StartEx(const uint8 * wavePtr1, uint16 sampleSize1, const uint8 * wavePtr2, uint16 
 164:Generated_Source\PSoC5/WaveDAC8_1.c **** 
 165:Generated_Source\PSoC5/WaveDAC8_1.c **** {
 357              		.loc 1 165 0
 358              		.cfi_startproc
 359              		@ args = 0, pretend = 0, frame = 16
 360              		@ frame_needed = 1, uses_anonymous_args = 0
 361 0000 80B5     		push	{r7, lr}
 362              		.cfi_def_cfa_offset 8
 363              		.cfi_offset 7, -8
 364              		.cfi_offset 14, -4
 365 0002 84B0     		sub	sp, sp, #16
 366              		.cfi_def_cfa_offset 24
 367 0004 00AF     		add	r7, sp, #0
 368              		.cfi_def_cfa_register 7
 369 0006 F860     		str	r0, [r7, #12]
 370 0008 7A60     		str	r2, [r7, #4]
 371 000a 1A46     		mov	r2, r3
 372 000c 0B46     		mov	r3, r1	@ movhi
 373 000e 7B81     		strh	r3, [r7, #10]	@ movhi
 374 0010 1346     		mov	r3, r2	@ movhi
 375 0012 3B81     		strh	r3, [r7, #8]	@ movhi
 166:Generated_Source\PSoC5/WaveDAC8_1.c **** 	WaveDAC8_1_Wave1Setup(wavePtr1, sampleSize1);
 376              		.loc 1 166 0
 377 0014 7B89     		ldrh	r3, [r7, #10]
 378 0016 1946     		mov	r1, r3
 379 0018 F868     		ldr	r0, [r7, #12]
 380 001a FFF7FEFF 		bl	WaveDAC8_1_Wave1Setup
 167:Generated_Source\PSoC5/WaveDAC8_1.c **** 	WaveDAC8_1_Wave2Setup(wavePtr2, sampleSize2);
 381              		.loc 1 167 0
 382 001e 3B89     		ldrh	r3, [r7, #8]
 383 0020 1946     		mov	r1, r3
 384 0022 7868     		ldr	r0, [r7, #4]
 385 0024 FFF7FEFF 		bl	WaveDAC8_1_Wave2Setup
 168:Generated_Source\PSoC5/WaveDAC8_1.c **** 	WaveDAC8_1_Start();
 386              		.loc 1 168 0
 387 0028 FFF7FEFF 		bl	WaveDAC8_1_Start
 169:Generated_Source\PSoC5/WaveDAC8_1.c **** }
 388              		.loc 1 169 0
 389 002c 00BF     		nop
 390 002e 1037     		adds	r7, r7, #16
 391              		.cfi_def_cfa_offset 8
 392 0030 BD46     		mov	sp, r7
 393              		.cfi_def_cfa_register 13
 394              		@ sp needed
 395 0032 80BD     		pop	{r7, pc}
 396              		.cfi_endproc
 397              	.LFE3:
 398              		.size	WaveDAC8_1_StartEx, .-WaveDAC8_1_StartEx
 399              		.section	.text.WaveDAC8_1_Stop,"ax",%progbits
 400              		.align	2
 401              		.global	WaveDAC8_1_Stop
ARM GAS  C:\Users\JOSEAN~1\AppData\Local\Temp\ccL29UpK.s 			page 11


 402              		.thumb
 403              		.thumb_func
 404              		.type	WaveDAC8_1_Stop, %function
 405              	WaveDAC8_1_Stop:
 406              	.LFB4:
 170:Generated_Source\PSoC5/WaveDAC8_1.c **** 
 171:Generated_Source\PSoC5/WaveDAC8_1.c **** 
 172:Generated_Source\PSoC5/WaveDAC8_1.c **** /*******************************************************************************
 173:Generated_Source\PSoC5/WaveDAC8_1.c **** * Function Name: WaveDAC8_1_Stop
 174:Generated_Source\PSoC5/WaveDAC8_1.c **** ********************************************************************************
 175:Generated_Source\PSoC5/WaveDAC8_1.c **** *
 176:Generated_Source\PSoC5/WaveDAC8_1.c **** * Summary:
 177:Generated_Source\PSoC5/WaveDAC8_1.c **** *  Stops the clock (if internal), disables the DMA channels
 178:Generated_Source\PSoC5/WaveDAC8_1.c **** *  and powers down the DAC.
 179:Generated_Source\PSoC5/WaveDAC8_1.c **** *
 180:Generated_Source\PSoC5/WaveDAC8_1.c **** * Parameters:  
 181:Generated_Source\PSoC5/WaveDAC8_1.c **** *  None  
 182:Generated_Source\PSoC5/WaveDAC8_1.c **** *
 183:Generated_Source\PSoC5/WaveDAC8_1.c **** * Return: 
 184:Generated_Source\PSoC5/WaveDAC8_1.c **** *  None
 185:Generated_Source\PSoC5/WaveDAC8_1.c **** *
 186:Generated_Source\PSoC5/WaveDAC8_1.c **** *******************************************************************************/
 187:Generated_Source\PSoC5/WaveDAC8_1.c **** void WaveDAC8_1_Stop(void) 
 188:Generated_Source\PSoC5/WaveDAC8_1.c **** {
 407              		.loc 1 188 0
 408              		.cfi_startproc
 409              		@ args = 0, pretend = 0, frame = 0
 410              		@ frame_needed = 1, uses_anonymous_args = 0
 411 0000 80B5     		push	{r7, lr}
 412              		.cfi_def_cfa_offset 8
 413              		.cfi_offset 7, -8
 414              		.cfi_offset 14, -4
 415 0002 00AF     		add	r7, sp, #0
 416              		.cfi_def_cfa_register 7
 189:Generated_Source\PSoC5/WaveDAC8_1.c **** 	/* Turn off internal clock, if one present */
 190:Generated_Source\PSoC5/WaveDAC8_1.c **** 	#if(WaveDAC8_1_CLOCK_SRC == WaveDAC8_1_CLOCK_INT)  	
 191:Generated_Source\PSoC5/WaveDAC8_1.c **** 	   WaveDAC8_1_DacClk_Stop();
 417              		.loc 1 191 0
 418 0004 FFF7FEFF 		bl	WaveDAC8_1_DacClk_Stop
 192:Generated_Source\PSoC5/WaveDAC8_1.c **** 	#endif /* WaveDAC8_1_CLOCK_SRC == WaveDAC8_1_CLOCK_INT */
 193:Generated_Source\PSoC5/WaveDAC8_1.c **** 	
 194:Generated_Source\PSoC5/WaveDAC8_1.c **** 	/* Disble DMA channels */
 195:Generated_Source\PSoC5/WaveDAC8_1.c **** 	(void)CyDmaChDisable(WaveDAC8_1_Wave1Chan);
 419              		.loc 1 195 0
 420 0008 064B     		ldr	r3, .L13
 421 000a 1B78     		ldrb	r3, [r3]	@ zero_extendqisi2
 422 000c 1846     		mov	r0, r3
 423 000e FFF7FEFF 		bl	CyDmaChDisable
 196:Generated_Source\PSoC5/WaveDAC8_1.c **** 	(void)CyDmaChDisable(WaveDAC8_1_Wave2Chan);
 424              		.loc 1 196 0
 425 0012 054B     		ldr	r3, .L13+4
 426 0014 1B78     		ldrb	r3, [r3]	@ zero_extendqisi2
 427 0016 1846     		mov	r0, r3
 428 0018 FFF7FEFF 		bl	CyDmaChDisable
 197:Generated_Source\PSoC5/WaveDAC8_1.c **** 
 198:Generated_Source\PSoC5/WaveDAC8_1.c **** 	/* Disable power to DAC */
 199:Generated_Source\PSoC5/WaveDAC8_1.c **** 	WaveDAC8_1_VDAC8_Stop();
ARM GAS  C:\Users\JOSEAN~1\AppData\Local\Temp\ccL29UpK.s 			page 12


 429              		.loc 1 199 0
 430 001c FFF7FEFF 		bl	WaveDAC8_1_VDAC8_Stop
 200:Generated_Source\PSoC5/WaveDAC8_1.c **** }
 431              		.loc 1 200 0
 432 0020 00BF     		nop
 433 0022 80BD     		pop	{r7, pc}
 434              	.L14:
 435              		.align	2
 436              	.L13:
 437 0024 01000000 		.word	WaveDAC8_1_Wave1Chan
 438 0028 02000000 		.word	WaveDAC8_1_Wave2Chan
 439              		.cfi_endproc
 440              	.LFE4:
 441              		.size	WaveDAC8_1_Stop, .-WaveDAC8_1_Stop
 442              		.section	.text.WaveDAC8_1_Wave1Setup,"ax",%progbits
 443              		.align	2
 444              		.global	WaveDAC8_1_Wave1Setup
 445              		.thumb
 446              		.thumb_func
 447              		.type	WaveDAC8_1_Wave1Setup, %function
 448              	WaveDAC8_1_Wave1Setup:
 449              	.LFB5:
 201:Generated_Source\PSoC5/WaveDAC8_1.c **** 
 202:Generated_Source\PSoC5/WaveDAC8_1.c **** 
 203:Generated_Source\PSoC5/WaveDAC8_1.c **** /*******************************************************************************
 204:Generated_Source\PSoC5/WaveDAC8_1.c **** * Function Name: WaveDAC8_1_Wave1Setup
 205:Generated_Source\PSoC5/WaveDAC8_1.c **** ********************************************************************************
 206:Generated_Source\PSoC5/WaveDAC8_1.c **** *
 207:Generated_Source\PSoC5/WaveDAC8_1.c **** * Summary:
 208:Generated_Source\PSoC5/WaveDAC8_1.c **** *  Sets pointer and size for waveform 1.                                    
 209:Generated_Source\PSoC5/WaveDAC8_1.c **** *
 210:Generated_Source\PSoC5/WaveDAC8_1.c **** * Parameters:  
 211:Generated_Source\PSoC5/WaveDAC8_1.c **** *  uint8 * WavePtr:     Pointer to the waveform array.
 212:Generated_Source\PSoC5/WaveDAC8_1.c **** *  uint16  SampleSize:  The amount of samples in the waveform.
 213:Generated_Source\PSoC5/WaveDAC8_1.c **** *
 214:Generated_Source\PSoC5/WaveDAC8_1.c **** * Return: 
 215:Generated_Source\PSoC5/WaveDAC8_1.c **** *  None 
 216:Generated_Source\PSoC5/WaveDAC8_1.c **** *
 217:Generated_Source\PSoC5/WaveDAC8_1.c **** *******************************************************************************/
 218:Generated_Source\PSoC5/WaveDAC8_1.c **** void WaveDAC8_1_Wave1Setup(const uint8 * wavePtr, uint16 sampleSize)
 219:Generated_Source\PSoC5/WaveDAC8_1.c **** 
 220:Generated_Source\PSoC5/WaveDAC8_1.c **** {
 450              		.loc 1 220 0
 451              		.cfi_startproc
 452              		@ args = 0, pretend = 0, frame = 8
 453              		@ frame_needed = 1, uses_anonymous_args = 0
 454 0000 80B5     		push	{r7, lr}
 455              		.cfi_def_cfa_offset 8
 456              		.cfi_offset 7, -8
 457              		.cfi_offset 14, -4
 458 0002 82B0     		sub	sp, sp, #8
 459              		.cfi_def_cfa_offset 16
 460 0004 00AF     		add	r7, sp, #0
 461              		.cfi_def_cfa_register 7
 462 0006 7860     		str	r0, [r7, #4]
 463 0008 0B46     		mov	r3, r1
 464 000a 7B80     		strh	r3, [r7, #2]	@ movhi
ARM GAS  C:\Users\JOSEAN~1\AppData\Local\Temp\ccL29UpK.s 			page 13


 221:Generated_Source\PSoC5/WaveDAC8_1.c **** 	#if (CY_PSOC3)
 222:Generated_Source\PSoC5/WaveDAC8_1.c **** 		uint16 memoryType; /* determining the source memory type */
 223:Generated_Source\PSoC5/WaveDAC8_1.c **** 		memoryType = (WaveDAC8_1_HI16FLASHPTR == HI16(wavePtr)) ? HI16(CYDEV_FLS_BASE) : HI16(CYDEV_SRAM_
 224:Generated_Source\PSoC5/WaveDAC8_1.c **** 		
 225:Generated_Source\PSoC5/WaveDAC8_1.c **** 		WaveDAC8_1_Wave1Chan = WaveDAC8_1_Wave1_DMA_DmaInitialize(
 226:Generated_Source\PSoC5/WaveDAC8_1.c **** 		WaveDAC8_1_Wave1_DMA_BYTES_PER_BURST, WaveDAC8_1_Wave1_DMA_REQUEST_PER_BURST,
 227:Generated_Source\PSoC5/WaveDAC8_1.c **** 		memoryType, HI16(CYDEV_PERIPH_BASE));
 228:Generated_Source\PSoC5/WaveDAC8_1.c **** 	#else /* PSoC 5 */
 229:Generated_Source\PSoC5/WaveDAC8_1.c **** 		WaveDAC8_1_Wave1Chan = WaveDAC8_1_Wave1_DMA_DmaInitialize(
 230:Generated_Source\PSoC5/WaveDAC8_1.c **** 		WaveDAC8_1_Wave1_DMA_BYTES_PER_BURST, WaveDAC8_1_Wave1_DMA_REQUEST_PER_BURST,
 231:Generated_Source\PSoC5/WaveDAC8_1.c **** 		HI16(wavePtr), HI16(WaveDAC8_1_DAC8__D));
 465              		.loc 1 231 0
 466 000c 7B68     		ldr	r3, [r7, #4]
 467 000e 1B0C     		lsrs	r3, r3, #16
 229:Generated_Source\PSoC5/WaveDAC8_1.c **** 		WaveDAC8_1_Wave1_DMA_BYTES_PER_BURST, WaveDAC8_1_Wave1_DMA_REQUEST_PER_BURST,
 468              		.loc 1 229 0
 469 0010 9AB2     		uxth	r2, r3
 470 0012 4FF48043 		mov	r3, #16384
 471 0016 0121     		movs	r1, #1
 472 0018 0120     		movs	r0, #1
 473 001a FFF7FEFF 		bl	WaveDAC8_1_Wave1_DMA_DmaInitialize
 474 001e 0346     		mov	r3, r0
 475 0020 1A46     		mov	r2, r3
 476 0022 0F4B     		ldr	r3, .L16
 477 0024 1A70     		strb	r2, [r3]
 232:Generated_Source\PSoC5/WaveDAC8_1.c **** 	#endif /* CY_PSOC3 */
 233:Generated_Source\PSoC5/WaveDAC8_1.c **** 	
 234:Generated_Source\PSoC5/WaveDAC8_1.c **** 	/*
 235:Generated_Source\PSoC5/WaveDAC8_1.c **** 	* TD is looping on itself. 
 236:Generated_Source\PSoC5/WaveDAC8_1.c ****     * Increment the source address, but not the destination address. 
 237:Generated_Source\PSoC5/WaveDAC8_1.c **** 	*/
 238:Generated_Source\PSoC5/WaveDAC8_1.c **** 	(void)CyDmaTdSetConfiguration(WaveDAC8_1_Wave1TD, sampleSize, WaveDAC8_1_Wave1TD, 
 478              		.loc 1 238 0
 479 0026 0F4B     		ldr	r3, .L16+4
 480 0028 1878     		ldrb	r0, [r3]	@ zero_extendqisi2
 481 002a 0E4B     		ldr	r3, .L16+4
 482 002c 1A78     		ldrb	r2, [r3]	@ zero_extendqisi2
 483 002e 7988     		ldrh	r1, [r7, #2]
 484 0030 0123     		movs	r3, #1
 485 0032 FFF7FEFF 		bl	CyDmaTdSetConfiguration
 239:Generated_Source\PSoC5/WaveDAC8_1.c ****                                     (uint8)CY_DMA_TD_INC_SRC_ADR | (uint8)WaveDAC8_1_Wave1_DMA__TD_
 240:Generated_Source\PSoC5/WaveDAC8_1.c **** 	
 241:Generated_Source\PSoC5/WaveDAC8_1.c **** 	/* Set the TD source and destination address */
 242:Generated_Source\PSoC5/WaveDAC8_1.c **** 	(void)CyDmaTdSetAddress(WaveDAC8_1_Wave1TD, LO16((uint32)wavePtr), LO16(WaveDAC8_1_DAC8__D));
 486              		.loc 1 242 0
 487 0036 0B4B     		ldr	r3, .L16+4
 488 0038 1B78     		ldrb	r3, [r3]	@ zero_extendqisi2
 489 003a 7A68     		ldr	r2, [r7, #4]
 490 003c 91B2     		uxth	r1, r2
 491 003e 45F68232 		movw	r2, #23426
 492 0042 1846     		mov	r0, r3
 493 0044 FFF7FEFF 		bl	CyDmaTdSetAddress
 243:Generated_Source\PSoC5/WaveDAC8_1.c **** 	
 244:Generated_Source\PSoC5/WaveDAC8_1.c **** 	/* Associate the TD with the channel */
 245:Generated_Source\PSoC5/WaveDAC8_1.c **** 	(void)CyDmaChSetInitialTd(WaveDAC8_1_Wave1Chan, WaveDAC8_1_Wave1TD);
 494              		.loc 1 245 0
 495 0048 054B     		ldr	r3, .L16
ARM GAS  C:\Users\JOSEAN~1\AppData\Local\Temp\ccL29UpK.s 			page 14


 496 004a 1A78     		ldrb	r2, [r3]	@ zero_extendqisi2
 497 004c 054B     		ldr	r3, .L16+4
 498 004e 1B78     		ldrb	r3, [r3]	@ zero_extendqisi2
 499 0050 1946     		mov	r1, r3
 500 0052 1046     		mov	r0, r2
 501 0054 FFF7FEFF 		bl	CyDmaChSetInitialTd
 246:Generated_Source\PSoC5/WaveDAC8_1.c **** }
 502              		.loc 1 246 0
 503 0058 00BF     		nop
 504 005a 0837     		adds	r7, r7, #8
 505              		.cfi_def_cfa_offset 8
 506 005c BD46     		mov	sp, r7
 507              		.cfi_def_cfa_register 13
 508              		@ sp needed
 509 005e 80BD     		pop	{r7, pc}
 510              	.L17:
 511              		.align	2
 512              	.L16:
 513 0060 01000000 		.word	WaveDAC8_1_Wave1Chan
 514 0064 03000000 		.word	WaveDAC8_1_Wave1TD
 515              		.cfi_endproc
 516              	.LFE5:
 517              		.size	WaveDAC8_1_Wave1Setup, .-WaveDAC8_1_Wave1Setup
 518              		.section	.text.WaveDAC8_1_Wave2Setup,"ax",%progbits
 519              		.align	2
 520              		.global	WaveDAC8_1_Wave2Setup
 521              		.thumb
 522              		.thumb_func
 523              		.type	WaveDAC8_1_Wave2Setup, %function
 524              	WaveDAC8_1_Wave2Setup:
 525              	.LFB6:
 247:Generated_Source\PSoC5/WaveDAC8_1.c **** 
 248:Generated_Source\PSoC5/WaveDAC8_1.c **** 
 249:Generated_Source\PSoC5/WaveDAC8_1.c **** /*******************************************************************************
 250:Generated_Source\PSoC5/WaveDAC8_1.c **** * Function Name: WaveDAC8_1_Wave2Setup
 251:Generated_Source\PSoC5/WaveDAC8_1.c **** ********************************************************************************
 252:Generated_Source\PSoC5/WaveDAC8_1.c **** *
 253:Generated_Source\PSoC5/WaveDAC8_1.c **** * Summary:
 254:Generated_Source\PSoC5/WaveDAC8_1.c **** *  Sets pointer and size for waveform 2.                                    
 255:Generated_Source\PSoC5/WaveDAC8_1.c **** *
 256:Generated_Source\PSoC5/WaveDAC8_1.c **** * Parameters:  
 257:Generated_Source\PSoC5/WaveDAC8_1.c **** *  uint8 * WavePtr:     Pointer to the waveform array.
 258:Generated_Source\PSoC5/WaveDAC8_1.c **** *  uint16  SampleSize:  The amount of samples in the waveform.
 259:Generated_Source\PSoC5/WaveDAC8_1.c **** *
 260:Generated_Source\PSoC5/WaveDAC8_1.c **** * Return: 
 261:Generated_Source\PSoC5/WaveDAC8_1.c **** *  None
 262:Generated_Source\PSoC5/WaveDAC8_1.c **** *
 263:Generated_Source\PSoC5/WaveDAC8_1.c **** *******************************************************************************/
 264:Generated_Source\PSoC5/WaveDAC8_1.c **** void WaveDAC8_1_Wave2Setup(const uint8 * wavePtr, uint16 sampleSize)
 265:Generated_Source\PSoC5/WaveDAC8_1.c ****  
 266:Generated_Source\PSoC5/WaveDAC8_1.c **** {
 526              		.loc 1 266 0
 527              		.cfi_startproc
 528              		@ args = 0, pretend = 0, frame = 8
 529              		@ frame_needed = 1, uses_anonymous_args = 0
 530 0000 80B5     		push	{r7, lr}
 531              		.cfi_def_cfa_offset 8
ARM GAS  C:\Users\JOSEAN~1\AppData\Local\Temp\ccL29UpK.s 			page 15


 532              		.cfi_offset 7, -8
 533              		.cfi_offset 14, -4
 534 0002 82B0     		sub	sp, sp, #8
 535              		.cfi_def_cfa_offset 16
 536 0004 00AF     		add	r7, sp, #0
 537              		.cfi_def_cfa_register 7
 538 0006 7860     		str	r0, [r7, #4]
 539 0008 0B46     		mov	r3, r1
 540 000a 7B80     		strh	r3, [r7, #2]	@ movhi
 267:Generated_Source\PSoC5/WaveDAC8_1.c **** 	#if (CY_PSOC3)
 268:Generated_Source\PSoC5/WaveDAC8_1.c **** 		uint16 memoryType; /* determining the source memory type */
 269:Generated_Source\PSoC5/WaveDAC8_1.c **** 		memoryType = (WaveDAC8_1_HI16FLASHPTR == HI16(wavePtr)) ? HI16(CYDEV_FLS_BASE) : HI16(CYDEV_SRAM_
 270:Generated_Source\PSoC5/WaveDAC8_1.c **** 			
 271:Generated_Source\PSoC5/WaveDAC8_1.c **** 		WaveDAC8_1_Wave2Chan = WaveDAC8_1_Wave2_DMA_DmaInitialize(
 272:Generated_Source\PSoC5/WaveDAC8_1.c **** 		WaveDAC8_1_Wave2_DMA_BYTES_PER_BURST, WaveDAC8_1_Wave2_DMA_REQUEST_PER_BURST,
 273:Generated_Source\PSoC5/WaveDAC8_1.c **** 		memoryType, HI16(CYDEV_PERIPH_BASE));
 274:Generated_Source\PSoC5/WaveDAC8_1.c **** 	#else /* PSoC 5 */
 275:Generated_Source\PSoC5/WaveDAC8_1.c **** 		WaveDAC8_1_Wave2Chan = WaveDAC8_1_Wave2_DMA_DmaInitialize(
 276:Generated_Source\PSoC5/WaveDAC8_1.c **** 		WaveDAC8_1_Wave2_DMA_BYTES_PER_BURST, WaveDAC8_1_Wave2_DMA_REQUEST_PER_BURST,
 277:Generated_Source\PSoC5/WaveDAC8_1.c **** 		HI16(wavePtr), HI16(WaveDAC8_1_DAC8__D));
 541              		.loc 1 277 0
 542 000c 7B68     		ldr	r3, [r7, #4]
 543 000e 1B0C     		lsrs	r3, r3, #16
 275:Generated_Source\PSoC5/WaveDAC8_1.c **** 		WaveDAC8_1_Wave2_DMA_BYTES_PER_BURST, WaveDAC8_1_Wave2_DMA_REQUEST_PER_BURST,
 544              		.loc 1 275 0
 545 0010 9AB2     		uxth	r2, r3
 546 0012 4FF48043 		mov	r3, #16384
 547 0016 0121     		movs	r1, #1
 548 0018 0120     		movs	r0, #1
 549 001a FFF7FEFF 		bl	WaveDAC8_1_Wave2_DMA_DmaInitialize
 550 001e 0346     		mov	r3, r0
 551 0020 1A46     		mov	r2, r3
 552 0022 0F4B     		ldr	r3, .L19
 553 0024 1A70     		strb	r2, [r3]
 278:Generated_Source\PSoC5/WaveDAC8_1.c **** 	#endif /* CY_PSOC3 */
 279:Generated_Source\PSoC5/WaveDAC8_1.c **** 	
 280:Generated_Source\PSoC5/WaveDAC8_1.c **** 	/*
 281:Generated_Source\PSoC5/WaveDAC8_1.c **** 	* TD is looping on itself. 
 282:Generated_Source\PSoC5/WaveDAC8_1.c **** 	* Increment the source address, but not the destination address. 
 283:Generated_Source\PSoC5/WaveDAC8_1.c **** 	*/
 284:Generated_Source\PSoC5/WaveDAC8_1.c **** 	(void)CyDmaTdSetConfiguration(WaveDAC8_1_Wave2TD, sampleSize, WaveDAC8_1_Wave2TD, 
 554              		.loc 1 284 0
 555 0026 0F4B     		ldr	r3, .L19+4
 556 0028 1878     		ldrb	r0, [r3]	@ zero_extendqisi2
 557 002a 0E4B     		ldr	r3, .L19+4
 558 002c 1A78     		ldrb	r2, [r3]	@ zero_extendqisi2
 559 002e 7988     		ldrh	r1, [r7, #2]
 560 0030 0123     		movs	r3, #1
 561 0032 FFF7FEFF 		bl	CyDmaTdSetConfiguration
 285:Generated_Source\PSoC5/WaveDAC8_1.c ****                                     (uint8)CY_DMA_TD_INC_SRC_ADR | (uint8)WaveDAC8_1_Wave2_DMA__TD_
 286:Generated_Source\PSoC5/WaveDAC8_1.c **** 	
 287:Generated_Source\PSoC5/WaveDAC8_1.c **** 	/* Set the TD source and destination address */
 288:Generated_Source\PSoC5/WaveDAC8_1.c **** 	(void)CyDmaTdSetAddress(WaveDAC8_1_Wave2TD, LO16((uint32)wavePtr), LO16(WaveDAC8_1_DAC8__D));
 562              		.loc 1 288 0
 563 0036 0B4B     		ldr	r3, .L19+4
 564 0038 1B78     		ldrb	r3, [r3]	@ zero_extendqisi2
 565 003a 7A68     		ldr	r2, [r7, #4]
ARM GAS  C:\Users\JOSEAN~1\AppData\Local\Temp\ccL29UpK.s 			page 16


 566 003c 91B2     		uxth	r1, r2
 567 003e 45F68232 		movw	r2, #23426
 568 0042 1846     		mov	r0, r3
 569 0044 FFF7FEFF 		bl	CyDmaTdSetAddress
 289:Generated_Source\PSoC5/WaveDAC8_1.c **** 	
 290:Generated_Source\PSoC5/WaveDAC8_1.c **** 	/* Associate the TD with the channel */
 291:Generated_Source\PSoC5/WaveDAC8_1.c **** 	(void)CyDmaChSetInitialTd(WaveDAC8_1_Wave2Chan, WaveDAC8_1_Wave2TD);
 570              		.loc 1 291 0
 571 0048 054B     		ldr	r3, .L19
 572 004a 1A78     		ldrb	r2, [r3]	@ zero_extendqisi2
 573 004c 054B     		ldr	r3, .L19+4
 574 004e 1B78     		ldrb	r3, [r3]	@ zero_extendqisi2
 575 0050 1946     		mov	r1, r3
 576 0052 1046     		mov	r0, r2
 577 0054 FFF7FEFF 		bl	CyDmaChSetInitialTd
 292:Generated_Source\PSoC5/WaveDAC8_1.c **** }
 578              		.loc 1 292 0
 579 0058 00BF     		nop
 580 005a 0837     		adds	r7, r7, #8
 581              		.cfi_def_cfa_offset 8
 582 005c BD46     		mov	sp, r7
 583              		.cfi_def_cfa_register 13
 584              		@ sp needed
 585 005e 80BD     		pop	{r7, pc}
 586              	.L20:
 587              		.align	2
 588              	.L19:
 589 0060 02000000 		.word	WaveDAC8_1_Wave2Chan
 590 0064 04000000 		.word	WaveDAC8_1_Wave2TD
 591              		.cfi_endproc
 592              	.LFE6:
 593              		.size	WaveDAC8_1_Wave2Setup, .-WaveDAC8_1_Wave2Setup
 594              		.text
 595              	.Letext0:
 596              		.file 2 "Generated_Source\\PSoC5\\cytypes.h"
 597              		.section	.debug_info,"",%progbits
 598              	.Ldebug_info0:
 599 0000 54020000 		.4byte	0x254
 600 0004 0400     		.2byte	0x4
 601 0006 00000000 		.4byte	.Ldebug_abbrev0
 602 000a 04       		.byte	0x4
 603 000b 01       		.uleb128 0x1
 604 000c 13000000 		.4byte	.LASF37
 605 0010 0C       		.byte	0xc
 606 0011 CB010000 		.4byte	.LASF38
 607 0015 B5020000 		.4byte	.LASF39
 608 0019 00000000 		.4byte	.Ldebug_ranges0+0
 609 001d 00000000 		.4byte	0
 610 0021 00000000 		.4byte	.Ldebug_line0
 611 0025 02       		.uleb128 0x2
 612 0026 01       		.byte	0x1
 613 0027 06       		.byte	0x6
 614 0028 A9020000 		.4byte	.LASF0
 615 002c 02       		.uleb128 0x2
 616 002d 01       		.byte	0x1
 617 002e 08       		.byte	0x8
 618 002f B0010000 		.4byte	.LASF1
ARM GAS  C:\Users\JOSEAN~1\AppData\Local\Temp\ccL29UpK.s 			page 17


 619 0033 02       		.uleb128 0x2
 620 0034 02       		.byte	0x2
 621 0035 05       		.byte	0x5
 622 0036 98010000 		.4byte	.LASF2
 623 003a 02       		.uleb128 0x2
 624 003b 02       		.byte	0x2
 625 003c 07       		.byte	0x7
 626 003d C6000000 		.4byte	.LASF3
 627 0041 02       		.uleb128 0x2
 628 0042 04       		.byte	0x4
 629 0043 05       		.byte	0x5
 630 0044 94020000 		.4byte	.LASF4
 631 0048 02       		.uleb128 0x2
 632 0049 04       		.byte	0x4
 633 004a 07       		.byte	0x7
 634 004b 33010000 		.4byte	.LASF5
 635 004f 02       		.uleb128 0x2
 636 0050 08       		.byte	0x8
 637 0051 05       		.byte	0x5
 638 0052 22020000 		.4byte	.LASF6
 639 0056 02       		.uleb128 0x2
 640 0057 08       		.byte	0x8
 641 0058 07       		.byte	0x7
 642 0059 EF010000 		.4byte	.LASF7
 643 005d 03       		.uleb128 0x3
 644 005e 04       		.byte	0x4
 645 005f 05       		.byte	0x5
 646 0060 696E7400 		.ascii	"int\000"
 647 0064 02       		.uleb128 0x2
 648 0065 04       		.byte	0x4
 649 0066 07       		.byte	0x7
 650 0067 BE010000 		.4byte	.LASF8
 651 006b 04       		.uleb128 0x4
 652 006c 4D010000 		.4byte	.LASF9
 653 0070 02       		.byte	0x2
 654 0071 9201     		.2byte	0x192
 655 0073 2C000000 		.4byte	0x2c
 656 0077 04       		.uleb128 0x4
 657 0078 A2010000 		.4byte	.LASF10
 658 007c 02       		.byte	0x2
 659 007d 9301     		.2byte	0x193
 660 007f 3A000000 		.4byte	0x3a
 661 0083 04       		.uleb128 0x4
 662 0084 A9010000 		.4byte	.LASF11
 663 0088 02       		.byte	0x2
 664 0089 9401     		.2byte	0x194
 665 008b 48000000 		.4byte	0x48
 666 008f 02       		.uleb128 0x2
 667 0090 04       		.byte	0x4
 668 0091 04       		.byte	0x4
 669 0092 0F010000 		.4byte	.LASF12
 670 0096 02       		.uleb128 0x2
 671 0097 08       		.byte	0x8
 672 0098 04       		.byte	0x4
 673 0099 81010000 		.4byte	.LASF13
 674 009d 02       		.uleb128 0x2
 675 009e 01       		.byte	0x1
ARM GAS  C:\Users\JOSEAN~1\AppData\Local\Temp\ccL29UpK.s 			page 18


 676 009f 08       		.byte	0x8
 677 00a0 30020000 		.4byte	.LASF14
 678 00a4 02       		.uleb128 0x2
 679 00a5 08       		.byte	0x8
 680 00a6 04       		.byte	0x4
 681 00a7 9D020000 		.4byte	.LASF15
 682 00ab 02       		.uleb128 0x2
 683 00ac 04       		.byte	0x4
 684 00ad 07       		.byte	0x7
 685 00ae 19020000 		.4byte	.LASF16
 686 00b2 05       		.uleb128 0x5
 687 00b3 B6000000 		.4byte	.LASF17
 688 00b7 01       		.byte	0x1
 689 00b8 2B       		.byte	0x2b
 690 00b9 00000000 		.4byte	.LFB0
 691 00bd 54000000 		.4byte	.LFE0-.LFB0
 692 00c1 01       		.uleb128 0x1
 693 00c2 9C       		.byte	0x9c
 694 00c3 05       		.uleb128 0x5
 695 00c4 4B020000 		.4byte	.LASF18
 696 00c8 01       		.byte	0x1
 697 00c9 56       		.byte	0x56
 698 00ca 00000000 		.4byte	.LFB1
 699 00ce 3C000000 		.4byte	.LFE1-.LFB1
 700 00d2 01       		.uleb128 0x1
 701 00d3 9C       		.byte	0x9c
 702 00d4 05       		.uleb128 0x5
 703 00d5 D9000000 		.4byte	.LASF19
 704 00d9 01       		.byte	0x1
 705 00da 81       		.byte	0x81
 706 00db 00000000 		.4byte	.LFB2
 707 00df 24000000 		.4byte	.LFE2-.LFB2
 708 00e3 01       		.uleb128 0x1
 709 00e4 9C       		.byte	0x9c
 710 00e5 06       		.uleb128 0x6
 711 00e6 FC000000 		.4byte	.LASF25
 712 00ea 01       		.byte	0x1
 713 00eb A3       		.byte	0xa3
 714 00ec 00000000 		.4byte	.LFB3
 715 00f0 34000000 		.4byte	.LFE3-.LFB3
 716 00f4 01       		.uleb128 0x1
 717 00f5 9C       		.byte	0x9c
 718 00f6 33010000 		.4byte	0x133
 719 00fa 07       		.uleb128 0x7
 720 00fb EA000000 		.4byte	.LASF20
 721 00ff 01       		.byte	0x1
 722 0100 A3       		.byte	0xa3
 723 0101 33010000 		.4byte	0x133
 724 0105 02       		.uleb128 0x2
 725 0106 91       		.byte	0x91
 726 0107 74       		.sleb128 -12
 727 0108 07       		.uleb128 0x7
 728 0109 53010000 		.4byte	.LASF21
 729 010d 01       		.byte	0x1
 730 010e A3       		.byte	0xa3
 731 010f 77000000 		.4byte	0x77
 732 0113 02       		.uleb128 0x2
ARM GAS  C:\Users\JOSEAN~1\AppData\Local\Temp\ccL29UpK.s 			page 19


 733 0114 91       		.byte	0x91
 734 0115 72       		.sleb128 -14
 735 0116 07       		.uleb128 0x7
 736 0117 F3000000 		.4byte	.LASF22
 737 011b 01       		.byte	0x1
 738 011c A3       		.byte	0xa3
 739 011d 33010000 		.4byte	0x133
 740 0121 02       		.uleb128 0x2
 741 0122 91       		.byte	0x91
 742 0123 6C       		.sleb128 -20
 743 0124 07       		.uleb128 0x7
 744 0125 5F010000 		.4byte	.LASF23
 745 0129 01       		.byte	0x1
 746 012a A3       		.byte	0xa3
 747 012b 77000000 		.4byte	0x77
 748 012f 02       		.uleb128 0x2
 749 0130 91       		.byte	0x91
 750 0131 70       		.sleb128 -16
 751 0132 00       		.byte	0
 752 0133 08       		.uleb128 0x8
 753 0134 04       		.byte	0x4
 754 0135 39010000 		.4byte	0x139
 755 0139 09       		.uleb128 0x9
 756 013a 6B000000 		.4byte	0x6b
 757 013e 05       		.uleb128 0x5
 758 013f 88010000 		.4byte	.LASF24
 759 0143 01       		.byte	0x1
 760 0144 BB       		.byte	0xbb
 761 0145 00000000 		.4byte	.LFB4
 762 0149 2C000000 		.4byte	.LFE4-.LFB4
 763 014d 01       		.uleb128 0x1
 764 014e 9C       		.byte	0x9c
 765 014f 06       		.uleb128 0x6
 766 0150 6B010000 		.4byte	.LASF26
 767 0154 01       		.byte	0x1
 768 0155 DA       		.byte	0xda
 769 0156 00000000 		.4byte	.LFB5
 770 015a 68000000 		.4byte	.LFE5-.LFB5
 771 015e 01       		.uleb128 0x1
 772 015f 9C       		.byte	0x9c
 773 0160 81010000 		.4byte	0x181
 774 0164 07       		.uleb128 0x7
 775 0165 45010000 		.4byte	.LASF27
 776 0169 01       		.byte	0x1
 777 016a DA       		.byte	0xda
 778 016b 33010000 		.4byte	0x133
 779 016f 02       		.uleb128 0x2
 780 0170 91       		.byte	0x91
 781 0171 74       		.sleb128 -12
 782 0172 07       		.uleb128 0x7
 783 0173 28010000 		.4byte	.LASF28
 784 0177 01       		.byte	0x1
 785 0178 DA       		.byte	0xda
 786 0179 77000000 		.4byte	0x77
 787 017d 02       		.uleb128 0x2
 788 017e 91       		.byte	0x91
 789 017f 72       		.sleb128 -14
ARM GAS  C:\Users\JOSEAN~1\AppData\Local\Temp\ccL29UpK.s 			page 20


 790 0180 00       		.byte	0
 791 0181 0A       		.uleb128 0xa
 792 0182 35020000 		.4byte	.LASF29
 793 0186 01       		.byte	0x1
 794 0187 0801     		.2byte	0x108
 795 0189 00000000 		.4byte	.LFB6
 796 018d 68000000 		.4byte	.LFE6-.LFB6
 797 0191 01       		.uleb128 0x1
 798 0192 9C       		.byte	0x9c
 799 0193 B6010000 		.4byte	0x1b6
 800 0197 0B       		.uleb128 0xb
 801 0198 45010000 		.4byte	.LASF27
 802 019c 01       		.byte	0x1
 803 019d 0801     		.2byte	0x108
 804 019f 33010000 		.4byte	0x133
 805 01a3 02       		.uleb128 0x2
 806 01a4 91       		.byte	0x91
 807 01a5 74       		.sleb128 -12
 808 01a6 0B       		.uleb128 0xb
 809 01a7 28010000 		.4byte	.LASF28
 810 01ab 01       		.byte	0x1
 811 01ac 0801     		.2byte	0x108
 812 01ae 77000000 		.4byte	0x77
 813 01b2 02       		.uleb128 0x2
 814 01b3 91       		.byte	0x91
 815 01b4 72       		.sleb128 -14
 816 01b5 00       		.byte	0
 817 01b6 0C       		.uleb128 0xc
 818 01b7 7F020000 		.4byte	.LASF30
 819 01bb 01       		.byte	0x1
 820 01bc 17       		.byte	0x17
 821 01bd 6B000000 		.4byte	0x6b
 822 01c1 05       		.uleb128 0x5
 823 01c2 03       		.byte	0x3
 824 01c3 01000000 		.4byte	WaveDAC8_1_Wave1Chan
 825 01c7 0C       		.uleb128 0xc
 826 01c8 A1000000 		.4byte	.LASF31
 827 01cc 01       		.byte	0x1
 828 01cd 18       		.byte	0x18
 829 01ce 6B000000 		.4byte	0x6b
 830 01d2 05       		.uleb128 0x5
 831 01d3 03       		.byte	0x3
 832 01d4 02000000 		.4byte	WaveDAC8_1_Wave2Chan
 833 01d8 0C       		.uleb128 0xc
 834 01d9 15010000 		.4byte	.LASF32
 835 01dd 01       		.byte	0x1
 836 01de 19       		.byte	0x19
 837 01df 6B000000 		.4byte	0x6b
 838 01e3 05       		.uleb128 0x5
 839 01e4 03       		.byte	0x3
 840 01e5 03000000 		.4byte	WaveDAC8_1_Wave1TD
 841 01e9 0C       		.uleb128 0xc
 842 01ea 06020000 		.4byte	.LASF33
 843 01ee 01       		.byte	0x1
 844 01ef 1A       		.byte	0x1a
 845 01f0 6B000000 		.4byte	0x6b
 846 01f4 05       		.uleb128 0x5
ARM GAS  C:\Users\JOSEAN~1\AppData\Local\Temp\ccL29UpK.s 			page 21


 847 01f5 03       		.byte	0x3
 848 01f6 04000000 		.4byte	WaveDAC8_1_Wave2TD
 849 01fa 0D       		.uleb128 0xd
 850 01fb 00000000 		.4byte	.LASF34
 851 01ff 01       		.byte	0x1
 852 0200 12       		.byte	0x12
 853 0201 6B000000 		.4byte	0x6b
 854 0205 05       		.uleb128 0x5
 855 0206 03       		.byte	0x3
 856 0207 00000000 		.4byte	WaveDAC8_1_initVar
 857 020b 0E       		.uleb128 0xe
 858 020c 39010000 		.4byte	0x139
 859 0210 1B020000 		.4byte	0x21b
 860 0214 0F       		.uleb128 0xf
 861 0215 AB000000 		.4byte	0xab
 862 0219 63       		.byte	0x63
 863 021a 00       		.byte	0
 864 021b 0D       		.uleb128 0xd
 865 021c 5D020000 		.4byte	.LASF35
 866 0220 01       		.byte	0x1
 867 0221 14       		.byte	0x14
 868 0222 2C020000 		.4byte	0x22c
 869 0226 05       		.uleb128 0x5
 870 0227 03       		.byte	0x3
 871 0228 00000000 		.4byte	WaveDAC8_1_wave1
 872 022c 09       		.uleb128 0x9
 873 022d 0B020000 		.4byte	0x20b
 874 0231 0E       		.uleb128 0xe
 875 0232 39010000 		.4byte	0x139
 876 0236 41020000 		.4byte	0x241
 877 023a 0F       		.uleb128 0xf
 878 023b AB000000 		.4byte	0xab
 879 023f 31       		.byte	0x31
 880 0240 00       		.byte	0
 881 0241 0D       		.uleb128 0xd
 882 0242 6E020000 		.4byte	.LASF36
 883 0246 01       		.byte	0x1
 884 0247 15       		.byte	0x15
 885 0248 52020000 		.4byte	0x252
 886 024c 05       		.uleb128 0x5
 887 024d 03       		.byte	0x3
 888 024e 00000000 		.4byte	WaveDAC8_1_wave2
 889 0252 09       		.uleb128 0x9
 890 0253 31020000 		.4byte	0x231
 891 0257 00       		.byte	0
 892              		.section	.debug_abbrev,"",%progbits
 893              	.Ldebug_abbrev0:
 894 0000 01       		.uleb128 0x1
 895 0001 11       		.uleb128 0x11
 896 0002 01       		.byte	0x1
 897 0003 25       		.uleb128 0x25
 898 0004 0E       		.uleb128 0xe
 899 0005 13       		.uleb128 0x13
 900 0006 0B       		.uleb128 0xb
 901 0007 03       		.uleb128 0x3
 902 0008 0E       		.uleb128 0xe
 903 0009 1B       		.uleb128 0x1b
ARM GAS  C:\Users\JOSEAN~1\AppData\Local\Temp\ccL29UpK.s 			page 22


 904 000a 0E       		.uleb128 0xe
 905 000b 55       		.uleb128 0x55
 906 000c 17       		.uleb128 0x17
 907 000d 11       		.uleb128 0x11
 908 000e 01       		.uleb128 0x1
 909 000f 10       		.uleb128 0x10
 910 0010 17       		.uleb128 0x17
 911 0011 00       		.byte	0
 912 0012 00       		.byte	0
 913 0013 02       		.uleb128 0x2
 914 0014 24       		.uleb128 0x24
 915 0015 00       		.byte	0
 916 0016 0B       		.uleb128 0xb
 917 0017 0B       		.uleb128 0xb
 918 0018 3E       		.uleb128 0x3e
 919 0019 0B       		.uleb128 0xb
 920 001a 03       		.uleb128 0x3
 921 001b 0E       		.uleb128 0xe
 922 001c 00       		.byte	0
 923 001d 00       		.byte	0
 924 001e 03       		.uleb128 0x3
 925 001f 24       		.uleb128 0x24
 926 0020 00       		.byte	0
 927 0021 0B       		.uleb128 0xb
 928 0022 0B       		.uleb128 0xb
 929 0023 3E       		.uleb128 0x3e
 930 0024 0B       		.uleb128 0xb
 931 0025 03       		.uleb128 0x3
 932 0026 08       		.uleb128 0x8
 933 0027 00       		.byte	0
 934 0028 00       		.byte	0
 935 0029 04       		.uleb128 0x4
 936 002a 16       		.uleb128 0x16
 937 002b 00       		.byte	0
 938 002c 03       		.uleb128 0x3
 939 002d 0E       		.uleb128 0xe
 940 002e 3A       		.uleb128 0x3a
 941 002f 0B       		.uleb128 0xb
 942 0030 3B       		.uleb128 0x3b
 943 0031 05       		.uleb128 0x5
 944 0032 49       		.uleb128 0x49
 945 0033 13       		.uleb128 0x13
 946 0034 00       		.byte	0
 947 0035 00       		.byte	0
 948 0036 05       		.uleb128 0x5
 949 0037 2E       		.uleb128 0x2e
 950 0038 00       		.byte	0
 951 0039 3F       		.uleb128 0x3f
 952 003a 19       		.uleb128 0x19
 953 003b 03       		.uleb128 0x3
 954 003c 0E       		.uleb128 0xe
 955 003d 3A       		.uleb128 0x3a
 956 003e 0B       		.uleb128 0xb
 957 003f 3B       		.uleb128 0x3b
 958 0040 0B       		.uleb128 0xb
 959 0041 27       		.uleb128 0x27
 960 0042 19       		.uleb128 0x19
ARM GAS  C:\Users\JOSEAN~1\AppData\Local\Temp\ccL29UpK.s 			page 23


 961 0043 11       		.uleb128 0x11
 962 0044 01       		.uleb128 0x1
 963 0045 12       		.uleb128 0x12
 964 0046 06       		.uleb128 0x6
 965 0047 40       		.uleb128 0x40
 966 0048 18       		.uleb128 0x18
 967 0049 9642     		.uleb128 0x2116
 968 004b 19       		.uleb128 0x19
 969 004c 00       		.byte	0
 970 004d 00       		.byte	0
 971 004e 06       		.uleb128 0x6
 972 004f 2E       		.uleb128 0x2e
 973 0050 01       		.byte	0x1
 974 0051 3F       		.uleb128 0x3f
 975 0052 19       		.uleb128 0x19
 976 0053 03       		.uleb128 0x3
 977 0054 0E       		.uleb128 0xe
 978 0055 3A       		.uleb128 0x3a
 979 0056 0B       		.uleb128 0xb
 980 0057 3B       		.uleb128 0x3b
 981 0058 0B       		.uleb128 0xb
 982 0059 27       		.uleb128 0x27
 983 005a 19       		.uleb128 0x19
 984 005b 11       		.uleb128 0x11
 985 005c 01       		.uleb128 0x1
 986 005d 12       		.uleb128 0x12
 987 005e 06       		.uleb128 0x6
 988 005f 40       		.uleb128 0x40
 989 0060 18       		.uleb128 0x18
 990 0061 9642     		.uleb128 0x2116
 991 0063 19       		.uleb128 0x19
 992 0064 01       		.uleb128 0x1
 993 0065 13       		.uleb128 0x13
 994 0066 00       		.byte	0
 995 0067 00       		.byte	0
 996 0068 07       		.uleb128 0x7
 997 0069 05       		.uleb128 0x5
 998 006a 00       		.byte	0
 999 006b 03       		.uleb128 0x3
 1000 006c 0E       		.uleb128 0xe
 1001 006d 3A       		.uleb128 0x3a
 1002 006e 0B       		.uleb128 0xb
 1003 006f 3B       		.uleb128 0x3b
 1004 0070 0B       		.uleb128 0xb
 1005 0071 49       		.uleb128 0x49
 1006 0072 13       		.uleb128 0x13
 1007 0073 02       		.uleb128 0x2
 1008 0074 18       		.uleb128 0x18
 1009 0075 00       		.byte	0
 1010 0076 00       		.byte	0
 1011 0077 08       		.uleb128 0x8
 1012 0078 0F       		.uleb128 0xf
 1013 0079 00       		.byte	0
 1014 007a 0B       		.uleb128 0xb
 1015 007b 0B       		.uleb128 0xb
 1016 007c 49       		.uleb128 0x49
 1017 007d 13       		.uleb128 0x13
ARM GAS  C:\Users\JOSEAN~1\AppData\Local\Temp\ccL29UpK.s 			page 24


 1018 007e 00       		.byte	0
 1019 007f 00       		.byte	0
 1020 0080 09       		.uleb128 0x9
 1021 0081 26       		.uleb128 0x26
 1022 0082 00       		.byte	0
 1023 0083 49       		.uleb128 0x49
 1024 0084 13       		.uleb128 0x13
 1025 0085 00       		.byte	0
 1026 0086 00       		.byte	0
 1027 0087 0A       		.uleb128 0xa
 1028 0088 2E       		.uleb128 0x2e
 1029 0089 01       		.byte	0x1
 1030 008a 3F       		.uleb128 0x3f
 1031 008b 19       		.uleb128 0x19
 1032 008c 03       		.uleb128 0x3
 1033 008d 0E       		.uleb128 0xe
 1034 008e 3A       		.uleb128 0x3a
 1035 008f 0B       		.uleb128 0xb
 1036 0090 3B       		.uleb128 0x3b
 1037 0091 05       		.uleb128 0x5
 1038 0092 27       		.uleb128 0x27
 1039 0093 19       		.uleb128 0x19
 1040 0094 11       		.uleb128 0x11
 1041 0095 01       		.uleb128 0x1
 1042 0096 12       		.uleb128 0x12
 1043 0097 06       		.uleb128 0x6
 1044 0098 40       		.uleb128 0x40
 1045 0099 18       		.uleb128 0x18
 1046 009a 9642     		.uleb128 0x2116
 1047 009c 19       		.uleb128 0x19
 1048 009d 01       		.uleb128 0x1
 1049 009e 13       		.uleb128 0x13
 1050 009f 00       		.byte	0
 1051 00a0 00       		.byte	0
 1052 00a1 0B       		.uleb128 0xb
 1053 00a2 05       		.uleb128 0x5
 1054 00a3 00       		.byte	0
 1055 00a4 03       		.uleb128 0x3
 1056 00a5 0E       		.uleb128 0xe
 1057 00a6 3A       		.uleb128 0x3a
 1058 00a7 0B       		.uleb128 0xb
 1059 00a8 3B       		.uleb128 0x3b
 1060 00a9 05       		.uleb128 0x5
 1061 00aa 49       		.uleb128 0x49
 1062 00ab 13       		.uleb128 0x13
 1063 00ac 02       		.uleb128 0x2
 1064 00ad 18       		.uleb128 0x18
 1065 00ae 00       		.byte	0
 1066 00af 00       		.byte	0
 1067 00b0 0C       		.uleb128 0xc
 1068 00b1 34       		.uleb128 0x34
 1069 00b2 00       		.byte	0
 1070 00b3 03       		.uleb128 0x3
 1071 00b4 0E       		.uleb128 0xe
 1072 00b5 3A       		.uleb128 0x3a
 1073 00b6 0B       		.uleb128 0xb
 1074 00b7 3B       		.uleb128 0x3b
ARM GAS  C:\Users\JOSEAN~1\AppData\Local\Temp\ccL29UpK.s 			page 25


 1075 00b8 0B       		.uleb128 0xb
 1076 00b9 49       		.uleb128 0x49
 1077 00ba 13       		.uleb128 0x13
 1078 00bb 02       		.uleb128 0x2
 1079 00bc 18       		.uleb128 0x18
 1080 00bd 00       		.byte	0
 1081 00be 00       		.byte	0
 1082 00bf 0D       		.uleb128 0xd
 1083 00c0 34       		.uleb128 0x34
 1084 00c1 00       		.byte	0
 1085 00c2 03       		.uleb128 0x3
 1086 00c3 0E       		.uleb128 0xe
 1087 00c4 3A       		.uleb128 0x3a
 1088 00c5 0B       		.uleb128 0xb
 1089 00c6 3B       		.uleb128 0x3b
 1090 00c7 0B       		.uleb128 0xb
 1091 00c8 49       		.uleb128 0x49
 1092 00c9 13       		.uleb128 0x13
 1093 00ca 3F       		.uleb128 0x3f
 1094 00cb 19       		.uleb128 0x19
 1095 00cc 02       		.uleb128 0x2
 1096 00cd 18       		.uleb128 0x18
 1097 00ce 00       		.byte	0
 1098 00cf 00       		.byte	0
 1099 00d0 0E       		.uleb128 0xe
 1100 00d1 01       		.uleb128 0x1
 1101 00d2 01       		.byte	0x1
 1102 00d3 49       		.uleb128 0x49
 1103 00d4 13       		.uleb128 0x13
 1104 00d5 01       		.uleb128 0x1
 1105 00d6 13       		.uleb128 0x13
 1106 00d7 00       		.byte	0
 1107 00d8 00       		.byte	0
 1108 00d9 0F       		.uleb128 0xf
 1109 00da 21       		.uleb128 0x21
 1110 00db 00       		.byte	0
 1111 00dc 49       		.uleb128 0x49
 1112 00dd 13       		.uleb128 0x13
 1113 00de 2F       		.uleb128 0x2f
 1114 00df 0B       		.uleb128 0xb
 1115 00e0 00       		.byte	0
 1116 00e1 00       		.byte	0
 1117 00e2 00       		.byte	0
 1118              		.section	.debug_aranges,"",%progbits
 1119 0000 4C000000 		.4byte	0x4c
 1120 0004 0200     		.2byte	0x2
 1121 0006 00000000 		.4byte	.Ldebug_info0
 1122 000a 04       		.byte	0x4
 1123 000b 00       		.byte	0
 1124 000c 0000     		.2byte	0
 1125 000e 0000     		.2byte	0
 1126 0010 00000000 		.4byte	.LFB0
 1127 0014 54000000 		.4byte	.LFE0-.LFB0
 1128 0018 00000000 		.4byte	.LFB1
 1129 001c 3C000000 		.4byte	.LFE1-.LFB1
 1130 0020 00000000 		.4byte	.LFB2
 1131 0024 24000000 		.4byte	.LFE2-.LFB2
ARM GAS  C:\Users\JOSEAN~1\AppData\Local\Temp\ccL29UpK.s 			page 26


 1132 0028 00000000 		.4byte	.LFB3
 1133 002c 34000000 		.4byte	.LFE3-.LFB3
 1134 0030 00000000 		.4byte	.LFB4
 1135 0034 2C000000 		.4byte	.LFE4-.LFB4
 1136 0038 00000000 		.4byte	.LFB5
 1137 003c 68000000 		.4byte	.LFE5-.LFB5
 1138 0040 00000000 		.4byte	.LFB6
 1139 0044 68000000 		.4byte	.LFE6-.LFB6
 1140 0048 00000000 		.4byte	0
 1141 004c 00000000 		.4byte	0
 1142              		.section	.debug_ranges,"",%progbits
 1143              	.Ldebug_ranges0:
 1144 0000 00000000 		.4byte	.LFB0
 1145 0004 54000000 		.4byte	.LFE0
 1146 0008 00000000 		.4byte	.LFB1
 1147 000c 3C000000 		.4byte	.LFE1
 1148 0010 00000000 		.4byte	.LFB2
 1149 0014 24000000 		.4byte	.LFE2
 1150 0018 00000000 		.4byte	.LFB3
 1151 001c 34000000 		.4byte	.LFE3
 1152 0020 00000000 		.4byte	.LFB4
 1153 0024 2C000000 		.4byte	.LFE4
 1154 0028 00000000 		.4byte	.LFB5
 1155 002c 68000000 		.4byte	.LFE5
 1156 0030 00000000 		.4byte	.LFB6
 1157 0034 68000000 		.4byte	.LFE6
 1158 0038 00000000 		.4byte	0
 1159 003c 00000000 		.4byte	0
 1160              		.section	.debug_line,"",%progbits
 1161              	.Ldebug_line0:
 1162 0000 EE000000 		.section	.debug_str,"MS",%progbits,1
 1162      02004700 
 1162      00000201 
 1162      FB0E0D00 
 1162      01010101 
 1163              	.LASF34:
 1164 0000 57617665 		.ascii	"WaveDAC8_1_initVar\000"
 1164      44414338 
 1164      5F315F69 
 1164      6E697456 
 1164      617200
 1165              	.LASF37:
 1166 0013 474E5520 		.ascii	"GNU C11 5.4.1 20160609 (release) [ARM/embedded-5-br"
 1166      43313120 
 1166      352E342E 
 1166      31203230 
 1166      31363036 
 1167 0046 616E6368 		.ascii	"anch revision 237715] -mcpu=cortex-m3 -mthumb -g -O"
 1167      20726576 
 1167      6973696F 
 1167      6E203233 
 1167      37373135 
 1168 0079 30202D66 		.ascii	"0 -ffunction-sections -ffat-lto-objects\000"
 1168      66756E63 
 1168      74696F6E 
 1168      2D736563 
 1168      74696F6E 
ARM GAS  C:\Users\JOSEAN~1\AppData\Local\Temp\ccL29UpK.s 			page 27


 1169              	.LASF31:
 1170 00a1 57617665 		.ascii	"WaveDAC8_1_Wave2Chan\000"
 1170      44414338 
 1170      5F315F57 
 1170      61766532 
 1170      4368616E 
 1171              	.LASF17:
 1172 00b6 57617665 		.ascii	"WaveDAC8_1_Init\000"
 1172      44414338 
 1172      5F315F49 
 1172      6E697400 
 1173              	.LASF3:
 1174 00c6 73686F72 		.ascii	"short unsigned int\000"
 1174      7420756E 
 1174      7369676E 
 1174      65642069 
 1174      6E7400
 1175              	.LASF19:
 1176 00d9 57617665 		.ascii	"WaveDAC8_1_Start\000"
 1176      44414338 
 1176      5F315F53 
 1176      74617274 
 1176      00
 1177              	.LASF20:
 1178 00ea 77617665 		.ascii	"wavePtr1\000"
 1178      50747231 
 1178      00
 1179              	.LASF22:
 1180 00f3 77617665 		.ascii	"wavePtr2\000"
 1180      50747232 
 1180      00
 1181              	.LASF25:
 1182 00fc 57617665 		.ascii	"WaveDAC8_1_StartEx\000"
 1182      44414338 
 1182      5F315F53 
 1182      74617274 
 1182      457800
 1183              	.LASF12:
 1184 010f 666C6F61 		.ascii	"float\000"
 1184      7400
 1185              	.LASF32:
 1186 0115 57617665 		.ascii	"WaveDAC8_1_Wave1TD\000"
 1186      44414338 
 1186      5F315F57 
 1186      61766531 
 1186      544400
 1187              	.LASF28:
 1188 0128 73616D70 		.ascii	"sampleSize\000"
 1188      6C655369 
 1188      7A6500
 1189              	.LASF5:
 1190 0133 6C6F6E67 		.ascii	"long unsigned int\000"
 1190      20756E73 
 1190      69676E65 
 1190      6420696E 
 1190      7400
 1191              	.LASF27:
ARM GAS  C:\Users\JOSEAN~1\AppData\Local\Temp\ccL29UpK.s 			page 28


 1192 0145 77617665 		.ascii	"wavePtr\000"
 1192      50747200 
 1193              	.LASF9:
 1194 014d 75696E74 		.ascii	"uint8\000"
 1194      3800
 1195              	.LASF21:
 1196 0153 73616D70 		.ascii	"sampleSize1\000"
 1196      6C655369 
 1196      7A653100 
 1197              	.LASF23:
 1198 015f 73616D70 		.ascii	"sampleSize2\000"
 1198      6C655369 
 1198      7A653200 
 1199              	.LASF26:
 1200 016b 57617665 		.ascii	"WaveDAC8_1_Wave1Setup\000"
 1200      44414338 
 1200      5F315F57 
 1200      61766531 
 1200      53657475 
 1201              	.LASF13:
 1202 0181 646F7562 		.ascii	"double\000"
 1202      6C6500
 1203              	.LASF24:
 1204 0188 57617665 		.ascii	"WaveDAC8_1_Stop\000"
 1204      44414338 
 1204      5F315F53 
 1204      746F7000 
 1205              	.LASF2:
 1206 0198 73686F72 		.ascii	"short int\000"
 1206      7420696E 
 1206      7400
 1207              	.LASF10:
 1208 01a2 75696E74 		.ascii	"uint16\000"
 1208      313600
 1209              	.LASF11:
 1210 01a9 75696E74 		.ascii	"uint32\000"
 1210      333200
 1211              	.LASF1:
 1212 01b0 756E7369 		.ascii	"unsigned char\000"
 1212      676E6564 
 1212      20636861 
 1212      7200
 1213              	.LASF8:
 1214 01be 756E7369 		.ascii	"unsigned int\000"
 1214      676E6564 
 1214      20696E74 
 1214      00
 1215              	.LASF38:
 1216 01cb 47656E65 		.ascii	"Generated_Source\\PSoC5\\WaveDAC8_1.c\000"
 1216      72617465 
 1216      645F536F 
 1216      75726365 
 1216      5C50536F 
 1217              	.LASF7:
 1218 01ef 6C6F6E67 		.ascii	"long long unsigned int\000"
 1218      206C6F6E 
 1218      6720756E 
ARM GAS  C:\Users\JOSEAN~1\AppData\Local\Temp\ccL29UpK.s 			page 29


 1218      7369676E 
 1218      65642069 
 1219              	.LASF33:
 1220 0206 57617665 		.ascii	"WaveDAC8_1_Wave2TD\000"
 1220      44414338 
 1220      5F315F57 
 1220      61766532 
 1220      544400
 1221              	.LASF16:
 1222 0219 73697A65 		.ascii	"sizetype\000"
 1222      74797065 
 1222      00
 1223              	.LASF6:
 1224 0222 6C6F6E67 		.ascii	"long long int\000"
 1224      206C6F6E 
 1224      6720696E 
 1224      7400
 1225              	.LASF14:
 1226 0230 63686172 		.ascii	"char\000"
 1226      00
 1227              	.LASF29:
 1228 0235 57617665 		.ascii	"WaveDAC8_1_Wave2Setup\000"
 1228      44414338 
 1228      5F315F57 
 1228      61766532 
 1228      53657475 
 1229              	.LASF18:
 1230 024b 57617665 		.ascii	"WaveDAC8_1_Enable\000"
 1230      44414338 
 1230      5F315F45 
 1230      6E61626C 
 1230      6500
 1231              	.LASF35:
 1232 025d 57617665 		.ascii	"WaveDAC8_1_wave1\000"
 1232      44414338 
 1232      5F315F77 
 1232      61766531 
 1232      00
 1233              	.LASF36:
 1234 026e 57617665 		.ascii	"WaveDAC8_1_wave2\000"
 1234      44414338 
 1234      5F315F77 
 1234      61766532 
 1234      00
 1235              	.LASF30:
 1236 027f 57617665 		.ascii	"WaveDAC8_1_Wave1Chan\000"
 1236      44414338 
 1236      5F315F57 
 1236      61766531 
 1236      4368616E 
 1237              	.LASF4:
 1238 0294 6C6F6E67 		.ascii	"long int\000"
 1238      20696E74 
 1238      00
 1239              	.LASF15:
 1240 029d 6C6F6E67 		.ascii	"long double\000"
 1240      20646F75 
ARM GAS  C:\Users\JOSEAN~1\AppData\Local\Temp\ccL29UpK.s 			page 30


 1240      626C6500 
 1241              	.LASF0:
 1242 02a9 7369676E 		.ascii	"signed char\000"
 1242      65642063 
 1242      68617200 
 1243              	.LASF39:
 1244 02b5 443A5C44 		.ascii	"D:\\Documentos\\UNIVERSIDAD\\TFG\\Application Notes"
 1244      6F63756D 
 1244      656E746F 
 1244      735C554E 
 1244      49564552 
 1245 02e4 20792050 		.ascii	" y Proyectos\\Psoc5_proyectillos\\WaveDAC\\WaveDAC8"
 1245      726F7965 
 1245      63746F73 
 1245      5C50736F 
 1245      63355F70 
 1246 0314 5F457861 		.ascii	"_Example\\WaveDAC8_Example.cydsn\000"
 1246      6D706C65 
 1246      5C576176 
 1246      65444143 
 1246      385F4578 
 1247              		.ident	"GCC: (GNU Tools for ARM Embedded Processors) 5.4.1 20160609 (release) [ARM/embedded-5-bran
