===========Generating Bitstream===========
# IDMUX (count=6)
00000000: 02 00 00 00 00 00
# PHUB_CFGMEM0 (count=4)
00000006: 00 00 00 00
# PHUB_CFGMEM1 (count=4)
0000000a: 00 00 00 00
# IOPORT_0 (count=7)
0000000e: 00 00 00 00 00 00 00
# IOPINS0_0 (count=8)
00000015: 00 00 00 00 00 00 01 00
# IOPINS1_0 + 0x00000009 (count=5)
0000001d: 00 00 00 00 00
# PICU_0 (count=8)
00000022: 00 00 00 00 00 00 00 00
# IOPORT_1 (count=7)
0000002a: 00 00 00 00 00 00 00
# IOPINS0_1 (count=8)
00000031: 00 0b 0b 00 00 00 00 00
# IOPINS1_1 + 0x00000009 (count=5)
00000039: 00 00 00 00 00
# PICU_1 (count=8)
0000003e: 00 00 00 00 00 00 00 00
# IOPORT_2 (count=7)
00000046: 00 00 00 00 00 00 00
# IOPINS0_2 (count=16)
0000004d: 00 00 00 00 00 00 00 00 00 00 00 00 00 00 00 00

# IOPORT_3 (count=7)
0000005d: 00 00 00 00 00 00 00
# IOPINS0_3 (count=8)
00000064: 00 00 00 00 00 00 01 00
# IOPINS1_3 + 0x00000009 (count=5)
0000006c: 00 00 00 00 00
# PICU_3 (count=8)
00000071: 00 00 00 00 00 00 00 00
# IOPORT_4 (count=7)
00000079: 00 00 00 00 00 00 00
# IOPINS0_4 (count=16)
00000080: 00 00 00 00 00 00 00 00 00 00 00 00 00 00 00 00

# IOPORT_5 (count=7)
00000090: 00 00 00 00 00 00 00
# IOPINS0_5 (count=16)
00000097: 00 00 00 00 00 00 00 00 00 00 00 00 00 00 00 00

# IOPORT_6 (count=7)
000000a7: 00 00 00 00 00 00 00
# IOPINS0_6 (count=16)
000000ae: 00 00 00 00 00 00 00 00 00 00 00 00 00 00 00 00

# IOPORT_7 (count=6)
000000be: 00 00 00 00 00 00
# IOPINS0_7 (count=16)
000000c4: 00 00 00 00 00 00 00 00 00 00 00 00 00 00 00 00

# IOPORT_8 (count=7)
000000d4: 00 00 00 00 00 00 00
# IOPINS0_8 (count=16)
000000db: 00 00 00 00 00 00 00 00 00 00 00 00 00 00 00 00

# IDMUX_IRQ (count=8)
000000eb: 00 00 00 00 00 00 00 00
# CYDEV_CLKDIST_DCFG0_CFG0 (count=3)
000000f3: 2f 75 18
# CYDEV_SLOWCLK_ILO_CR0 (count=1)
000000f6: 02
# CYDEV_CLKDIST_CR (count=1)
000000f7: 08
# CYDEV_FASTCLK_IMO_CR (count=1)
000000f8: 03
# CYDEV_FASTCLK_PLL_P (count=2)
000000f9: 08 00
# CYDEV_FASTCLK_PLL_CFG0 (count=2)
000000fb: 51 12
# CYDEV_CLKDIST_MSTR0 (count=2)
000000fd: 00 01
# CYDEV_CLKDIST_MSTR0 (count=1)
000000ff: 07
# CYDEV_CLKDIST_BCFG0 (count=1)
00000100: 00
# CYDEV_CLKDIST_BCFG2 (count=1)
00000101: 48
# CYDEV_CLKDIST_MSTR0 (count=1)
00000102: 00
# CYDEV_CLKDIST_LD (count=1)
00000103: 02
# CYDEV_PM_ACT_CFG2 (count=1)
00000104: 01
# DAC2 (count=8)
00000105: 00 00 00 00 00 00 00 01
# UDB_1_5_0_CONFIG (count=128)
0000010d: 00 00 00 00 00 00 00 00 00 00 00 00 00 00 00 00
0000011d: 00 00 00 00 00 00 00 00 00 00 00 00 00 00 00 00
0000012d: 00 00 00 00 00 00 00 00 00 00 00 00 00 00 00 00
0000013d: 00 00 00 00 00 00 00 00 00 00 00 00 00 00 00 00
0000014d: 00 00 00 00 00 00 00 00 00 00 00 00 00 00 00 00
0000015d: 00 00 00 00 00 00 00 00 00 00 00 00 00 00 00 00
0000016d: 00 00 00 00 00 00 00 00 00 00 00 00 00 00 00 00
0000017d: 00 00 00 00 00 00 00 00 00 00 00 00 00 00 00 00

# UDB_1_5_1_CONFIG (count=128)
0000018d: 00 00 00 00 00 00 00 00 00 00 00 00 00 00 00 00
0000019d: 00 00 00 00 00 00 00 00 00 00 00 00 00 00 00 00
000001ad: 00 00 00 00 00 00 00 00 00 00 00 00 00 00 00 00
000001bd: 00 00 00 00 00 00 00 00 00 00 00 00 00 00 00 00
000001cd: 00 00 00 00 00 00 00 00 00 00 00 00 00 00 00 00
000001dd: 00 00 00 00 00 00 00 00 00 00 00 00 00 00 00 00
000001ed: 00 00 00 00 00 00 00 00 00 00 00 00 00 00 00 00
000001fd: 00 00 00 00 00 00 00 00 00 00 00 00 00 00 00 00

# UDB_1_4_1_CONFIG (count=128)
0000020d: 00 00 00 00 00 00 00 00 00 00 00 00 00 00 00 00
0000021d: 00 00 00 00 00 00 00 00 00 00 00 00 00 00 00 00
0000022d: 00 00 00 00 00 00 00 00 00 00 00 00 00 00 00 00
0000023d: 00 00 00 00 00 00 00 00 00 00 00 00 00 00 00 00
0000024d: 00 00 00 00 00 00 00 00 00 00 00 00 00 00 00 00
0000025d: 00 00 00 00 00 00 00 00 00 00 00 00 00 00 00 00
0000026d: 00 00 00 00 00 00 00 00 00 00 00 00 00 00 00 00
0000027d: 00 00 00 00 00 00 00 00 00 00 00 00 00 00 00 00

# UDB_1_4_0_CONFIG (count=128)
0000028d: 00 00 00 00 00 00 00 00 00 00 00 00 00 00 00 00
0000029d: 00 00 00 00 00 00 00 00 00 00 00 00 00 00 00 00
000002ad: 00 00 00 00 00 00 00 00 00 00 00 00 00 00 00 00
000002bd: 00 00 00 00 00 00 00 00 00 00 00 00 00 00 00 00
000002cd: 00 00 00 00 00 00 00 00 00 00 00 00 00 00 00 00
000002dd: 00 00 00 00 00 00 00 00 00 00 00 00 00 00 00 00
000002ed: 00 00 00 00 00 00 00 00 00 00 00 00 00 00 00 00
000002fd: 00 00 00 00 00 00 00 00 00 00 00 00 00 00 00 00

# UDB_1_3_0_CONFIG (count=128)
0000030d: 00 00 00 00 00 00 00 00 00 00 00 00 00 00 00 00
0000031d: 00 00 00 00 00 00 00 00 00 00 00 00 00 00 00 00
0000032d: 00 00 00 00 00 00 00 00 00 00 00 00 00 00 00 00
0000033d: 00 00 00 00 00 00 00 00 00 00 00 00 00 00 00 00
0000034d: 00 00 00 00 00 00 00 00 00 00 00 00 00 00 00 00
0000035d: 00 00 00 00 00 00 00 00 00 00 00 00 00 00 00 00
0000036d: 00 00 00 00 00 00 00 00 00 00 00 00 00 00 00 00
0000037d: 00 00 00 00 00 00 00 00 00 00 00 00 00 00 00 00

# UDB_1_3_1_CONFIG (count=128)
0000038d: 00 00 00 00 00 00 00 00 00 00 00 00 00 00 00 00
0000039d: 00 00 00 00 00 00 00 00 00 00 00 00 00 00 00 00
000003ad: 00 00 00 00 00 00 00 00 00 00 00 00 00 00 00 00
000003bd: 00 00 00 00 00 00 00 00 00 00 00 00 00 00 00 00
000003cd: 00 00 00 00 00 00 00 00 00 00 00 00 00 00 00 00
000003dd: 00 00 00 00 00 00 00 00 00 00 00 00 00 00 00 00
000003ed: 00 00 00 00 00 00 00 00 00 00 00 00 00 00 00 00
000003fd: 00 00 00 00 00 00 00 00 00 00 00 00 00 00 00 00

# UDB_1_2_1_CONFIG (count=128)
0000040d: 00 00 00 00 00 00 00 00 00 00 00 00 00 00 00 00
0000041d: 00 00 00 00 00 00 00 00 00 00 00 00 00 00 00 00
0000042d: 00 00 00 00 00 00 00 00 00 00 00 00 00 00 00 00
0000043d: 00 00 00 00 00 00 00 00 00 00 00 00 00 00 00 00
0000044d: 00 00 00 00 00 00 00 00 00 00 00 00 00 00 00 00
0000045d: 00 00 00 00 00 00 00 00 00 00 00 00 00 00 00 00
0000046d: 00 00 00 00 00 00 00 00 00 00 00 00 00 00 00 00
0000047d: 00 00 00 00 00 00 00 00 00 00 00 00 00 00 00 00

# UDB_1_2_0_CONFIG (count=128)
0000048d: 00 00 00 00 00 00 00 00 00 00 00 00 00 00 00 00
0000049d: 00 00 00 00 00 00 00 00 00 00 00 00 00 00 00 00
000004ad: 00 00 00 00 00 00 00 00 00 00 00 00 00 00 00 00
000004bd: 00 00 00 00 00 00 00 00 00 00 00 00 00 00 00 00
000004cd: 00 00 00 00 00 00 00 00 00 00 00 00 00 00 00 00
000004dd: 00 00 00 00 00 00 00 00 00 00 00 00 00 00 00 00
000004ed: 00 00 00 00 00 00 00 00 00 00 00 00 00 00 00 00
000004fd: 00 00 00 00 00 00 00 00 00 00 00 00 00 00 00 00

# UDB_0_2_1_CONFIG (count=128)
0000050d: 00 00 00 00 00 00 00 00 00 00 00 00 00 00 00 00
0000051d: 00 00 00 00 00 00 00 00 00 00 00 00 00 00 00 00
0000052d: 00 00 00 00 00 00 00 00 00 00 00 00 00 00 00 00
0000053d: 00 00 00 00 00 00 00 00 00 00 00 00 00 00 00 00
0000054d: 00 00 00 00 00 00 00 00 00 00 00 00 00 00 00 00
0000055d: 00 00 00 00 00 00 00 00 00 00 00 00 00 00 00 00
0000056d: 00 00 00 00 00 00 00 00 00 00 00 00 00 00 00 00
0000057d: 00 00 00 00 00 00 00 00 00 00 00 00 00 00 00 00

# UDB_0_2_0_CONFIG (count=128)
0000058d: 00 00 00 00 00 00 00 00 00 00 00 00 00 00 00 00
0000059d: 00 00 00 00 00 00 00 00 00 00 00 00 00 00 00 00
000005ad: 00 00 00 00 00 00 00 00 00 00 00 00 00 00 00 00
000005bd: 00 00 00 00 00 00 00 00 00 00 00 00 00 00 00 00
000005cd: 00 00 00 00 00 00 00 00 00 00 00 00 00 00 00 00
000005dd: 00 00 00 00 00 00 00 00 00 00 00 00 00 00 00 00
000005ed: 00 00 00 00 00 00 00 00 00 00 00 00 00 00 00 00
000005fd: 00 00 00 00 00 00 00 00 00 00 00 00 00 00 00 00

# UDB_0_3_0_CONFIG (count=128)
0000060d: 00 00 00 00 00 00 00 00 00 00 00 00 00 00 00 00
0000061d: 00 00 00 00 00 00 00 00 00 00 00 00 00 00 00 00
0000062d: 00 00 00 00 00 00 00 00 00 00 00 00 00 00 00 00
0000063d: 00 00 00 00 00 00 00 00 00 00 00 00 00 00 00 00
0000064d: 00 00 00 00 00 00 00 00 00 00 00 00 00 00 00 00
0000065d: 00 00 00 00 00 00 00 00 00 00 00 00 00 00 00 00
0000066d: 00 00 00 00 00 00 00 00 00 00 00 00 00 00 00 00
0000067d: 00 00 00 00 00 00 00 00 00 00 00 00 00 00 00 00

# UDB_0_3_1_CONFIG (count=128)
0000068d: 00 00 00 00 00 00 00 00 00 00 00 00 00 00 00 00
0000069d: 00 00 00 00 00 00 00 00 00 00 00 00 00 00 00 00
000006ad: 00 00 00 00 00 00 00 00 00 00 00 00 00 00 00 00
000006bd: 00 00 00 00 00 00 00 00 00 00 00 00 00 00 00 00
000006cd: 00 00 00 00 00 00 00 00 00 00 00 00 00 00 00 00
000006dd: 00 00 00 00 00 00 00 00 00 00 00 00 00 00 00 00
000006ed: 00 00 00 00 00 00 00 00 00 00 00 00 00 00 00 00
000006fd: 00 00 00 00 00 00 00 00 00 00 00 00 00 00 00 00

# UDB_0_4_1_CONFIG (count=128)
0000070d: 00 00 00 00 00 00 00 00 00 00 00 00 00 00 00 00
0000071d: 00 00 00 00 00 00 00 00 00 00 00 00 00 00 00 00
0000072d: 00 00 00 00 00 00 00 00 00 00 00 00 00 00 00 00
0000073d: 00 00 00 00 00 00 00 00 00 00 00 00 00 00 00 00
0000074d: 00 00 00 00 00 00 00 00 00 00 00 00 00 00 00 00
0000075d: 00 00 00 00 00 00 00 00 00 00 00 00 00 00 00 00
0000076d: 00 00 00 00 00 00 00 00 00 00 00 00 00 00 00 00
0000077d: 00 00 00 00 00 00 00 00 00 00 00 00 00 00 00 00

# UDB_0_4_0_CONFIG (count=128)
0000078d: 00 00 00 00 00 00 00 00 00 00 00 00 00 00 00 00
0000079d: 00 00 00 00 00 00 00 00 00 00 00 00 00 00 00 00
000007ad: 00 00 00 00 00 00 00 00 00 00 00 00 00 00 00 00
000007bd: 00 00 00 00 00 00 00 00 00 00 00 00 00 00 00 00
000007cd: 00 00 00 00 00 00 00 00 00 00 00 00 00 00 00 00
000007dd: 00 00 00 00 00 00 00 00 00 00 00 00 00 00 00 00
000007ed: 00 00 00 00 00 00 00 00 00 00 00 00 00 00 00 00
000007fd: 00 00 00 00 00 00 00 00 00 00 00 00 00 00 00 00

# UDB_0_5_0_CONFIG (count=128)
0000080d: 00 00 00 00 00 00 00 00 00 00 00 00 00 00 00 00
0000081d: 00 00 00 00 00 00 00 00 00 00 00 00 00 00 00 00
0000082d: 00 00 00 00 00 00 00 00 00 00 00 00 00 00 00 00
0000083d: 00 00 00 00 00 00 00 00 00 00 00 00 00 00 00 00
0000084d: 00 00 00 00 00 00 00 00 00 00 00 00 00 00 00 00
0000085d: 00 00 00 00 00 00 00 00 00 00 00 00 00 00 00 00
0000086d: 00 00 00 00 00 00 00 00 00 00 00 00 00 00 00 00
0000087d: 00 00 00 00 00 00 00 00 00 00 00 00 00 00 00 00

# UDB_0_5_1_CONFIG (count=128)
0000088d: 00 00 00 00 00 00 00 00 00 00 00 00 00 00 00 00
0000089d: 00 00 00 00 00 00 00 00 00 00 00 00 00 00 00 00
000008ad: 00 00 00 00 00 00 00 00 00 00 00 00 00 00 00 00
000008bd: 00 00 00 00 00 00 00 00 00 00 00 00 00 00 00 00
000008cd: 00 00 00 00 00 00 00 00 00 00 00 00 00 00 00 00
000008dd: 00 00 00 00 00 00 00 00 00 00 00 00 00 00 00 00
000008ed: 00 00 00 00 00 00 00 00 00 00 00 00 00 00 00 00
000008fd: 00 00 00 00 00 00 00 00 00 00 00 00 00 00 00 00

# UDB_1_0_0_CONFIG (count=128)
0000090d: 00 00 00 00 00 00 00 00 00 00 00 00 00 00 00 00
0000091d: 00 00 00 00 00 00 00 00 00 00 00 00 00 00 00 00
0000092d: 00 00 00 00 00 00 00 00 00 00 00 00 00 00 00 00
0000093d: 00 00 00 00 00 00 00 00 00 00 00 00 00 00 00 00
0000094d: 00 00 00 00 00 00 00 00 00 00 00 00 00 00 00 00
0000095d: 00 00 00 00 00 00 00 00 00 00 00 00 00 00 00 00
0000096d: 00 00 00 00 00 00 00 00 00 00 00 00 00 00 00 00
0000097d: 00 00 00 00 00 00 00 00 00 00 00 00 00 00 00 00

# UDB_1_0_1_CONFIG (count=128)
0000098d: 00 00 00 00 00 00 00 00 00 00 00 00 00 00 00 00
0000099d: 00 00 00 00 00 00 00 00 00 00 00 00 00 00 00 00
000009ad: 00 00 00 00 00 00 00 00 00 00 00 00 00 00 00 00
000009bd: 00 00 00 00 00 00 00 00 00 00 00 00 00 00 00 00
000009cd: 00 00 00 00 00 00 00 00 00 00 00 00 00 00 00 00
000009dd: 00 00 00 00 00 00 00 00 00 00 00 00 00 00 00 00
000009ed: 00 00 00 00 00 00 00 00 00 00 00 00 00 00 00 00
000009fd: 00 00 00 00 00 00 00 00 00 00 00 00 00 00 00 00

# UDB_1_1_1_CONFIG (count=128)
00000a0d: 00 00 00 00 00 00 00 00 00 00 00 00 00 00 00 00
00000a1d: 00 00 00 00 00 00 00 00 00 00 00 00 00 00 00 00
00000a2d: 00 00 00 00 00 00 00 00 00 00 00 00 00 00 00 00
00000a3d: 00 00 00 00 00 00 00 00 00 00 00 00 00 00 00 00
00000a4d: 00 00 00 00 00 00 00 00 00 00 00 00 00 00 00 00
00000a5d: 00 00 00 00 00 00 00 00 00 00 00 00 00 00 00 00
00000a6d: 00 00 00 00 00 00 00 00 00 00 00 00 00 00 00 00
00000a7d: 00 00 00 00 00 00 00 00 00 00 00 00 00 00 00 00

# UDB_1_1_0_CONFIG (count=128)
00000a8d: 00 00 00 00 00 00 00 00 00 00 00 00 00 00 00 00
00000a9d: 00 00 00 00 00 00 00 00 00 00 00 00 00 00 00 00
00000aad: 00 00 00 00 00 00 00 00 00 00 00 00 00 00 00 00
00000abd: 00 00 00 00 00 00 00 00 00 00 00 00 00 00 00 00
00000acd: 00 00 00 00 00 00 00 00 00 00 00 00 00 00 00 00
00000add: 00 00 00 00 00 00 00 00 00 00 00 00 00 00 00 00
00000aed: 00 00 00 00 00 00 00 00 00 00 00 00 00 00 00 00
00000afd: 00 00 00 00 00 00 00 00 00 00 00 00 00 00 00 00

# UDB_0_1_1_CONFIG (count=128)
00000b0d: 00 00 00 00 00 00 00 00 00 00 00 00 00 00 00 00
00000b1d: 00 00 00 00 00 00 00 00 00 00 00 00 00 00 00 00
00000b2d: 00 00 00 00 00 00 00 00 00 00 00 00 00 00 00 00
00000b3d: 00 00 00 00 00 00 00 00 00 00 00 00 00 00 00 00
00000b4d: 00 00 00 00 00 00 00 00 00 00 00 00 00 00 00 00
00000b5d: 00 00 00 00 00 00 00 00 00 00 00 00 00 00 00 00
00000b6d: 00 00 00 00 00 00 00 00 00 00 00 00 00 00 00 00
00000b7d: 00 00 00 00 00 00 00 00 00 00 00 00 00 00 00 00

# UDB_0_1_0_CONFIG (count=128)
00000b8d: 00 00 00 00 00 00 00 00 00 00 00 00 00 00 00 00
00000b9d: 00 00 00 00 00 00 00 00 00 00 00 00 00 00 00 00
00000bad: 00 00 00 00 00 00 00 00 00 00 00 00 00 00 00 00
00000bbd: 00 00 00 00 00 00 00 00 00 00 00 00 00 00 00 00
00000bcd: 00 00 00 00 00 00 00 00 00 00 00 00 00 00 00 00
00000bdd: 00 00 00 00 00 00 00 00 00 00 00 00 00 00 00 00
00000bed: 00 00 00 00 00 00 00 00 00 00 00 00 00 00 00 00
00000bfd: 00 00 00 00 00 00 00 00 00 00 00 00 00 00 00 00

# UDB_0_0_0_CONFIG (count=128)
00000c0d: 00 00 00 00 00 00 00 00 00 00 00 00 00 00 00 00
00000c1d: 00 00 00 00 00 00 00 00 00 00 00 00 00 00 00 00
00000c2d: 00 00 00 00 00 00 00 00 00 00 00 00 00 00 00 00
00000c3d: 00 00 00 00 00 00 00 00 00 00 00 00 00 00 00 00
00000c4d: 00 00 00 00 00 00 00 00 00 00 00 00 00 00 00 00
00000c5d: 00 00 00 00 00 00 00 00 00 00 00 00 00 00 00 00
00000c6d: 00 00 00 00 00 00 00 00 00 00 00 00 00 00 00 00
00000c7d: 00 00 00 00 00 00 00 00 00 00 00 00 00 00 00 00

# UDB_0_0_1_CONFIG (count=128)
00000c8d: 00 00 00 00 00 00 00 00 00 00 00 00 00 00 00 00
00000c9d: 00 00 00 00 00 00 00 00 00 00 00 00 00 00 00 00
00000cad: 00 00 00 00 00 00 00 00 00 00 00 00 00 00 00 00
00000cbd: 00 00 00 00 00 00 00 00 00 00 00 00 00 00 00 00
00000ccd: 00 00 00 00 00 00 00 00 00 00 00 00 00 00 00 00
00000cdd: 00 00 00 00 00 00 00 00 00 00 00 00 00 00 00 00
00000ced: 00 00 00 00 00 00 00 00 00 00 00 00 00 00 00 00
00000cfd: 00 00 00 00 00 00 00 00 00 00 00 00 00 00 00 00

# UWRK_B0_WRK_DP_BITS (count=64)
00000d0d: 00 00 00 00 00 00 00 00 00 00 00 00 00 00 00 00
00000d1d: 00 00 00 00 00 00 00 00 00 00 00 00 00 00 00 00
00000d2d: 00 00 00 00 00 00 00 00 00 00 00 00 00 00 00 00
00000d3d: 00 00 00 00 00 00 00 00 00 00 00 00 00 00 00 00

# UWRK_B0_WRK_STATCTL_BITS + 0x00000070 (count=32)
00000d4d: 00 00 00 00 00 00 00 00 00 00 00 00 00 00 00 00
00000d5d: 00 00 00 00 00 00 00 00 00 00 00 00 00 00 00 00

# UWRK_B1_WRK_DP_BITS (count=64)
00000d6d: 00 00 00 00 00 00 00 00 00 00 00 00 00 00 00 00
00000d7d: 00 00 00 00 00 00 00 00 00 00 00 00 00 00 00 00
00000d8d: 00 00 00 00 00 00 00 00 00 00 00 00 00 00 00 00
00000d9d: 00 00 00 00 00 00 00 00 00 00 00 00 00 00 00 00

# UWRK_B1_WRK_STATCTL_BITS + 0x00000070 (count=32)
00000dad: 00 00 00 00 00 00 00 00 00 00 00 00 00 00 00 00
00000dbd: 00 00 00 00 00 00 00 00 00 00 00 00 00 00 00 00

# UCFG_BCTL1 (count=16)
00000dcd: 00 00 00 00 00 00 00 00 00 00 00 00 00 00 00 00

# UCFG_BCTL0 (count=16)
00000ddd: 00 00 00 00 00 00 00 00 00 00 00 00 00 00 00 00

# DSISWITCH_0_0 (count=128)
00000ded: 00 00 00 00 00 00 00 00 00 00 00 00 00 00 00 00
00000dfd: 00 00 00 00 00 00 00 00 00 00 00 00 00 00 00 00
00000e0d: 00 00 00 00 00 00 00 00 00 00 00 00 00 00 00 00
00000e1d: 00 00 00 00 00 00 00 00 00 00 00 00 00 00 00 00
00000e2d: 00 00 00 00 00 00 00 00 00 00 00 00 00 00 00 00
00000e3d: 00 00 00 00 00 00 00 00 00 00 00 00 00 00 00 00
00000e4d: 00 00 00 00 00 00 00 00 00 00 00 00 00 00 00 00
00000e5d: 00 00 00 00 00 00 00 00 00 00 00 00 00 00 00 00

# DSI0_0_HV_ROUTING + 0x00000080 (count=128)
00000e6d: 00 00 00 00 00 00 00 00 00 00 00 00 00 00 00 00
00000e7d: 00 00 00 00 00 00 00 00 00 00 00 00 00 00 00 00
00000e8d: 00 00 00 00 00 00 00 00 00 00 00 00 00 00 00 00
00000e9d: 00 00 00 00 20 00 00 00 00 00 00 00 00 00 00 00
00000ead: 00 00 00 00 00 00 00 00 00 00 00 00 00 00 00 00
00000ebd: 00 00 00 00 00 00 00 00 00 00 00 00 00 00 00 00
00000ecd: 00 00 00 00 00 00 00 00 00 00 00 00 08 00 00 00
00000edd: 00 00 00 00 00 00 00 00 00 00 00 00 00 00 00 00

# DSISWITCH_0_1 (count=128)
00000eed: 00 00 00 00 00 00 00 00 00 00 00 00 00 00 00 00
00000efd: 00 00 00 00 00 00 00 00 00 00 00 00 00 00 00 00
00000f0d: 00 00 00 00 00 00 00 00 00 00 00 00 00 00 00 00
00000f1d: 00 00 00 00 00 00 00 00 00 00 00 00 00 00 00 00
00000f2d: 00 00 00 00 00 00 00 00 00 00 00 00 00 00 00 00
00000f3d: 00 00 00 00 00 00 00 00 00 00 00 00 00 00 00 00
00000f4d: 00 00 00 00 00 00 00 00 00 00 00 00 00 00 00 00
00000f5d: 00 00 00 00 00 00 00 00 00 00 00 00 00 00 00 00

# DSI0_1_HV_ROUTING + 0x00000080 (count=128)
00000f6d: 00 00 00 00 00 00 00 00 00 00 00 00 00 00 00 00
00000f7d: 00 00 00 00 00 00 00 00 00 00 00 00 00 00 00 00
00000f8d: 00 00 00 00 20 00 00 00 00 00 00 00 00 00 00 00
00000f9d: 00 00 00 00 00 00 00 00 00 00 00 00 00 00 00 00
00000fad: 00 00 00 00 00 00 00 00 00 00 00 00 00 00 00 00
00000fbd: 00 00 00 00 00 00 00 00 00 00 00 00 00 00 00 00
00000fcd: 00 00 00 00 00 00 00 00 00 00 00 00 00 00 00 00
00000fdd: 00 00 00 00 00 00 00 00 00 00 00 00 00 00 00 00

# DSISWITCH_0_2 (count=128)
00000fed: 00 00 00 00 00 00 00 00 00 00 00 00 00 00 00 00
00000ffd: 00 00 00 00 00 00 00 00 00 00 00 00 00 00 00 00
0000100d: 00 00 00 00 00 00 00 00 00 00 00 00 00 00 00 00
0000101d: 00 00 00 00 00 00 00 00 00 00 00 00 00 00 00 00
0000102d: 00 00 00 00 00 00 00 00 00 00 00 00 00 00 00 00
0000103d: 00 00 00 00 00 00 00 00 00 00 00 00 00 00 00 00
0000104d: 00 00 00 00 00 00 00 00 00 00 00 00 00 00 00 00
0000105d: 00 00 00 00 00 00 00 00 00 00 00 00 00 00 00 00

# DSI0_2_HV_ROUTING + 0x00000080 (count=128)
0000106d: 00 00 00 00 00 00 00 00 00 00 00 00 00 00 00 00
0000107d: 00 00 00 00 00 00 00 00 00 00 00 00 00 00 00 00
0000108d: 00 00 00 00 20 00 00 00 00 00 00 00 00 00 00 00
0000109d: 00 00 00 00 00 00 00 00 00 00 00 00 00 00 00 00
000010ad: 00 00 00 00 00 00 00 00 00 00 00 00 00 00 00 00
000010bd: 00 00 00 00 00 00 00 00 00 00 00 00 00 00 00 00
000010cd: 00 00 00 00 00 00 00 00 00 00 00 00 00 00 00 00
000010dd: 00 00 00 00 00 00 00 00 00 00 00 00 00 00 00 00

# DSISWITCH_0_3 (count=128)
000010ed: 00 00 00 00 00 00 00 00 00 00 00 00 00 00 00 00
000010fd: 00 00 00 00 00 00 00 00 00 00 00 00 00 00 00 00
0000110d: 00 00 00 00 00 00 00 00 00 00 00 00 00 00 00 00
0000111d: 20 00 00 00 00 00 00 00 00 00 00 00 00 00 00 00
0000112d: 00 00 00 00 00 00 00 00 00 00 00 00 00 00 00 00
0000113d: 00 00 00 00 00 00 00 00 00 00 00 00 00 00 00 00
0000114d: 00 00 00 00 00 00 00 00 00 00 00 00 00 00 00 00
0000115d: 00 00 00 00 00 00 00 00 00 00 00 00 00 00 00 00

# DSI0_3_HV_ROUTING + 0x00000080 (count=128)
0000116d: 00 00 00 00 00 00 00 00 00 00 00 00 00 00 00 00
0000117d: 00 00 00 00 00 00 00 00 00 00 00 00 00 00 00 00
0000118d: 00 00 00 00 00 00 00 00 00 00 00 00 00 00 00 00
0000119d: 00 00 00 00 00 00 00 00 00 00 00 00 00 00 00 00
000011ad: 00 00 00 00 00 00 00 00 00 00 00 00 08 00 00 00
000011bd: 00 00 00 00 00 00 00 00 00 00 00 00 00 00 00 00
000011cd: 00 00 00 00 00 00 00 00 00 00 00 00 00 00 00 00
000011dd: 00 00 00 00 00 00 00 00 00 00 00 00 00 00 00 00

# DSISWITCH_0_4 (count=128)
000011ed: 00 00 00 00 00 00 00 00 00 00 00 00 00 00 00 00
000011fd: 00 00 00 00 00 00 00 00 00 00 00 00 00 00 00 00
0000120d: 00 00 00 00 00 00 00 00 00 00 00 00 00 00 00 00
0000121d: 00 00 00 00 00 00 00 00 00 00 00 00 00 00 00 00
0000122d: 00 00 00 00 00 00 00 00 00 00 00 00 00 00 00 00
0000123d: 00 00 00 00 00 00 00 00 00 00 00 00 00 00 00 00
0000124d: 00 00 00 00 00 00 00 00 00 00 00 00 00 00 00 00
0000125d: 00 00 00 00 00 00 00 00 00 00 00 00 00 00 00 00

# DSI0_4_HV_ROUTING + 0x00000080 (count=128)
0000126d: 00 00 00 00 00 00 00 00 00 00 00 00 00 00 00 00
0000127d: 00 00 00 00 00 00 00 00 00 00 00 00 00 00 00 00
0000128d: 00 00 00 00 00 00 00 00 00 00 00 00 00 00 00 00
0000129d: 00 00 00 00 00 00 00 00 00 00 00 00 00 00 00 00
000012ad: 00 00 00 00 00 00 00 00 00 00 00 00 00 00 00 00
000012bd: 00 00 00 00 00 00 00 00 00 00 00 00 00 00 00 00
000012cd: 00 00 00 00 00 00 00 00 00 00 00 00 00 00 00 00
000012dd: 00 00 00 00 00 00 00 00 00 00 00 00 00 00 00 00

# DSISWITCH_0_5 (count=128)
000012ed: 00 00 00 00 00 00 00 00 00 00 00 00 00 00 00 00
000012fd: 00 00 00 00 00 00 00 00 00 00 00 00 00 00 00 00
0000130d: 00 00 00 00 00 00 00 00 00 00 00 00 00 00 00 00
0000131d: 00 00 00 00 00 00 00 00 00 00 00 00 00 00 00 00
0000132d: 00 00 00 00 00 00 00 00 00 00 00 00 00 00 00 00
0000133d: 00 00 00 00 00 00 00 00 00 00 00 00 00 00 00 00
0000134d: 00 00 00 00 00 00 00 00 00 00 00 00 00 00 00 00
0000135d: 00 00 00 00 00 00 00 00 00 00 00 00 00 00 00 00

# DSI0_5_HV_ROUTING + 0x00000080 (count=128)
0000136d: 00 00 00 00 00 00 00 00 00 00 00 00 00 00 00 00
0000137d: 00 00 00 00 00 00 00 00 00 00 00 00 00 00 00 00
0000138d: 00 00 00 00 00 00 00 00 00 00 00 00 00 00 00 00
0000139d: 00 00 00 00 00 00 00 00 00 00 00 00 00 00 00 00
000013ad: 00 00 00 00 00 00 00 00 00 00 00 00 00 00 00 00
000013bd: 00 00 00 00 00 00 00 00 00 00 00 00 00 00 00 00
000013cd: 00 00 00 00 00 00 00 00 00 00 00 00 00 00 00 00
000013dd: 00 00 00 00 00 00 00 00 00 00 00 00 00 00 00 00

# UDBSWITCH_0_0 (count=128)
000013ed: 00 00 00 00 00 00 00 00 00 00 00 00 00 00 00 00
000013fd: 00 00 00 00 00 00 00 00 00 00 00 00 00 00 00 00
0000140d: 00 00 00 00 00 00 00 00 00 00 00 00 00 00 00 00
0000141d: 00 00 00 00 00 00 00 00 00 00 00 00 00 00 00 00
0000142d: 00 00 00 00 00 00 00 00 00 00 00 00 00 00 00 00
0000143d: 00 00 00 00 00 00 00 00 00 00 00 00 00 00 00 00
0000144d: 00 00 00 00 00 00 00 00 00 00 00 00 00 00 00 00
0000145d: 00 00 00 00 00 00 00 00 00 00 00 00 00 00 00 00

# UDB_1_0_HV_ROUTING + 0x00000080 (count=128)
0000146d: 00 00 00 00 00 00 00 00 00 00 00 00 00 00 00 00
0000147d: 00 00 00 00 00 00 00 00 00 00 00 00 00 00 00 00
0000148d: 00 00 00 00 00 00 00 00 00 00 00 00 00 00 00 00
0000149d: 00 00 00 00 00 00 00 00 00 00 00 00 00 00 00 00
000014ad: 00 00 00 00 00 00 00 00 00 00 00 00 00 00 00 00
000014bd: 00 00 00 00 00 00 00 00 00 00 00 00 00 00 00 00
000014cd: 00 00 00 00 00 00 00 00 00 00 00 00 10 00 00 00
000014dd: 00 00 00 00 00 00 00 00 00 00 00 00 00 00 00 00

# UDBSWITCH_1_0 (count=128)
000014ed: 00 00 00 00 00 00 00 00 00 00 00 00 00 00 00 00
000014fd: 00 00 00 00 00 00 00 00 00 00 00 00 00 00 00 00
0000150d: 00 00 00 00 00 00 00 00 00 00 00 00 00 00 00 00
0000151d: 00 00 00 00 00 00 00 00 00 00 00 00 00 00 00 00
0000152d: 00 00 00 00 00 00 00 00 00 00 00 00 00 00 00 00
0000153d: 00 00 00 00 00 00 00 00 00 00 00 00 00 00 00 00
0000154d: 00 00 00 00 00 00 00 00 00 00 00 00 00 00 00 00
0000155d: 00 00 00 00 00 00 00 00 00 00 00 00 00 00 00 00

# UDB_2_0_HV_ROUTING + 0x00000080 (count=128)
0000156d: 00 00 00 00 00 00 00 00 00 00 00 00 00 00 00 00
0000157d: 00 00 00 00 00 00 00 00 00 00 00 00 00 00 00 00
0000158d: 00 00 00 00 00 00 00 00 00 00 00 00 00 00 00 00
0000159d: 00 00 00 00 00 00 00 00 00 00 00 00 00 00 00 00
000015ad: 00 00 00 00 00 00 00 00 00 00 00 00 00 00 00 00
000015bd: 00 00 00 00 00 00 00 00 00 00 00 00 00 00 00 00
000015cd: 00 00 00 00 00 00 00 00 00 00 00 00 10 00 00 00
000015dd: 00 00 00 00 00 00 00 00 00 00 00 00 00 00 00 00

# UDBSWITCH_0_1 (count=128)
000015ed: 00 00 00 00 00 00 00 00 00 00 00 00 00 00 00 00
000015fd: 00 00 00 00 00 00 00 00 00 00 00 00 00 00 00 00
0000160d: 00 00 00 00 00 00 00 00 00 00 00 00 00 00 00 00
0000161d: 00 00 00 00 00 00 00 00 00 00 00 00 00 00 00 00
0000162d: 00 00 00 00 00 00 00 00 00 00 00 00 00 00 00 00
0000163d: 00 00 00 00 00 00 00 00 00 00 00 00 00 00 00 00
0000164d: 00 00 00 00 00 00 00 00 00 00 00 00 00 00 00 00
0000165d: 00 00 00 00 00 00 00 00 00 00 00 00 00 00 00 00

# UDB_1_1_HV_ROUTING + 0x00000080 (count=128)
0000166d: 00 00 00 00 00 00 00 00 00 00 00 00 00 00 00 00
0000167d: 00 00 00 00 00 00 00 00 00 00 00 00 00 00 00 00
0000168d: 00 00 00 00 00 00 00 00 00 00 00 00 00 00 00 00
0000169d: 00 00 00 00 00 00 00 00 00 00 00 00 00 00 00 00
000016ad: 00 00 00 00 00 00 00 00 00 00 00 00 00 00 00 00
000016bd: 00 00 00 00 00 00 00 00 00 00 00 00 00 00 00 00
000016cd: 00 00 00 00 00 00 00 00 00 00 00 00 00 00 00 00
000016dd: 00 00 00 00 00 00 00 00 00 00 00 00 00 00 00 00

# UDBSWITCH_1_1 (count=128)
000016ed: 00 00 00 00 00 00 00 00 00 00 00 00 00 00 00 00
000016fd: 00 00 00 00 00 00 00 00 00 00 00 00 00 00 00 00
0000170d: 00 00 00 00 00 00 00 00 00 00 00 00 00 00 00 00
0000171d: 00 00 00 00 00 00 00 00 00 00 00 00 00 00 00 00
0000172d: 00 00 00 00 00 00 00 00 00 00 00 00 00 00 00 00
0000173d: 00 00 00 00 00 00 00 00 00 00 00 00 00 00 00 00
0000174d: 00 00 00 00 00 00 00 00 00 00 00 00 00 00 00 00
0000175d: 00 00 00 00 00 00 00 00 00 00 00 00 00 00 00 00

# UDB_2_1_HV_ROUTING + 0x00000080 (count=128)
0000176d: 00 00 00 00 00 00 00 00 00 00 00 00 00 00 00 00
0000177d: 00 00 00 00 00 00 00 00 00 00 00 00 00 00 00 00
0000178d: 00 00 00 00 00 00 00 00 00 00 00 00 00 00 00 00
0000179d: 00 00 00 00 00 00 00 00 00 00 00 00 00 00 00 00
000017ad: 00 00 00 00 00 00 00 00 00 00 00 00 00 00 00 00
000017bd: 00 00 00 00 00 00 00 00 00 00 00 00 00 00 00 00
000017cd: 00 00 00 00 00 00 00 00 00 00 00 00 00 00 00 00
000017dd: 00 00 00 00 00 00 00 00 00 00 00 00 00 00 00 00

# UDBSWITCH_0_2 (count=128)
000017ed: 00 00 00 00 00 00 00 00 00 00 00 00 00 00 00 00
000017fd: 00 00 00 00 00 00 00 00 00 00 00 00 00 00 00 00
0000180d: 00 00 00 00 00 00 00 00 00 00 00 00 00 00 00 00
0000181d: 00 00 00 00 00 00 00 00 00 00 00 00 00 00 00 00
0000182d: 00 00 00 00 00 00 00 00 00 00 00 00 00 00 00 00
0000183d: 00 00 00 00 00 00 00 00 00 00 00 00 00 00 00 00
0000184d: 00 00 00 00 00 00 00 00 00 00 00 00 00 00 00 00
0000185d: 00 00 00 00 00 00 00 00 00 00 00 00 00 00 00 00

# UDB_1_2_HV_ROUTING + 0x00000080 (count=128)
0000186d: 00 00 00 00 00 00 00 00 00 00 00 00 00 00 00 00
0000187d: 00 00 00 00 00 00 00 00 00 00 00 00 00 00 00 00
0000188d: 00 00 00 00 00 00 00 00 00 00 00 00 00 00 00 00
0000189d: 00 00 00 00 00 00 00 00 00 00 00 00 00 00 00 00
000018ad: 00 00 00 00 00 00 00 00 00 00 00 00 00 00 00 00
000018bd: 00 00 00 00 00 00 00 00 00 00 00 00 00 00 00 00
000018cd: 00 00 00 00 00 00 00 00 00 00 00 00 00 00 00 00
000018dd: 00 00 00 00 00 00 00 00 00 00 00 00 00 00 00 00

# UDBSWITCH_1_2 (count=128)
000018ed: 00 00 00 00 00 00 00 00 00 00 00 00 00 00 00 00
000018fd: 00 00 00 00 00 00 00 00 00 00 00 00 00 00 00 00
0000190d: 00 00 00 00 00 00 00 00 00 00 00 00 00 00 00 00
0000191d: 00 00 00 00 00 00 00 00 00 00 00 00 00 00 00 00
0000192d: 00 00 00 00 00 00 00 00 00 00 00 00 00 00 00 00
0000193d: 00 00 00 00 00 00 00 00 00 00 00 00 00 00 00 00
0000194d: 00 00 00 00 00 00 00 00 00 00 00 00 00 00 00 00
0000195d: 00 00 00 00 00 00 00 00 00 00 00 00 00 00 00 00

# UDB_2_2_HV_ROUTING + 0x00000080 (count=128)
0000196d: 00 00 00 00 00 00 00 00 00 00 00 00 00 00 00 00
0000197d: 00 00 00 00 00 00 00 00 00 00 00 00 00 00 00 00
0000198d: 00 00 00 00 00 00 00 00 00 00 00 00 00 00 00 00
0000199d: 00 00 00 00 00 00 00 00 00 00 00 00 00 00 00 00
000019ad: 00 00 00 00 00 00 00 00 00 00 00 00 00 00 00 00
000019bd: 00 00 00 00 00 00 00 00 00 00 00 00 00 00 00 00
000019cd: 00 00 00 00 00 00 00 00 00 00 00 00 00 00 00 00
000019dd: 00 00 00 00 00 00 00 00 00 00 00 00 00 00 00 00

# UDBSWITCH_0_3 (count=128)
000019ed: 00 00 00 00 00 00 00 00 00 00 00 00 00 00 00 00
000019fd: 00 00 00 00 00 00 00 00 00 00 00 00 00 00 00 00
00001a0d: 00 00 00 00 00 00 00 00 00 00 00 00 00 00 00 00
00001a1d: 00 00 00 00 00 00 00 00 00 00 00 00 00 00 00 00
00001a2d: 00 00 00 00 00 00 00 00 00 00 00 00 00 00 00 00
00001a3d: 00 00 00 00 00 00 00 00 00 00 00 00 00 00 00 00
00001a4d: 00 00 00 00 00 00 00 00 00 00 00 00 00 00 00 00
00001a5d: 00 00 00 00 00 00 00 00 00 00 00 00 00 00 00 00

# UDB_1_3_HV_ROUTING + 0x00000080 (count=128)
00001a6d: 00 00 00 00 00 00 00 00 00 00 00 00 00 00 00 00
00001a7d: 00 00 00 00 00 00 00 00 00 00 00 00 00 00 00 00
00001a8d: 00 00 00 00 00 00 00 00 00 00 00 00 00 00 00 00
00001a9d: 00 00 00 00 00 00 00 00 00 00 00 00 00 00 00 00
00001aad: 00 00 00 00 00 00 00 00 00 00 00 00 00 00 00 00
00001abd: 00 00 00 00 00 00 00 00 00 00 00 00 00 00 00 00
00001acd: 00 00 00 00 00 00 00 00 00 00 00 00 00 00 00 00
00001add: 00 00 00 00 00 00 00 00 00 00 00 00 00 00 00 00

# UDBSWITCH_1_3 (count=128)
00001aed: 00 00 00 00 00 00 00 00 00 00 00 00 00 00 00 00
00001afd: 00 00 00 00 00 00 00 00 00 00 00 00 00 00 00 00
00001b0d: 00 00 00 00 00 00 00 00 00 00 00 00 00 00 00 00
00001b1d: 00 00 00 00 00 00 00 00 00 00 00 00 00 00 00 00
00001b2d: 00 00 00 00 00 00 00 00 00 00 00 00 00 00 00 00
00001b3d: 00 00 00 00 00 00 00 00 00 00 00 00 00 00 00 00
00001b4d: 00 00 00 00 00 00 00 00 00 00 00 00 00 00 00 00
00001b5d: 00 00 00 00 00 00 00 00 00 00 00 00 00 00 00 00

# UDB_2_3_HV_ROUTING + 0x00000080 (count=128)
00001b6d: 00 00 00 00 00 00 00 00 00 00 00 00 00 00 00 00
00001b7d: 00 00 00 00 00 00 00 00 00 00 00 00 00 00 00 00
00001b8d: 00 00 00 00 00 00 00 00 00 00 00 00 00 00 00 00
00001b9d: 00 00 00 00 00 00 00 00 00 00 00 00 00 00 00 00
00001bad: 00 00 00 00 00 00 00 00 00 00 00 00 00 00 00 00
00001bbd: 00 00 00 00 00 00 00 00 00 00 00 00 00 00 00 00
00001bcd: 00 00 00 00 00 00 00 00 00 00 00 00 00 00 00 00
00001bdd: 00 00 00 00 00 00 00 00 00 00 00 00 00 00 00 00

# UDBSWITCH_0_4 (count=128)
00001bed: 00 00 00 00 00 00 00 00 00 00 00 00 00 00 00 00
00001bfd: 00 00 00 00 00 00 00 00 00 00 00 00 00 00 00 00
00001c0d: 00 00 00 00 00 00 00 00 00 00 00 00 00 00 00 00
00001c1d: 00 00 00 00 00 00 00 00 00 00 00 00 00 00 00 00
00001c2d: 00 00 00 00 00 00 00 00 00 00 00 00 00 00 00 00
00001c3d: 00 00 00 00 00 00 00 00 00 00 00 00 00 00 00 00
00001c4d: 00 00 00 00 00 00 00 00 00 00 00 00 00 00 00 00
00001c5d: 00 00 00 00 00 00 00 00 00 00 00 00 00 00 00 00

# UDB_1_4_HV_ROUTING + 0x00000080 (count=128)
00001c6d: 00 00 00 00 00 00 00 00 00 00 00 00 00 00 00 00
00001c7d: 00 00 00 00 00 00 00 00 00 00 00 00 00 00 00 00
00001c8d: 00 00 00 00 00 00 00 00 00 00 00 00 00 00 00 00
00001c9d: 00 00 00 00 00 00 00 00 00 00 00 00 00 00 00 00
00001cad: 00 00 00 00 00 00 00 00 00 00 00 00 00 00 00 00
00001cbd: 00 00 00 00 00 00 00 00 00 00 00 00 00 00 00 00
00001ccd: 00 00 00 00 00 00 00 00 00 00 00 00 00 00 00 00
00001cdd: 00 00 00 00 00 00 00 00 00 00 00 00 00 00 00 00

# UDBSWITCH_1_4 (count=128)
00001ced: 00 00 00 00 00 00 00 00 00 00 00 00 00 00 00 00
00001cfd: 00 00 00 00 00 00 00 00 00 00 00 00 00 00 00 00
00001d0d: 00 00 00 00 00 00 00 00 00 00 00 00 00 00 00 00
00001d1d: 00 00 00 00 00 00 00 00 00 00 00 00 00 00 00 00
00001d2d: 00 00 00 00 00 00 00 00 00 00 00 00 00 00 00 00
00001d3d: 00 00 00 00 00 00 00 00 00 00 00 00 00 00 00 00
00001d4d: 00 00 00 00 00 00 00 00 00 00 00 00 00 00 00 00
00001d5d: 00 00 00 00 00 00 00 00 00 00 00 00 00 00 00 00

# UDB_2_4_HV_ROUTING + 0x00000080 (count=128)
00001d6d: 00 00 00 00 00 00 00 00 00 00 00 00 00 00 00 00
00001d7d: 00 00 00 00 00 00 00 00 00 00 00 00 00 00 00 00
00001d8d: 00 00 00 00 00 00 00 00 00 00 00 00 00 00 00 00
00001d9d: 00 00 00 00 00 00 00 00 00 00 00 00 00 00 00 00
00001dad: 00 00 00 00 00 00 00 00 00 00 00 00 00 00 00 00
00001dbd: 00 00 00 00 00 00 00 00 00 00 00 00 00 00 00 00
00001dcd: 00 00 00 00 00 00 00 00 00 00 00 00 00 00 00 00
00001ddd: 00 00 00 00 00 00 00 00 00 00 00 00 00 00 00 00

# UDBSWITCH_0_5 (count=128)
00001ded: 00 00 00 00 00 00 00 00 00 00 00 00 00 00 00 00
00001dfd: 00 00 00 00 00 00 00 00 00 00 00 00 00 00 00 00
00001e0d: 00 00 00 00 00 00 00 00 00 00 00 00 00 00 00 00
00001e1d: 00 00 00 00 00 00 00 00 00 00 00 00 00 00 00 00
00001e2d: 00 00 00 00 00 00 00 00 00 00 00 00 00 00 00 00
00001e3d: 00 00 00 00 00 00 00 00 00 00 00 00 00 00 00 00
00001e4d: 00 00 00 00 00 00 00 00 00 00 00 00 00 00 00 00
00001e5d: 00 00 00 00 00 00 00 00 00 00 00 00 00 00 00 00

# UDB_1_5_HV_ROUTING + 0x00000080 (count=128)
00001e6d: 00 00 00 00 00 00 00 00 00 00 00 00 00 00 00 00
00001e7d: 00 00 00 00 00 00 00 00 00 00 00 00 00 00 00 00
00001e8d: 00 00 00 00 00 00 00 00 00 00 00 00 00 00 00 00
00001e9d: 00 00 00 00 00 00 00 00 00 00 00 00 00 00 00 00
00001ead: 00 00 00 00 00 00 00 00 00 00 00 00 00 00 00 00
00001ebd: 00 00 00 00 00 00 00 00 00 00 00 00 00 00 00 00
00001ecd: 00 00 00 00 00 00 00 00 00 00 00 00 00 00 00 00
00001edd: 00 00 00 00 00 00 00 00 00 00 00 00 00 00 00 00

# UDBSWITCH_1_5 (count=128)
00001eed: 00 00 00 00 00 00 00 00 00 00 00 00 00 00 00 00
00001efd: 00 00 00 00 00 00 00 00 00 00 00 00 00 00 00 00
00001f0d: 00 00 00 00 00 00 00 00 00 00 00 00 00 00 00 00
00001f1d: 00 00 00 00 00 00 00 00 00 00 00 00 00 00 00 00
00001f2d: 00 00 00 00 00 00 00 00 00 00 00 00 00 00 00 00
00001f3d: 00 00 00 00 00 00 00 00 00 00 00 00 00 00 00 00
00001f4d: 00 00 00 00 00 00 00 00 00 00 00 00 00 00 00 00
00001f5d: 00 00 00 00 00 00 00 00 00 00 00 00 00 00 00 00

# UDB_2_5_HV_ROUTING + 0x00000080 (count=128)
00001f6d: 00 00 00 00 00 00 00 00 00 00 00 00 00 00 00 00
00001f7d: 00 00 00 00 00 00 00 00 00 00 00 00 00 00 00 00
00001f8d: 00 00 00 00 00 00 00 00 00 00 00 00 00 00 00 00
00001f9d: 00 00 00 00 00 00 00 00 00 00 00 00 00 00 00 00
00001fad: 00 00 00 00 00 00 00 00 00 00 00 00 00 00 00 00
00001fbd: 00 00 00 00 00 00 00 00 00 00 00 00 00 00 00 00
00001fcd: 00 00 00 00 00 00 00 00 00 00 00 00 00 00 00 00
00001fdd: 00 00 00 00 00 00 00 00 00 00 00 00 00 00 00 00

# DSISWITCH_1_0 (count=128)
00001fed: 00 00 00 00 00 00 00 00 00 00 00 00 00 00 00 00
00001ffd: 00 00 00 00 00 00 00 00 00 00 00 00 00 00 00 00
0000200d: 00 00 00 00 00 00 00 00 00 00 00 00 00 00 00 00
0000201d: 00 00 00 00 00 00 00 00 00 00 00 00 00 00 00 00
0000202d: 00 00 00 00 00 00 00 00 00 00 00 00 00 00 00 00
0000203d: 00 00 00 00 00 00 00 00 00 00 00 00 00 00 00 00
0000204d: 00 00 00 00 00 00 00 00 00 00 00 00 00 00 00 00
0000205d: 00 00 00 00 00 00 00 00 00 00 00 00 00 00 00 00

# DSI3_0_HV_ROUTING + 0x00000080 (count=128)
0000206d: 00 00 00 00 00 00 00 00 00 00 00 00 00 00 00 00
0000207d: 00 00 00 00 00 00 00 00 00 00 00 00 00 00 00 00
0000208d: 00 00 00 00 00 00 00 00 00 00 00 00 00 00 00 00
0000209d: 00 00 00 00 00 10 00 00 00 00 00 00 00 00 00 00
000020ad: 00 00 00 00 00 00 00 00 00 00 00 00 00 00 00 00
000020bd: 00 00 00 00 00 00 00 00 00 00 00 00 00 00 00 00
000020cd: 00 00 00 00 00 00 00 00 00 00 00 00 00 00 00 00
000020dd: 00 00 00 00 00 00 00 00 00 00 00 00 00 00 00 00

# DSISWITCH_1_1 (count=128)
000020ed: 00 00 00 00 00 00 00 00 00 00 00 00 00 00 00 00
000020fd: 00 00 00 00 00 00 00 00 00 00 00 00 00 00 00 00
0000210d: 00 00 00 00 00 50 00 00 00 00 00 00 00 00 00 00
0000211d: 00 00 00 00 00 00 00 00 00 00 00 00 00 00 00 00
0000212d: 00 00 00 00 00 00 00 00 00 00 00 00 00 00 00 00
0000213d: 00 00 00 00 00 00 00 00 00 00 00 00 00 00 00 00
0000214d: 00 00 00 00 00 00 00 00 00 00 00 00 00 00 00 00
0000215d: 00 00 00 00 00 00 00 00 00 00 00 00 00 00 00 00

# DSI3_1_HV_ROUTING + 0x00000080 (count=128)
0000216d: 00 00 00 00 00 00 00 00 00 00 00 00 00 00 00 00
0000217d: 00 00 00 00 00 00 00 00 00 00 00 00 00 00 00 00
0000218d: 00 00 00 00 00 40 00 00 00 00 00 00 00 00 00 00
0000219d: 00 00 00 00 00 00 00 00 00 00 00 00 00 00 00 00
000021ad: 00 00 00 00 00 00 00 00 20 00 00 00 00 00 00 00
000021bd: 00 00 00 00 00 00 00 00 00 00 00 00 00 00 00 00
000021cd: 00 00 00 00 00 00 00 00 00 00 00 00 00 00 00 00
000021dd: 00 00 00 00 00 00 00 00 00 00 00 00 00 00 00 00

# DSISWITCH_1_2 (count=128)
000021ed: 00 00 00 00 00 00 00 00 00 00 00 00 00 00 00 00
000021fd: 00 00 00 00 00 00 00 00 00 00 00 00 00 00 00 00
0000220d: 00 00 00 00 00 00 00 00 00 00 00 00 00 00 00 00
0000221d: 00 00 00 00 00 00 00 00 00 00 00 00 00 00 00 00
0000222d: 00 00 00 00 00 00 00 00 00 00 00 00 00 00 00 00
0000223d: 00 00 00 00 00 00 00 00 00 00 00 00 00 00 00 00
0000224d: 00 00 00 00 00 00 00 00 00 00 00 00 00 00 00 00
0000225d: 00 00 00 00 00 00 00 00 00 00 00 00 00 00 00 00

# DSI3_2_HV_ROUTING + 0x00000080 (count=128)
0000226d: 00 00 00 00 00 00 00 00 00 00 00 00 00 00 00 00
0000227d: 00 00 00 00 00 00 00 00 00 00 00 00 00 00 00 00
0000228d: 00 00 00 00 00 40 00 00 00 00 00 00 00 00 00 00
0000229d: 00 00 00 00 00 00 00 00 00 00 00 00 00 00 00 00
000022ad: 00 00 00 00 00 00 00 00 00 00 00 00 00 00 00 00
000022bd: 00 00 00 00 00 00 00 00 00 00 00 00 00 00 00 00
000022cd: 00 00 00 00 00 00 00 00 00 00 00 00 00 00 00 00
000022dd: 00 00 00 00 00 00 00 00 00 00 00 00 00 00 00 00

# DSISWITCH_1_3 (count=128)
000022ed: 00 00 00 00 00 00 00 00 00 00 00 00 00 00 00 00
000022fd: 00 00 00 00 00 00 00 00 00 00 00 00 00 00 00 00
0000230d: 00 00 00 00 00 00 00 00 00 00 00 00 00 00 00 00
0000231d: 00 00 00 00 00 00 00 00 00 00 00 00 00 00 00 00
0000232d: 00 00 00 00 00 00 00 00 00 00 00 00 00 00 00 00
0000233d: 00 00 00 00 00 00 00 00 00 00 00 00 00 00 00 00
0000234d: 00 00 00 00 00 00 00 00 00 00 00 00 00 00 00 00
0000235d: 00 00 00 00 00 00 00 00 00 00 00 00 00 00 00 00

# DSI3_3_HV_ROUTING + 0x00000080 (count=128)
0000236d: 00 00 00 00 00 00 00 00 00 00 00 00 00 00 00 00
0000237d: 00 00 00 00 00 00 00 00 00 00 00 00 00 00 00 00
0000238d: 00 00 00 00 00 40 00 00 00 00 00 00 00 00 00 00
0000239d: 00 00 00 00 00 00 00 00 00 00 00 00 00 00 00 00
000023ad: 00 00 00 00 00 00 00 00 00 00 00 00 00 00 00 00
000023bd: 00 00 00 00 00 00 00 00 00 00 00 00 00 00 00 00
000023cd: 00 00 00 00 00 00 00 00 00 00 00 00 00 00 00 00
000023dd: 00 00 00 00 00 00 00 00 00 00 00 00 00 00 00 00

# DSISWITCH_1_4 (count=128)
000023ed: 00 00 00 00 00 00 00 00 00 00 00 00 00 00 00 00
000023fd: 00 00 00 00 00 00 00 00 00 00 00 00 00 00 00 00
0000240d: 00 00 00 00 00 00 00 00 00 00 00 00 00 00 00 00
0000241d: 00 00 00 00 00 00 00 00 00 00 00 00 00 00 00 00
0000242d: 00 00 00 00 00 00 00 00 00 00 00 00 00 00 00 00
0000243d: 00 00 00 00 00 00 00 00 00 00 00 00 00 00 00 00
0000244d: 00 00 00 00 00 00 00 00 00 00 00 00 00 00 00 00
0000245d: 00 00 00 00 00 00 00 00 00 00 00 00 00 00 00 00

# DSI3_4_HV_ROUTING + 0x00000080 (count=128)
0000246d: 00 00 00 00 00 00 00 00 00 00 00 00 00 00 00 00
0000247d: 00 00 00 00 00 00 00 00 00 00 00 00 00 00 00 00
0000248d: 00 00 00 00 00 40 00 00 00 00 00 00 00 00 00 00
0000249d: 00 00 00 00 00 00 00 00 00 00 00 00 00 00 00 00
000024ad: 00 00 00 00 00 00 00 00 00 00 00 00 00 00 00 00
000024bd: 00 00 00 00 00 00 00 00 00 00 00 00 00 00 00 00
000024cd: 00 00 00 00 00 00 00 00 00 00 00 00 00 00 00 00
000024dd: 00 00 00 00 00 00 00 00 00 00 00 00 00 00 00 00

# DSISWITCH_1_5 (count=128)
000024ed: 00 00 00 00 00 00 00 00 00 00 00 00 00 00 00 00
000024fd: 00 00 00 00 00 00 00 00 00 00 00 00 00 00 00 00
0000250d: 00 00 00 00 00 00 00 00 00 00 00 00 00 00 00 00
0000251d: 00 00 00 00 00 00 00 00 00 00 00 00 00 80 00 00
0000252d: 00 00 00 00 00 00 00 00 00 00 00 00 00 00 00 00
0000253d: 00 00 00 00 00 00 00 00 00 00 00 00 00 00 00 00
0000254d: 00 00 00 00 00 00 00 00 00 00 00 00 00 00 00 00
0000255d: 00 00 00 00 00 00 00 00 00 00 00 00 00 00 00 00

# DSI3_5_HV_ROUTING + 0x00000080 (count=128)
0000256d: 00 00 00 00 00 00 00 00 00 00 00 00 00 00 00 00
0000257d: 00 00 00 00 00 00 00 00 00 00 00 00 00 00 00 00
0000258d: 00 00 00 00 00 00 00 00 00 00 00 00 00 00 00 00
0000259d: 00 00 00 00 00 00 00 00 00 00 00 00 00 00 00 00
000025ad: 00 00 00 00 00 00 00 00 00 00 00 00 00 00 20 00
000025bd: 00 00 00 00 00 00 00 00 00 00 00 00 00 00 00 00
000025cd: 00 00 00 00 00 00 00 00 00 00 00 00 00 00 00 00
000025dd: 00 00 00 00 00 00 00 00 00 00 00 00 00 00 00 00

