ARM GAS  C:\Users\JOSEAN~1\AppData\Local\Temp\ccRYPlOv.s 			page 1


   1              		.syntax unified
   2              		.cpu cortex-m3
   3              		.fpu softvfp
   4              		.eabi_attribute 20, 1
   5              		.eabi_attribute 21, 1
   6              		.eabi_attribute 23, 3
   7              		.eabi_attribute 24, 1
   8              		.eabi_attribute 25, 1
   9              		.eabi_attribute 26, 1
  10              		.eabi_attribute 30, 1
  11              		.eabi_attribute 34, 1
  12              		.eabi_attribute 18, 4
  13              		.thumb
  14              		.syntax unified
  15              		.file	"cymetadata.c"
  16              		.text
  17              	.Ltext0:
  18              		.cfi_sections	.debug_frame
  19              		.global	cy_metadata
  20              		.global	cy_meta_flashprotect
  21              		.global	cy_meta_wonvl
  22              		.global	cy_meta_custnvl
  23              		.global	cy_meta_configecc
  24              		.section	.cyconfigecc,"a",%progbits
  25              		.align	2
  26              		.type	cy_meta_configecc, %object
  27              		.size	cy_meta_configecc, 120
  28              	cy_meta_configecc:
  29 0000 01       		.byte	1
  30 0001 5A       		.byte	90
  31 0002 00       		.byte	0
  32 0003 40       		.byte	64
  33 0004 01       		.byte	1
  34 0005 15       		.byte	21
  35 0006 01       		.byte	1
  36 0007 40       		.byte	64
  37 0008 01       		.byte	1
  38 0009 1B       		.byte	27
  39 000a 01       		.byte	1
  40 000b 40       		.byte	64
  41 000c 02       		.byte	2
  42 000d 40       		.byte	64
  43 000e 01       		.byte	1
  44 000f 40       		.byte	64
  45 0010 01       		.byte	1
  46 0011 41       		.byte	65
  47 0012 01       		.byte	1
  48 0013 40       		.byte	64
  49 0014 01       		.byte	1
  50 0015 42       		.byte	66
  51 0016 01       		.byte	1
  52 0017 40       		.byte	64
  53 0018 01       		.byte	1
  54 0019 43       		.byte	67
  55 001a 01       		.byte	1
  56 001b 40       		.byte	64
  57 001c 02       		.byte	2
ARM GAS  C:\Users\JOSEAN~1\AppData\Local\Temp\ccRYPlOv.s 			page 2


  58 001d 46       		.byte	70
  59 001e 01       		.byte	1
  60 001f 40       		.byte	64
  61 0020 01       		.byte	1
  62 0021 47       		.byte	71
  63 0022 01       		.byte	1
  64 0023 40       		.byte	64
  65 0024 03       		.byte	3
  66 0025 48       		.byte	72
  67 0026 01       		.byte	1
  68 0027 40       		.byte	64
  69 0028 01       		.byte	1
  70 0029 49       		.byte	73
  71 002a 01       		.byte	1
  72 002b 40       		.byte	64
  73 002c 01       		.byte	1
  74 002d 4C       		.byte	76
  75 002e 01       		.byte	1
  76 002f 40       		.byte	64
  77 0030 02       		.byte	2
  78 0031 4D       		.byte	77
  79 0032 01       		.byte	1
  80 0033 40       		.byte	64
  81 0034 01       		.byte	1
  82 0035 51       		.byte	81
  83 0036 01       		.byte	1
  84 0037 40       		.byte	64
  85 0038 97       		.byte	-105
  86 0039 01       		.byte	1
  87 003a EC       		.byte	-20
  88 003b 10       		.byte	16
  89 003c EC       		.byte	-20
  90 003d 10       		.byte	16
  91 003e 3D       		.byte	61
  92 003f 80       		.byte	-128
  93 0040 CE       		.byte	-50
  94 0041 20       		.byte	32
  95 0042 A5       		.byte	-91
  96 0043 40       		.byte	64
  97 0044 A5       		.byte	-91
  98 0045 40       		.byte	64
  99 0046 A5       		.byte	-91
 100 0047 40       		.byte	64
 101 0048 30       		.byte	48
 102 0049 20       		.byte	32
 103 004a CC       		.byte	-52
 104 004b 08       		.byte	8
 105 004c A4       		.byte	-92
 106 004d 20       		.byte	32
 107 004e 25       		.byte	37
 108 004f 50       		.byte	80
 109 0050 A5       		.byte	-91
 110 0051 40       		.byte	64
 111 0052 C8       		.byte	-56
 112 0053 20       		.byte	32
 113 0054 B5       		.byte	-75
 114 0055 10       		.byte	16
ARM GAS  C:\Users\JOSEAN~1\AppData\Local\Temp\ccRYPlOv.s 			page 3


 115 0056 A4       		.byte	-92
 116 0057 20       		.byte	32
 117 0058 B4       		.byte	-76
 118 0059 20       		.byte	32
 119 005a EC       		.byte	-20
 120 005b 08       		.byte	8
 121 005c 10       		.byte	16
 122 005d 02       		.byte	2
 123 005e 00       		.byte	0
 124 005f 00       		.byte	0
 125 0060 00       		.byte	0
 126 0061 00       		.byte	0
 127 0062 00       		.byte	0
 128 0063 00       		.byte	0
 129 0064 00       		.byte	0
 130 0065 00       		.byte	0
 131 0066 01       		.byte	1
 132 0067 00       		.byte	0
 133 0068 00       		.byte	0
 134 0069 0B       		.byte	11
 135 006a 0B       		.byte	11
 136 006b 00       		.byte	0
 137 006c 00       		.byte	0
 138 006d 00       		.byte	0
 139 006e 00       		.byte	0
 140 006f 00       		.byte	0
 141 0070 00       		.byte	0
 142 0071 00       		.byte	0
 143 0072 00       		.byte	0
 144 0073 00       		.byte	0
 145 0074 00       		.byte	0
 146 0075 00       		.byte	0
 147 0076 01       		.byte	1
 148 0077 00       		.byte	0
 149              		.section	.cywolatch,"a",%progbits
 150              		.align	2
 151              		.type	cy_meta_wonvl, %object
 152              		.size	cy_meta_wonvl, 4
 153              	cy_meta_wonvl:
 154 0000 BC       		.byte	-68
 155 0001 90       		.byte	-112
 156 0002 AC       		.byte	-84
 157 0003 AF       		.byte	-81
 158              		.section	.cycustnvl,"a",%progbits
 159              		.align	2
 160              		.type	cy_meta_custnvl, %object
 161              		.size	cy_meta_custnvl, 4
 162              	cy_meta_custnvl:
 163 0000 00       		.byte	0
 164 0001 00       		.byte	0
 165 0002 40       		.byte	64
 166 0003 05       		.byte	5
 167              		.section	.cymeta,"a",%progbits
 168              		.align	2
 169              		.type	cy_metadata, %object
 170              		.size	cy_metadata, 12
 171              	cy_metadata:
ARM GAS  C:\Users\JOSEAN~1\AppData\Local\Temp\ccRYPlOv.s 			page 4


 172 0000 00       		.byte	0
 173 0001 01       		.byte	1
 174 0002 2E       		.byte	46
 175 0003 16       		.byte	22
 176 0004 10       		.byte	16
 177 0005 69       		.byte	105
 178 0006 00       		.byte	0
 179 0007 01       		.byte	1
 180 0008 00       		.byte	0
 181 0009 00       		.byte	0
 182 000a 00       		.byte	0
 183 000b 00       		.byte	0
 184              		.section	.cyflashprotect,"a",%progbits
 185              		.align	2
 186              		.type	cy_meta_flashprotect, %object
 187              		.size	cy_meta_flashprotect, 256
 188              	cy_meta_flashprotect:
 189 0000 00000000 		.space	256
 189      00000000 
 189      00000000 
 189      00000000 
 189      00000000 
 190              		.text
 191              	.Letext0:
 192              		.file 1 "c:\\program files (x86)\\cypress\\psoc creator\\4.2\\psoc creator\\import\\gnu\\arm\\5.4.
 193              		.file 2 "c:\\program files (x86)\\cypress\\psoc creator\\4.2\\psoc creator\\import\\gnu\\arm\\5.4.
 194              		.file 3 "Generated_Source\\PSoC5\\cymetadata.c"
 195              		.section	.debug_info,"",%progbits
 196              	.Ldebug_info0:
 197 0000 30010000 		.4byte	0x130
 198 0004 0400     		.2byte	0x4
 199 0006 00000000 		.4byte	.Ldebug_abbrev0
 200 000a 04       		.byte	0x4
 201 000b 01       		.uleb128 0x1
 202 000c 24000000 		.4byte	.LASF17
 203 0010 0C       		.byte	0xc
 204 0011 0B020000 		.4byte	.LASF18
 205 0015 69010000 		.4byte	.LASF19
 206 0019 00000000 		.4byte	.Ldebug_line0
 207 001d 02       		.uleb128 0x2
 208 001e 01       		.byte	0x1
 209 001f 06       		.byte	0x6
 210 0020 FF010000 		.4byte	.LASF0
 211 0024 03       		.uleb128 0x3
 212 0025 00000000 		.4byte	.LASF9
 213 0029 01       		.byte	0x1
 214 002a 1D       		.byte	0x1d
 215 002b 2F000000 		.4byte	0x2f
 216 002f 02       		.uleb128 0x2
 217 0030 01       		.byte	0x1
 218 0031 08       		.byte	0x8
 219 0032 16000000 		.4byte	.LASF1
 220 0036 02       		.uleb128 0x2
 221 0037 02       		.byte	0x2
 222 0038 05       		.byte	0x5
 223 0039 5F010000 		.4byte	.LASF2
 224 003d 02       		.uleb128 0x2
ARM GAS  C:\Users\JOSEAN~1\AppData\Local\Temp\ccRYPlOv.s 			page 5


 225 003e 02       		.byte	0x2
 226 003f 07       		.byte	0x7
 227 0040 C4000000 		.4byte	.LASF3
 228 0044 02       		.uleb128 0x2
 229 0045 04       		.byte	0x4
 230 0046 05       		.byte	0x5
 231 0047 F6010000 		.4byte	.LASF4
 232 004b 02       		.uleb128 0x2
 233 004c 04       		.byte	0x4
 234 004d 07       		.byte	0x7
 235 004e B2000000 		.4byte	.LASF5
 236 0052 02       		.uleb128 0x2
 237 0053 08       		.byte	0x8
 238 0054 05       		.byte	0x5
 239 0055 51010000 		.4byte	.LASF6
 240 0059 02       		.uleb128 0x2
 241 005a 08       		.byte	0x8
 242 005b 07       		.byte	0x7
 243 005c 06010000 		.4byte	.LASF7
 244 0060 04       		.uleb128 0x4
 245 0061 04       		.byte	0x4
 246 0062 05       		.byte	0x5
 247 0063 696E7400 		.ascii	"int\000"
 248 0067 02       		.uleb128 0x2
 249 0068 04       		.byte	0x4
 250 0069 07       		.byte	0x7
 251 006a F9000000 		.4byte	.LASF8
 252 006e 03       		.uleb128 0x3
 253 006f 1D010000 		.4byte	.LASF10
 254 0073 02       		.byte	0x2
 255 0074 18       		.byte	0x18
 256 0075 24000000 		.4byte	0x24
 257 0079 05       		.uleb128 0x5
 258 007a 90000000 		.4byte	0x90
 259 007e 89000000 		.4byte	0x89
 260 0082 06       		.uleb128 0x6
 261 0083 89000000 		.4byte	0x89
 262 0087 77       		.byte	0x77
 263 0088 00       		.byte	0
 264 0089 02       		.uleb128 0x2
 265 008a 04       		.byte	0x4
 266 008b 07       		.byte	0x7
 267 008c 48010000 		.4byte	.LASF11
 268 0090 07       		.uleb128 0x7
 269 0091 6E000000 		.4byte	0x6e
 270 0095 08       		.uleb128 0x8
 271 0096 E7000000 		.4byte	.LASF12
 272 009a 03       		.byte	0x3
 273 009b 1F       		.byte	0x1f
 274 009c A6000000 		.4byte	0xa6
 275 00a0 05       		.uleb128 0x5
 276 00a1 03       		.byte	0x3
 277 00a2 00000000 		.4byte	cy_meta_configecc
 278 00a6 07       		.uleb128 0x7
 279 00a7 79000000 		.4byte	0x79
 280 00ab 05       		.uleb128 0x5
 281 00ac 90000000 		.4byte	0x90
ARM GAS  C:\Users\JOSEAN~1\AppData\Local\Temp\ccRYPlOv.s 			page 6


 282 00b0 BB000000 		.4byte	0xbb
 283 00b4 06       		.uleb128 0x6
 284 00b5 89000000 		.4byte	0x89
 285 00b9 03       		.byte	0x3
 286 00ba 00       		.byte	0
 287 00bb 08       		.uleb128 0x8
 288 00bc D7000000 		.4byte	.LASF13
 289 00c0 03       		.byte	0x3
 290 00c1 3B       		.byte	0x3b
 291 00c2 CC000000 		.4byte	0xcc
 292 00c6 05       		.uleb128 0x5
 293 00c7 03       		.byte	0x3
 294 00c8 00000000 		.4byte	cy_meta_custnvl
 295 00cc 07       		.uleb128 0x7
 296 00cd AB000000 		.4byte	0xab
 297 00d1 08       		.uleb128 0x8
 298 00d2 3A010000 		.4byte	.LASF14
 299 00d6 03       		.byte	0x3
 300 00d7 49       		.byte	0x49
 301 00d8 E2000000 		.4byte	0xe2
 302 00dc 05       		.uleb128 0x5
 303 00dd 03       		.byte	0x3
 304 00de 00000000 		.4byte	cy_meta_wonvl
 305 00e2 07       		.uleb128 0x7
 306 00e3 AB000000 		.4byte	0xab
 307 00e7 05       		.uleb128 0x5
 308 00e8 90000000 		.4byte	0x90
 309 00ec F7000000 		.4byte	0xf7
 310 00f0 06       		.uleb128 0x6
 311 00f1 89000000 		.4byte	0x89
 312 00f5 FF       		.byte	0xff
 313 00f6 00       		.byte	0
 314 00f7 08       		.uleb128 0x8
 315 00f8 25010000 		.4byte	.LASF15
 316 00fc 03       		.byte	0x3
 317 00fd 57       		.byte	0x57
 318 00fe 08010000 		.4byte	0x108
 319 0102 05       		.uleb128 0x5
 320 0103 03       		.byte	0x3
 321 0104 00000000 		.4byte	cy_meta_flashprotect
 322 0108 07       		.uleb128 0x7
 323 0109 E7000000 		.4byte	0xe7
 324 010d 05       		.uleb128 0x5
 325 010e 90000000 		.4byte	0x90
 326 0112 1D010000 		.4byte	0x11d
 327 0116 06       		.uleb128 0x6
 328 0117 89000000 		.4byte	0x89
 329 011b 0B       		.byte	0xb
 330 011c 00       		.byte	0
 331 011d 08       		.uleb128 0x8
 332 011e 0A000000 		.4byte	.LASF16
 333 0122 03       		.byte	0x3
 334 0123 84       		.byte	0x84
 335 0124 2E010000 		.4byte	0x12e
 336 0128 05       		.uleb128 0x5
 337 0129 03       		.byte	0x3
 338 012a 00000000 		.4byte	cy_metadata
ARM GAS  C:\Users\JOSEAN~1\AppData\Local\Temp\ccRYPlOv.s 			page 7


 339 012e 07       		.uleb128 0x7
 340 012f 0D010000 		.4byte	0x10d
 341 0133 00       		.byte	0
 342              		.section	.debug_abbrev,"",%progbits
 343              	.Ldebug_abbrev0:
 344 0000 01       		.uleb128 0x1
 345 0001 11       		.uleb128 0x11
 346 0002 01       		.byte	0x1
 347 0003 25       		.uleb128 0x25
 348 0004 0E       		.uleb128 0xe
 349 0005 13       		.uleb128 0x13
 350 0006 0B       		.uleb128 0xb
 351 0007 03       		.uleb128 0x3
 352 0008 0E       		.uleb128 0xe
 353 0009 1B       		.uleb128 0x1b
 354 000a 0E       		.uleb128 0xe
 355 000b 10       		.uleb128 0x10
 356 000c 17       		.uleb128 0x17
 357 000d 00       		.byte	0
 358 000e 00       		.byte	0
 359 000f 02       		.uleb128 0x2
 360 0010 24       		.uleb128 0x24
 361 0011 00       		.byte	0
 362 0012 0B       		.uleb128 0xb
 363 0013 0B       		.uleb128 0xb
 364 0014 3E       		.uleb128 0x3e
 365 0015 0B       		.uleb128 0xb
 366 0016 03       		.uleb128 0x3
 367 0017 0E       		.uleb128 0xe
 368 0018 00       		.byte	0
 369 0019 00       		.byte	0
 370 001a 03       		.uleb128 0x3
 371 001b 16       		.uleb128 0x16
 372 001c 00       		.byte	0
 373 001d 03       		.uleb128 0x3
 374 001e 0E       		.uleb128 0xe
 375 001f 3A       		.uleb128 0x3a
 376 0020 0B       		.uleb128 0xb
 377 0021 3B       		.uleb128 0x3b
 378 0022 0B       		.uleb128 0xb
 379 0023 49       		.uleb128 0x49
 380 0024 13       		.uleb128 0x13
 381 0025 00       		.byte	0
 382 0026 00       		.byte	0
 383 0027 04       		.uleb128 0x4
 384 0028 24       		.uleb128 0x24
 385 0029 00       		.byte	0
 386 002a 0B       		.uleb128 0xb
 387 002b 0B       		.uleb128 0xb
 388 002c 3E       		.uleb128 0x3e
 389 002d 0B       		.uleb128 0xb
 390 002e 03       		.uleb128 0x3
 391 002f 08       		.uleb128 0x8
 392 0030 00       		.byte	0
 393 0031 00       		.byte	0
 394 0032 05       		.uleb128 0x5
 395 0033 01       		.uleb128 0x1
ARM GAS  C:\Users\JOSEAN~1\AppData\Local\Temp\ccRYPlOv.s 			page 8


 396 0034 01       		.byte	0x1
 397 0035 49       		.uleb128 0x49
 398 0036 13       		.uleb128 0x13
 399 0037 01       		.uleb128 0x1
 400 0038 13       		.uleb128 0x13
 401 0039 00       		.byte	0
 402 003a 00       		.byte	0
 403 003b 06       		.uleb128 0x6
 404 003c 21       		.uleb128 0x21
 405 003d 00       		.byte	0
 406 003e 49       		.uleb128 0x49
 407 003f 13       		.uleb128 0x13
 408 0040 2F       		.uleb128 0x2f
 409 0041 0B       		.uleb128 0xb
 410 0042 00       		.byte	0
 411 0043 00       		.byte	0
 412 0044 07       		.uleb128 0x7
 413 0045 26       		.uleb128 0x26
 414 0046 00       		.byte	0
 415 0047 49       		.uleb128 0x49
 416 0048 13       		.uleb128 0x13
 417 0049 00       		.byte	0
 418 004a 00       		.byte	0
 419 004b 08       		.uleb128 0x8
 420 004c 34       		.uleb128 0x34
 421 004d 00       		.byte	0
 422 004e 03       		.uleb128 0x3
 423 004f 0E       		.uleb128 0xe
 424 0050 3A       		.uleb128 0x3a
 425 0051 0B       		.uleb128 0xb
 426 0052 3B       		.uleb128 0x3b
 427 0053 0B       		.uleb128 0xb
 428 0054 49       		.uleb128 0x49
 429 0055 13       		.uleb128 0x13
 430 0056 3F       		.uleb128 0x3f
 431 0057 19       		.uleb128 0x19
 432 0058 02       		.uleb128 0x2
 433 0059 18       		.uleb128 0x18
 434 005a 00       		.byte	0
 435 005b 00       		.byte	0
 436 005c 00       		.byte	0
 437              		.section	.debug_aranges,"",%progbits
 438 0000 14000000 		.4byte	0x14
 439 0004 0200     		.2byte	0x2
 440 0006 00000000 		.4byte	.Ldebug_info0
 441 000a 04       		.byte	0x4
 442 000b 00       		.byte	0
 443 000c 0000     		.2byte	0
 444 000e 0000     		.2byte	0
 445 0010 00000000 		.4byte	0
 446 0014 00000000 		.4byte	0
 447              		.section	.debug_line,"",%progbits
 448              	.Ldebug_line0:
 449 0000 3D010000 		.section	.debug_str,"MS",%progbits,1
 449      02003701 
 449      00000201 
 449      FB0E0D00 
ARM GAS  C:\Users\JOSEAN~1\AppData\Local\Temp\ccRYPlOv.s 			page 9


 449      01010101 
 450              	.LASF9:
 451 0000 5F5F7569 		.ascii	"__uint8_t\000"
 451      6E74385F 
 451      7400
 452              	.LASF16:
 453 000a 63795F6D 		.ascii	"cy_metadata\000"
 453      65746164 
 453      61746100 
 454              	.LASF1:
 455 0016 756E7369 		.ascii	"unsigned char\000"
 455      676E6564 
 455      20636861 
 455      7200
 456              	.LASF17:
 457 0024 474E5520 		.ascii	"GNU C11 5.4.1 20160609 (release) [ARM/embedded-5-br"
 457      43313120 
 457      352E342E 
 457      31203230 
 457      31363036 
 458 0057 616E6368 		.ascii	"anch revision 237715] -mcpu=cortex-m3 -mthumb -g -O"
 458      20726576 
 458      6973696F 
 458      6E203233 
 458      37373135 
 459 008a 67202D66 		.ascii	"g -ffunction-sections -ffat-lto-objects\000"
 459      66756E63 
 459      74696F6E 
 459      2D736563 
 459      74696F6E 
 460              	.LASF5:
 461 00b2 6C6F6E67 		.ascii	"long unsigned int\000"
 461      20756E73 
 461      69676E65 
 461      6420696E 
 461      7400
 462              	.LASF3:
 463 00c4 73686F72 		.ascii	"short unsigned int\000"
 463      7420756E 
 463      7369676E 
 463      65642069 
 463      6E7400
 464              	.LASF13:
 465 00d7 63795F6D 		.ascii	"cy_meta_custnvl\000"
 465      6574615F 
 465      63757374 
 465      6E766C00 
 466              	.LASF12:
 467 00e7 63795F6D 		.ascii	"cy_meta_configecc\000"
 467      6574615F 
 467      636F6E66 
 467      69676563 
 467      6300
 468              	.LASF8:
 469 00f9 756E7369 		.ascii	"unsigned int\000"
 469      676E6564 
 469      20696E74 
ARM GAS  C:\Users\JOSEAN~1\AppData\Local\Temp\ccRYPlOv.s 			page 10


 469      00
 470              	.LASF7:
 471 0106 6C6F6E67 		.ascii	"long long unsigned int\000"
 471      206C6F6E 
 471      6720756E 
 471      7369676E 
 471      65642069 
 472              	.LASF10:
 473 011d 75696E74 		.ascii	"uint8_t\000"
 473      385F7400 
 474              	.LASF15:
 475 0125 63795F6D 		.ascii	"cy_meta_flashprotect\000"
 475      6574615F 
 475      666C6173 
 475      6870726F 
 475      74656374 
 476              	.LASF14:
 477 013a 63795F6D 		.ascii	"cy_meta_wonvl\000"
 477      6574615F 
 477      776F6E76 
 477      6C00
 478              	.LASF11:
 479 0148 73697A65 		.ascii	"sizetype\000"
 479      74797065 
 479      00
 480              	.LASF6:
 481 0151 6C6F6E67 		.ascii	"long long int\000"
 481      206C6F6E 
 481      6720696E 
 481      7400
 482              	.LASF2:
 483 015f 73686F72 		.ascii	"short int\000"
 483      7420696E 
 483      7400
 484              	.LASF19:
 485 0169 443A5C44 		.ascii	"D:\\Documentos\\UNIVERSIDAD\\TFG\\Application Notes"
 485      6F63756D 
 485      656E746F 
 485      735C554E 
 485      49564552 
 486 0198 20792050 		.ascii	" y Proyectos\\Psoc5_proyectillos\\WaveDAC\\WaveDAC8"
 486      726F7965 
 486      63746F73 
 486      5C50736F 
 486      63355F70 
 487 01c8 5F457861 		.ascii	"_Example\\GeneradorPruebasDAC_References.cydsn\000"
 487      6D706C65 
 487      5C47656E 
 487      65726164 
 487      6F725072 
 488              	.LASF4:
 489 01f6 6C6F6E67 		.ascii	"long int\000"
 489      20696E74 
 489      00
 490              	.LASF0:
 491 01ff 7369676E 		.ascii	"signed char\000"
 491      65642063 
ARM GAS  C:\Users\JOSEAN~1\AppData\Local\Temp\ccRYPlOv.s 			page 11


 491      68617200 
 492              	.LASF18:
 493 020b 47656E65 		.ascii	"Generated_Source\\PSoC5\\cymetadata.c\000"
 493      72617465 
 493      645F536F 
 493      75726365 
 493      5C50536F 
 494              		.ident	"GCC: (GNU Tools for ARM Embedded Processors) 5.4.1 20160609 (release) [ARM/embedded-5-bran
