ARM GAS  C:\Users\JOSEAN~1\AppData\Local\Temp\ccrHFCSi.s 			page 1


   1              		.syntax unified
   2              		.cpu cortex-m3
   3              		.fpu softvfp
   4              		.eabi_attribute 20, 1
   5              		.eabi_attribute 21, 1
   6              		.eabi_attribute 23, 3
   7              		.eabi_attribute 24, 1
   8              		.eabi_attribute 25, 1
   9              		.eabi_attribute 26, 1
  10              		.eabi_attribute 30, 1
  11              		.eabi_attribute 34, 1
  12              		.eabi_attribute 18, 4
  13              		.thumb
  14              		.syntax unified
  15              		.file	"WaveDAC8_1_BuffAmp_PM.c"
  16              		.text
  17              	.Ltext0:
  18              		.cfi_sections	.debug_frame
  19              		.section	.text.WaveDAC8_1_BuffAmp_SaveConfig,"ax",%progbits
  20              		.align	2
  21              		.global	WaveDAC8_1_BuffAmp_SaveConfig
  22              		.thumb
  23              		.thumb_func
  24              		.type	WaveDAC8_1_BuffAmp_SaveConfig, %function
  25              	WaveDAC8_1_BuffAmp_SaveConfig:
  26              	.LFB0:
  27              		.file 1 "Generated_Source\\PSoC5\\WaveDAC8_1_BuffAmp_PM.c"
   1:Generated_Source\PSoC5/WaveDAC8_1_BuffAmp_PM.c **** /*******************************************************************************
   2:Generated_Source\PSoC5/WaveDAC8_1_BuffAmp_PM.c **** * File Name: WaveDAC8_1_BuffAmp_PM.c
   3:Generated_Source\PSoC5/WaveDAC8_1_BuffAmp_PM.c **** * Version 1.90
   4:Generated_Source\PSoC5/WaveDAC8_1_BuffAmp_PM.c **** *
   5:Generated_Source\PSoC5/WaveDAC8_1_BuffAmp_PM.c **** * Description:
   6:Generated_Source\PSoC5/WaveDAC8_1_BuffAmp_PM.c **** *  This file provides the power management source code to the API for the 
   7:Generated_Source\PSoC5/WaveDAC8_1_BuffAmp_PM.c **** *  OpAmp (Analog Buffer) component.
   8:Generated_Source\PSoC5/WaveDAC8_1_BuffAmp_PM.c **** *
   9:Generated_Source\PSoC5/WaveDAC8_1_BuffAmp_PM.c **** * Note:
  10:Generated_Source\PSoC5/WaveDAC8_1_BuffAmp_PM.c **** *
  11:Generated_Source\PSoC5/WaveDAC8_1_BuffAmp_PM.c **** ********************************************************************************
  12:Generated_Source\PSoC5/WaveDAC8_1_BuffAmp_PM.c **** * Copyright 2008-2012, Cypress Semiconductor Corporation.  All rights reserved.
  13:Generated_Source\PSoC5/WaveDAC8_1_BuffAmp_PM.c **** * You may use this file only in accordance with the license, terms, conditions, 
  14:Generated_Source\PSoC5/WaveDAC8_1_BuffAmp_PM.c **** * disclaimers, and limitations in the end user license agreement accompanying 
  15:Generated_Source\PSoC5/WaveDAC8_1_BuffAmp_PM.c **** * the software package with which this file was provided.
  16:Generated_Source\PSoC5/WaveDAC8_1_BuffAmp_PM.c **** *******************************************************************************/
  17:Generated_Source\PSoC5/WaveDAC8_1_BuffAmp_PM.c **** 
  18:Generated_Source\PSoC5/WaveDAC8_1_BuffAmp_PM.c **** #include "WaveDAC8_1_BuffAmp.h"
  19:Generated_Source\PSoC5/WaveDAC8_1_BuffAmp_PM.c **** 
  20:Generated_Source\PSoC5/WaveDAC8_1_BuffAmp_PM.c **** static WaveDAC8_1_BuffAmp_BACKUP_STRUCT  WaveDAC8_1_BuffAmp_backup;
  21:Generated_Source\PSoC5/WaveDAC8_1_BuffAmp_PM.c **** 
  22:Generated_Source\PSoC5/WaveDAC8_1_BuffAmp_PM.c **** 
  23:Generated_Source\PSoC5/WaveDAC8_1_BuffAmp_PM.c **** /*******************************************************************************  
  24:Generated_Source\PSoC5/WaveDAC8_1_BuffAmp_PM.c **** * Function Name: WaveDAC8_1_BuffAmp_SaveConfig
  25:Generated_Source\PSoC5/WaveDAC8_1_BuffAmp_PM.c **** ********************************************************************************
  26:Generated_Source\PSoC5/WaveDAC8_1_BuffAmp_PM.c **** *
  27:Generated_Source\PSoC5/WaveDAC8_1_BuffAmp_PM.c **** * Summary:
  28:Generated_Source\PSoC5/WaveDAC8_1_BuffAmp_PM.c **** *  Saves the current user configuration registers.
  29:Generated_Source\PSoC5/WaveDAC8_1_BuffAmp_PM.c **** * 
  30:Generated_Source\PSoC5/WaveDAC8_1_BuffAmp_PM.c **** * Parameters:
ARM GAS  C:\Users\JOSEAN~1\AppData\Local\Temp\ccrHFCSi.s 			page 2


  31:Generated_Source\PSoC5/WaveDAC8_1_BuffAmp_PM.c **** *  void
  32:Generated_Source\PSoC5/WaveDAC8_1_BuffAmp_PM.c **** * 
  33:Generated_Source\PSoC5/WaveDAC8_1_BuffAmp_PM.c **** * Return:
  34:Generated_Source\PSoC5/WaveDAC8_1_BuffAmp_PM.c **** *  void
  35:Generated_Source\PSoC5/WaveDAC8_1_BuffAmp_PM.c **** *
  36:Generated_Source\PSoC5/WaveDAC8_1_BuffAmp_PM.c **** *******************************************************************************/
  37:Generated_Source\PSoC5/WaveDAC8_1_BuffAmp_PM.c **** void WaveDAC8_1_BuffAmp_SaveConfig(void) 
  38:Generated_Source\PSoC5/WaveDAC8_1_BuffAmp_PM.c **** {
  28              		.loc 1 38 0
  29              		.cfi_startproc
  30              		@ args = 0, pretend = 0, frame = 0
  31              		@ frame_needed = 0, uses_anonymous_args = 0
  32              		@ link register save eliminated.
  33 0000 7047     		bx	lr
  34              		.cfi_endproc
  35              	.LFE0:
  36              		.size	WaveDAC8_1_BuffAmp_SaveConfig, .-WaveDAC8_1_BuffAmp_SaveConfig
  37 0002 00BF     		.section	.text.WaveDAC8_1_BuffAmp_RestoreConfig,"ax",%progbits
  38              		.align	2
  39              		.global	WaveDAC8_1_BuffAmp_RestoreConfig
  40              		.thumb
  41              		.thumb_func
  42              		.type	WaveDAC8_1_BuffAmp_RestoreConfig, %function
  43              	WaveDAC8_1_BuffAmp_RestoreConfig:
  44              	.LFB1:
  39:Generated_Source\PSoC5/WaveDAC8_1_BuffAmp_PM.c ****     /* Nothing to save as registers are System reset on retention flops */
  40:Generated_Source\PSoC5/WaveDAC8_1_BuffAmp_PM.c **** }
  41:Generated_Source\PSoC5/WaveDAC8_1_BuffAmp_PM.c **** 
  42:Generated_Source\PSoC5/WaveDAC8_1_BuffAmp_PM.c **** 
  43:Generated_Source\PSoC5/WaveDAC8_1_BuffAmp_PM.c **** /*******************************************************************************  
  44:Generated_Source\PSoC5/WaveDAC8_1_BuffAmp_PM.c **** * Function Name: WaveDAC8_1_BuffAmp_RestoreConfig
  45:Generated_Source\PSoC5/WaveDAC8_1_BuffAmp_PM.c **** ********************************************************************************
  46:Generated_Source\PSoC5/WaveDAC8_1_BuffAmp_PM.c **** *
  47:Generated_Source\PSoC5/WaveDAC8_1_BuffAmp_PM.c **** * Summary:
  48:Generated_Source\PSoC5/WaveDAC8_1_BuffAmp_PM.c **** *  Restores the current user configuration registers.
  49:Generated_Source\PSoC5/WaveDAC8_1_BuffAmp_PM.c **** *
  50:Generated_Source\PSoC5/WaveDAC8_1_BuffAmp_PM.c **** * Parameters:
  51:Generated_Source\PSoC5/WaveDAC8_1_BuffAmp_PM.c **** *  void
  52:Generated_Source\PSoC5/WaveDAC8_1_BuffAmp_PM.c **** *
  53:Generated_Source\PSoC5/WaveDAC8_1_BuffAmp_PM.c **** * Return:
  54:Generated_Source\PSoC5/WaveDAC8_1_BuffAmp_PM.c **** *  void
  55:Generated_Source\PSoC5/WaveDAC8_1_BuffAmp_PM.c **** *
  56:Generated_Source\PSoC5/WaveDAC8_1_BuffAmp_PM.c **** *******************************************************************************/
  57:Generated_Source\PSoC5/WaveDAC8_1_BuffAmp_PM.c **** void WaveDAC8_1_BuffAmp_RestoreConfig(void) 
  58:Generated_Source\PSoC5/WaveDAC8_1_BuffAmp_PM.c **** {
  45              		.loc 1 58 0
  46              		.cfi_startproc
  47              		@ args = 0, pretend = 0, frame = 0
  48              		@ frame_needed = 0, uses_anonymous_args = 0
  49              		@ link register save eliminated.
  50 0000 7047     		bx	lr
  51              		.cfi_endproc
  52              	.LFE1:
  53              		.size	WaveDAC8_1_BuffAmp_RestoreConfig, .-WaveDAC8_1_BuffAmp_RestoreConfig
  54 0002 00BF     		.section	.text.WaveDAC8_1_BuffAmp_Sleep,"ax",%progbits
  55              		.align	2
  56              		.global	WaveDAC8_1_BuffAmp_Sleep
ARM GAS  C:\Users\JOSEAN~1\AppData\Local\Temp\ccrHFCSi.s 			page 3


  57              		.thumb
  58              		.thumb_func
  59              		.type	WaveDAC8_1_BuffAmp_Sleep, %function
  60              	WaveDAC8_1_BuffAmp_Sleep:
  61              	.LFB2:
  59:Generated_Source\PSoC5/WaveDAC8_1_BuffAmp_PM.c ****     /* Nothing to restore */
  60:Generated_Source\PSoC5/WaveDAC8_1_BuffAmp_PM.c **** }
  61:Generated_Source\PSoC5/WaveDAC8_1_BuffAmp_PM.c **** 
  62:Generated_Source\PSoC5/WaveDAC8_1_BuffAmp_PM.c **** 
  63:Generated_Source\PSoC5/WaveDAC8_1_BuffAmp_PM.c **** /*******************************************************************************   
  64:Generated_Source\PSoC5/WaveDAC8_1_BuffAmp_PM.c **** * Function Name: WaveDAC8_1_BuffAmp_Sleep
  65:Generated_Source\PSoC5/WaveDAC8_1_BuffAmp_PM.c **** ********************************************************************************
  66:Generated_Source\PSoC5/WaveDAC8_1_BuffAmp_PM.c **** *
  67:Generated_Source\PSoC5/WaveDAC8_1_BuffAmp_PM.c **** * Summary:
  68:Generated_Source\PSoC5/WaveDAC8_1_BuffAmp_PM.c **** *  Disables block's operation and saves its configuration. Should be called 
  69:Generated_Source\PSoC5/WaveDAC8_1_BuffAmp_PM.c **** *  just prior to entering sleep.
  70:Generated_Source\PSoC5/WaveDAC8_1_BuffAmp_PM.c **** *
  71:Generated_Source\PSoC5/WaveDAC8_1_BuffAmp_PM.c **** * Parameters:
  72:Generated_Source\PSoC5/WaveDAC8_1_BuffAmp_PM.c **** *  void
  73:Generated_Source\PSoC5/WaveDAC8_1_BuffAmp_PM.c **** *
  74:Generated_Source\PSoC5/WaveDAC8_1_BuffAmp_PM.c **** * Return:
  75:Generated_Source\PSoC5/WaveDAC8_1_BuffAmp_PM.c **** *  void
  76:Generated_Source\PSoC5/WaveDAC8_1_BuffAmp_PM.c **** *
  77:Generated_Source\PSoC5/WaveDAC8_1_BuffAmp_PM.c **** * Global variables:
  78:Generated_Source\PSoC5/WaveDAC8_1_BuffAmp_PM.c **** *  WaveDAC8_1_BuffAmp_backup: The structure field 'enableState' is modified 
  79:Generated_Source\PSoC5/WaveDAC8_1_BuffAmp_PM.c **** *  depending on the enable state of the block before entering to sleep mode.
  80:Generated_Source\PSoC5/WaveDAC8_1_BuffAmp_PM.c **** *
  81:Generated_Source\PSoC5/WaveDAC8_1_BuffAmp_PM.c **** *******************************************************************************/
  82:Generated_Source\PSoC5/WaveDAC8_1_BuffAmp_PM.c **** void WaveDAC8_1_BuffAmp_Sleep(void) 
  83:Generated_Source\PSoC5/WaveDAC8_1_BuffAmp_PM.c **** {
  62              		.loc 1 83 0
  63              		.cfi_startproc
  64              		@ args = 0, pretend = 0, frame = 0
  65              		@ frame_needed = 0, uses_anonymous_args = 0
  66              		.loc 1 83 0
  67 0000 08B5     		push	{r3, lr}
  68              		.cfi_def_cfa_offset 8
  69              		.cfi_offset 3, -8
  70              		.cfi_offset 14, -4
  84:Generated_Source\PSoC5/WaveDAC8_1_BuffAmp_PM.c ****     /* Save OpAmp enable state */
  85:Generated_Source\PSoC5/WaveDAC8_1_BuffAmp_PM.c ****     if((WaveDAC8_1_BuffAmp_PM_ACT_CFG_REG & WaveDAC8_1_BuffAmp_ACT_PWR_EN) != 0u)
  71              		.loc 1 85 0
  72 0002 074B     		ldr	r3, .L7
  73 0004 1B78     		ldrb	r3, [r3]	@ zero_extendqisi2
  74 0006 13F0040F 		tst	r3, #4
  75 000a 05D0     		beq	.L4
  86:Generated_Source\PSoC5/WaveDAC8_1_BuffAmp_PM.c ****     {
  87:Generated_Source\PSoC5/WaveDAC8_1_BuffAmp_PM.c ****         /* Component is enabled */
  88:Generated_Source\PSoC5/WaveDAC8_1_BuffAmp_PM.c ****         WaveDAC8_1_BuffAmp_backup.enableState = 1u;
  76              		.loc 1 88 0
  77 000c 0122     		movs	r2, #1
  78 000e 054B     		ldr	r3, .L7+4
  79 0010 1A70     		strb	r2, [r3]
  89:Generated_Source\PSoC5/WaveDAC8_1_BuffAmp_PM.c ****          /* Stops the component */
  90:Generated_Source\PSoC5/WaveDAC8_1_BuffAmp_PM.c ****          WaveDAC8_1_BuffAmp_Stop();
  80              		.loc 1 90 0
  81 0012 FFF7FEFF 		bl	WaveDAC8_1_BuffAmp_Stop
ARM GAS  C:\Users\JOSEAN~1\AppData\Local\Temp\ccrHFCSi.s 			page 4


  82              	.LVL0:
  83 0016 08BD     		pop	{r3, pc}
  84              	.L4:
  91:Generated_Source\PSoC5/WaveDAC8_1_BuffAmp_PM.c ****     }
  92:Generated_Source\PSoC5/WaveDAC8_1_BuffAmp_PM.c ****     else
  93:Generated_Source\PSoC5/WaveDAC8_1_BuffAmp_PM.c ****     {
  94:Generated_Source\PSoC5/WaveDAC8_1_BuffAmp_PM.c ****         /* Component is disabled */
  95:Generated_Source\PSoC5/WaveDAC8_1_BuffAmp_PM.c ****         WaveDAC8_1_BuffAmp_backup.enableState = 0u;
  85              		.loc 1 95 0
  86 0018 0022     		movs	r2, #0
  87 001a 024B     		ldr	r3, .L7+4
  88 001c 1A70     		strb	r2, [r3]
  89 001e 08BD     		pop	{r3, pc}
  90              	.L8:
  91              		.align	2
  92              	.L7:
  93 0020 A4430040 		.word	1073759140
  94 0024 00000000 		.word	.LANCHOR0
  95              		.cfi_endproc
  96              	.LFE2:
  97              		.size	WaveDAC8_1_BuffAmp_Sleep, .-WaveDAC8_1_BuffAmp_Sleep
  98              		.section	.text.WaveDAC8_1_BuffAmp_Wakeup,"ax",%progbits
  99              		.align	2
 100              		.global	WaveDAC8_1_BuffAmp_Wakeup
 101              		.thumb
 102              		.thumb_func
 103              		.type	WaveDAC8_1_BuffAmp_Wakeup, %function
 104              	WaveDAC8_1_BuffAmp_Wakeup:
 105              	.LFB3:
  96:Generated_Source\PSoC5/WaveDAC8_1_BuffAmp_PM.c ****     }
  97:Generated_Source\PSoC5/WaveDAC8_1_BuffAmp_PM.c ****     /* Saves the configuration */
  98:Generated_Source\PSoC5/WaveDAC8_1_BuffAmp_PM.c ****     WaveDAC8_1_BuffAmp_SaveConfig();
  99:Generated_Source\PSoC5/WaveDAC8_1_BuffAmp_PM.c **** }
 100:Generated_Source\PSoC5/WaveDAC8_1_BuffAmp_PM.c **** 
 101:Generated_Source\PSoC5/WaveDAC8_1_BuffAmp_PM.c **** 
 102:Generated_Source\PSoC5/WaveDAC8_1_BuffAmp_PM.c **** /*******************************************************************************  
 103:Generated_Source\PSoC5/WaveDAC8_1_BuffAmp_PM.c **** * Function Name: WaveDAC8_1_BuffAmp_Wakeup
 104:Generated_Source\PSoC5/WaveDAC8_1_BuffAmp_PM.c **** ********************************************************************************
 105:Generated_Source\PSoC5/WaveDAC8_1_BuffAmp_PM.c **** *
 106:Generated_Source\PSoC5/WaveDAC8_1_BuffAmp_PM.c **** * Summary:
 107:Generated_Source\PSoC5/WaveDAC8_1_BuffAmp_PM.c **** *  Enables block's operation and restores its configuration. Should be called
 108:Generated_Source\PSoC5/WaveDAC8_1_BuffAmp_PM.c **** *  just after awaking from sleep.
 109:Generated_Source\PSoC5/WaveDAC8_1_BuffAmp_PM.c **** *
 110:Generated_Source\PSoC5/WaveDAC8_1_BuffAmp_PM.c **** * Parameters:
 111:Generated_Source\PSoC5/WaveDAC8_1_BuffAmp_PM.c **** *  void
 112:Generated_Source\PSoC5/WaveDAC8_1_BuffAmp_PM.c **** *
 113:Generated_Source\PSoC5/WaveDAC8_1_BuffAmp_PM.c **** * Return:
 114:Generated_Source\PSoC5/WaveDAC8_1_BuffAmp_PM.c **** *  void
 115:Generated_Source\PSoC5/WaveDAC8_1_BuffAmp_PM.c **** *
 116:Generated_Source\PSoC5/WaveDAC8_1_BuffAmp_PM.c **** * Global variables:
 117:Generated_Source\PSoC5/WaveDAC8_1_BuffAmp_PM.c **** *  WaveDAC8_1_BuffAmp_backup: The structure field 'enableState' is used to 
 118:Generated_Source\PSoC5/WaveDAC8_1_BuffAmp_PM.c **** *  restore the enable state of block after wakeup from sleep mode.
 119:Generated_Source\PSoC5/WaveDAC8_1_BuffAmp_PM.c **** *
 120:Generated_Source\PSoC5/WaveDAC8_1_BuffAmp_PM.c **** *******************************************************************************/
 121:Generated_Source\PSoC5/WaveDAC8_1_BuffAmp_PM.c **** void WaveDAC8_1_BuffAmp_Wakeup(void) 
 122:Generated_Source\PSoC5/WaveDAC8_1_BuffAmp_PM.c **** {
 106              		.loc 1 122 0
ARM GAS  C:\Users\JOSEAN~1\AppData\Local\Temp\ccrHFCSi.s 			page 5


 107              		.cfi_startproc
 108              		@ args = 0, pretend = 0, frame = 0
 109              		@ frame_needed = 0, uses_anonymous_args = 0
 110 0000 08B5     		push	{r3, lr}
 111              		.cfi_def_cfa_offset 8
 112              		.cfi_offset 3, -8
 113              		.cfi_offset 14, -4
 123:Generated_Source\PSoC5/WaveDAC8_1_BuffAmp_PM.c ****     /* Restore the user configuration */
 124:Generated_Source\PSoC5/WaveDAC8_1_BuffAmp_PM.c ****     WaveDAC8_1_BuffAmp_RestoreConfig();
 125:Generated_Source\PSoC5/WaveDAC8_1_BuffAmp_PM.c **** 
 126:Generated_Source\PSoC5/WaveDAC8_1_BuffAmp_PM.c ****     /* Enables the component operation */
 127:Generated_Source\PSoC5/WaveDAC8_1_BuffAmp_PM.c ****     if(WaveDAC8_1_BuffAmp_backup.enableState == 1u)
 114              		.loc 1 127 0
 115 0002 034B     		ldr	r3, .L12
 116 0004 1B78     		ldrb	r3, [r3]	@ zero_extendqisi2
 117 0006 012B     		cmp	r3, #1
 118 0008 01D1     		bne	.L9
 128:Generated_Source\PSoC5/WaveDAC8_1_BuffAmp_PM.c ****     {
 129:Generated_Source\PSoC5/WaveDAC8_1_BuffAmp_PM.c ****         WaveDAC8_1_BuffAmp_Enable();
 119              		.loc 1 129 0
 120 000a FFF7FEFF 		bl	WaveDAC8_1_BuffAmp_Enable
 121              	.LVL1:
 122              	.L9:
 123 000e 08BD     		pop	{r3, pc}
 124              	.L13:
 125              		.align	2
 126              	.L12:
 127 0010 00000000 		.word	.LANCHOR0
 128              		.cfi_endproc
 129              	.LFE3:
 130              		.size	WaveDAC8_1_BuffAmp_Wakeup, .-WaveDAC8_1_BuffAmp_Wakeup
 131              		.bss
 132              		.align	2
 133              		.set	.LANCHOR0,. + 0
 134              		.type	WaveDAC8_1_BuffAmp_backup, %object
 135              		.size	WaveDAC8_1_BuffAmp_backup, 1
 136              	WaveDAC8_1_BuffAmp_backup:
 137 0000 00       		.space	1
 138              		.text
 139              	.Letext0:
 140              		.file 2 "Generated_Source\\PSoC5\\cytypes.h"
 141              		.file 3 "Generated_Source\\PSoC5\\WaveDAC8_1_BuffAmp.h"
 142              		.section	.debug_info,"",%progbits
 143              	.Ldebug_info0:
 144 0000 4F010000 		.4byte	0x14f
 145 0004 0400     		.2byte	0x4
 146 0006 00000000 		.4byte	.Ldebug_abbrev0
 147 000a 04       		.byte	0x4
 148 000b 01       		.uleb128 0x1
 149 000c 8A000000 		.4byte	.LASF23
 150 0010 0C       		.byte	0xc
 151 0011 5B000000 		.4byte	.LASF24
 152 0015 4D010000 		.4byte	.LASF25
 153 0019 00000000 		.4byte	.Ldebug_ranges0+0
 154 001d 00000000 		.4byte	0
 155 0021 00000000 		.4byte	.Ldebug_line0
 156 0025 02       		.uleb128 0x2
ARM GAS  C:\Users\JOSEAN~1\AppData\Local\Temp\ccrHFCSi.s 			page 6


 157 0026 01       		.byte	0x1
 158 0027 06       		.byte	0x6
 159 0028 83020000 		.4byte	.LASF0
 160 002c 02       		.uleb128 0x2
 161 002d 01       		.byte	0x1
 162 002e 08       		.byte	0x8
 163 002f F2010000 		.4byte	.LASF1
 164 0033 02       		.uleb128 0x2
 165 0034 02       		.byte	0x2
 166 0035 05       		.byte	0x5
 167 0036 D3020000 		.4byte	.LASF2
 168 003a 02       		.uleb128 0x2
 169 003b 02       		.byte	0x2
 170 003c 07       		.byte	0x7
 171 003d 70020000 		.4byte	.LASF3
 172 0041 02       		.uleb128 0x2
 173 0042 04       		.byte	0x4
 174 0043 05       		.byte	0x5
 175 0044 1E020000 		.4byte	.LASF4
 176 0048 02       		.uleb128 0x2
 177 0049 04       		.byte	0x4
 178 004a 07       		.byte	0x7
 179 004b 1E010000 		.4byte	.LASF5
 180 004f 02       		.uleb128 0x2
 181 0050 08       		.byte	0x8
 182 0051 05       		.byte	0x5
 183 0052 00000000 		.4byte	.LASF6
 184 0056 02       		.uleb128 0x2
 185 0057 08       		.byte	0x8
 186 0058 07       		.byte	0x7
 187 0059 30010000 		.4byte	.LASF7
 188 005d 03       		.uleb128 0x3
 189 005e 04       		.byte	0x4
 190 005f 05       		.byte	0x5
 191 0060 696E7400 		.ascii	"int\000"
 192 0064 02       		.uleb128 0x2
 193 0065 04       		.byte	0x4
 194 0066 07       		.byte	0x7
 195 0067 1A000000 		.4byte	.LASF8
 196 006b 04       		.uleb128 0x4
 197 006c 18010000 		.4byte	.LASF12
 198 0070 02       		.byte	0x2
 199 0071 E401     		.2byte	0x1e4
 200 0073 2C000000 		.4byte	0x2c
 201 0077 02       		.uleb128 0x2
 202 0078 04       		.byte	0x4
 203 0079 04       		.byte	0x4
 204 007a 47010000 		.4byte	.LASF9
 205 007e 02       		.uleb128 0x2
 206 007f 08       		.byte	0x8
 207 0080 04       		.byte	0x4
 208 0081 48020000 		.4byte	.LASF10
 209 0085 02       		.uleb128 0x2
 210 0086 01       		.byte	0x1
 211 0087 08       		.byte	0x8
 212 0088 00020000 		.4byte	.LASF11
 213 008c 04       		.uleb128 0x4
ARM GAS  C:\Users\JOSEAN~1\AppData\Local\Temp\ccrHFCSi.s 			page 7


 214 008d DD020000 		.4byte	.LASF13
 215 0091 02       		.byte	0x2
 216 0092 8E02     		.2byte	0x28e
 217 0094 98000000 		.4byte	0x98
 218 0098 05       		.uleb128 0x5
 219 0099 6B000000 		.4byte	0x6b
 220 009d 02       		.uleb128 0x2
 221 009e 08       		.byte	0x8
 222 009f 04       		.byte	0x4
 223 00a0 C7020000 		.4byte	.LASF14
 224 00a4 02       		.uleb128 0x2
 225 00a5 04       		.byte	0x4
 226 00a6 07       		.byte	0x7
 227 00a7 E2020000 		.4byte	.LASF15
 228 00ab 06       		.uleb128 0x6
 229 00ac 01       		.byte	0x1
 230 00ad 03       		.byte	0x3
 231 00ae 26       		.byte	0x26
 232 00af C0000000 		.4byte	0xc0
 233 00b3 07       		.uleb128 0x7
 234 00b4 0E000000 		.4byte	.LASF26
 235 00b8 03       		.byte	0x3
 236 00b9 28       		.byte	0x28
 237 00ba 6B000000 		.4byte	0x6b
 238 00be 00       		.byte	0
 239 00bf 00       		.byte	0
 240 00c0 08       		.uleb128 0x8
 241 00c1 4F020000 		.4byte	.LASF16
 242 00c5 03       		.byte	0x3
 243 00c6 29       		.byte	0x29
 244 00c7 AB000000 		.4byte	0xab
 245 00cb 09       		.uleb128 0x9
 246 00cc 8F020000 		.4byte	.LASF17
 247 00d0 01       		.byte	0x1
 248 00d1 25       		.byte	0x25
 249 00d2 00000000 		.4byte	.LFB0
 250 00d6 02000000 		.4byte	.LFE0-.LFB0
 251 00da 01       		.uleb128 0x1
 252 00db 9C       		.byte	0x9c
 253 00dc 09       		.uleb128 0x9
 254 00dd 27020000 		.4byte	.LASF18
 255 00e1 01       		.byte	0x1
 256 00e2 39       		.byte	0x39
 257 00e3 00000000 		.4byte	.LFB1
 258 00e7 02000000 		.4byte	.LFE1-.LFB1
 259 00eb 01       		.uleb128 0x1
 260 00ec 9C       		.byte	0x9c
 261 00ed 0A       		.uleb128 0xa
 262 00ee 05020000 		.4byte	.LASF19
 263 00f2 01       		.byte	0x1
 264 00f3 52       		.byte	0x52
 265 00f4 00000000 		.4byte	.LFB2
 266 00f8 28000000 		.4byte	.LFE2-.LFB2
 267 00fc 01       		.uleb128 0x1
 268 00fd 9C       		.byte	0x9c
 269 00fe 0C010000 		.4byte	0x10c
 270 0102 0B       		.uleb128 0xb
ARM GAS  C:\Users\JOSEAN~1\AppData\Local\Temp\ccrHFCSi.s 			page 8


 271 0103 16000000 		.4byte	.LVL0
 272 0107 3C010000 		.4byte	0x13c
 273 010b 00       		.byte	0
 274 010c 0A       		.uleb128 0xa
 275 010d 27000000 		.4byte	.LASF20
 276 0111 01       		.byte	0x1
 277 0112 79       		.byte	0x79
 278 0113 00000000 		.4byte	.LFB3
 279 0117 14000000 		.4byte	.LFE3-.LFB3
 280 011b 01       		.uleb128 0x1
 281 011c 9C       		.byte	0x9c
 282 011d 2B010000 		.4byte	0x12b
 283 0121 0B       		.uleb128 0xb
 284 0122 0E000000 		.4byte	.LVL1
 285 0126 47010000 		.4byte	0x147
 286 012a 00       		.byte	0
 287 012b 0C       		.uleb128 0xc
 288 012c AD020000 		.4byte	.LASF27
 289 0130 01       		.byte	0x1
 290 0131 14       		.byte	0x14
 291 0132 C0000000 		.4byte	0xc0
 292 0136 05       		.uleb128 0x5
 293 0137 03       		.byte	0x3
 294 0138 00000000 		.4byte	WaveDAC8_1_BuffAmp_backup
 295 013c 0D       		.uleb128 0xd
 296 013d DA010000 		.4byte	.LASF21
 297 0141 DA010000 		.4byte	.LASF21
 298 0145 03       		.byte	0x3
 299 0146 34       		.byte	0x34
 300 0147 0D       		.uleb128 0xd
 301 0148 41000000 		.4byte	.LASF22
 302 014c 41000000 		.4byte	.LASF22
 303 0150 03       		.byte	0x3
 304 0151 3B       		.byte	0x3b
 305 0152 00       		.byte	0
 306              		.section	.debug_abbrev,"",%progbits
 307              	.Ldebug_abbrev0:
 308 0000 01       		.uleb128 0x1
 309 0001 11       		.uleb128 0x11
 310 0002 01       		.byte	0x1
 311 0003 25       		.uleb128 0x25
 312 0004 0E       		.uleb128 0xe
 313 0005 13       		.uleb128 0x13
 314 0006 0B       		.uleb128 0xb
 315 0007 03       		.uleb128 0x3
 316 0008 0E       		.uleb128 0xe
 317 0009 1B       		.uleb128 0x1b
 318 000a 0E       		.uleb128 0xe
 319 000b 55       		.uleb128 0x55
 320 000c 17       		.uleb128 0x17
 321 000d 11       		.uleb128 0x11
 322 000e 01       		.uleb128 0x1
 323 000f 10       		.uleb128 0x10
 324 0010 17       		.uleb128 0x17
 325 0011 00       		.byte	0
 326 0012 00       		.byte	0
 327 0013 02       		.uleb128 0x2
ARM GAS  C:\Users\JOSEAN~1\AppData\Local\Temp\ccrHFCSi.s 			page 9


 328 0014 24       		.uleb128 0x24
 329 0015 00       		.byte	0
 330 0016 0B       		.uleb128 0xb
 331 0017 0B       		.uleb128 0xb
 332 0018 3E       		.uleb128 0x3e
 333 0019 0B       		.uleb128 0xb
 334 001a 03       		.uleb128 0x3
 335 001b 0E       		.uleb128 0xe
 336 001c 00       		.byte	0
 337 001d 00       		.byte	0
 338 001e 03       		.uleb128 0x3
 339 001f 24       		.uleb128 0x24
 340 0020 00       		.byte	0
 341 0021 0B       		.uleb128 0xb
 342 0022 0B       		.uleb128 0xb
 343 0023 3E       		.uleb128 0x3e
 344 0024 0B       		.uleb128 0xb
 345 0025 03       		.uleb128 0x3
 346 0026 08       		.uleb128 0x8
 347 0027 00       		.byte	0
 348 0028 00       		.byte	0
 349 0029 04       		.uleb128 0x4
 350 002a 16       		.uleb128 0x16
 351 002b 00       		.byte	0
 352 002c 03       		.uleb128 0x3
 353 002d 0E       		.uleb128 0xe
 354 002e 3A       		.uleb128 0x3a
 355 002f 0B       		.uleb128 0xb
 356 0030 3B       		.uleb128 0x3b
 357 0031 05       		.uleb128 0x5
 358 0032 49       		.uleb128 0x49
 359 0033 13       		.uleb128 0x13
 360 0034 00       		.byte	0
 361 0035 00       		.byte	0
 362 0036 05       		.uleb128 0x5
 363 0037 35       		.uleb128 0x35
 364 0038 00       		.byte	0
 365 0039 49       		.uleb128 0x49
 366 003a 13       		.uleb128 0x13
 367 003b 00       		.byte	0
 368 003c 00       		.byte	0
 369 003d 06       		.uleb128 0x6
 370 003e 13       		.uleb128 0x13
 371 003f 01       		.byte	0x1
 372 0040 0B       		.uleb128 0xb
 373 0041 0B       		.uleb128 0xb
 374 0042 3A       		.uleb128 0x3a
 375 0043 0B       		.uleb128 0xb
 376 0044 3B       		.uleb128 0x3b
 377 0045 0B       		.uleb128 0xb
 378 0046 01       		.uleb128 0x1
 379 0047 13       		.uleb128 0x13
 380 0048 00       		.byte	0
 381 0049 00       		.byte	0
 382 004a 07       		.uleb128 0x7
 383 004b 0D       		.uleb128 0xd
 384 004c 00       		.byte	0
ARM GAS  C:\Users\JOSEAN~1\AppData\Local\Temp\ccrHFCSi.s 			page 10


 385 004d 03       		.uleb128 0x3
 386 004e 0E       		.uleb128 0xe
 387 004f 3A       		.uleb128 0x3a
 388 0050 0B       		.uleb128 0xb
 389 0051 3B       		.uleb128 0x3b
 390 0052 0B       		.uleb128 0xb
 391 0053 49       		.uleb128 0x49
 392 0054 13       		.uleb128 0x13
 393 0055 38       		.uleb128 0x38
 394 0056 0B       		.uleb128 0xb
 395 0057 00       		.byte	0
 396 0058 00       		.byte	0
 397 0059 08       		.uleb128 0x8
 398 005a 16       		.uleb128 0x16
 399 005b 00       		.byte	0
 400 005c 03       		.uleb128 0x3
 401 005d 0E       		.uleb128 0xe
 402 005e 3A       		.uleb128 0x3a
 403 005f 0B       		.uleb128 0xb
 404 0060 3B       		.uleb128 0x3b
 405 0061 0B       		.uleb128 0xb
 406 0062 49       		.uleb128 0x49
 407 0063 13       		.uleb128 0x13
 408 0064 00       		.byte	0
 409 0065 00       		.byte	0
 410 0066 09       		.uleb128 0x9
 411 0067 2E       		.uleb128 0x2e
 412 0068 00       		.byte	0
 413 0069 3F       		.uleb128 0x3f
 414 006a 19       		.uleb128 0x19
 415 006b 03       		.uleb128 0x3
 416 006c 0E       		.uleb128 0xe
 417 006d 3A       		.uleb128 0x3a
 418 006e 0B       		.uleb128 0xb
 419 006f 3B       		.uleb128 0x3b
 420 0070 0B       		.uleb128 0xb
 421 0071 27       		.uleb128 0x27
 422 0072 19       		.uleb128 0x19
 423 0073 11       		.uleb128 0x11
 424 0074 01       		.uleb128 0x1
 425 0075 12       		.uleb128 0x12
 426 0076 06       		.uleb128 0x6
 427 0077 40       		.uleb128 0x40
 428 0078 18       		.uleb128 0x18
 429 0079 9742     		.uleb128 0x2117
 430 007b 19       		.uleb128 0x19
 431 007c 00       		.byte	0
 432 007d 00       		.byte	0
 433 007e 0A       		.uleb128 0xa
 434 007f 2E       		.uleb128 0x2e
 435 0080 01       		.byte	0x1
 436 0081 3F       		.uleb128 0x3f
 437 0082 19       		.uleb128 0x19
 438 0083 03       		.uleb128 0x3
 439 0084 0E       		.uleb128 0xe
 440 0085 3A       		.uleb128 0x3a
 441 0086 0B       		.uleb128 0xb
ARM GAS  C:\Users\JOSEAN~1\AppData\Local\Temp\ccrHFCSi.s 			page 11


 442 0087 3B       		.uleb128 0x3b
 443 0088 0B       		.uleb128 0xb
 444 0089 27       		.uleb128 0x27
 445 008a 19       		.uleb128 0x19
 446 008b 11       		.uleb128 0x11
 447 008c 01       		.uleb128 0x1
 448 008d 12       		.uleb128 0x12
 449 008e 06       		.uleb128 0x6
 450 008f 40       		.uleb128 0x40
 451 0090 18       		.uleb128 0x18
 452 0091 9742     		.uleb128 0x2117
 453 0093 19       		.uleb128 0x19
 454 0094 01       		.uleb128 0x1
 455 0095 13       		.uleb128 0x13
 456 0096 00       		.byte	0
 457 0097 00       		.byte	0
 458 0098 0B       		.uleb128 0xb
 459 0099 898201   		.uleb128 0x4109
 460 009c 00       		.byte	0
 461 009d 11       		.uleb128 0x11
 462 009e 01       		.uleb128 0x1
 463 009f 31       		.uleb128 0x31
 464 00a0 13       		.uleb128 0x13
 465 00a1 00       		.byte	0
 466 00a2 00       		.byte	0
 467 00a3 0C       		.uleb128 0xc
 468 00a4 34       		.uleb128 0x34
 469 00a5 00       		.byte	0
 470 00a6 03       		.uleb128 0x3
 471 00a7 0E       		.uleb128 0xe
 472 00a8 3A       		.uleb128 0x3a
 473 00a9 0B       		.uleb128 0xb
 474 00aa 3B       		.uleb128 0x3b
 475 00ab 0B       		.uleb128 0xb
 476 00ac 49       		.uleb128 0x49
 477 00ad 13       		.uleb128 0x13
 478 00ae 02       		.uleb128 0x2
 479 00af 18       		.uleb128 0x18
 480 00b0 00       		.byte	0
 481 00b1 00       		.byte	0
 482 00b2 0D       		.uleb128 0xd
 483 00b3 2E       		.uleb128 0x2e
 484 00b4 00       		.byte	0
 485 00b5 3F       		.uleb128 0x3f
 486 00b6 19       		.uleb128 0x19
 487 00b7 3C       		.uleb128 0x3c
 488 00b8 19       		.uleb128 0x19
 489 00b9 6E       		.uleb128 0x6e
 490 00ba 0E       		.uleb128 0xe
 491 00bb 03       		.uleb128 0x3
 492 00bc 0E       		.uleb128 0xe
 493 00bd 3A       		.uleb128 0x3a
 494 00be 0B       		.uleb128 0xb
 495 00bf 3B       		.uleb128 0x3b
 496 00c0 0B       		.uleb128 0xb
 497 00c1 00       		.byte	0
 498 00c2 00       		.byte	0
ARM GAS  C:\Users\JOSEAN~1\AppData\Local\Temp\ccrHFCSi.s 			page 12


 499 00c3 00       		.byte	0
 500              		.section	.debug_aranges,"",%progbits
 501 0000 34000000 		.4byte	0x34
 502 0004 0200     		.2byte	0x2
 503 0006 00000000 		.4byte	.Ldebug_info0
 504 000a 04       		.byte	0x4
 505 000b 00       		.byte	0
 506 000c 0000     		.2byte	0
 507 000e 0000     		.2byte	0
 508 0010 00000000 		.4byte	.LFB0
 509 0014 02000000 		.4byte	.LFE0-.LFB0
 510 0018 00000000 		.4byte	.LFB1
 511 001c 02000000 		.4byte	.LFE1-.LFB1
 512 0020 00000000 		.4byte	.LFB2
 513 0024 28000000 		.4byte	.LFE2-.LFB2
 514 0028 00000000 		.4byte	.LFB3
 515 002c 14000000 		.4byte	.LFE3-.LFB3
 516 0030 00000000 		.4byte	0
 517 0034 00000000 		.4byte	0
 518              		.section	.debug_ranges,"",%progbits
 519              	.Ldebug_ranges0:
 520 0000 00000000 		.4byte	.LFB0
 521 0004 02000000 		.4byte	.LFE0
 522 0008 00000000 		.4byte	.LFB1
 523 000c 02000000 		.4byte	.LFE1
 524 0010 00000000 		.4byte	.LFB2
 525 0014 28000000 		.4byte	.LFE2
 526 0018 00000000 		.4byte	.LFB3
 527 001c 14000000 		.4byte	.LFE3
 528 0020 00000000 		.4byte	0
 529 0024 00000000 		.4byte	0
 530              		.section	.debug_line,"",%progbits
 531              	.Ldebug_line0:
 532 0000 B5000000 		.section	.debug_str,"MS",%progbits,1
 532      02006A00 
 532      00000201 
 532      FB0E0D00 
 532      01010101 
 533              	.LASF6:
 534 0000 6C6F6E67 		.ascii	"long long int\000"
 534      206C6F6E 
 534      6720696E 
 534      7400
 535              	.LASF26:
 536 000e 656E6162 		.ascii	"enableState\000"
 536      6C655374 
 536      61746500 
 537              	.LASF8:
 538 001a 756E7369 		.ascii	"unsigned int\000"
 538      676E6564 
 538      20696E74 
 538      00
 539              	.LASF20:
 540 0027 57617665 		.ascii	"WaveDAC8_1_BuffAmp_Wakeup\000"
 540      44414338 
 540      5F315F42 
 540      75666641 
ARM GAS  C:\Users\JOSEAN~1\AppData\Local\Temp\ccrHFCSi.s 			page 13


 540      6D705F57 
 541              	.LASF22:
 542 0041 57617665 		.ascii	"WaveDAC8_1_BuffAmp_Enable\000"
 542      44414338 
 542      5F315F42 
 542      75666641 
 542      6D705F45 
 543              	.LASF24:
 544 005b 47656E65 		.ascii	"Generated_Source\\PSoC5\\WaveDAC8_1_BuffAmp_PM.c\000"
 544      72617465 
 544      645F536F 
 544      75726365 
 544      5C50536F 
 545              	.LASF23:
 546 008a 474E5520 		.ascii	"GNU C11 5.4.1 20160609 (release) [ARM/embedded-5-br"
 546      43313120 
 546      352E342E 
 546      31203230 
 546      31363036 
 547 00bd 616E6368 		.ascii	"anch revision 237715] -mcpu=cortex-m3 -mthumb -g -O"
 547      20726576 
 547      6973696F 
 547      6E203233 
 547      37373135 
 548 00f0 67202D66 		.ascii	"g -ffunction-sections -ffat-lto-objects\000"
 548      66756E63 
 548      74696F6E 
 548      2D736563 
 548      74696F6E 
 549              	.LASF12:
 550 0118 75696E74 		.ascii	"uint8\000"
 550      3800
 551              	.LASF5:
 552 011e 6C6F6E67 		.ascii	"long unsigned int\000"
 552      20756E73 
 552      69676E65 
 552      6420696E 
 552      7400
 553              	.LASF7:
 554 0130 6C6F6E67 		.ascii	"long long unsigned int\000"
 554      206C6F6E 
 554      6720756E 
 554      7369676E 
 554      65642069 
 555              	.LASF9:
 556 0147 666C6F61 		.ascii	"float\000"
 556      7400
 557              	.LASF25:
 558 014d 443A5C44 		.ascii	"D:\\Documentos\\UNIVERSIDAD\\TFG\\Application Notes"
 558      6F63756D 
 558      656E746F 
 558      735C554E 
 558      49564552 
 559 017c 20792050 		.ascii	" y Proyectos\\Psoc5_proyectillos\\WaveDAC\\WaveDAC8"
 559      726F7965 
 559      63746F73 
 559      5C50736F 
ARM GAS  C:\Users\JOSEAN~1\AppData\Local\Temp\ccrHFCSi.s 			page 14


 559      63355F70 
 560 01ac 5F457861 		.ascii	"_Example\\GeneradorPruebasDAC_References.cydsn\000"
 560      6D706C65 
 560      5C47656E 
 560      65726164 
 560      6F725072 
 561              	.LASF21:
 562 01da 57617665 		.ascii	"WaveDAC8_1_BuffAmp_Stop\000"
 562      44414338 
 562      5F315F42 
 562      75666641 
 562      6D705F53 
 563              	.LASF1:
 564 01f2 756E7369 		.ascii	"unsigned char\000"
 564      676E6564 
 564      20636861 
 564      7200
 565              	.LASF11:
 566 0200 63686172 		.ascii	"char\000"
 566      00
 567              	.LASF19:
 568 0205 57617665 		.ascii	"WaveDAC8_1_BuffAmp_Sleep\000"
 568      44414338 
 568      5F315F42 
 568      75666641 
 568      6D705F53 
 569              	.LASF4:
 570 021e 6C6F6E67 		.ascii	"long int\000"
 570      20696E74 
 570      00
 571              	.LASF18:
 572 0227 57617665 		.ascii	"WaveDAC8_1_BuffAmp_RestoreConfig\000"
 572      44414338 
 572      5F315F42 
 572      75666641 
 572      6D705F52 
 573              	.LASF10:
 574 0248 646F7562 		.ascii	"double\000"
 574      6C6500
 575              	.LASF16:
 576 024f 57617665 		.ascii	"WaveDAC8_1_BuffAmp_BACKUP_STRUCT\000"
 576      44414338 
 576      5F315F42 
 576      75666641 
 576      6D705F42 
 577              	.LASF3:
 578 0270 73686F72 		.ascii	"short unsigned int\000"
 578      7420756E 
 578      7369676E 
 578      65642069 
 578      6E7400
 579              	.LASF0:
 580 0283 7369676E 		.ascii	"signed char\000"
 580      65642063 
 580      68617200 
 581              	.LASF17:
 582 028f 57617665 		.ascii	"WaveDAC8_1_BuffAmp_SaveConfig\000"
ARM GAS  C:\Users\JOSEAN~1\AppData\Local\Temp\ccrHFCSi.s 			page 15


 582      44414338 
 582      5F315F42 
 582      75666641 
 582      6D705F53 
 583              	.LASF27:
 584 02ad 57617665 		.ascii	"WaveDAC8_1_BuffAmp_backup\000"
 584      44414338 
 584      5F315F42 
 584      75666641 
 584      6D705F62 
 585              	.LASF14:
 586 02c7 6C6F6E67 		.ascii	"long double\000"
 586      20646F75 
 586      626C6500 
 587              	.LASF2:
 588 02d3 73686F72 		.ascii	"short int\000"
 588      7420696E 
 588      7400
 589              	.LASF13:
 590 02dd 72656738 		.ascii	"reg8\000"
 590      00
 591              	.LASF15:
 592 02e2 73697A65 		.ascii	"sizetype\000"
 592      74797065 
 592      00
 593              		.ident	"GCC: (GNU Tools for ARM Embedded Processors) 5.4.1 20160609 (release) [ARM/embedded-5-bran
