ARM GAS  C:\Users\JOSEAN~1\AppData\Local\Temp\cc9RDg7X.s 			page 1


   1              		.syntax unified
   2              		.cpu cortex-m0
   3              		.fpu softvfp
   4              		.eabi_attribute 20, 1
   5              		.eabi_attribute 21, 1
   6              		.eabi_attribute 23, 3
   7              		.eabi_attribute 24, 1
   8              		.eabi_attribute 25, 1
   9              		.eabi_attribute 26, 1
  10              		.eabi_attribute 30, 6
  11              		.eabi_attribute 34, 0
  12              		.eabi_attribute 18, 4
  13              		.thumb
  14              		.syntax unified
  15              		.file	"Cm0Start.c"
  16              		.text
  17              	.Ltext0:
  18              		.cfi_sections	.debug_frame
  19              		.section	.noinit,"aw",%progbits
  20              		.align	2
  21              		.type	cySysNoInitDataValid, %object
  22              		.size	cySysNoInitDataValid, 4
  23              	cySysNoInitDataValid:
  24 0000 00000000 		.space	4
  25              		.section	.text.IntDefaultHandler,"ax",%progbits
  26              		.align	2
  27              		.global	IntDefaultHandler
  28              		.code	16
  29              		.thumb_func
  30              		.type	IntDefaultHandler, %function
  31              	IntDefaultHandler:
  32              	.LFB0:
  33              		.file 1 "Generated_Source\\PSoC4\\Cm0Start.c"
   1:Generated_Source\PSoC4/Cm0Start.c **** /***************************************************************************//**
   2:Generated_Source\PSoC4/Cm0Start.c **** * \file Cm0Start.c
   3:Generated_Source\PSoC4/Cm0Start.c **** * \version 5.70
   4:Generated_Source\PSoC4/Cm0Start.c **** *
   5:Generated_Source\PSoC4/Cm0Start.c **** * \brief Startup code for the ARM CM0.
   6:Generated_Source\PSoC4/Cm0Start.c **** *
   7:Generated_Source\PSoC4/Cm0Start.c **** ********************************************************************************
   8:Generated_Source\PSoC4/Cm0Start.c **** * \copyright
   9:Generated_Source\PSoC4/Cm0Start.c **** * Copyright 2010-2018, Cypress Semiconductor Corporation.  All rights reserved.
  10:Generated_Source\PSoC4/Cm0Start.c **** * You may use this file only in accordance with the license, terms, conditions,
  11:Generated_Source\PSoC4/Cm0Start.c **** * disclaimers, and limitations in the end user license agreement accompanying
  12:Generated_Source\PSoC4/Cm0Start.c **** * the software package with which this file was provided.
  13:Generated_Source\PSoC4/Cm0Start.c **** *******************************************************************************/
  14:Generated_Source\PSoC4/Cm0Start.c **** 
  15:Generated_Source\PSoC4/Cm0Start.c **** #include <limits.h>
  16:Generated_Source\PSoC4/Cm0Start.c **** #include "cydevice_trm.h"
  17:Generated_Source\PSoC4/Cm0Start.c **** #include "cytypes.h"
  18:Generated_Source\PSoC4/Cm0Start.c **** #include "cyfitter_cfg.h"
  19:Generated_Source\PSoC4/Cm0Start.c **** #include "CyLib.h"
  20:Generated_Source\PSoC4/Cm0Start.c **** #include "cyfitter.h"
  21:Generated_Source\PSoC4/Cm0Start.c **** 
  22:Generated_Source\PSoC4/Cm0Start.c **** 
  23:Generated_Source\PSoC4/Cm0Start.c **** #define CY_NUM_VECTORS              (CY_INT_IRQ_BASE + CY_NUM_INTERRUPTS)
  24:Generated_Source\PSoC4/Cm0Start.c **** 
ARM GAS  C:\Users\JOSEAN~1\AppData\Local\Temp\cc9RDg7X.s 			page 2


  25:Generated_Source\PSoC4/Cm0Start.c **** #if (CY_IP_CPUSS_CM0)
  26:Generated_Source\PSoC4/Cm0Start.c ****     #define CY_CPUSS_CONFIG_VECT_IN_RAM (( uint32 ) 0x01)
  27:Generated_Source\PSoC4/Cm0Start.c **** #endif /* (CY_IP_CPUSS_CM0) */
  28:Generated_Source\PSoC4/Cm0Start.c **** 
  29:Generated_Source\PSoC4/Cm0Start.c **** 
  30:Generated_Source\PSoC4/Cm0Start.c **** #if (CY_IP_CPUSS_CM0)
  31:Generated_Source\PSoC4/Cm0Start.c ****     /* CPUSS Configuration register */
  32:Generated_Source\PSoC4/Cm0Start.c ****     #define CY_CPUSS_CONFIG_REG         (*(reg32 *) CYREG_CPUSS_CONFIG)
  33:Generated_Source\PSoC4/Cm0Start.c ****     #define CY_CPUSS_CONFIG_PTR         ( (reg32 *) CYREG_CPUSS_CONFIG)
  34:Generated_Source\PSoC4/Cm0Start.c **** #endif /* (CY_IP_CPUSS_CM0) */
  35:Generated_Source\PSoC4/Cm0Start.c **** 
  36:Generated_Source\PSoC4/Cm0Start.c **** 
  37:Generated_Source\PSoC4/Cm0Start.c **** #if defined (__ICCARM__)
  38:Generated_Source\PSoC4/Cm0Start.c ****     #define CY_NUM_ROM_VECTORS      (CY_NUM_VECTORS)
  39:Generated_Source\PSoC4/Cm0Start.c **** #else
  40:Generated_Source\PSoC4/Cm0Start.c ****     #define CY_NUM_ROM_VECTORS      (4u)
  41:Generated_Source\PSoC4/Cm0Start.c **** #endif  /* defined (__ICCARM__) */
  42:Generated_Source\PSoC4/Cm0Start.c **** 
  43:Generated_Source\PSoC4/Cm0Start.c **** /* Vector table address in SRAM */
  44:Generated_Source\PSoC4/Cm0Start.c **** #define CY_CPUSS_CONFIG_VECT_ADDR_IN_RAM    (0x20000000u)
  45:Generated_Source\PSoC4/Cm0Start.c **** 
  46:Generated_Source\PSoC4/Cm0Start.c **** #ifndef CY_SYS_INITIAL_STACK_POINTER
  47:Generated_Source\PSoC4/Cm0Start.c **** 
  48:Generated_Source\PSoC4/Cm0Start.c ****     #if defined(__ARMCC_VERSION)
  49:Generated_Source\PSoC4/Cm0Start.c ****         #define CY_SYS_INITIAL_STACK_POINTER ((cyisraddress)(uint32)&Image$$ARM_LIB_STACK$$ZI$$Limi
  50:Generated_Source\PSoC4/Cm0Start.c ****     #elif defined (__GNUC__)
  51:Generated_Source\PSoC4/Cm0Start.c ****         #define CY_SYS_INITIAL_STACK_POINTER (&__cy_stack)
  52:Generated_Source\PSoC4/Cm0Start.c ****     #elif defined (__ICCARM__)
  53:Generated_Source\PSoC4/Cm0Start.c ****         #pragma language=extended
  54:Generated_Source\PSoC4/Cm0Start.c ****         #pragma segment="CSTACK"
  55:Generated_Source\PSoC4/Cm0Start.c ****         #define CY_SYS_INITIAL_STACK_POINTER  { .__ptr = __sfe( "CSTACK" ) }
  56:Generated_Source\PSoC4/Cm0Start.c **** 
  57:Generated_Source\PSoC4/Cm0Start.c ****         extern void __iar_program_start( void );
  58:Generated_Source\PSoC4/Cm0Start.c ****         extern void __iar_data_init3 (void);
  59:Generated_Source\PSoC4/Cm0Start.c ****     #endif  /* (__ARMCC_VERSION) */
  60:Generated_Source\PSoC4/Cm0Start.c **** 
  61:Generated_Source\PSoC4/Cm0Start.c **** #endif /* CY_SYS_INITIAL_STACK_POINTER */
  62:Generated_Source\PSoC4/Cm0Start.c **** 
  63:Generated_Source\PSoC4/Cm0Start.c **** 
  64:Generated_Source\PSoC4/Cm0Start.c **** #if defined(__GNUC__)
  65:Generated_Source\PSoC4/Cm0Start.c ****     #include <errno.h>
  66:Generated_Source\PSoC4/Cm0Start.c ****     extern int  end;
  67:Generated_Source\PSoC4/Cm0Start.c **** #endif  /* defined(__GNUC__) */
  68:Generated_Source\PSoC4/Cm0Start.c **** 
  69:Generated_Source\PSoC4/Cm0Start.c **** /* Extern functions */
  70:Generated_Source\PSoC4/Cm0Start.c **** extern void CyBtldr_CheckLaunch(void);
  71:Generated_Source\PSoC4/Cm0Start.c **** 
  72:Generated_Source\PSoC4/Cm0Start.c **** /* Function prototypes */
  73:Generated_Source\PSoC4/Cm0Start.c **** void initialize_psoc(void);
  74:Generated_Source\PSoC4/Cm0Start.c **** 
  75:Generated_Source\PSoC4/Cm0Start.c **** /* Global variables */
  76:Generated_Source\PSoC4/Cm0Start.c **** #if !defined (__ICCARM__)
  77:Generated_Source\PSoC4/Cm0Start.c ****     CY_NOINIT static uint32 cySysNoInitDataValid;
  78:Generated_Source\PSoC4/Cm0Start.c **** #endif  /* !defined (__ICCARM__) */
  79:Generated_Source\PSoC4/Cm0Start.c **** 
  80:Generated_Source\PSoC4/Cm0Start.c **** 
  81:Generated_Source\PSoC4/Cm0Start.c **** #if (CYDEV_PROJ_TYPE != CYDEV_PROJ_TYPE_STANDARD)
ARM GAS  C:\Users\JOSEAN~1\AppData\Local\Temp\cc9RDg7X.s 			page 3


  82:Generated_Source\PSoC4/Cm0Start.c **** 
  83:Generated_Source\PSoC4/Cm0Start.c ****     /*******************************************************************************
  84:Generated_Source\PSoC4/Cm0Start.c ****     This variable is used by the Bootloader/Bootloadable components to schedule
  85:Generated_Source\PSoC4/Cm0Start.c ****     what application will be started after a software reset.
  86:Generated_Source\PSoC4/Cm0Start.c ****     *******************************************************************************/
  87:Generated_Source\PSoC4/Cm0Start.c ****     #if (__ARMCC_VERSION)
  88:Generated_Source\PSoC4/Cm0Start.c ****         __attribute__ ((section(".bootloaderruntype"), zero_init))
  89:Generated_Source\PSoC4/Cm0Start.c ****     #elif defined (__GNUC__)
  90:Generated_Source\PSoC4/Cm0Start.c ****         __attribute__ ((section(".bootloaderruntype")))
  91:Generated_Source\PSoC4/Cm0Start.c ****     #elif defined (__ICCARM__)
  92:Generated_Source\PSoC4/Cm0Start.c ****         #pragma location=".bootloaderruntype"
  93:Generated_Source\PSoC4/Cm0Start.c ****     #endif /* (__ARMCC_VERSION) */
  94:Generated_Source\PSoC4/Cm0Start.c ****     volatile uint32 cyBtldrRunType;
  95:Generated_Source\PSoC4/Cm0Start.c **** 
  96:Generated_Source\PSoC4/Cm0Start.c **** #endif  /* (CYDEV_PROJ_TYPE != CYDEV_PROJ_TYPE_STANDARD) */
  97:Generated_Source\PSoC4/Cm0Start.c **** 
  98:Generated_Source\PSoC4/Cm0Start.c **** 
  99:Generated_Source\PSoC4/Cm0Start.c **** /*******************************************************************************
 100:Generated_Source\PSoC4/Cm0Start.c **** * Function Name: IntDefaultHandler
 101:Generated_Source\PSoC4/Cm0Start.c **** ****************************************************************************//**
 102:Generated_Source\PSoC4/Cm0Start.c **** *
 103:Generated_Source\PSoC4/Cm0Start.c **** *  This function is called for all interrupts, other than a reset that is called
 104:Generated_Source\PSoC4/Cm0Start.c **** *  before the system is setup.
 105:Generated_Source\PSoC4/Cm0Start.c **** *
 106:Generated_Source\PSoC4/Cm0Start.c **** *******************************************************************************/
 107:Generated_Source\PSoC4/Cm0Start.c **** CY_NORETURN
 108:Generated_Source\PSoC4/Cm0Start.c **** CY_ISR(IntDefaultHandler)
 109:Generated_Source\PSoC4/Cm0Start.c **** {
  34              		.loc 1 109 0
  35              		.cfi_startproc
  36              		@ args = 0, pretend = 0, frame = 0
  37              		@ frame_needed = 1, uses_anonymous_args = 0
  38 0000 80B5     		push	{r7, lr}
  39              		.cfi_def_cfa_offset 8
  40              		.cfi_offset 7, -8
  41              		.cfi_offset 14, -4
  42 0002 00AF     		add	r7, sp, #0
  43              		.cfi_def_cfa_register 7
 110:Generated_Source\PSoC4/Cm0Start.c ****     /***************************************************************************
 111:Generated_Source\PSoC4/Cm0Start.c ****     * We must not get here. If we do, a serious problem occurs, so go into
 112:Generated_Source\PSoC4/Cm0Start.c ****     * an infinite loop.
 113:Generated_Source\PSoC4/Cm0Start.c ****     ***************************************************************************/
 114:Generated_Source\PSoC4/Cm0Start.c **** 
 115:Generated_Source\PSoC4/Cm0Start.c ****     #if defined(__GNUC__)
 116:Generated_Source\PSoC4/Cm0Start.c ****         if (errno == ENOMEM)
  44              		.loc 1 116 0
  45 0004 FFF7FEFF 		bl	__errno
  46 0008 0300     		movs	r3, r0
  47 000a 1B68     		ldr	r3, [r3]
  48 000c 0C2B     		cmp	r3, #12
  49 000e 00D1     		bne	.L2
  50              	.L3:
 117:Generated_Source\PSoC4/Cm0Start.c ****         {
 118:Generated_Source\PSoC4/Cm0Start.c ****             #ifdef CY_BOOT_INT_DEFAULT_HANDLER_ENOMEM_EXCEPTION_CALLBACK
 119:Generated_Source\PSoC4/Cm0Start.c ****                 CyBoot_IntDefaultHandler_Enomem_Exception_Callback();
 120:Generated_Source\PSoC4/Cm0Start.c ****             #endif /* CY_BOOT_INT_DEFAULT_HANDLER_ENOMEM_EXCEPTION_CALLBACK */
 121:Generated_Source\PSoC4/Cm0Start.c ****             
ARM GAS  C:\Users\JOSEAN~1\AppData\Local\Temp\cc9RDg7X.s 			page 4


 122:Generated_Source\PSoC4/Cm0Start.c ****             while(1)
 123:Generated_Source\PSoC4/Cm0Start.c ****             {
 124:Generated_Source\PSoC4/Cm0Start.c ****                 /* Out Of Heap Space
 125:Generated_Source\PSoC4/Cm0Start.c ****                  * This can be increased in the System tab of the Design Wide Resources.
 126:Generated_Source\PSoC4/Cm0Start.c ****                  */
 127:Generated_Source\PSoC4/Cm0Start.c ****             }
  51              		.loc 1 127 0 discriminator 1
  52 0010 FEE7     		b	.L3
  53              	.L2:
 128:Generated_Source\PSoC4/Cm0Start.c ****         }
 129:Generated_Source\PSoC4/Cm0Start.c ****         else
 130:Generated_Source\PSoC4/Cm0Start.c ****     #endif
 131:Generated_Source\PSoC4/Cm0Start.c ****         {
 132:Generated_Source\PSoC4/Cm0Start.c ****             #ifdef CY_BOOT_INT_DEFAULT_HANDLER_EXCEPTION_ENTRY_CALLBACK
 133:Generated_Source\PSoC4/Cm0Start.c ****                 CyBoot_IntDefaultHandler_Exception_EntryCallback();
 134:Generated_Source\PSoC4/Cm0Start.c ****             #endif /* CY_BOOT_INT_DEFAULT_HANDLER_EXCEPTION_ENTRY_CALLBACK */
 135:Generated_Source\PSoC4/Cm0Start.c **** 
 136:Generated_Source\PSoC4/Cm0Start.c ****             while(1)
 137:Generated_Source\PSoC4/Cm0Start.c ****             {
 138:Generated_Source\PSoC4/Cm0Start.c **** 
 139:Generated_Source\PSoC4/Cm0Start.c ****             }
  54              		.loc 1 139 0 discriminator 2
  55 0012 FEE7     		b	.L2
  56              		.cfi_endproc
  57              	.LFE0:
  58              		.size	IntDefaultHandler, .-IntDefaultHandler
  59              		.section	.text._exit,"ax",%progbits
  60              		.align	2
  61              		.weak	_exit
  62              		.code	16
  63              		.thumb_func
  64              		.type	_exit, %function
  65              	_exit:
  66              	.LFB1:
 140:Generated_Source\PSoC4/Cm0Start.c ****         }
 141:Generated_Source\PSoC4/Cm0Start.c **** }
 142:Generated_Source\PSoC4/Cm0Start.c **** 
 143:Generated_Source\PSoC4/Cm0Start.c **** #if defined(__ARMCC_VERSION)
 144:Generated_Source\PSoC4/Cm0Start.c **** 
 145:Generated_Source\PSoC4/Cm0Start.c **** /* Local function for device reset. */
 146:Generated_Source\PSoC4/Cm0Start.c **** extern void Reset(void);
 147:Generated_Source\PSoC4/Cm0Start.c **** 
 148:Generated_Source\PSoC4/Cm0Start.c **** /* Application entry point. */
 149:Generated_Source\PSoC4/Cm0Start.c **** extern void $Super$$main(void);
 150:Generated_Source\PSoC4/Cm0Start.c **** 
 151:Generated_Source\PSoC4/Cm0Start.c **** /* Linker-generated Stack Base addresses, Two Region and One Region */
 152:Generated_Source\PSoC4/Cm0Start.c **** extern unsigned long Image$$ARM_LIB_STACK$$ZI$$Limit;
 153:Generated_Source\PSoC4/Cm0Start.c **** 
 154:Generated_Source\PSoC4/Cm0Start.c **** /* RealView C Library initialization. */
 155:Generated_Source\PSoC4/Cm0Start.c **** extern int __main(void);
 156:Generated_Source\PSoC4/Cm0Start.c **** 
 157:Generated_Source\PSoC4/Cm0Start.c **** 
 158:Generated_Source\PSoC4/Cm0Start.c **** /*******************************************************************************
 159:Generated_Source\PSoC4/Cm0Start.c **** * Function Name: Reset
 160:Generated_Source\PSoC4/Cm0Start.c **** ****************************************************************************//**
 161:Generated_Source\PSoC4/Cm0Start.c **** *
 162:Generated_Source\PSoC4/Cm0Start.c **** * This function handles the reset interrupt for the MDK toolchains.
ARM GAS  C:\Users\JOSEAN~1\AppData\Local\Temp\cc9RDg7X.s 			page 5


 163:Generated_Source\PSoC4/Cm0Start.c **** * This is the first bit of code that is executed at startup.
 164:Generated_Source\PSoC4/Cm0Start.c **** *
 165:Generated_Source\PSoC4/Cm0Start.c **** *******************************************************************************/
 166:Generated_Source\PSoC4/Cm0Start.c **** void Reset(void)
 167:Generated_Source\PSoC4/Cm0Start.c **** {
 168:Generated_Source\PSoC4/Cm0Start.c ****     #if (CYDEV_PROJ_TYPE == CYDEV_PROJ_TYPE_LOADABLE || CYDEV_PROJ_TYPE == CYDEV_PROJ_TYPE_LOADABLE
 169:Generated_Source\PSoC4/Cm0Start.c ****         /* The bootloadable application image is started at Reset() handler
 170:Generated_Source\PSoC4/Cm0Start.c ****         * as a result of a branch instruction execution from the bootloader.
 171:Generated_Source\PSoC4/Cm0Start.c ****         * So, the stack pointer needs to be reset to be sure that
 172:Generated_Source\PSoC4/Cm0Start.c ****         * there is no garbage in the stack.
 173:Generated_Source\PSoC4/Cm0Start.c ****         */
 174:Generated_Source\PSoC4/Cm0Start.c ****         register uint32_t msp __asm("msp");
 175:Generated_Source\PSoC4/Cm0Start.c ****         msp = (uint32_t)&Image$$ARM_LIB_STACK$$ZI$$Limit;
 176:Generated_Source\PSoC4/Cm0Start.c ****     #endif /*(CYDEV_PROJ_TYPE == CYDEV_PROJ_TYPE_LOADABLE || CYDEV_PROJ_TYPE == CYDEV_PROJ_TYPE_LOA
 177:Generated_Source\PSoC4/Cm0Start.c **** 
 178:Generated_Source\PSoC4/Cm0Start.c ****     #if(CY_IP_SRSSLT)
 179:Generated_Source\PSoC4/Cm0Start.c ****         CySysWdtDisable();
 180:Generated_Source\PSoC4/Cm0Start.c ****     #endif  /* (CY_IP_SRSSLT) */
 181:Generated_Source\PSoC4/Cm0Start.c **** 
 182:Generated_Source\PSoC4/Cm0Start.c ****     #if ((CYDEV_BOOTLOADER_ENABLE) && (CYDEV_PROJ_TYPE != CYDEV_PROJ_TYPE_LOADABLEANDBOOTLOADER))
 183:Generated_Source\PSoC4/Cm0Start.c ****         CyBtldr_CheckLaunch();
 184:Generated_Source\PSoC4/Cm0Start.c ****     #endif /* ((CYDEV_BOOTLOADER_ENABLE) && (CYDEV_PROJ_TYPE != CYDEV_PROJ_TYPE_LOADABLEANDBOOTLOAD
 185:Generated_Source\PSoC4/Cm0Start.c **** 
 186:Generated_Source\PSoC4/Cm0Start.c ****     __main();
 187:Generated_Source\PSoC4/Cm0Start.c **** }
 188:Generated_Source\PSoC4/Cm0Start.c **** 
 189:Generated_Source\PSoC4/Cm0Start.c **** /*******************************************************************************
 190:Generated_Source\PSoC4/Cm0Start.c **** * Function Name: $Sub$$main
 191:Generated_Source\PSoC4/Cm0Start.c **** ****************************************************************************//**
 192:Generated_Source\PSoC4/Cm0Start.c **** *
 193:Generated_Source\PSoC4/Cm0Start.c **** * This function is called immediately before the users main
 194:Generated_Source\PSoC4/Cm0Start.c **** *
 195:Generated_Source\PSoC4/Cm0Start.c **** *******************************************************************************/
 196:Generated_Source\PSoC4/Cm0Start.c **** __attribute__ ((noreturn, __noinline__))
 197:Generated_Source\PSoC4/Cm0Start.c **** void $Sub$$main(void)
 198:Generated_Source\PSoC4/Cm0Start.c **** {
 199:Generated_Source\PSoC4/Cm0Start.c ****     initialize_psoc();
 200:Generated_Source\PSoC4/Cm0Start.c **** 
 201:Generated_Source\PSoC4/Cm0Start.c ****     /* Call original main */
 202:Generated_Source\PSoC4/Cm0Start.c ****     $Super$$main();
 203:Generated_Source\PSoC4/Cm0Start.c **** 
 204:Generated_Source\PSoC4/Cm0Start.c ****     while (1)
 205:Generated_Source\PSoC4/Cm0Start.c ****     {
 206:Generated_Source\PSoC4/Cm0Start.c ****         /* If main returns it is undefined what we should do. */
 207:Generated_Source\PSoC4/Cm0Start.c ****     }
 208:Generated_Source\PSoC4/Cm0Start.c **** }
 209:Generated_Source\PSoC4/Cm0Start.c **** 
 210:Generated_Source\PSoC4/Cm0Start.c **** #elif defined(__GNUC__)
 211:Generated_Source\PSoC4/Cm0Start.c **** 
 212:Generated_Source\PSoC4/Cm0Start.c **** /* Stack Base address */
 213:Generated_Source\PSoC4/Cm0Start.c **** extern void __cy_stack(void);
 214:Generated_Source\PSoC4/Cm0Start.c **** 
 215:Generated_Source\PSoC4/Cm0Start.c **** /* Application entry point. */
 216:Generated_Source\PSoC4/Cm0Start.c **** extern int main(void);
 217:Generated_Source\PSoC4/Cm0Start.c **** 
 218:Generated_Source\PSoC4/Cm0Start.c **** /* The static objects constructors initializer */
 219:Generated_Source\PSoC4/Cm0Start.c **** extern void __libc_init_array(void);
ARM GAS  C:\Users\JOSEAN~1\AppData\Local\Temp\cc9RDg7X.s 			page 6


 220:Generated_Source\PSoC4/Cm0Start.c **** 
 221:Generated_Source\PSoC4/Cm0Start.c **** typedef unsigned char __cy_byte_align8 __attribute ((aligned (8)));
 222:Generated_Source\PSoC4/Cm0Start.c **** 
 223:Generated_Source\PSoC4/Cm0Start.c **** struct __cy_region
 224:Generated_Source\PSoC4/Cm0Start.c **** {
 225:Generated_Source\PSoC4/Cm0Start.c ****     __cy_byte_align8 *init; /* Initial contents of this region.  */
 226:Generated_Source\PSoC4/Cm0Start.c ****     __cy_byte_align8 *data; /* Start address of region.  */
 227:Generated_Source\PSoC4/Cm0Start.c ****     size_t init_size;       /* Size of initial data.  */
 228:Generated_Source\PSoC4/Cm0Start.c ****     size_t zero_size;       /* Additional size to be zeroed.  */
 229:Generated_Source\PSoC4/Cm0Start.c **** };
 230:Generated_Source\PSoC4/Cm0Start.c **** 
 231:Generated_Source\PSoC4/Cm0Start.c **** extern const struct __cy_region __cy_regions[];
 232:Generated_Source\PSoC4/Cm0Start.c **** extern const char __cy_region_num __attribute__((weak));
 233:Generated_Source\PSoC4/Cm0Start.c **** #define __cy_region_num ((size_t)&__cy_region_num)
 234:Generated_Source\PSoC4/Cm0Start.c **** 
 235:Generated_Source\PSoC4/Cm0Start.c **** 
 236:Generated_Source\PSoC4/Cm0Start.c **** /*******************************************************************************
 237:Generated_Source\PSoC4/Cm0Start.c **** * System Calls of the Red Hat newlib C Library
 238:Generated_Source\PSoC4/Cm0Start.c **** *******************************************************************************/
 239:Generated_Source\PSoC4/Cm0Start.c **** 
 240:Generated_Source\PSoC4/Cm0Start.c **** 
 241:Generated_Source\PSoC4/Cm0Start.c **** /*******************************************************************************
 242:Generated_Source\PSoC4/Cm0Start.c **** * Function Name: _exit
 243:Generated_Source\PSoC4/Cm0Start.c **** ****************************************************************************//**
 244:Generated_Source\PSoC4/Cm0Start.c **** *
 245:Generated_Source\PSoC4/Cm0Start.c **** * Exit a program without cleaning up files. If your system doesn't provide
 246:Generated_Source\PSoC4/Cm0Start.c **** * this, it is best to avoid linking with subroutines that require it (exit,
 247:Generated_Source\PSoC4/Cm0Start.c **** * system).
 248:Generated_Source\PSoC4/Cm0Start.c **** *
 249:Generated_Source\PSoC4/Cm0Start.c **** * \param status: Status caused program exit.
 250:Generated_Source\PSoC4/Cm0Start.c **** *
 251:Generated_Source\PSoC4/Cm0Start.c **** *******************************************************************************/
 252:Generated_Source\PSoC4/Cm0Start.c **** __attribute__((weak))
 253:Generated_Source\PSoC4/Cm0Start.c **** void _exit(int status)
 254:Generated_Source\PSoC4/Cm0Start.c **** {
  67              		.loc 1 254 0
  68              		.cfi_startproc
  69              		@ args = 0, pretend = 0, frame = 8
  70              		@ frame_needed = 1, uses_anonymous_args = 0
  71 0000 80B5     		push	{r7, lr}
  72              		.cfi_def_cfa_offset 8
  73              		.cfi_offset 7, -8
  74              		.cfi_offset 14, -4
  75 0002 82B0     		sub	sp, sp, #8
  76              		.cfi_def_cfa_offset 16
  77 0004 00AF     		add	r7, sp, #0
  78              		.cfi_def_cfa_register 7
  79 0006 7860     		str	r0, [r7, #4]
 255:Generated_Source\PSoC4/Cm0Start.c ****     CyHalt((uint8) status);
  80              		.loc 1 255 0
  81 0008 7B68     		ldr	r3, [r7, #4]
  82 000a DBB2     		uxtb	r3, r3
  83 000c 1800     		movs	r0, r3
  84 000e FFF7FEFF 		bl	CyHalt
  85              	.L5:
 256:Generated_Source\PSoC4/Cm0Start.c **** 
 257:Generated_Source\PSoC4/Cm0Start.c ****     while(1)
ARM GAS  C:\Users\JOSEAN~1\AppData\Local\Temp\cc9RDg7X.s 			page 7


 258:Generated_Source\PSoC4/Cm0Start.c ****     {
 259:Generated_Source\PSoC4/Cm0Start.c **** 
 260:Generated_Source\PSoC4/Cm0Start.c ****     }
  86              		.loc 1 260 0 discriminator 1
  87 0012 FEE7     		b	.L5
  88              		.cfi_endproc
  89              	.LFE1:
  90              		.size	_exit, .-_exit
  91              		.section	.text._sbrk,"ax",%progbits
  92              		.align	2
  93              		.weak	_sbrk
  94              		.code	16
  95              		.thumb_func
  96              		.type	_sbrk, %function
  97              	_sbrk:
  98              	.LFB2:
 261:Generated_Source\PSoC4/Cm0Start.c **** }
 262:Generated_Source\PSoC4/Cm0Start.c **** 
 263:Generated_Source\PSoC4/Cm0Start.c **** 
 264:Generated_Source\PSoC4/Cm0Start.c **** /*******************************************************************************
 265:Generated_Source\PSoC4/Cm0Start.c **** * Function Name: _sbrk
 266:Generated_Source\PSoC4/Cm0Start.c **** ****************************************************************************//**
 267:Generated_Source\PSoC4/Cm0Start.c **** *
 268:Generated_Source\PSoC4/Cm0Start.c **** * Increase program data space. As malloc and related functions depend on this,
 269:Generated_Source\PSoC4/Cm0Start.c **** * it is useful to have a working implementation. The following suffices for a
 270:Generated_Source\PSoC4/Cm0Start.c **** * standalone system; it exploits the symbol end automatically defined by the
 271:Generated_Source\PSoC4/Cm0Start.c **** * GNU linker.
 272:Generated_Source\PSoC4/Cm0Start.c **** *
 273:Generated_Source\PSoC4/Cm0Start.c **** * \param nbytes: The number of bytes requested (if the parameter value is positive)
 274:Generated_Source\PSoC4/Cm0Start.c **** * from the heap or returned back to the heap (if the parameter value is
 275:Generated_Source\PSoC4/Cm0Start.c **** * negative).
 276:Generated_Source\PSoC4/Cm0Start.c **** *
 277:Generated_Source\PSoC4/Cm0Start.c **** *******************************************************************************/
 278:Generated_Source\PSoC4/Cm0Start.c **** __attribute__((weak))
 279:Generated_Source\PSoC4/Cm0Start.c **** void * _sbrk (int nbytes)
 280:Generated_Source\PSoC4/Cm0Start.c **** {
  99              		.loc 1 280 0
 100              		.cfi_startproc
 101              		@ args = 0, pretend = 0, frame = 16
 102              		@ frame_needed = 1, uses_anonymous_args = 0
 103 0000 80B5     		push	{r7, lr}
 104              		.cfi_def_cfa_offset 8
 105              		.cfi_offset 7, -8
 106              		.cfi_offset 14, -4
 107 0002 84B0     		sub	sp, sp, #16
 108              		.cfi_def_cfa_offset 24
 109 0004 00AF     		add	r7, sp, #0
 110              		.cfi_def_cfa_register 7
 111 0006 7860     		str	r0, [r7, #4]
 281:Generated_Source\PSoC4/Cm0Start.c ****     extern int  end;            /* Symbol defined by linker map. Start of free memory (as symbol). 
 282:Generated_Source\PSoC4/Cm0Start.c ****     void *      returnValue;
 283:Generated_Source\PSoC4/Cm0Start.c **** 
 284:Generated_Source\PSoC4/Cm0Start.c ****     /* The statically held previous end of the heap, with its initialization. */
 285:Generated_Source\PSoC4/Cm0Start.c ****     static uint8 *heapPointer = (uint8 *) &end;                 /* Previous end */
 286:Generated_Source\PSoC4/Cm0Start.c **** 
 287:Generated_Source\PSoC4/Cm0Start.c ****     if (((heapPointer + nbytes) - (uint8 *) &end) <= CYDEV_HEAP_SIZE)
 112              		.loc 1 287 0
ARM GAS  C:\Users\JOSEAN~1\AppData\Local\Temp\cc9RDg7X.s 			page 8


 113 0008 104B     		ldr	r3, .L10
 114 000a 1A68     		ldr	r2, [r3]
 115 000c 7B68     		ldr	r3, [r7, #4]
 116 000e D318     		adds	r3, r2, r3
 117 0010 1A00     		movs	r2, r3
 118 0012 0F4B     		ldr	r3, .L10+4
 119 0014 D21A     		subs	r2, r2, r3
 120 0016 8023     		movs	r3, #128
 121 0018 5B00     		lsls	r3, r3, #1
 122 001a 9A42     		cmp	r2, r3
 123 001c 09DC     		bgt	.L7
 288:Generated_Source\PSoC4/Cm0Start.c ****     {
 289:Generated_Source\PSoC4/Cm0Start.c ****         returnValue  = (void *) heapPointer;
 124              		.loc 1 289 0
 125 001e 0B4B     		ldr	r3, .L10
 126 0020 1B68     		ldr	r3, [r3]
 127 0022 FB60     		str	r3, [r7, #12]
 290:Generated_Source\PSoC4/Cm0Start.c ****         heapPointer += nbytes;
 128              		.loc 1 290 0
 129 0024 094B     		ldr	r3, .L10
 130 0026 1A68     		ldr	r2, [r3]
 131 0028 7B68     		ldr	r3, [r7, #4]
 132 002a D218     		adds	r2, r2, r3
 133 002c 074B     		ldr	r3, .L10
 134 002e 1A60     		str	r2, [r3]
 135 0030 07E0     		b	.L8
 136              	.L7:
 291:Generated_Source\PSoC4/Cm0Start.c ****     }
 292:Generated_Source\PSoC4/Cm0Start.c ****     else
 293:Generated_Source\PSoC4/Cm0Start.c ****     {
 294:Generated_Source\PSoC4/Cm0Start.c ****         errno = ENOMEM;
 137              		.loc 1 294 0
 138 0032 FFF7FEFF 		bl	__errno
 139 0036 0300     		movs	r3, r0
 140 0038 0C22     		movs	r2, #12
 141 003a 1A60     		str	r2, [r3]
 295:Generated_Source\PSoC4/Cm0Start.c ****         returnValue = (void *) -1;
 142              		.loc 1 295 0
 143 003c 0123     		movs	r3, #1
 144 003e 5B42     		rsbs	r3, r3, #0
 145 0040 FB60     		str	r3, [r7, #12]
 146              	.L8:
 296:Generated_Source\PSoC4/Cm0Start.c ****     }
 297:Generated_Source\PSoC4/Cm0Start.c **** 
 298:Generated_Source\PSoC4/Cm0Start.c ****     return (returnValue);
 147              		.loc 1 298 0
 148 0042 FB68     		ldr	r3, [r7, #12]
 299:Generated_Source\PSoC4/Cm0Start.c **** }
 149              		.loc 1 299 0
 150 0044 1800     		movs	r0, r3
 151 0046 BD46     		mov	sp, r7
 152 0048 04B0     		add	sp, sp, #16
 153              		@ sp needed
 154 004a 80BD     		pop	{r7, pc}
 155              	.L11:
 156              		.align	2
 157              	.L10:
ARM GAS  C:\Users\JOSEAN~1\AppData\Local\Temp\cc9RDg7X.s 			page 9


 158 004c 00000000 		.word	heapPointer.4844
 159 0050 00000000 		.word	end
 160              		.cfi_endproc
 161              	.LFE2:
 162              		.size	_sbrk, .-_sbrk
 163              		.section	.text.Start_c,"ax",%progbits
 164              		.align	2
 165              		.global	Start_c
 166              		.code	16
 167              		.thumb_func
 168              		.type	Start_c, %function
 169              	Start_c:
 170              	.LFB3:
 300:Generated_Source\PSoC4/Cm0Start.c **** 
 301:Generated_Source\PSoC4/Cm0Start.c **** 
 302:Generated_Source\PSoC4/Cm0Start.c **** /*******************************************************************************
 303:Generated_Source\PSoC4/Cm0Start.c **** * Function Name: Start_c
 304:Generated_Source\PSoC4/Cm0Start.c **** ****************************************************************************//**
 305:Generated_Source\PSoC4/Cm0Start.c **** *
 306:Generated_Source\PSoC4/Cm0Start.c **** * This function handles initializing the .data and .bss sections in
 307:Generated_Source\PSoC4/Cm0Start.c **** * preparation for running the standard c code.  Once initialization is complete
 308:Generated_Source\PSoC4/Cm0Start.c **** * it will call main().  This function will never return.
 309:Generated_Source\PSoC4/Cm0Start.c **** *
 310:Generated_Source\PSoC4/Cm0Start.c **** *******************************************************************************/
 311:Generated_Source\PSoC4/Cm0Start.c **** void Start_c(void)  __attribute__ ((noreturn, noinline));
 312:Generated_Source\PSoC4/Cm0Start.c **** void Start_c(void)
 313:Generated_Source\PSoC4/Cm0Start.c **** {
 171              		.loc 1 313 0
 172              		.cfi_startproc
 173              		@ args = 0, pretend = 0, frame = 24
 174              		@ frame_needed = 1, uses_anonymous_args = 0
 175 0000 80B5     		push	{r7, lr}
 176              		.cfi_def_cfa_offset 8
 177              		.cfi_offset 7, -8
 178              		.cfi_offset 14, -4
 179 0002 86B0     		sub	sp, sp, #24
 180              		.cfi_def_cfa_offset 32
 181 0004 00AF     		add	r7, sp, #0
 182              		.cfi_def_cfa_register 7
 314:Generated_Source\PSoC4/Cm0Start.c ****     #ifdef CY_BOOT_START_C_CALLBACK
 315:Generated_Source\PSoC4/Cm0Start.c ****         CyBoot_Start_c_Callback();
 316:Generated_Source\PSoC4/Cm0Start.c ****     #else
 317:Generated_Source\PSoC4/Cm0Start.c ****         unsigned regions = __cy_region_num;
 183              		.loc 1 317 0
 184 0006 224B     		ldr	r3, .L20
 185 0008 7B61     		str	r3, [r7, #20]
 318:Generated_Source\PSoC4/Cm0Start.c ****         const struct __cy_region *rptr = __cy_regions;
 186              		.loc 1 318 0
 187 000a 224B     		ldr	r3, .L20+4
 188 000c 3B61     		str	r3, [r7, #16]
 319:Generated_Source\PSoC4/Cm0Start.c **** 
 320:Generated_Source\PSoC4/Cm0Start.c ****         /* Initialize memory */
 321:Generated_Source\PSoC4/Cm0Start.c ****         for (regions = __cy_region_num; regions != 0u; regions--)
 189              		.loc 1 321 0
 190 000e 204B     		ldr	r3, .L20
 191 0010 7B61     		str	r3, [r7, #20]
 192 0012 35E0     		b	.L13
ARM GAS  C:\Users\JOSEAN~1\AppData\Local\Temp\cc9RDg7X.s 			page 10


 193              	.L18:
 194              	.LBB2:
 322:Generated_Source\PSoC4/Cm0Start.c ****         {
 323:Generated_Source\PSoC4/Cm0Start.c ****             uint32 *src = (uint32 *)rptr->init;
 195              		.loc 1 323 0
 196 0014 3B69     		ldr	r3, [r7, #16]
 197 0016 1B68     		ldr	r3, [r3]
 198 0018 FB60     		str	r3, [r7, #12]
 324:Generated_Source\PSoC4/Cm0Start.c ****             uint32 *dst = (uint32 *)rptr->data;
 199              		.loc 1 324 0
 200 001a 3B69     		ldr	r3, [r7, #16]
 201 001c 5B68     		ldr	r3, [r3, #4]
 202 001e BB60     		str	r3, [r7, #8]
 325:Generated_Source\PSoC4/Cm0Start.c ****             unsigned limit = rptr->init_size;
 203              		.loc 1 325 0
 204 0020 3B69     		ldr	r3, [r7, #16]
 205 0022 9B68     		ldr	r3, [r3, #8]
 206 0024 3B60     		str	r3, [r7]
 326:Generated_Source\PSoC4/Cm0Start.c ****             unsigned count;
 327:Generated_Source\PSoC4/Cm0Start.c **** 
 328:Generated_Source\PSoC4/Cm0Start.c ****             for (count = 0u; count != limit; count += sizeof (uint32))
 207              		.loc 1 328 0
 208 0026 0023     		movs	r3, #0
 209 0028 7B60     		str	r3, [r7, #4]
 210 002a 0CE0     		b	.L14
 211              	.L15:
 329:Generated_Source\PSoC4/Cm0Start.c ****             {
 330:Generated_Source\PSoC4/Cm0Start.c ****                 *dst = *src;
 212              		.loc 1 330 0 discriminator 3
 213 002c FB68     		ldr	r3, [r7, #12]
 214 002e 1A68     		ldr	r2, [r3]
 215 0030 BB68     		ldr	r3, [r7, #8]
 216 0032 1A60     		str	r2, [r3]
 331:Generated_Source\PSoC4/Cm0Start.c ****                 dst++;
 217              		.loc 1 331 0 discriminator 3
 218 0034 BB68     		ldr	r3, [r7, #8]
 219 0036 0433     		adds	r3, r3, #4
 220 0038 BB60     		str	r3, [r7, #8]
 332:Generated_Source\PSoC4/Cm0Start.c ****                 src++;
 221              		.loc 1 332 0 discriminator 3
 222 003a FB68     		ldr	r3, [r7, #12]
 223 003c 0433     		adds	r3, r3, #4
 224 003e FB60     		str	r3, [r7, #12]
 328:Generated_Source\PSoC4/Cm0Start.c ****             {
 225              		.loc 1 328 0 discriminator 3
 226 0040 7B68     		ldr	r3, [r7, #4]
 227 0042 0433     		adds	r3, r3, #4
 228 0044 7B60     		str	r3, [r7, #4]
 229              	.L14:
 328:Generated_Source\PSoC4/Cm0Start.c ****             {
 230              		.loc 1 328 0 is_stmt 0 discriminator 1
 231 0046 7A68     		ldr	r2, [r7, #4]
 232 0048 3B68     		ldr	r3, [r7]
 233 004a 9A42     		cmp	r2, r3
 234 004c EED1     		bne	.L15
 333:Generated_Source\PSoC4/Cm0Start.c ****             }
 334:Generated_Source\PSoC4/Cm0Start.c ****             limit = rptr->zero_size;
ARM GAS  C:\Users\JOSEAN~1\AppData\Local\Temp\cc9RDg7X.s 			page 11


 235              		.loc 1 334 0 is_stmt 1
 236 004e 3B69     		ldr	r3, [r7, #16]
 237 0050 DB68     		ldr	r3, [r3, #12]
 238 0052 3B60     		str	r3, [r7]
 335:Generated_Source\PSoC4/Cm0Start.c ****             for (count = 0u; count != limit; count += sizeof (uint32))
 239              		.loc 1 335 0
 240 0054 0023     		movs	r3, #0
 241 0056 7B60     		str	r3, [r7, #4]
 242 0058 08E0     		b	.L16
 243              	.L17:
 336:Generated_Source\PSoC4/Cm0Start.c ****             {
 337:Generated_Source\PSoC4/Cm0Start.c ****                 *dst = 0u;
 244              		.loc 1 337 0 discriminator 3
 245 005a BB68     		ldr	r3, [r7, #8]
 246 005c 0022     		movs	r2, #0
 247 005e 1A60     		str	r2, [r3]
 338:Generated_Source\PSoC4/Cm0Start.c ****                 dst++;
 248              		.loc 1 338 0 discriminator 3
 249 0060 BB68     		ldr	r3, [r7, #8]
 250 0062 0433     		adds	r3, r3, #4
 251 0064 BB60     		str	r3, [r7, #8]
 335:Generated_Source\PSoC4/Cm0Start.c ****             for (count = 0u; count != limit; count += sizeof (uint32))
 252              		.loc 1 335 0 discriminator 3
 253 0066 7B68     		ldr	r3, [r7, #4]
 254 0068 0433     		adds	r3, r3, #4
 255 006a 7B60     		str	r3, [r7, #4]
 256              	.L16:
 335:Generated_Source\PSoC4/Cm0Start.c ****             for (count = 0u; count != limit; count += sizeof (uint32))
 257              		.loc 1 335 0 is_stmt 0 discriminator 1
 258 006c 7A68     		ldr	r2, [r7, #4]
 259 006e 3B68     		ldr	r3, [r7]
 260 0070 9A42     		cmp	r2, r3
 261 0072 F2D1     		bne	.L17
 339:Generated_Source\PSoC4/Cm0Start.c ****             }
 340:Generated_Source\PSoC4/Cm0Start.c **** 
 341:Generated_Source\PSoC4/Cm0Start.c ****             rptr++;
 262              		.loc 1 341 0 is_stmt 1 discriminator 2
 263 0074 3B69     		ldr	r3, [r7, #16]
 264 0076 1033     		adds	r3, r3, #16
 265 0078 3B61     		str	r3, [r7, #16]
 266              	.LBE2:
 321:Generated_Source\PSoC4/Cm0Start.c ****         {
 267              		.loc 1 321 0 discriminator 2
 268 007a 7B69     		ldr	r3, [r7, #20]
 269 007c 013B     		subs	r3, r3, #1
 270 007e 7B61     		str	r3, [r7, #20]
 271              	.L13:
 321:Generated_Source\PSoC4/Cm0Start.c ****         {
 272              		.loc 1 321 0 is_stmt 0 discriminator 1
 273 0080 7B69     		ldr	r3, [r7, #20]
 274 0082 002B     		cmp	r3, #0
 275 0084 C6D1     		bne	.L18
 342:Generated_Source\PSoC4/Cm0Start.c ****         }
 343:Generated_Source\PSoC4/Cm0Start.c **** 
 344:Generated_Source\PSoC4/Cm0Start.c ****         /* Invoke static objects constructors */
 345:Generated_Source\PSoC4/Cm0Start.c ****         __libc_init_array();
 276              		.loc 1 345 0 is_stmt 1
ARM GAS  C:\Users\JOSEAN~1\AppData\Local\Temp\cc9RDg7X.s 			page 12


 277 0086 FFF7FEFF 		bl	__libc_init_array
 346:Generated_Source\PSoC4/Cm0Start.c ****         (void) main();
 278              		.loc 1 346 0
 279 008a FFF7FEFF 		bl	main
 280              	.L19:
 347:Generated_Source\PSoC4/Cm0Start.c **** 
 348:Generated_Source\PSoC4/Cm0Start.c ****         while (1)
 349:Generated_Source\PSoC4/Cm0Start.c ****         {
 350:Generated_Source\PSoC4/Cm0Start.c ****             /* If main returns, make sure we don't return. */
 351:Generated_Source\PSoC4/Cm0Start.c ****         }
 281              		.loc 1 351 0 discriminator 1
 282 008e FEE7     		b	.L19
 283              	.L21:
 284              		.align	2
 285              	.L20:
 286 0090 00000000 		.word	__cy_region_num
 287 0094 00000000 		.word	__cy_regions
 288              		.cfi_endproc
 289              	.LFE3:
 290              		.size	Start_c, .-Start_c
 291              		.section	.text.Reset,"ax",%progbits
 292              		.align	2
 293              		.global	Reset
 294              		.code	16
 295              		.thumb_func
 296              		.type	Reset, %function
 297              	Reset:
 298              	.LFB4:
 352:Generated_Source\PSoC4/Cm0Start.c **** 
 353:Generated_Source\PSoC4/Cm0Start.c ****     #endif /* CY_BOOT_START_C_CALLBACK */
 354:Generated_Source\PSoC4/Cm0Start.c **** }
 355:Generated_Source\PSoC4/Cm0Start.c **** 
 356:Generated_Source\PSoC4/Cm0Start.c **** 
 357:Generated_Source\PSoC4/Cm0Start.c **** /*******************************************************************************
 358:Generated_Source\PSoC4/Cm0Start.c **** * Function Name: Reset
 359:Generated_Source\PSoC4/Cm0Start.c **** ****************************************************************************//**
 360:Generated_Source\PSoC4/Cm0Start.c **** *
 361:Generated_Source\PSoC4/Cm0Start.c **** * This function handles the reset interrupt for the GCC toolchain.  This is
 362:Generated_Source\PSoC4/Cm0Start.c **** * the first bit of code that is executed at startup.
 363:Generated_Source\PSoC4/Cm0Start.c **** *
 364:Generated_Source\PSoC4/Cm0Start.c **** *******************************************************************************/
 365:Generated_Source\PSoC4/Cm0Start.c **** void Reset(void)
 366:Generated_Source\PSoC4/Cm0Start.c **** {
 299              		.loc 1 366 0
 300              		.cfi_startproc
 301              		@ args = 0, pretend = 0, frame = 0
 302              		@ frame_needed = 1, uses_anonymous_args = 0
 303 0000 80B5     		push	{r7, lr}
 304              		.cfi_def_cfa_offset 8
 305              		.cfi_offset 7, -8
 306              		.cfi_offset 14, -4
 307 0002 00AF     		add	r7, sp, #0
 308              		.cfi_def_cfa_register 7
 367:Generated_Source\PSoC4/Cm0Start.c ****     #if (CYDEV_PROJ_TYPE == CYDEV_PROJ_TYPE_LOADABLE || CYDEV_PROJ_TYPE == CYDEV_PROJ_TYPE_LOADABLE
 368:Generated_Source\PSoC4/Cm0Start.c **** 
 369:Generated_Source\PSoC4/Cm0Start.c ****         /* The bootloadable application image is started at Reset() handler
 370:Generated_Source\PSoC4/Cm0Start.c ****         * as a result of a branch instruction execution from the bootloader.
ARM GAS  C:\Users\JOSEAN~1\AppData\Local\Temp\cc9RDg7X.s 			page 13


 371:Generated_Source\PSoC4/Cm0Start.c ****         * So, the stack pointer needs to be reset to be sure that
 372:Generated_Source\PSoC4/Cm0Start.c ****         * there is no garbage in the stack.
 373:Generated_Source\PSoC4/Cm0Start.c ****         */
 374:Generated_Source\PSoC4/Cm0Start.c ****         __asm volatile ("MSR msp, %0\n" : : "r" ((uint32)&__cy_stack) : "sp");
 375:Generated_Source\PSoC4/Cm0Start.c ****     #endif /* CYDEV_PROJ_TYPE_LOADABLE */
 376:Generated_Source\PSoC4/Cm0Start.c **** 
 377:Generated_Source\PSoC4/Cm0Start.c ****     #if(CY_IP_SRSSLT)
 378:Generated_Source\PSoC4/Cm0Start.c ****         CySysWdtDisable();
 379:Generated_Source\PSoC4/Cm0Start.c ****     #endif  /* (CY_IP_SRSSLT) */
 380:Generated_Source\PSoC4/Cm0Start.c **** 
 381:Generated_Source\PSoC4/Cm0Start.c ****     #if ((CYDEV_BOOTLOADER_ENABLE) && (CYDEV_PROJ_TYPE != CYDEV_PROJ_TYPE_LOADABLEANDBOOTLOADER))
 382:Generated_Source\PSoC4/Cm0Start.c ****         CyBtldr_CheckLaunch();
 383:Generated_Source\PSoC4/Cm0Start.c ****     #endif /* ((CYDEV_BOOTLOADER_ENABLE) && (CYDEV_PROJ_TYPE != CYDEV_PROJ_TYPE_LOADABLEANDBOOTLOAD
 384:Generated_Source\PSoC4/Cm0Start.c ****     Start_c();
 309              		.loc 1 384 0
 310 0004 FFF7FEFF 		bl	Start_c
 311              		.cfi_endproc
 312              	.LFE4:
 313              		.size	Reset, .-Reset
 314              		.global	CyRamVectors
 315              		.section	.ramvectors,"aw",%progbits
 316              		.align	2
 317              		.type	CyRamVectors, %object
 318              		.size	CyRamVectors, 192
 319              	CyRamVectors:
 320 0000 00000000 		.space	192
 320      00000000 
 320      00000000 
 320      00000000 
 320      00000000 
 321              		.global	RomVectors
 322              		.section	.romvectors,"a",%progbits
 323              		.align	2
 324              		.type	RomVectors, %object
 325              		.size	RomVectors, 16
 326              	RomVectors:
 327 0000 00000000 		.word	__cy_stack
 328 0004 00000000 		.word	Reset
 329 0008 00000000 		.word	IntDefaultHandler
 330 000c 00000000 		.word	IntDefaultHandler
 331              		.section	.text.initialize_psoc,"ax",%progbits
 332              		.align	2
 333              		.global	initialize_psoc
 334              		.code	16
 335              		.thumb_func
 336              		.type	initialize_psoc, %function
 337              	initialize_psoc:
 338              	.LFB5:
 385:Generated_Source\PSoC4/Cm0Start.c **** }
 386:Generated_Source\PSoC4/Cm0Start.c **** 
 387:Generated_Source\PSoC4/Cm0Start.c **** #elif defined (__ICCARM__)
 388:Generated_Source\PSoC4/Cm0Start.c **** 
 389:Generated_Source\PSoC4/Cm0Start.c **** 
 390:Generated_Source\PSoC4/Cm0Start.c **** /*******************************************************************************
 391:Generated_Source\PSoC4/Cm0Start.c **** * Function Name: __low_level_init
 392:Generated_Source\PSoC4/Cm0Start.c **** ****************************************************************************//**
 393:Generated_Source\PSoC4/Cm0Start.c **** *
ARM GAS  C:\Users\JOSEAN~1\AppData\Local\Temp\cc9RDg7X.s 			page 14


 394:Generated_Source\PSoC4/Cm0Start.c **** * This function performs early initializations for the IAR Embedded
 395:Generated_Source\PSoC4/Cm0Start.c **** * Workbench IDE. It is executed in the context of reset interrupt handler
 396:Generated_Source\PSoC4/Cm0Start.c **** * before the data sections are initialized.
 397:Generated_Source\PSoC4/Cm0Start.c **** *
 398:Generated_Source\PSoC4/Cm0Start.c **** * \return The value that determines whether or not data sections should be
 399:Generated_Source\PSoC4/Cm0Start.c **** * initialized by the system startup code:
 400:Generated_Source\PSoC4/Cm0Start.c **** *    0 - skip data sections initialization;
 401:Generated_Source\PSoC4/Cm0Start.c **** *    1 - initialize data sections;
 402:Generated_Source\PSoC4/Cm0Start.c **** *
 403:Generated_Source\PSoC4/Cm0Start.c **** *******************************************************************************/
 404:Generated_Source\PSoC4/Cm0Start.c **** #pragma inline = never
 405:Generated_Source\PSoC4/Cm0Start.c **** int __low_level_init(void)
 406:Generated_Source\PSoC4/Cm0Start.c **** {
 407:Generated_Source\PSoC4/Cm0Start.c ****     #if(CY_IP_SRSSLT)
 408:Generated_Source\PSoC4/Cm0Start.c ****         CySysWdtDisable();
 409:Generated_Source\PSoC4/Cm0Start.c ****     #endif  /* (CY_IP_SRSSLT) */
 410:Generated_Source\PSoC4/Cm0Start.c **** 
 411:Generated_Source\PSoC4/Cm0Start.c **** #if ((CYDEV_BOOTLOADER_ENABLE) && (CYDEV_PROJ_TYPE != CYDEV_PROJ_TYPE_LOADABLEANDBOOTLOADER))
 412:Generated_Source\PSoC4/Cm0Start.c ****     CyBtldr_CheckLaunch();
 413:Generated_Source\PSoC4/Cm0Start.c **** #endif /* ((CYDEV_BOOTLOADER_ENABLE) && (CYDEV_PROJ_TYPE != CYDEV_PROJ_TYPE_LOADABLEANDBOOTLOADER))
 414:Generated_Source\PSoC4/Cm0Start.c **** 
 415:Generated_Source\PSoC4/Cm0Start.c ****     /* Initialize data sections */
 416:Generated_Source\PSoC4/Cm0Start.c ****     __iar_data_init3();
 417:Generated_Source\PSoC4/Cm0Start.c **** 
 418:Generated_Source\PSoC4/Cm0Start.c ****     initialize_psoc();
 419:Generated_Source\PSoC4/Cm0Start.c **** 
 420:Generated_Source\PSoC4/Cm0Start.c ****     return 0;
 421:Generated_Source\PSoC4/Cm0Start.c **** }
 422:Generated_Source\PSoC4/Cm0Start.c **** 
 423:Generated_Source\PSoC4/Cm0Start.c **** #endif /* __GNUC__ */
 424:Generated_Source\PSoC4/Cm0Start.c **** 
 425:Generated_Source\PSoC4/Cm0Start.c **** 
 426:Generated_Source\PSoC4/Cm0Start.c **** /*******************************************************************************
 427:Generated_Source\PSoC4/Cm0Start.c **** * Ram Interrupt Vector table storage area. Must be placed at 0x20000000.
 428:Generated_Source\PSoC4/Cm0Start.c **** *******************************************************************************/
 429:Generated_Source\PSoC4/Cm0Start.c **** 
 430:Generated_Source\PSoC4/Cm0Start.c **** #if defined (__ICCARM__)
 431:Generated_Source\PSoC4/Cm0Start.c ****     #pragma location=".ramvectors"
 432:Generated_Source\PSoC4/Cm0Start.c **** #elif defined (__ARMCC_VERSION)
 433:Generated_Source\PSoC4/Cm0Start.c ****     #ifndef CY_SYS_RAM_VECTOR_SECTION
 434:Generated_Source\PSoC4/Cm0Start.c ****         #define CY_SYS_RAM_VECTOR_SECTION __attribute__((section(".ramvectors"), zero_init))
 435:Generated_Source\PSoC4/Cm0Start.c ****     #endif /* CY_SYS_RAM_VECTOR_SECTION */
 436:Generated_Source\PSoC4/Cm0Start.c ****     CY_SYS_RAM_VECTOR_SECTION    
 437:Generated_Source\PSoC4/Cm0Start.c **** #else
 438:Generated_Source\PSoC4/Cm0Start.c ****     #ifndef CY_SYS_RAM_VECTOR_SECTION
 439:Generated_Source\PSoC4/Cm0Start.c ****         #define CY_SYS_RAM_VECTOR_SECTION CY_SECTION(".ramvectors")
 440:Generated_Source\PSoC4/Cm0Start.c ****     #endif /* CY_SYS_RAM_VECTOR_SECTION */
 441:Generated_Source\PSoC4/Cm0Start.c ****     CY_SYS_RAM_VECTOR_SECTION
 442:Generated_Source\PSoC4/Cm0Start.c **** #endif  /* defined (__ICCARM__) */
 443:Generated_Source\PSoC4/Cm0Start.c **** cyisraddress CyRamVectors[CY_NUM_VECTORS];
 444:Generated_Source\PSoC4/Cm0Start.c **** 
 445:Generated_Source\PSoC4/Cm0Start.c **** 
 446:Generated_Source\PSoC4/Cm0Start.c **** /*******************************************************************************
 447:Generated_Source\PSoC4/Cm0Start.c **** * Rom Interrupt Vector table storage area. Must be 256-byte aligned.
 448:Generated_Source\PSoC4/Cm0Start.c **** *******************************************************************************/
 449:Generated_Source\PSoC4/Cm0Start.c **** 
 450:Generated_Source\PSoC4/Cm0Start.c **** #if defined(__ARMCC_VERSION)
ARM GAS  C:\Users\JOSEAN~1\AppData\Local\Temp\cc9RDg7X.s 			page 15


 451:Generated_Source\PSoC4/Cm0Start.c ****     /* Suppress diagnostic message 1296-D: extended constant initialiser used */
 452:Generated_Source\PSoC4/Cm0Start.c ****     #pragma diag_suppress 1296
 453:Generated_Source\PSoC4/Cm0Start.c **** #endif  /* defined(__ARMCC_VERSION) */
 454:Generated_Source\PSoC4/Cm0Start.c **** 
 455:Generated_Source\PSoC4/Cm0Start.c **** #if defined (__ICCARM__)
 456:Generated_Source\PSoC4/Cm0Start.c ****     #pragma location=".romvectors"
 457:Generated_Source\PSoC4/Cm0Start.c ****     const intvec_elem __vector_table[CY_NUM_ROM_VECTORS] =
 458:Generated_Source\PSoC4/Cm0Start.c **** #else
 459:Generated_Source\PSoC4/Cm0Start.c ****     #ifndef CY_SYS_ROM_VECTOR_SECTION
 460:Generated_Source\PSoC4/Cm0Start.c ****         #define CY_SYS_ROM_VECTOR_SECTION CY_SECTION(".romvectors")
 461:Generated_Source\PSoC4/Cm0Start.c ****     #endif /* CY_SYS_ROM_VECTOR_SECTION */
 462:Generated_Source\PSoC4/Cm0Start.c ****     CY_SYS_ROM_VECTOR_SECTION
 463:Generated_Source\PSoC4/Cm0Start.c ****     const cyisraddress RomVectors[CY_NUM_ROM_VECTORS] =
 464:Generated_Source\PSoC4/Cm0Start.c **** #endif  /* defined (__ICCARM__) */
 465:Generated_Source\PSoC4/Cm0Start.c **** {
 466:Generated_Source\PSoC4/Cm0Start.c ****     CY_SYS_INITIAL_STACK_POINTER,   /* The initial stack pointer  0 */
 467:Generated_Source\PSoC4/Cm0Start.c ****     #if defined (__ICCARM__) /* The reset handler          1 */
 468:Generated_Source\PSoC4/Cm0Start.c ****         __iar_program_start,
 469:Generated_Source\PSoC4/Cm0Start.c ****     #else
 470:Generated_Source\PSoC4/Cm0Start.c ****         (cyisraddress)&Reset,
 471:Generated_Source\PSoC4/Cm0Start.c ****     #endif  /* defined (__ICCARM__) */
 472:Generated_Source\PSoC4/Cm0Start.c ****     &IntDefaultHandler,      /* The NMI handler            2 */
 473:Generated_Source\PSoC4/Cm0Start.c ****     &IntDefaultHandler,      /* The hard fault handler     3 */
 474:Generated_Source\PSoC4/Cm0Start.c **** };
 475:Generated_Source\PSoC4/Cm0Start.c **** 
 476:Generated_Source\PSoC4/Cm0Start.c **** #if defined(__ARMCC_VERSION)
 477:Generated_Source\PSoC4/Cm0Start.c ****     #pragma diag_default 1296
 478:Generated_Source\PSoC4/Cm0Start.c **** #endif  /* defined(__ARMCC_VERSION) */
 479:Generated_Source\PSoC4/Cm0Start.c **** 
 480:Generated_Source\PSoC4/Cm0Start.c **** 
 481:Generated_Source\PSoC4/Cm0Start.c **** /*******************************************************************************
 482:Generated_Source\PSoC4/Cm0Start.c **** * Function Name: initialize_psoc
 483:Generated_Source\PSoC4/Cm0Start.c **** ****************************************************************************//**
 484:Generated_Source\PSoC4/Cm0Start.c **** *
 485:Generated_Source\PSoC4/Cm0Start.c **** * This function is used to initialize the PSoC chip before calling main.
 486:Generated_Source\PSoC4/Cm0Start.c **** *
 487:Generated_Source\PSoC4/Cm0Start.c **** *******************************************************************************/
 488:Generated_Source\PSoC4/Cm0Start.c **** #if(defined(__GNUC__) && !defined(__ARMCC_VERSION))
 489:Generated_Source\PSoC4/Cm0Start.c **** __attribute__ ((constructor(101)))
 490:Generated_Source\PSoC4/Cm0Start.c **** #endif  /* (defined(__GNUC__) && !defined(__ARMCC_VERSION)) */
 491:Generated_Source\PSoC4/Cm0Start.c **** void initialize_psoc(void)
 492:Generated_Source\PSoC4/Cm0Start.c **** {
 339              		.loc 1 492 0
 340              		.cfi_startproc
 341              		@ args = 0, pretend = 0, frame = 8
 342              		@ frame_needed = 1, uses_anonymous_args = 0
 343 0000 80B5     		push	{r7, lr}
 344              		.cfi_def_cfa_offset 8
 345              		.cfi_offset 7, -8
 346              		.cfi_offset 14, -4
 347 0002 82B0     		sub	sp, sp, #8
 348              		.cfi_def_cfa_offset 16
 349 0004 00AF     		add	r7, sp, #0
 350              		.cfi_def_cfa_register 7
 493:Generated_Source\PSoC4/Cm0Start.c ****     uint32 indexInit;
 494:Generated_Source\PSoC4/Cm0Start.c **** 
 495:Generated_Source\PSoC4/Cm0Start.c ****     #if(CY_IP_CPUSSV2)
ARM GAS  C:\Users\JOSEAN~1\AppData\Local\Temp\cc9RDg7X.s 			page 16


 496:Generated_Source\PSoC4/Cm0Start.c ****         #if (CY_IP_CPUSS_CM0)
 497:Generated_Source\PSoC4/Cm0Start.c ****             /***********************************************************************
 498:Generated_Source\PSoC4/Cm0Start.c ****             * Make sure that Vector Table is located at 0000_0000 in Flash, before
 499:Generated_Source\PSoC4/Cm0Start.c ****             * accessing RomVectors or calling functions that may be placed in
 500:Generated_Source\PSoC4/Cm0Start.c ****             * .psocinit (cyfitter_cfg and ClockSetup). Note The CY_CPUSS_CONFIG_REG
 501:Generated_Source\PSoC4/Cm0Start.c ****             * register is retention for the specified device family.
 502:Generated_Source\PSoC4/Cm0Start.c ****             ***********************************************************************/
 503:Generated_Source\PSoC4/Cm0Start.c ****             CY_CPUSS_CONFIG_REG &= (uint32) ~CY_CPUSS_CONFIG_VECT_IN_RAM;
 504:Generated_Source\PSoC4/Cm0Start.c ****         #endif /* (CY_IP_CPUSS_CM0) */
 505:Generated_Source\PSoC4/Cm0Start.c ****     #endif  /* (CY_IP_CPUSSV2) */
 506:Generated_Source\PSoC4/Cm0Start.c **** 
 507:Generated_Source\PSoC4/Cm0Start.c ****     /* Set Ram interrupt vectors to default functions. */
 508:Generated_Source\PSoC4/Cm0Start.c ****     for (indexInit = 0u; indexInit < CY_NUM_VECTORS; indexInit++)
 351              		.loc 1 508 0
 352 0006 0023     		movs	r3, #0
 353 0008 7B60     		str	r3, [r7, #4]
 354 000a 0FE0     		b	.L24
 355              	.L27:
 509:Generated_Source\PSoC4/Cm0Start.c ****     {
 510:Generated_Source\PSoC4/Cm0Start.c ****         CyRamVectors[indexInit] = (indexInit < CY_NUM_ROM_VECTORS) ?
 511:Generated_Source\PSoC4/Cm0Start.c ****             #if defined (__ICCARM__)
 512:Generated_Source\PSoC4/Cm0Start.c ****                 __vector_table[indexInit].__fun : &IntDefaultHandler;
 513:Generated_Source\PSoC4/Cm0Start.c ****             #else
 514:Generated_Source\PSoC4/Cm0Start.c ****                 RomVectors[indexInit] : &IntDefaultHandler;
 356              		.loc 1 514 0
 357 000c 7B68     		ldr	r3, [r7, #4]
 358 000e 032B     		cmp	r3, #3
 359 0010 04D8     		bhi	.L25
 360              		.loc 1 514 0 is_stmt 0 discriminator 1
 361 0012 104B     		ldr	r3, .L28
 362 0014 7A68     		ldr	r2, [r7, #4]
 363 0016 9200     		lsls	r2, r2, #2
 364 0018 D358     		ldr	r3, [r2, r3]
 365 001a 00E0     		b	.L26
 366              	.L25:
 367              		.loc 1 514 0 discriminator 2
 368 001c 0E4B     		ldr	r3, .L28+4
 369              	.L26:
 510:Generated_Source\PSoC4/Cm0Start.c ****             #if defined (__ICCARM__)
 370              		.loc 1 510 0 is_stmt 1 discriminator 2
 371 001e 0F4A     		ldr	r2, .L28+8
 372 0020 7968     		ldr	r1, [r7, #4]
 373 0022 8900     		lsls	r1, r1, #2
 374 0024 8B50     		str	r3, [r1, r2]
 508:Generated_Source\PSoC4/Cm0Start.c ****     {
 375              		.loc 1 508 0 discriminator 2
 376 0026 7B68     		ldr	r3, [r7, #4]
 377 0028 0133     		adds	r3, r3, #1
 378 002a 7B60     		str	r3, [r7, #4]
 379              	.L24:
 508:Generated_Source\PSoC4/Cm0Start.c ****     {
 380              		.loc 1 508 0 is_stmt 0 discriminator 1
 381 002c 7B68     		ldr	r3, [r7, #4]
 382 002e 2F2B     		cmp	r3, #47
 383 0030 ECD9     		bls	.L27
 515:Generated_Source\PSoC4/Cm0Start.c ****             #endif  /* defined (__ICCARM__) */
 516:Generated_Source\PSoC4/Cm0Start.c ****     }
ARM GAS  C:\Users\JOSEAN~1\AppData\Local\Temp\cc9RDg7X.s 			page 17


 517:Generated_Source\PSoC4/Cm0Start.c **** 
 518:Generated_Source\PSoC4/Cm0Start.c ****     /* Initialize configuration registers. */
 519:Generated_Source\PSoC4/Cm0Start.c ****     cyfitter_cfg();
 384              		.loc 1 519 0 is_stmt 1
 385 0032 FFF7FEFF 		bl	cyfitter_cfg
 520:Generated_Source\PSoC4/Cm0Start.c **** 
 521:Generated_Source\PSoC4/Cm0Start.c ****     #if !defined (__ICCARM__)
 522:Generated_Source\PSoC4/Cm0Start.c ****         /* Actually, no need to clean this variable, just to make compiler happy. */
 523:Generated_Source\PSoC4/Cm0Start.c ****         cySysNoInitDataValid = 0u;
 386              		.loc 1 523 0
 387 0036 0A4B     		ldr	r3, .L28+12
 388 0038 0022     		movs	r2, #0
 389 003a 1A60     		str	r2, [r3]
 524:Generated_Source\PSoC4/Cm0Start.c ****     #endif  /* !defined (__ICCARM__) */
 525:Generated_Source\PSoC4/Cm0Start.c **** 
 526:Generated_Source\PSoC4/Cm0Start.c ****     #if (CYDEV_PROJ_TYPE != CYDEV_PROJ_TYPE_STANDARD)
 527:Generated_Source\PSoC4/Cm0Start.c **** 
 528:Generated_Source\PSoC4/Cm0Start.c ****         /* Need to make sure that this variable will not be optimized out */
 529:Generated_Source\PSoC4/Cm0Start.c ****         if (0u == cyBtldrRunType)
 530:Generated_Source\PSoC4/Cm0Start.c ****         {
 531:Generated_Source\PSoC4/Cm0Start.c ****             cyBtldrRunType = 0u;
 532:Generated_Source\PSoC4/Cm0Start.c ****         }
 533:Generated_Source\PSoC4/Cm0Start.c **** 
 534:Generated_Source\PSoC4/Cm0Start.c ****     #endif  /* (CYDEV_PROJ_TYPE != CYDEV_PROJ_TYPE_STANDARD) */
 535:Generated_Source\PSoC4/Cm0Start.c **** 
 536:Generated_Source\PSoC4/Cm0Start.c ****     #if (CY_IP_CPUSS_CM0)
 537:Generated_Source\PSoC4/Cm0Start.c ****         /* Vector Table is located at 0x2000:0000 in SRAM */
 538:Generated_Source\PSoC4/Cm0Start.c ****         CY_CPUSS_CONFIG_REG |= CY_CPUSS_CONFIG_VECT_IN_RAM;
 390              		.loc 1 538 0
 391 003c 8023     		movs	r3, #128
 392 003e DB05     		lsls	r3, r3, #23
 393 0040 8022     		movs	r2, #128
 394 0042 D205     		lsls	r2, r2, #23
 395 0044 1268     		ldr	r2, [r2]
 396 0046 0121     		movs	r1, #1
 397 0048 0A43     		orrs	r2, r1
 398 004a 1A60     		str	r2, [r3]
 539:Generated_Source\PSoC4/Cm0Start.c **** 	#else
 540:Generated_Source\PSoC4/Cm0Start.c **** 		(*(uint32 *)CYREG_CM0P_VTOR) = CY_CPUSS_CONFIG_VECT_ADDR_IN_RAM;
 541:Generated_Source\PSoC4/Cm0Start.c ****     #endif /* (CY_IP_CPUSS_CM0) */
 542:Generated_Source\PSoC4/Cm0Start.c **** }
 399              		.loc 1 542 0
 400 004c C046     		nop
 401 004e BD46     		mov	sp, r7
 402 0050 02B0     		add	sp, sp, #8
 403              		@ sp needed
 404 0052 80BD     		pop	{r7, pc}
 405              	.L29:
 406              		.align	2
 407              	.L28:
 408 0054 00000000 		.word	RomVectors
 409 0058 00000000 		.word	IntDefaultHandler
 410 005c 00000000 		.word	CyRamVectors
 411 0060 00000000 		.word	cySysNoInitDataValid
 412              		.cfi_endproc
 413              	.LFE5:
 414              		.size	initialize_psoc, .-initialize_psoc
ARM GAS  C:\Users\JOSEAN~1\AppData\Local\Temp\cc9RDg7X.s 			page 18


 415              		.section	.init_array,"aw",%init_array
 416              		.align	2
 417 0000 00000000 		.word	initialize_psoc(target1)
 418              		.data
 419              		.align	2
 420              		.type	heapPointer.4844, %object
 421              		.size	heapPointer.4844, 4
 422              	heapPointer.4844:
 423 0000 00000000 		.word	end
 424              		.weak	__cy_region_num
 425              		.text
 426              	.Letext0:
 427              		.file 2 "c:\\program files (x86)\\cypress\\psoc creator\\4.2\\psoc creator\\import\\gnu\\arm\\5.4.
 428              		.file 3 "Generated_Source\\PSoC4\\cytypes.h"
 429              		.section	.debug_info,"",%progbits
 430              	.Ldebug_info0:
 431 0000 0E030000 		.4byte	0x30e
 432 0004 0400     		.2byte	0x4
 433 0006 00000000 		.4byte	.Ldebug_abbrev0
 434 000a 04       		.byte	0x4
 435 000b 01       		.uleb128 0x1
 436 000c 33010000 		.4byte	.LASF41
 437 0010 0C       		.byte	0xc
 438 0011 F6010000 		.4byte	.LASF42
 439 0015 A2000000 		.4byte	.LASF43
 440 0019 00000000 		.4byte	.Ldebug_ranges0+0
 441 001d 00000000 		.4byte	0
 442 0021 00000000 		.4byte	.Ldebug_line0
 443 0025 02       		.uleb128 0x2
 444 0026 01       		.byte	0x1
 445 0027 06       		.byte	0x6
 446 0028 B6020000 		.4byte	.LASF0
 447 002c 02       		.uleb128 0x2
 448 002d 01       		.byte	0x1
 449 002e 08       		.byte	0x8
 450 002f 7D000000 		.4byte	.LASF1
 451 0033 02       		.uleb128 0x2
 452 0034 02       		.byte	0x2
 453 0035 05       		.byte	0x5
 454 0036 97020000 		.4byte	.LASF2
 455 003a 02       		.uleb128 0x2
 456 003b 02       		.byte	0x2
 457 003c 07       		.byte	0x7
 458 003d 34000000 		.4byte	.LASF3
 459 0041 02       		.uleb128 0x2
 460 0042 04       		.byte	0x4
 461 0043 05       		.byte	0x5
 462 0044 A1020000 		.4byte	.LASF4
 463 0048 02       		.uleb128 0x2
 464 0049 04       		.byte	0x4
 465 004a 07       		.byte	0x7
 466 004b 00010000 		.4byte	.LASF5
 467 004f 02       		.uleb128 0x2
 468 0050 08       		.byte	0x8
 469 0051 05       		.byte	0x5
 470 0052 84020000 		.4byte	.LASF6
 471 0056 02       		.uleb128 0x2
ARM GAS  C:\Users\JOSEAN~1\AppData\Local\Temp\cc9RDg7X.s 			page 19


 472 0057 08       		.byte	0x8
 473 0058 07       		.byte	0x7
 474 0059 36020000 		.4byte	.LASF7
 475 005d 03       		.uleb128 0x3
 476 005e 04       		.byte	0x4
 477 005f 05       		.byte	0x5
 478 0060 696E7400 		.ascii	"int\000"
 479 0064 02       		.uleb128 0x2
 480 0065 04       		.byte	0x4
 481 0066 07       		.byte	0x7
 482 0067 29020000 		.4byte	.LASF8
 483 006b 04       		.uleb128 0x4
 484 006c 06000000 		.4byte	.LASF10
 485 0070 02       		.byte	0x2
 486 0071 D8       		.byte	0xd8
 487 0072 64000000 		.4byte	0x64
 488 0076 02       		.uleb128 0x2
 489 0077 08       		.byte	0x8
 490 0078 04       		.byte	0x4
 491 0079 AA020000 		.4byte	.LASF9
 492 007d 05       		.uleb128 0x5
 493 007e 27010000 		.4byte	.LASF11
 494 0082 03       		.byte	0x3
 495 0083 E401     		.2byte	0x1e4
 496 0085 2C000000 		.4byte	0x2c
 497 0089 05       		.uleb128 0x5
 498 008a 18020000 		.4byte	.LASF12
 499 008e 03       		.byte	0x3
 500 008f E601     		.2byte	0x1e6
 501 0091 48000000 		.4byte	0x48
 502 0095 02       		.uleb128 0x2
 503 0096 04       		.byte	0x4
 504 0097 04       		.byte	0x4
 505 0098 72000000 		.4byte	.LASF13
 506 009c 02       		.uleb128 0x2
 507 009d 08       		.byte	0x8
 508 009e 04       		.byte	0x4
 509 009f DF010000 		.4byte	.LASF14
 510 00a3 02       		.uleb128 0x2
 511 00a4 01       		.byte	0x1
 512 00a5 08       		.byte	0x8
 513 00a6 92020000 		.4byte	.LASF15
 514 00aa 05       		.uleb128 0x5
 515 00ab 00000000 		.4byte	.LASF16
 516 00af 03       		.byte	0x3
 517 00b0 9002     		.2byte	0x290
 518 00b2 B6000000 		.4byte	0xb6
 519 00b6 06       		.uleb128 0x6
 520 00b7 89000000 		.4byte	0x89
 521 00bb 05       		.uleb128 0x5
 522 00bc 53020000 		.4byte	.LASF17
 523 00c0 03       		.byte	0x3
 524 00c1 A002     		.2byte	0x2a0
 525 00c3 C7000000 		.4byte	0xc7
 526 00c7 07       		.uleb128 0x7
 527 00c8 04       		.byte	0x4
 528 00c9 CD000000 		.4byte	0xcd
ARM GAS  C:\Users\JOSEAN~1\AppData\Local\Temp\cc9RDg7X.s 			page 20


 529 00cd 08       		.uleb128 0x8
 530 00ce 02       		.uleb128 0x2
 531 00cf 04       		.byte	0x4
 532 00d0 07       		.byte	0x7
 533 00d1 7B020000 		.4byte	.LASF18
 534 00d5 09       		.uleb128 0x9
 535 00d6 04       		.byte	0x4
 536 00d7 0A       		.uleb128 0xa
 537 00d8 A3000000 		.4byte	0xa3
 538 00dc 04       		.uleb128 0x4
 539 00dd 6A020000 		.4byte	.LASF19
 540 00e1 01       		.byte	0x1
 541 00e2 DD       		.byte	0xdd
 542 00e3 2C000000 		.4byte	0x2c
 543 00e7 0B       		.uleb128 0xb
 544 00e8 DE020000 		.4byte	.LASF44
 545 00ec 10       		.byte	0x10
 546 00ed 01       		.byte	0x1
 547 00ee DF       		.byte	0xdf
 548 00ef 24010000 		.4byte	0x124
 549 00f3 0C       		.uleb128 0xc
 550 00f4 57000000 		.4byte	.LASF20
 551 00f8 01       		.byte	0x1
 552 00f9 E1       		.byte	0xe1
 553 00fa 24010000 		.4byte	0x124
 554 00fe 00       		.byte	0
 555 00ff 0C       		.uleb128 0xc
 556 0100 78000000 		.4byte	.LASF21
 557 0104 01       		.byte	0x1
 558 0105 E2       		.byte	0xe2
 559 0106 24010000 		.4byte	0x124
 560 010a 04       		.byte	0x4
 561 010b 0C       		.uleb128 0xc
 562 010c 60020000 		.4byte	.LASF22
 563 0110 01       		.byte	0x1
 564 0111 E3       		.byte	0xe3
 565 0112 6B000000 		.4byte	0x6b
 566 0116 08       		.byte	0x8
 567 0117 0C       		.uleb128 0xc
 568 0118 63000000 		.4byte	.LASF23
 569 011c 01       		.byte	0x1
 570 011d E4       		.byte	0xe4
 571 011e 6B000000 		.4byte	0x6b
 572 0122 0C       		.byte	0xc
 573 0123 00       		.byte	0
 574 0124 07       		.uleb128 0x7
 575 0125 04       		.byte	0x4
 576 0126 DC000000 		.4byte	0xdc
 577 012a 0D       		.uleb128 0xd
 578 012b C7010000 		.4byte	.LASF45
 579 012f 01       		.byte	0x1
 580 0130 6C       		.byte	0x6c
 581 0131 00000000 		.4byte	.LFB0
 582 0135 14000000 		.4byte	.LFE0-.LFB0
 583 0139 01       		.uleb128 0x1
 584 013a 9C       		.byte	0x9c
 585 013b 0E       		.uleb128 0xe
ARM GAS  C:\Users\JOSEAN~1\AppData\Local\Temp\cc9RDg7X.s 			page 21


 586 013c C1010000 		.4byte	.LASF24
 587 0140 01       		.byte	0x1
 588 0141 FD       		.byte	0xfd
 589 0142 00000000 		.4byte	.LFB1
 590 0146 14000000 		.4byte	.LFE1-.LFB1
 591 014a 01       		.uleb128 0x1
 592 014b 9C       		.byte	0x9c
 593 014c 5F010000 		.4byte	0x15f
 594 0150 0F       		.uleb128 0xf
 595 0151 5C000000 		.4byte	.LASF26
 596 0155 01       		.byte	0x1
 597 0156 FD       		.byte	0xfd
 598 0157 5D000000 		.4byte	0x5d
 599 015b 02       		.uleb128 0x2
 600 015c 91       		.byte	0x91
 601 015d 74       		.sleb128 -12
 602 015e 00       		.byte	0
 603 015f 10       		.uleb128 0x10
 604 0160 D9010000 		.4byte	.LASF25
 605 0164 01       		.byte	0x1
 606 0165 1701     		.2byte	0x117
 607 0167 D5000000 		.4byte	0xd5
 608 016b 00000000 		.4byte	.LFB2
 609 016f 54000000 		.4byte	.LFE2-.LFB2
 610 0173 01       		.uleb128 0x1
 611 0174 9C       		.byte	0x9c
 612 0175 B6010000 		.4byte	0x1b6
 613 0179 11       		.uleb128 0x11
 614 017a D7020000 		.4byte	.LASF27
 615 017e 01       		.byte	0x1
 616 017f 1701     		.2byte	0x117
 617 0181 5D000000 		.4byte	0x5d
 618 0185 02       		.uleb128 0x2
 619 0186 91       		.byte	0x91
 620 0187 6C       		.sleb128 -20
 621 0188 12       		.uleb128 0x12
 622 0189 656E6400 		.ascii	"end\000"
 623 018d 01       		.byte	0x1
 624 018e 1901     		.2byte	0x119
 625 0190 5D000000 		.4byte	0x5d
 626 0194 13       		.uleb128 0x13
 627 0195 8B000000 		.4byte	.LASF28
 628 0199 01       		.byte	0x1
 629 019a 1A01     		.2byte	0x11a
 630 019c D5000000 		.4byte	0xd5
 631 01a0 02       		.uleb128 0x2
 632 01a1 91       		.byte	0x91
 633 01a2 74       		.sleb128 -12
 634 01a3 13       		.uleb128 0x13
 635 01a4 28000000 		.4byte	.LASF29
 636 01a8 01       		.byte	0x1
 637 01a9 1D01     		.2byte	0x11d
 638 01ab B6010000 		.4byte	0x1b6
 639 01af 05       		.uleb128 0x5
 640 01b0 03       		.byte	0x3
 641 01b1 00000000 		.4byte	heapPointer.4844
 642 01b5 00       		.byte	0
ARM GAS  C:\Users\JOSEAN~1\AppData\Local\Temp\cc9RDg7X.s 			page 22


 643 01b6 07       		.uleb128 0x7
 644 01b7 04       		.byte	0x4
 645 01b8 7D000000 		.4byte	0x7d
 646 01bc 14       		.uleb128 0x14
 647 01bd 1A000000 		.4byte	.LASF30
 648 01c1 01       		.byte	0x1
 649 01c2 3801     		.2byte	0x138
 650 01c4 00000000 		.4byte	.LFB3
 651 01c8 98000000 		.4byte	.LFE3-.LFB3
 652 01cc 01       		.uleb128 0x1
 653 01cd 9C       		.byte	0x9c
 654 01ce 37020000 		.4byte	0x237
 655 01d2 13       		.uleb128 0x13
 656 01d3 CF020000 		.4byte	.LASF31
 657 01d7 01       		.byte	0x1
 658 01d8 3D01     		.2byte	0x13d
 659 01da 64000000 		.4byte	0x64
 660 01de 02       		.uleb128 0x2
 661 01df 91       		.byte	0x91
 662 01e0 74       		.sleb128 -12
 663 01e1 13       		.uleb128 0x13
 664 01e2 6D000000 		.4byte	.LASF32
 665 01e6 01       		.byte	0x1
 666 01e7 3E01     		.2byte	0x13e
 667 01e9 37020000 		.4byte	0x237
 668 01ed 02       		.uleb128 0x2
 669 01ee 91       		.byte	0x91
 670 01ef 70       		.sleb128 -16
 671 01f0 15       		.uleb128 0x15
 672 01f1 14000000 		.4byte	.LBB2
 673 01f5 66000000 		.4byte	.LBE2-.LBB2
 674 01f9 16       		.uleb128 0x16
 675 01fa 73726300 		.ascii	"src\000"
 676 01fe 01       		.byte	0x1
 677 01ff 4301     		.2byte	0x143
 678 0201 42020000 		.4byte	0x242
 679 0205 02       		.uleb128 0x2
 680 0206 91       		.byte	0x91
 681 0207 6C       		.sleb128 -20
 682 0208 16       		.uleb128 0x16
 683 0209 64737400 		.ascii	"dst\000"
 684 020d 01       		.byte	0x1
 685 020e 4401     		.2byte	0x144
 686 0210 42020000 		.4byte	0x242
 687 0214 02       		.uleb128 0x2
 688 0215 91       		.byte	0x91
 689 0216 68       		.sleb128 -24
 690 0217 13       		.uleb128 0x13
 691 0218 4D020000 		.4byte	.LASF33
 692 021c 01       		.byte	0x1
 693 021d 4501     		.2byte	0x145
 694 021f 64000000 		.4byte	0x64
 695 0223 02       		.uleb128 0x2
 696 0224 91       		.byte	0x91
 697 0225 60       		.sleb128 -32
 698 0226 13       		.uleb128 0x13
 699 0227 22000000 		.4byte	.LASF34
ARM GAS  C:\Users\JOSEAN~1\AppData\Local\Temp\cc9RDg7X.s 			page 23


 700 022b 01       		.byte	0x1
 701 022c 4601     		.2byte	0x146
 702 022e 64000000 		.4byte	0x64
 703 0232 02       		.uleb128 0x2
 704 0233 91       		.byte	0x91
 705 0234 64       		.sleb128 -28
 706 0235 00       		.byte	0
 707 0236 00       		.byte	0
 708 0237 07       		.uleb128 0x7
 709 0238 04       		.byte	0x4
 710 0239 3D020000 		.4byte	0x23d
 711 023d 0A       		.uleb128 0xa
 712 023e E7000000 		.4byte	0xe7
 713 0242 07       		.uleb128 0x7
 714 0243 04       		.byte	0x4
 715 0244 89000000 		.4byte	0x89
 716 0248 17       		.uleb128 0x17
 717 0249 2D010000 		.4byte	.LASF46
 718 024d 01       		.byte	0x1
 719 024e 6D01     		.2byte	0x16d
 720 0250 00000000 		.4byte	.LFB4
 721 0254 08000000 		.4byte	.LFE4-.LFB4
 722 0258 01       		.uleb128 0x1
 723 0259 9C       		.byte	0x9c
 724 025a 18       		.uleb128 0x18
 725 025b E6010000 		.4byte	.LASF47
 726 025f 01       		.byte	0x1
 727 0260 EB01     		.2byte	0x1eb
 728 0262 00000000 		.4byte	.LFB5
 729 0266 64000000 		.4byte	.LFE5-.LFB5
 730 026a 01       		.uleb128 0x1
 731 026b 9C       		.byte	0x9c
 732 026c 80020000 		.4byte	0x280
 733 0270 13       		.uleb128 0x13
 734 0271 1F020000 		.4byte	.LASF35
 735 0275 01       		.byte	0x1
 736 0276 ED01     		.2byte	0x1ed
 737 0278 89000000 		.4byte	0x89
 738 027c 02       		.uleb128 0x2
 739 027d 91       		.byte	0x91
 740 027e 74       		.sleb128 -12
 741 027f 00       		.byte	0
 742 0280 19       		.uleb128 0x19
 743 0281 12010000 		.4byte	.LASF36
 744 0285 01       		.byte	0x1
 745 0286 4D       		.byte	0x4d
 746 0287 89000000 		.4byte	0x89
 747 028b 05       		.uleb128 0x5
 748 028c 03       		.byte	0x3
 749 028d 00000000 		.4byte	cySysNoInitDataValid
 750 0291 12       		.uleb128 0x12
 751 0292 656E6400 		.ascii	"end\000"
 752 0296 01       		.byte	0x1
 753 0297 1901     		.2byte	0x119
 754 0299 5D000000 		.4byte	0x5d
 755 029d 1A       		.uleb128 0x1a
 756 029e 3D020000 		.4byte	0x23d
ARM GAS  C:\Users\JOSEAN~1\AppData\Local\Temp\cc9RDg7X.s 			page 24


 757 02a2 A8020000 		.4byte	0x2a8
 758 02a6 1B       		.uleb128 0x1b
 759 02a7 00       		.byte	0
 760 02a8 1C       		.uleb128 0x1c
 761 02a9 C2020000 		.4byte	.LASF37
 762 02ad 01       		.byte	0x1
 763 02ae E7       		.byte	0xe7
 764 02af B3020000 		.4byte	0x2b3
 765 02b3 0A       		.uleb128 0xa
 766 02b4 9D020000 		.4byte	0x29d
 767 02b8 1C       		.uleb128 0x1c
 768 02b9 47000000 		.4byte	.LASF38
 769 02bd 01       		.byte	0x1
 770 02be E8       		.byte	0xe8
 771 02bf D7000000 		.4byte	0xd7
 772 02c3 1A       		.uleb128 0x1a
 773 02c4 BB000000 		.4byte	0xbb
 774 02c8 D3020000 		.4byte	0x2d3
 775 02cc 1D       		.uleb128 0x1d
 776 02cd CE000000 		.4byte	0xce
 777 02d1 2F       		.byte	0x2f
 778 02d2 00       		.byte	0
 779 02d3 1E       		.uleb128 0x1e
 780 02d4 0D000000 		.4byte	.LASF39
 781 02d8 01       		.byte	0x1
 782 02d9 BB01     		.2byte	0x1bb
 783 02db C3020000 		.4byte	0x2c3
 784 02df 05       		.uleb128 0x5
 785 02e0 03       		.byte	0x3
 786 02e1 00000000 		.4byte	CyRamVectors
 787 02e5 1A       		.uleb128 0x1a
 788 02e6 F5020000 		.4byte	0x2f5
 789 02ea F5020000 		.4byte	0x2f5
 790 02ee 1D       		.uleb128 0x1d
 791 02ef CE000000 		.4byte	0xce
 792 02f3 03       		.byte	0x3
 793 02f4 00       		.byte	0
 794 02f5 0A       		.uleb128 0xa
 795 02f6 BB000000 		.4byte	0xbb
 796 02fa 1E       		.uleb128 0x1e
 797 02fb 97000000 		.4byte	.LASF40
 798 02ff 01       		.byte	0x1
 799 0300 CF01     		.2byte	0x1cf
 800 0302 0C030000 		.4byte	0x30c
 801 0306 05       		.uleb128 0x5
 802 0307 03       		.byte	0x3
 803 0308 00000000 		.4byte	RomVectors
 804 030c 0A       		.uleb128 0xa
 805 030d E5020000 		.4byte	0x2e5
 806 0311 00       		.byte	0
 807              		.section	.debug_abbrev,"",%progbits
 808              	.Ldebug_abbrev0:
 809 0000 01       		.uleb128 0x1
 810 0001 11       		.uleb128 0x11
 811 0002 01       		.byte	0x1
 812 0003 25       		.uleb128 0x25
 813 0004 0E       		.uleb128 0xe
ARM GAS  C:\Users\JOSEAN~1\AppData\Local\Temp\cc9RDg7X.s 			page 25


 814 0005 13       		.uleb128 0x13
 815 0006 0B       		.uleb128 0xb
 816 0007 03       		.uleb128 0x3
 817 0008 0E       		.uleb128 0xe
 818 0009 1B       		.uleb128 0x1b
 819 000a 0E       		.uleb128 0xe
 820 000b 55       		.uleb128 0x55
 821 000c 17       		.uleb128 0x17
 822 000d 11       		.uleb128 0x11
 823 000e 01       		.uleb128 0x1
 824 000f 10       		.uleb128 0x10
 825 0010 17       		.uleb128 0x17
 826 0011 00       		.byte	0
 827 0012 00       		.byte	0
 828 0013 02       		.uleb128 0x2
 829 0014 24       		.uleb128 0x24
 830 0015 00       		.byte	0
 831 0016 0B       		.uleb128 0xb
 832 0017 0B       		.uleb128 0xb
 833 0018 3E       		.uleb128 0x3e
 834 0019 0B       		.uleb128 0xb
 835 001a 03       		.uleb128 0x3
 836 001b 0E       		.uleb128 0xe
 837 001c 00       		.byte	0
 838 001d 00       		.byte	0
 839 001e 03       		.uleb128 0x3
 840 001f 24       		.uleb128 0x24
 841 0020 00       		.byte	0
 842 0021 0B       		.uleb128 0xb
 843 0022 0B       		.uleb128 0xb
 844 0023 3E       		.uleb128 0x3e
 845 0024 0B       		.uleb128 0xb
 846 0025 03       		.uleb128 0x3
 847 0026 08       		.uleb128 0x8
 848 0027 00       		.byte	0
 849 0028 00       		.byte	0
 850 0029 04       		.uleb128 0x4
 851 002a 16       		.uleb128 0x16
 852 002b 00       		.byte	0
 853 002c 03       		.uleb128 0x3
 854 002d 0E       		.uleb128 0xe
 855 002e 3A       		.uleb128 0x3a
 856 002f 0B       		.uleb128 0xb
 857 0030 3B       		.uleb128 0x3b
 858 0031 0B       		.uleb128 0xb
 859 0032 49       		.uleb128 0x49
 860 0033 13       		.uleb128 0x13
 861 0034 00       		.byte	0
 862 0035 00       		.byte	0
 863 0036 05       		.uleb128 0x5
 864 0037 16       		.uleb128 0x16
 865 0038 00       		.byte	0
 866 0039 03       		.uleb128 0x3
 867 003a 0E       		.uleb128 0xe
 868 003b 3A       		.uleb128 0x3a
 869 003c 0B       		.uleb128 0xb
 870 003d 3B       		.uleb128 0x3b
ARM GAS  C:\Users\JOSEAN~1\AppData\Local\Temp\cc9RDg7X.s 			page 26


 871 003e 05       		.uleb128 0x5
 872 003f 49       		.uleb128 0x49
 873 0040 13       		.uleb128 0x13
 874 0041 00       		.byte	0
 875 0042 00       		.byte	0
 876 0043 06       		.uleb128 0x6
 877 0044 35       		.uleb128 0x35
 878 0045 00       		.byte	0
 879 0046 49       		.uleb128 0x49
 880 0047 13       		.uleb128 0x13
 881 0048 00       		.byte	0
 882 0049 00       		.byte	0
 883 004a 07       		.uleb128 0x7
 884 004b 0F       		.uleb128 0xf
 885 004c 00       		.byte	0
 886 004d 0B       		.uleb128 0xb
 887 004e 0B       		.uleb128 0xb
 888 004f 49       		.uleb128 0x49
 889 0050 13       		.uleb128 0x13
 890 0051 00       		.byte	0
 891 0052 00       		.byte	0
 892 0053 08       		.uleb128 0x8
 893 0054 15       		.uleb128 0x15
 894 0055 00       		.byte	0
 895 0056 27       		.uleb128 0x27
 896 0057 19       		.uleb128 0x19
 897 0058 00       		.byte	0
 898 0059 00       		.byte	0
 899 005a 09       		.uleb128 0x9
 900 005b 0F       		.uleb128 0xf
 901 005c 00       		.byte	0
 902 005d 0B       		.uleb128 0xb
 903 005e 0B       		.uleb128 0xb
 904 005f 00       		.byte	0
 905 0060 00       		.byte	0
 906 0061 0A       		.uleb128 0xa
 907 0062 26       		.uleb128 0x26
 908 0063 00       		.byte	0
 909 0064 49       		.uleb128 0x49
 910 0065 13       		.uleb128 0x13
 911 0066 00       		.byte	0
 912 0067 00       		.byte	0
 913 0068 0B       		.uleb128 0xb
 914 0069 13       		.uleb128 0x13
 915 006a 01       		.byte	0x1
 916 006b 03       		.uleb128 0x3
 917 006c 0E       		.uleb128 0xe
 918 006d 0B       		.uleb128 0xb
 919 006e 0B       		.uleb128 0xb
 920 006f 3A       		.uleb128 0x3a
 921 0070 0B       		.uleb128 0xb
 922 0071 3B       		.uleb128 0x3b
 923 0072 0B       		.uleb128 0xb
 924 0073 01       		.uleb128 0x1
 925 0074 13       		.uleb128 0x13
 926 0075 00       		.byte	0
 927 0076 00       		.byte	0
ARM GAS  C:\Users\JOSEAN~1\AppData\Local\Temp\cc9RDg7X.s 			page 27


 928 0077 0C       		.uleb128 0xc
 929 0078 0D       		.uleb128 0xd
 930 0079 00       		.byte	0
 931 007a 03       		.uleb128 0x3
 932 007b 0E       		.uleb128 0xe
 933 007c 3A       		.uleb128 0x3a
 934 007d 0B       		.uleb128 0xb
 935 007e 3B       		.uleb128 0x3b
 936 007f 0B       		.uleb128 0xb
 937 0080 49       		.uleb128 0x49
 938 0081 13       		.uleb128 0x13
 939 0082 38       		.uleb128 0x38
 940 0083 0B       		.uleb128 0xb
 941 0084 00       		.byte	0
 942 0085 00       		.byte	0
 943 0086 0D       		.uleb128 0xd
 944 0087 2E       		.uleb128 0x2e
 945 0088 00       		.byte	0
 946 0089 3F       		.uleb128 0x3f
 947 008a 19       		.uleb128 0x19
 948 008b 03       		.uleb128 0x3
 949 008c 0E       		.uleb128 0xe
 950 008d 3A       		.uleb128 0x3a
 951 008e 0B       		.uleb128 0xb
 952 008f 3B       		.uleb128 0x3b
 953 0090 0B       		.uleb128 0xb
 954 0091 27       		.uleb128 0x27
 955 0092 19       		.uleb128 0x19
 956 0093 8701     		.uleb128 0x87
 957 0095 19       		.uleb128 0x19
 958 0096 11       		.uleb128 0x11
 959 0097 01       		.uleb128 0x1
 960 0098 12       		.uleb128 0x12
 961 0099 06       		.uleb128 0x6
 962 009a 40       		.uleb128 0x40
 963 009b 18       		.uleb128 0x18
 964 009c 9642     		.uleb128 0x2116
 965 009e 19       		.uleb128 0x19
 966 009f 00       		.byte	0
 967 00a0 00       		.byte	0
 968 00a1 0E       		.uleb128 0xe
 969 00a2 2E       		.uleb128 0x2e
 970 00a3 01       		.byte	0x1
 971 00a4 3F       		.uleb128 0x3f
 972 00a5 19       		.uleb128 0x19
 973 00a6 03       		.uleb128 0x3
 974 00a7 0E       		.uleb128 0xe
 975 00a8 3A       		.uleb128 0x3a
 976 00a9 0B       		.uleb128 0xb
 977 00aa 3B       		.uleb128 0x3b
 978 00ab 0B       		.uleb128 0xb
 979 00ac 27       		.uleb128 0x27
 980 00ad 19       		.uleb128 0x19
 981 00ae 8701     		.uleb128 0x87
 982 00b0 19       		.uleb128 0x19
 983 00b1 11       		.uleb128 0x11
 984 00b2 01       		.uleb128 0x1
ARM GAS  C:\Users\JOSEAN~1\AppData\Local\Temp\cc9RDg7X.s 			page 28


 985 00b3 12       		.uleb128 0x12
 986 00b4 06       		.uleb128 0x6
 987 00b5 40       		.uleb128 0x40
 988 00b6 18       		.uleb128 0x18
 989 00b7 9642     		.uleb128 0x2116
 990 00b9 19       		.uleb128 0x19
 991 00ba 01       		.uleb128 0x1
 992 00bb 13       		.uleb128 0x13
 993 00bc 00       		.byte	0
 994 00bd 00       		.byte	0
 995 00be 0F       		.uleb128 0xf
 996 00bf 05       		.uleb128 0x5
 997 00c0 00       		.byte	0
 998 00c1 03       		.uleb128 0x3
 999 00c2 0E       		.uleb128 0xe
 1000 00c3 3A       		.uleb128 0x3a
 1001 00c4 0B       		.uleb128 0xb
 1002 00c5 3B       		.uleb128 0x3b
 1003 00c6 0B       		.uleb128 0xb
 1004 00c7 49       		.uleb128 0x49
 1005 00c8 13       		.uleb128 0x13
 1006 00c9 02       		.uleb128 0x2
 1007 00ca 18       		.uleb128 0x18
 1008 00cb 00       		.byte	0
 1009 00cc 00       		.byte	0
 1010 00cd 10       		.uleb128 0x10
 1011 00ce 2E       		.uleb128 0x2e
 1012 00cf 01       		.byte	0x1
 1013 00d0 3F       		.uleb128 0x3f
 1014 00d1 19       		.uleb128 0x19
 1015 00d2 03       		.uleb128 0x3
 1016 00d3 0E       		.uleb128 0xe
 1017 00d4 3A       		.uleb128 0x3a
 1018 00d5 0B       		.uleb128 0xb
 1019 00d6 3B       		.uleb128 0x3b
 1020 00d7 05       		.uleb128 0x5
 1021 00d8 27       		.uleb128 0x27
 1022 00d9 19       		.uleb128 0x19
 1023 00da 49       		.uleb128 0x49
 1024 00db 13       		.uleb128 0x13
 1025 00dc 11       		.uleb128 0x11
 1026 00dd 01       		.uleb128 0x1
 1027 00de 12       		.uleb128 0x12
 1028 00df 06       		.uleb128 0x6
 1029 00e0 40       		.uleb128 0x40
 1030 00e1 18       		.uleb128 0x18
 1031 00e2 9642     		.uleb128 0x2116
 1032 00e4 19       		.uleb128 0x19
 1033 00e5 01       		.uleb128 0x1
 1034 00e6 13       		.uleb128 0x13
 1035 00e7 00       		.byte	0
 1036 00e8 00       		.byte	0
 1037 00e9 11       		.uleb128 0x11
 1038 00ea 05       		.uleb128 0x5
 1039 00eb 00       		.byte	0
 1040 00ec 03       		.uleb128 0x3
 1041 00ed 0E       		.uleb128 0xe
ARM GAS  C:\Users\JOSEAN~1\AppData\Local\Temp\cc9RDg7X.s 			page 29


 1042 00ee 3A       		.uleb128 0x3a
 1043 00ef 0B       		.uleb128 0xb
 1044 00f0 3B       		.uleb128 0x3b
 1045 00f1 05       		.uleb128 0x5
 1046 00f2 49       		.uleb128 0x49
 1047 00f3 13       		.uleb128 0x13
 1048 00f4 02       		.uleb128 0x2
 1049 00f5 18       		.uleb128 0x18
 1050 00f6 00       		.byte	0
 1051 00f7 00       		.byte	0
 1052 00f8 12       		.uleb128 0x12
 1053 00f9 34       		.uleb128 0x34
 1054 00fa 00       		.byte	0
 1055 00fb 03       		.uleb128 0x3
 1056 00fc 08       		.uleb128 0x8
 1057 00fd 3A       		.uleb128 0x3a
 1058 00fe 0B       		.uleb128 0xb
 1059 00ff 3B       		.uleb128 0x3b
 1060 0100 05       		.uleb128 0x5
 1061 0101 49       		.uleb128 0x49
 1062 0102 13       		.uleb128 0x13
 1063 0103 3F       		.uleb128 0x3f
 1064 0104 19       		.uleb128 0x19
 1065 0105 3C       		.uleb128 0x3c
 1066 0106 19       		.uleb128 0x19
 1067 0107 00       		.byte	0
 1068 0108 00       		.byte	0
 1069 0109 13       		.uleb128 0x13
 1070 010a 34       		.uleb128 0x34
 1071 010b 00       		.byte	0
 1072 010c 03       		.uleb128 0x3
 1073 010d 0E       		.uleb128 0xe
 1074 010e 3A       		.uleb128 0x3a
 1075 010f 0B       		.uleb128 0xb
 1076 0110 3B       		.uleb128 0x3b
 1077 0111 05       		.uleb128 0x5
 1078 0112 49       		.uleb128 0x49
 1079 0113 13       		.uleb128 0x13
 1080 0114 02       		.uleb128 0x2
 1081 0115 18       		.uleb128 0x18
 1082 0116 00       		.byte	0
 1083 0117 00       		.byte	0
 1084 0118 14       		.uleb128 0x14
 1085 0119 2E       		.uleb128 0x2e
 1086 011a 01       		.byte	0x1
 1087 011b 3F       		.uleb128 0x3f
 1088 011c 19       		.uleb128 0x19
 1089 011d 03       		.uleb128 0x3
 1090 011e 0E       		.uleb128 0xe
 1091 011f 3A       		.uleb128 0x3a
 1092 0120 0B       		.uleb128 0xb
 1093 0121 3B       		.uleb128 0x3b
 1094 0122 05       		.uleb128 0x5
 1095 0123 27       		.uleb128 0x27
 1096 0124 19       		.uleb128 0x19
 1097 0125 8701     		.uleb128 0x87
 1098 0127 19       		.uleb128 0x19
ARM GAS  C:\Users\JOSEAN~1\AppData\Local\Temp\cc9RDg7X.s 			page 30


 1099 0128 11       		.uleb128 0x11
 1100 0129 01       		.uleb128 0x1
 1101 012a 12       		.uleb128 0x12
 1102 012b 06       		.uleb128 0x6
 1103 012c 40       		.uleb128 0x40
 1104 012d 18       		.uleb128 0x18
 1105 012e 9642     		.uleb128 0x2116
 1106 0130 19       		.uleb128 0x19
 1107 0131 01       		.uleb128 0x1
 1108 0132 13       		.uleb128 0x13
 1109 0133 00       		.byte	0
 1110 0134 00       		.byte	0
 1111 0135 15       		.uleb128 0x15
 1112 0136 0B       		.uleb128 0xb
 1113 0137 01       		.byte	0x1
 1114 0138 11       		.uleb128 0x11
 1115 0139 01       		.uleb128 0x1
 1116 013a 12       		.uleb128 0x12
 1117 013b 06       		.uleb128 0x6
 1118 013c 00       		.byte	0
 1119 013d 00       		.byte	0
 1120 013e 16       		.uleb128 0x16
 1121 013f 34       		.uleb128 0x34
 1122 0140 00       		.byte	0
 1123 0141 03       		.uleb128 0x3
 1124 0142 08       		.uleb128 0x8
 1125 0143 3A       		.uleb128 0x3a
 1126 0144 0B       		.uleb128 0xb
 1127 0145 3B       		.uleb128 0x3b
 1128 0146 05       		.uleb128 0x5
 1129 0147 49       		.uleb128 0x49
 1130 0148 13       		.uleb128 0x13
 1131 0149 02       		.uleb128 0x2
 1132 014a 18       		.uleb128 0x18
 1133 014b 00       		.byte	0
 1134 014c 00       		.byte	0
 1135 014d 17       		.uleb128 0x17
 1136 014e 2E       		.uleb128 0x2e
 1137 014f 00       		.byte	0
 1138 0150 3F       		.uleb128 0x3f
 1139 0151 19       		.uleb128 0x19
 1140 0152 03       		.uleb128 0x3
 1141 0153 0E       		.uleb128 0xe
 1142 0154 3A       		.uleb128 0x3a
 1143 0155 0B       		.uleb128 0xb
 1144 0156 3B       		.uleb128 0x3b
 1145 0157 05       		.uleb128 0x5
 1146 0158 27       		.uleb128 0x27
 1147 0159 19       		.uleb128 0x19
 1148 015a 11       		.uleb128 0x11
 1149 015b 01       		.uleb128 0x1
 1150 015c 12       		.uleb128 0x12
 1151 015d 06       		.uleb128 0x6
 1152 015e 40       		.uleb128 0x40
 1153 015f 18       		.uleb128 0x18
 1154 0160 9642     		.uleb128 0x2116
 1155 0162 19       		.uleb128 0x19
ARM GAS  C:\Users\JOSEAN~1\AppData\Local\Temp\cc9RDg7X.s 			page 31


 1156 0163 00       		.byte	0
 1157 0164 00       		.byte	0
 1158 0165 18       		.uleb128 0x18
 1159 0166 2E       		.uleb128 0x2e
 1160 0167 01       		.byte	0x1
 1161 0168 3F       		.uleb128 0x3f
 1162 0169 19       		.uleb128 0x19
 1163 016a 03       		.uleb128 0x3
 1164 016b 0E       		.uleb128 0xe
 1165 016c 3A       		.uleb128 0x3a
 1166 016d 0B       		.uleb128 0xb
 1167 016e 3B       		.uleb128 0x3b
 1168 016f 05       		.uleb128 0x5
 1169 0170 27       		.uleb128 0x27
 1170 0171 19       		.uleb128 0x19
 1171 0172 11       		.uleb128 0x11
 1172 0173 01       		.uleb128 0x1
 1173 0174 12       		.uleb128 0x12
 1174 0175 06       		.uleb128 0x6
 1175 0176 40       		.uleb128 0x40
 1176 0177 18       		.uleb128 0x18
 1177 0178 9642     		.uleb128 0x2116
 1178 017a 19       		.uleb128 0x19
 1179 017b 01       		.uleb128 0x1
 1180 017c 13       		.uleb128 0x13
 1181 017d 00       		.byte	0
 1182 017e 00       		.byte	0
 1183 017f 19       		.uleb128 0x19
 1184 0180 34       		.uleb128 0x34
 1185 0181 00       		.byte	0
 1186 0182 03       		.uleb128 0x3
 1187 0183 0E       		.uleb128 0xe
 1188 0184 3A       		.uleb128 0x3a
 1189 0185 0B       		.uleb128 0xb
 1190 0186 3B       		.uleb128 0x3b
 1191 0187 0B       		.uleb128 0xb
 1192 0188 49       		.uleb128 0x49
 1193 0189 13       		.uleb128 0x13
 1194 018a 02       		.uleb128 0x2
 1195 018b 18       		.uleb128 0x18
 1196 018c 00       		.byte	0
 1197 018d 00       		.byte	0
 1198 018e 1A       		.uleb128 0x1a
 1199 018f 01       		.uleb128 0x1
 1200 0190 01       		.byte	0x1
 1201 0191 49       		.uleb128 0x49
 1202 0192 13       		.uleb128 0x13
 1203 0193 01       		.uleb128 0x1
 1204 0194 13       		.uleb128 0x13
 1205 0195 00       		.byte	0
 1206 0196 00       		.byte	0
 1207 0197 1B       		.uleb128 0x1b
 1208 0198 21       		.uleb128 0x21
 1209 0199 00       		.byte	0
 1210 019a 00       		.byte	0
 1211 019b 00       		.byte	0
 1212 019c 1C       		.uleb128 0x1c
ARM GAS  C:\Users\JOSEAN~1\AppData\Local\Temp\cc9RDg7X.s 			page 32


 1213 019d 34       		.uleb128 0x34
 1214 019e 00       		.byte	0
 1215 019f 03       		.uleb128 0x3
 1216 01a0 0E       		.uleb128 0xe
 1217 01a1 3A       		.uleb128 0x3a
 1218 01a2 0B       		.uleb128 0xb
 1219 01a3 3B       		.uleb128 0x3b
 1220 01a4 0B       		.uleb128 0xb
 1221 01a5 49       		.uleb128 0x49
 1222 01a6 13       		.uleb128 0x13
 1223 01a7 3F       		.uleb128 0x3f
 1224 01a8 19       		.uleb128 0x19
 1225 01a9 3C       		.uleb128 0x3c
 1226 01aa 19       		.uleb128 0x19
 1227 01ab 00       		.byte	0
 1228 01ac 00       		.byte	0
 1229 01ad 1D       		.uleb128 0x1d
 1230 01ae 21       		.uleb128 0x21
 1231 01af 00       		.byte	0
 1232 01b0 49       		.uleb128 0x49
 1233 01b1 13       		.uleb128 0x13
 1234 01b2 2F       		.uleb128 0x2f
 1235 01b3 0B       		.uleb128 0xb
 1236 01b4 00       		.byte	0
 1237 01b5 00       		.byte	0
 1238 01b6 1E       		.uleb128 0x1e
 1239 01b7 34       		.uleb128 0x34
 1240 01b8 00       		.byte	0
 1241 01b9 03       		.uleb128 0x3
 1242 01ba 0E       		.uleb128 0xe
 1243 01bb 3A       		.uleb128 0x3a
 1244 01bc 0B       		.uleb128 0xb
 1245 01bd 3B       		.uleb128 0x3b
 1246 01be 05       		.uleb128 0x5
 1247 01bf 49       		.uleb128 0x49
 1248 01c0 13       		.uleb128 0x13
 1249 01c1 3F       		.uleb128 0x3f
 1250 01c2 19       		.uleb128 0x19
 1251 01c3 02       		.uleb128 0x2
 1252 01c4 18       		.uleb128 0x18
 1253 01c5 00       		.byte	0
 1254 01c6 00       		.byte	0
 1255 01c7 00       		.byte	0
 1256              		.section	.debug_aranges,"",%progbits
 1257 0000 44000000 		.4byte	0x44
 1258 0004 0200     		.2byte	0x2
 1259 0006 00000000 		.4byte	.Ldebug_info0
 1260 000a 04       		.byte	0x4
 1261 000b 00       		.byte	0
 1262 000c 0000     		.2byte	0
 1263 000e 0000     		.2byte	0
 1264 0010 00000000 		.4byte	.LFB0
 1265 0014 14000000 		.4byte	.LFE0-.LFB0
 1266 0018 00000000 		.4byte	.LFB1
 1267 001c 14000000 		.4byte	.LFE1-.LFB1
 1268 0020 00000000 		.4byte	.LFB2
 1269 0024 54000000 		.4byte	.LFE2-.LFB2
ARM GAS  C:\Users\JOSEAN~1\AppData\Local\Temp\cc9RDg7X.s 			page 33


 1270 0028 00000000 		.4byte	.LFB3
 1271 002c 98000000 		.4byte	.LFE3-.LFB3
 1272 0030 00000000 		.4byte	.LFB4
 1273 0034 08000000 		.4byte	.LFE4-.LFB4
 1274 0038 00000000 		.4byte	.LFB5
 1275 003c 64000000 		.4byte	.LFE5-.LFB5
 1276 0040 00000000 		.4byte	0
 1277 0044 00000000 		.4byte	0
 1278              		.section	.debug_ranges,"",%progbits
 1279              	.Ldebug_ranges0:
 1280 0000 00000000 		.4byte	.LFB0
 1281 0004 14000000 		.4byte	.LFE0
 1282 0008 00000000 		.4byte	.LFB1
 1283 000c 14000000 		.4byte	.LFE1
 1284 0010 00000000 		.4byte	.LFB2
 1285 0014 54000000 		.4byte	.LFE2
 1286 0018 00000000 		.4byte	.LFB3
 1287 001c 98000000 		.4byte	.LFE3
 1288 0020 00000000 		.4byte	.LFB4
 1289 0024 08000000 		.4byte	.LFE4
 1290 0028 00000000 		.4byte	.LFB5
 1291 002c 64000000 		.4byte	.LFE5
 1292 0030 00000000 		.4byte	0
 1293 0034 00000000 		.4byte	0
 1294              		.section	.debug_line,"",%progbits
 1295              	.Ldebug_line0:
 1296 0000 CB010000 		.section	.debug_str,"MS",%progbits,1
 1296      0200C700 
 1296      00000201 
 1296      FB0E0D00 
 1296      01010101 
 1297              	.LASF16:
 1298 0000 72656733 		.ascii	"reg32\000"
 1298      3200
 1299              	.LASF10:
 1300 0006 73697A65 		.ascii	"size_t\000"
 1300      5F7400
 1301              	.LASF39:
 1302 000d 43795261 		.ascii	"CyRamVectors\000"
 1302      6D566563 
 1302      746F7273 
 1302      00
 1303              	.LASF30:
 1304 001a 53746172 		.ascii	"Start_c\000"
 1304      745F6300 
 1305              	.LASF34:
 1306 0022 636F756E 		.ascii	"count\000"
 1306      7400
 1307              	.LASF29:
 1308 0028 68656170 		.ascii	"heapPointer\000"
 1308      506F696E 
 1308      74657200 
 1309              	.LASF3:
 1310 0034 73686F72 		.ascii	"short unsigned int\000"
 1310      7420756E 
 1310      7369676E 
 1310      65642069 
ARM GAS  C:\Users\JOSEAN~1\AppData\Local\Temp\cc9RDg7X.s 			page 34


 1310      6E7400
 1311              	.LASF38:
 1312 0047 5F5F6379 		.ascii	"__cy_region_num\000"
 1312      5F726567 
 1312      696F6E5F 
 1312      6E756D00 
 1313              	.LASF20:
 1314 0057 696E6974 		.ascii	"init\000"
 1314      00
 1315              	.LASF26:
 1316 005c 73746174 		.ascii	"status\000"
 1316      757300
 1317              	.LASF23:
 1318 0063 7A65726F 		.ascii	"zero_size\000"
 1318      5F73697A 
 1318      6500
 1319              	.LASF32:
 1320 006d 72707472 		.ascii	"rptr\000"
 1320      00
 1321              	.LASF13:
 1322 0072 666C6F61 		.ascii	"float\000"
 1322      7400
 1323              	.LASF21:
 1324 0078 64617461 		.ascii	"data\000"
 1324      00
 1325              	.LASF1:
 1326 007d 756E7369 		.ascii	"unsigned char\000"
 1326      676E6564 
 1326      20636861 
 1326      7200
 1327              	.LASF28:
 1328 008b 72657475 		.ascii	"returnValue\000"
 1328      726E5661 
 1328      6C756500 
 1329              	.LASF40:
 1330 0097 526F6D56 		.ascii	"RomVectors\000"
 1330      6563746F 
 1330      727300
 1331              	.LASF43:
 1332 00a2 473A5C44 		.ascii	"G:\\Documentos\\UNIVERSIDAD\\TFG\\CY8CKIT-042 Code "
 1332      6F63756D 
 1332      656E746F 
 1332      735C554E 
 1332      49564552 
 1333 00d1 4578616D 		.ascii	"Examples\\PSoC4\\Blinking LED\\Blinking LED.cydsn\000"
 1333      706C6573 
 1333      5C50536F 
 1333      43345C42 
 1333      6C696E6B 
 1334              	.LASF5:
 1335 0100 6C6F6E67 		.ascii	"long unsigned int\000"
 1335      20756E73 
 1335      69676E65 
 1335      6420696E 
 1335      7400
 1336              	.LASF36:
 1337 0112 63795379 		.ascii	"cySysNoInitDataValid\000"
ARM GAS  C:\Users\JOSEAN~1\AppData\Local\Temp\cc9RDg7X.s 			page 35


 1337      734E6F49 
 1337      6E697444 
 1337      61746156 
 1337      616C6964 
 1338              	.LASF11:
 1339 0127 75696E74 		.ascii	"uint8\000"
 1339      3800
 1340              	.LASF46:
 1341 012d 52657365 		.ascii	"Reset\000"
 1341      7400
 1342              	.LASF41:
 1343 0133 474E5520 		.ascii	"GNU C11 5.4.1 20160609 (release) [ARM/embedded-5-br"
 1343      43313120 
 1343      352E342E 
 1343      31203230 
 1343      31363036 
 1344 0166 616E6368 		.ascii	"anch revision 237715] -mcpu=cortex-m0 -mthumb -g -O"
 1344      20726576 
 1344      6973696F 
 1344      6E203233 
 1344      37373135 
 1345 0199 30202D66 		.ascii	"0 -ffunction-sections -ffat-lto-objects\000"
 1345      66756E63 
 1345      74696F6E 
 1345      2D736563 
 1345      74696F6E 
 1346              	.LASF24:
 1347 01c1 5F657869 		.ascii	"_exit\000"
 1347      7400
 1348              	.LASF45:
 1349 01c7 496E7444 		.ascii	"IntDefaultHandler\000"
 1349      65666175 
 1349      6C744861 
 1349      6E646C65 
 1349      7200
 1350              	.LASF25:
 1351 01d9 5F736272 		.ascii	"_sbrk\000"
 1351      6B00
 1352              	.LASF14:
 1353 01df 646F7562 		.ascii	"double\000"
 1353      6C6500
 1354              	.LASF47:
 1355 01e6 696E6974 		.ascii	"initialize_psoc\000"
 1355      69616C69 
 1355      7A655F70 
 1355      736F6300 
 1356              	.LASF42:
 1357 01f6 47656E65 		.ascii	"Generated_Source\\PSoC4\\Cm0Start.c\000"
 1357      72617465 
 1357      645F536F 
 1357      75726365 
 1357      5C50536F 
 1358              	.LASF12:
 1359 0218 75696E74 		.ascii	"uint32\000"
 1359      333200
 1360              	.LASF35:
 1361 021f 696E6465 		.ascii	"indexInit\000"
ARM GAS  C:\Users\JOSEAN~1\AppData\Local\Temp\cc9RDg7X.s 			page 36


 1361      78496E69 
 1361      7400
 1362              	.LASF8:
 1363 0229 756E7369 		.ascii	"unsigned int\000"
 1363      676E6564 
 1363      20696E74 
 1363      00
 1364              	.LASF7:
 1365 0236 6C6F6E67 		.ascii	"long long unsigned int\000"
 1365      206C6F6E 
 1365      6720756E 
 1365      7369676E 
 1365      65642069 
 1366              	.LASF33:
 1367 024d 6C696D69 		.ascii	"limit\000"
 1367      7400
 1368              	.LASF17:
 1369 0253 63796973 		.ascii	"cyisraddress\000"
 1369      72616464 
 1369      72657373 
 1369      00
 1370              	.LASF22:
 1371 0260 696E6974 		.ascii	"init_size\000"
 1371      5F73697A 
 1371      6500
 1372              	.LASF19:
 1373 026a 5F5F6379 		.ascii	"__cy_byte_align8\000"
 1373      5F627974 
 1373      655F616C 
 1373      69676E38 
 1373      00
 1374              	.LASF18:
 1375 027b 73697A65 		.ascii	"sizetype\000"
 1375      74797065 
 1375      00
 1376              	.LASF6:
 1377 0284 6C6F6E67 		.ascii	"long long int\000"
 1377      206C6F6E 
 1377      6720696E 
 1377      7400
 1378              	.LASF15:
 1379 0292 63686172 		.ascii	"char\000"
 1379      00
 1380              	.LASF2:
 1381 0297 73686F72 		.ascii	"short int\000"
 1381      7420696E 
 1381      7400
 1382              	.LASF4:
 1383 02a1 6C6F6E67 		.ascii	"long int\000"
 1383      20696E74 
 1383      00
 1384              	.LASF9:
 1385 02aa 6C6F6E67 		.ascii	"long double\000"
 1385      20646F75 
 1385      626C6500 
 1386              	.LASF0:
 1387 02b6 7369676E 		.ascii	"signed char\000"
ARM GAS  C:\Users\JOSEAN~1\AppData\Local\Temp\cc9RDg7X.s 			page 37


 1387      65642063 
 1387      68617200 
 1388              	.LASF37:
 1389 02c2 5F5F6379 		.ascii	"__cy_regions\000"
 1389      5F726567 
 1389      696F6E73 
 1389      00
 1390              	.LASF31:
 1391 02cf 72656769 		.ascii	"regions\000"
 1391      6F6E7300 
 1392              	.LASF27:
 1393 02d7 6E627974 		.ascii	"nbytes\000"
 1393      657300
 1394              	.LASF44:
 1395 02de 5F5F6379 		.ascii	"__cy_region\000"
 1395      5F726567 
 1395      696F6E00 
 1396              		.ident	"GCC: (GNU Tools for ARM Embedded Processors) 5.4.1 20160609 (release) [ARM/embedded-5-bran
