ARM GAS  C:\Users\JOSEAN~1\AppData\Local\Temp\ccLtFbKz.s 			page 1


   1              		.syntax unified
   2              		.cpu cortex-m3
   3              		.fpu softvfp
   4              		.eabi_attribute 20, 1
   5              		.eabi_attribute 21, 1
   6              		.eabi_attribute 23, 3
   7              		.eabi_attribute 24, 1
   8              		.eabi_attribute 25, 1
   9              		.eabi_attribute 26, 1
  10              		.eabi_attribute 30, 6
  11              		.eabi_attribute 34, 1
  12              		.eabi_attribute 18, 4
  13              		.thumb
  14              		.file	"cymetadata.c"
  15              		.text
  16              	.Ltext0:
  17              		.cfi_sections	.debug_frame
  18              		.global	cy_meta_configecc
  19              		.section	.cyconfigecc,"a",%progbits
  20              		.align	2
  21              		.type	cy_meta_configecc, %object
  22              		.size	cy_meta_configecc, 172
  23              	cy_meta_configecc:
  24 0000 05       		.byte	5
  25 0001 52       		.byte	82
  26 0002 00       		.byte	0
  27 0003 40       		.byte	64
  28 0004 0B       		.byte	11
  29 0005 02       		.byte	2
  30 0006 01       		.byte	1
  31 0007 40       		.byte	64
  32 0008 09       		.byte	9
  33 0009 03       		.byte	3
  34 000a 01       		.byte	1
  35 000b 40       		.byte	64
  36 000c 06       		.byte	6
  37 000d 05       		.byte	5
  38 000e 01       		.byte	1
  39 000f 40       		.byte	64
  40 0010 03       		.byte	3
  41 0011 0B       		.byte	11
  42 0012 01       		.byte	1
  43 0013 40       		.byte	64
  44 0014 07       		.byte	7
  45 0015 41       		.byte	65
  46 0016 01       		.byte	1
  47 0017 40       		.byte	64
  48 0018 03       		.byte	3
  49 0019 42       		.byte	66
  50 001a 01       		.byte	1
  51 001b 40       		.byte	64
  52 001c 06       		.byte	6
  53 001d 45       		.byte	69
  54 001e 01       		.byte	1
  55 001f 40       		.byte	64
  56 0020 05       		.byte	5
  57 0021 46       		.byte	70
ARM GAS  C:\Users\JOSEAN~1\AppData\Local\Temp\ccLtFbKz.s 			page 2


  58 0022 01       		.byte	1
  59 0023 40       		.byte	64
  60 0024 00       		.byte	0
  61 0025 01       		.byte	1
  62 0026 01       		.byte	1
  63 0027 01       		.byte	1
  64 0028 04       		.byte	4
  65 0029 06       		.byte	6
  66 002a 11       		.byte	17
  67 002b 02       		.byte	2
  68 002c 14       		.byte	20
  69 002d 18       		.byte	24
  70 002e 86       		.byte	-122
  71 002f 04       		.byte	4
  72 0030 9C       		.byte	-100
  73 0031 02       		.byte	2
  74 0032 9E       		.byte	-98
  75 0033 01       		.byte	1
  76 0034 A4       		.byte	-92
  77 0035 01       		.byte	1
  78 0036 A6       		.byte	-90
  79 0037 02       		.byte	2
  80 0038 AA       		.byte	-86
  81 0039 04       		.byte	4
  82 003a B2       		.byte	-78
  83 003b 03       		.byte	3
  84 003c B6       		.byte	-74
  85 003d 04       		.byte	4
  86 003e BE       		.byte	-66
  87 003f 44       		.byte	68
  88 0040 D8       		.byte	-40
  89 0041 04       		.byte	4
  90 0042 DF       		.byte	-33
  91 0043 01       		.byte	1
  92 0044 00       		.byte	0
  93 0045 08       		.byte	8
  94 0046 0B       		.byte	11
  95 0047 01       		.byte	1
  96 0048 13       		.byte	19
  97 0049 28       		.byte	40
  98 004a 18       		.byte	24
  99 004b 02       		.byte	2
 100 004c 1B       		.byte	27
 101 004d 08       		.byte	8
 102 004e 83       		.byte	-125
 103 004f 01       		.byte	1
 104 0050 C0       		.byte	-64
 105 0051 04       		.byte	4
 106 0052 C2       		.byte	-62
 107 0053 01       		.byte	1
 108 0054 C4       		.byte	-60
 109 0055 06       		.byte	6
 110 0056 AF       		.byte	-81
 111 0057 08       		.byte	8
 112 0058 B0       		.byte	-80
 113 0059 04       		.byte	4
 114 005a B3       		.byte	-77
ARM GAS  C:\Users\JOSEAN~1\AppData\Local\Temp\ccLtFbKz.s 			page 3


 115 005b 08       		.byte	8
 116 005c B4       		.byte	-76
 117 005d 01       		.byte	1
 118 005e B7       		.byte	-73
 119 005f 20       		.byte	32
 120 0060 EC       		.byte	-20
 121 0061 80       		.byte	-128
 122 0062 E8       		.byte	-24
 123 0063 40       		.byte	64
 124 0064 EA       		.byte	-22
 125 0065 20       		.byte	32
 126 0066 EE       		.byte	-18
 127 0067 10       		.byte	16
 128 0068 02       		.byte	2
 129 0069 02       		.byte	2
 130 006a 06       		.byte	6
 131 006b 40       		.byte	64
 132 006c 5E       		.byte	94
 133 006d 80       		.byte	-128
 134 006e 82       		.byte	-126
 135 006f 02       		.byte	2
 136 0070 C0       		.byte	-64
 137 0071 60       		.byte	96
 138 0072 D6       		.byte	-42
 139 0073 20       		.byte	32
 140 0074 E0       		.byte	-32
 141 0075 80       		.byte	-128
 142 0076 AE       		.byte	-82
 143 0077 40       		.byte	64
 144 0078 B2       		.byte	-78
 145 0079 40       		.byte	64
 146 007a EE       		.byte	-18
 147 007b 40       		.byte	64
 148 007c 04       		.byte	4
 149 007d 80       		.byte	-128
 150 007e 0B       		.byte	11
 151 007f 20       		.byte	32
 152 0080 50       		.byte	80
 153 0081 01       		.byte	1
 154 0082 C0       		.byte	-64
 155 0083 01       		.byte	1
 156 0084 C2       		.byte	-62
 157 0085 08       		.byte	8
 158 0086 D4       		.byte	-44
 159 0087 01       		.byte	1
 160 0088 B3       		.byte	-77
 161 0089 10       		.byte	16
 162 008a B4       		.byte	-76
 163 008b 41       		.byte	65
 164 008c E8       		.byte	-24
 165 008d 02       		.byte	2
 166 008e EA       		.byte	-22
 167 008f 04       		.byte	4
 168 0090 EE       		.byte	-18
 169 0091 08       		.byte	8
 170 0092 00       		.byte	0
 171 0093 00       		.byte	0
ARM GAS  C:\Users\JOSEAN~1\AppData\Local\Temp\ccLtFbKz.s 			page 4


 172 0094 01       		.byte	1
 173 0095 00       		.byte	0
 174 0096 06       		.byte	6
 175 0097 01       		.byte	1
 176 0098 01       		.byte	1
 177 0099 00       		.byte	0
 178 009a 01       		.byte	1
 179 009b 00       		.byte	0
 180 009c 00       		.byte	0
 181 009d 00       		.byte	0
 182 009e 00       		.byte	0
 183 009f 00       		.byte	0
 184 00a0 18       		.byte	24
 185 00a1 00       		.byte	0
 186 00a2 00       		.byte	0
 187 00a3 1A       		.byte	26
 188 00a4 02       		.byte	2
 189 00a5 00       		.byte	0
 190 00a6 02       		.byte	2
 191 00a7 00       		.byte	0
 192 00a8 00       		.byte	0
 193 00a9 00       		.byte	0
 194 00aa 00       		.byte	0
 195 00ab 00       		.byte	0
 196              		.global	cy_meta_custnvl
 197              		.section	.cycustnvl,"a",%progbits
 198              		.align	2
 199              		.type	cy_meta_custnvl, %object
 200              		.size	cy_meta_custnvl, 4
 201              	cy_meta_custnvl:
 202 0000 00       		.byte	0
 203 0001 00       		.byte	0
 204 0002 40       		.byte	64
 205 0003 05       		.byte	5
 206              		.global	cy_meta_wonvl
 207              		.section	.cywolatch,"a",%progbits
 208              		.align	2
 209              		.type	cy_meta_wonvl, %object
 210              		.size	cy_meta_wonvl, 4
 211              	cy_meta_wonvl:
 212 0000 BC       		.byte	-68
 213 0001 90       		.byte	-112
 214 0002 AC       		.byte	-84
 215 0003 AF       		.byte	-81
 216              		.global	cy_meta_flashprotect
 217              		.section	.cyflashprotect,"a",%progbits
 218              		.align	2
 219              		.type	cy_meta_flashprotect, %object
 220              		.size	cy_meta_flashprotect, 256
 221              	cy_meta_flashprotect:
 222 0000 00000000 		.space	256
 222      00000000 
 222      00000000 
 222      00000000 
 222      00000000 
 223              		.global	cy_metadata
 224              		.section	.cymeta,"a",%progbits
ARM GAS  C:\Users\JOSEAN~1\AppData\Local\Temp\ccLtFbKz.s 			page 5


 225              		.align	2
 226              		.type	cy_metadata, %object
 227              		.size	cy_metadata, 12
 228              	cy_metadata:
 229 0000 00       		.byte	0
 230 0001 01       		.byte	1
 231 0002 2E       		.byte	46
 232 0003 16       		.byte	22
 233 0004 10       		.byte	16
 234 0005 69       		.byte	105
 235 0006 00       		.byte	0
 236 0007 01       		.byte	1
 237 0008 00       		.byte	0
 238 0009 00       		.byte	0
 239 000a 00       		.byte	0
 240 000b 00       		.byte	0
 241              		.text
 242              	.Letext0:
 243              		.file 1 ".\\Generated_Source\\PSoC5\\cymetadata.c"
 244              		.file 2 ".\\Generated_Source\\PSoC5\\cytypes.h"
 245              		.section	.debug_info,"",%progbits
 246              	.Ldebug_info0:
 247 0000 35010000 		.4byte	0x135
 248 0004 0400     		.2byte	0x4
 249 0006 00000000 		.4byte	.Ldebug_abbrev0
 250 000a 04       		.byte	0x4
 251 000b 01       		.uleb128 0x1
 252 000c B8000000 		.4byte	.LASF18
 253 0010 01       		.byte	0x1
 254 0011 00000000 		.4byte	.LASF19
 255 0015 98010000 		.4byte	.LASF20
 256 0019 00000000 		.4byte	.Ldebug_line0
 257 001d 02       		.uleb128 0x2
 258 001e 01       		.byte	0x1
 259 001f 06       		.byte	0x6
 260 0020 8C010000 		.4byte	.LASF0
 261 0024 02       		.uleb128 0x2
 262 0025 01       		.byte	0x1
 263 0026 08       		.byte	0x8
 264 0027 38000000 		.4byte	.LASF1
 265 002b 02       		.uleb128 0x2
 266 002c 02       		.byte	0x2
 267 002d 05       		.byte	0x5
 268 002e 73010000 		.4byte	.LASF2
 269 0032 02       		.uleb128 0x2
 270 0033 02       		.byte	0x2
 271 0034 07       		.byte	0x7
 272 0035 58000000 		.4byte	.LASF3
 273 0039 02       		.uleb128 0x2
 274 003a 04       		.byte	0x4
 275 003b 05       		.byte	0x5
 276 003c 83010000 		.4byte	.LASF4
 277 0040 02       		.uleb128 0x2
 278 0041 04       		.byte	0x4
 279 0042 07       		.byte	0x7
 280 0043 46000000 		.4byte	.LASF5
 281 0047 02       		.uleb128 0x2
ARM GAS  C:\Users\JOSEAN~1\AppData\Local\Temp\ccLtFbKz.s 			page 6


 282 0048 08       		.byte	0x8
 283 0049 05       		.byte	0x5
 284 004a 60010000 		.4byte	.LASF6
 285 004e 02       		.uleb128 0x2
 286 004f 08       		.byte	0x8
 287 0050 07       		.byte	0x7
 288 0051 A1000000 		.4byte	.LASF7
 289 0055 03       		.uleb128 0x3
 290 0056 04       		.byte	0x4
 291 0057 05       		.byte	0x5
 292 0058 696E7400 		.ascii	"int\000"
 293 005c 02       		.uleb128 0x2
 294 005d 04       		.byte	0x4
 295 005e 07       		.byte	0x7
 296 005f 94000000 		.4byte	.LASF8
 297 0063 04       		.uleb128 0x4
 298 0064 7D010000 		.4byte	.LASF21
 299 0068 02       		.byte	0x2
 300 0069 A1       		.byte	0xa1
 301 006a 24000000 		.4byte	0x24
 302 006e 02       		.uleb128 0x2
 303 006f 04       		.byte	0x4
 304 0070 04       		.byte	0x4
 305 0071 32000000 		.4byte	.LASF9
 306 0075 02       		.uleb128 0x2
 307 0076 08       		.byte	0x8
 308 0077 04       		.byte	0x4
 309 0078 6B000000 		.4byte	.LASF10
 310 007c 02       		.uleb128 0x2
 311 007d 01       		.byte	0x1
 312 007e 08       		.byte	0x8
 313 007f 6E010000 		.4byte	.LASF11
 314 0083 05       		.uleb128 0x5
 315 0084 63000000 		.4byte	0x63
 316 0088 93000000 		.4byte	0x93
 317 008c 06       		.uleb128 0x6
 318 008d 93000000 		.4byte	0x93
 319 0091 AB       		.byte	0xab
 320 0092 00       		.byte	0
 321 0093 02       		.uleb128 0x2
 322 0094 04       		.byte	0x4
 323 0095 07       		.byte	0x7
 324 0096 57010000 		.4byte	.LASF12
 325 009a 07       		.uleb128 0x7
 326 009b 82000000 		.4byte	.LASF13
 327 009f 01       		.byte	0x1
 328 00a0 1C       		.byte	0x1c
 329 00a1 AB000000 		.4byte	0xab
 330 00a5 05       		.uleb128 0x5
 331 00a6 03       		.byte	0x3
 332 00a7 00000000 		.4byte	cy_meta_configecc
 333 00ab 08       		.uleb128 0x8
 334 00ac 83000000 		.4byte	0x83
 335 00b0 05       		.uleb128 0x5
 336 00b1 63000000 		.4byte	0x63
 337 00b5 C0000000 		.4byte	0xc0
 338 00b9 06       		.uleb128 0x6
ARM GAS  C:\Users\JOSEAN~1\AppData\Local\Temp\ccLtFbKz.s 			page 7


 339 00ba 93000000 		.4byte	0x93
 340 00be 03       		.byte	0x3
 341 00bf 00       		.byte	0
 342 00c0 07       		.uleb128 0x7
 343 00c1 72000000 		.4byte	.LASF14
 344 00c5 01       		.byte	0x1
 345 00c6 3C       		.byte	0x3c
 346 00c7 D1000000 		.4byte	0xd1
 347 00cb 05       		.uleb128 0x5
 348 00cc 03       		.byte	0x3
 349 00cd 00000000 		.4byte	cy_meta_custnvl
 350 00d1 08       		.uleb128 0x8
 351 00d2 B0000000 		.4byte	0xb0
 352 00d6 07       		.uleb128 0x7
 353 00d7 49010000 		.4byte	.LASF15
 354 00db 01       		.byte	0x1
 355 00dc 47       		.byte	0x47
 356 00dd E7000000 		.4byte	0xe7
 357 00e1 05       		.uleb128 0x5
 358 00e2 03       		.byte	0x3
 359 00e3 00000000 		.4byte	cy_meta_wonvl
 360 00e7 08       		.uleb128 0x8
 361 00e8 B0000000 		.4byte	0xb0
 362 00ec 05       		.uleb128 0x5
 363 00ed 63000000 		.4byte	0x63
 364 00f1 FC000000 		.4byte	0xfc
 365 00f5 06       		.uleb128 0x6
 366 00f6 93000000 		.4byte	0x93
 367 00fa FF       		.byte	0xff
 368 00fb 00       		.byte	0
 369 00fc 07       		.uleb128 0x7
 370 00fd 34010000 		.4byte	.LASF16
 371 0101 01       		.byte	0x1
 372 0102 52       		.byte	0x52
 373 0103 0D010000 		.4byte	0x10d
 374 0107 05       		.uleb128 0x5
 375 0108 03       		.byte	0x3
 376 0109 00000000 		.4byte	cy_meta_flashprotect
 377 010d 08       		.uleb128 0x8
 378 010e EC000000 		.4byte	0xec
 379 0112 05       		.uleb128 0x5
 380 0113 63000000 		.4byte	0x63
 381 0117 22010000 		.4byte	0x122
 382 011b 06       		.uleb128 0x6
 383 011c 93000000 		.4byte	0x93
 384 0120 0B       		.byte	0xb
 385 0121 00       		.byte	0
 386 0122 07       		.uleb128 0x7
 387 0123 26000000 		.4byte	.LASF17
 388 0127 01       		.byte	0x1
 389 0128 7C       		.byte	0x7c
 390 0129 33010000 		.4byte	0x133
 391 012d 05       		.uleb128 0x5
 392 012e 03       		.byte	0x3
 393 012f 00000000 		.4byte	cy_metadata
 394 0133 08       		.uleb128 0x8
 395 0134 12010000 		.4byte	0x112
ARM GAS  C:\Users\JOSEAN~1\AppData\Local\Temp\ccLtFbKz.s 			page 8


 396 0138 00       		.byte	0
 397              		.section	.debug_abbrev,"",%progbits
 398              	.Ldebug_abbrev0:
 399 0000 01       		.uleb128 0x1
 400 0001 11       		.uleb128 0x11
 401 0002 01       		.byte	0x1
 402 0003 25       		.uleb128 0x25
 403 0004 0E       		.uleb128 0xe
 404 0005 13       		.uleb128 0x13
 405 0006 0B       		.uleb128 0xb
 406 0007 03       		.uleb128 0x3
 407 0008 0E       		.uleb128 0xe
 408 0009 1B       		.uleb128 0x1b
 409 000a 0E       		.uleb128 0xe
 410 000b 10       		.uleb128 0x10
 411 000c 17       		.uleb128 0x17
 412 000d 00       		.byte	0
 413 000e 00       		.byte	0
 414 000f 02       		.uleb128 0x2
 415 0010 24       		.uleb128 0x24
 416 0011 00       		.byte	0
 417 0012 0B       		.uleb128 0xb
 418 0013 0B       		.uleb128 0xb
 419 0014 3E       		.uleb128 0x3e
 420 0015 0B       		.uleb128 0xb
 421 0016 03       		.uleb128 0x3
 422 0017 0E       		.uleb128 0xe
 423 0018 00       		.byte	0
 424 0019 00       		.byte	0
 425 001a 03       		.uleb128 0x3
 426 001b 24       		.uleb128 0x24
 427 001c 00       		.byte	0
 428 001d 0B       		.uleb128 0xb
 429 001e 0B       		.uleb128 0xb
 430 001f 3E       		.uleb128 0x3e
 431 0020 0B       		.uleb128 0xb
 432 0021 03       		.uleb128 0x3
 433 0022 08       		.uleb128 0x8
 434 0023 00       		.byte	0
 435 0024 00       		.byte	0
 436 0025 04       		.uleb128 0x4
 437 0026 16       		.uleb128 0x16
 438 0027 00       		.byte	0
 439 0028 03       		.uleb128 0x3
 440 0029 0E       		.uleb128 0xe
 441 002a 3A       		.uleb128 0x3a
 442 002b 0B       		.uleb128 0xb
 443 002c 3B       		.uleb128 0x3b
 444 002d 0B       		.uleb128 0xb
 445 002e 49       		.uleb128 0x49
 446 002f 13       		.uleb128 0x13
 447 0030 00       		.byte	0
 448 0031 00       		.byte	0
 449 0032 05       		.uleb128 0x5
 450 0033 01       		.uleb128 0x1
 451 0034 01       		.byte	0x1
 452 0035 49       		.uleb128 0x49
ARM GAS  C:\Users\JOSEAN~1\AppData\Local\Temp\ccLtFbKz.s 			page 9


 453 0036 13       		.uleb128 0x13
 454 0037 01       		.uleb128 0x1
 455 0038 13       		.uleb128 0x13
 456 0039 00       		.byte	0
 457 003a 00       		.byte	0
 458 003b 06       		.uleb128 0x6
 459 003c 21       		.uleb128 0x21
 460 003d 00       		.byte	0
 461 003e 49       		.uleb128 0x49
 462 003f 13       		.uleb128 0x13
 463 0040 2F       		.uleb128 0x2f
 464 0041 0B       		.uleb128 0xb
 465 0042 00       		.byte	0
 466 0043 00       		.byte	0
 467 0044 07       		.uleb128 0x7
 468 0045 34       		.uleb128 0x34
 469 0046 00       		.byte	0
 470 0047 03       		.uleb128 0x3
 471 0048 0E       		.uleb128 0xe
 472 0049 3A       		.uleb128 0x3a
 473 004a 0B       		.uleb128 0xb
 474 004b 3B       		.uleb128 0x3b
 475 004c 0B       		.uleb128 0xb
 476 004d 49       		.uleb128 0x49
 477 004e 13       		.uleb128 0x13
 478 004f 3F       		.uleb128 0x3f
 479 0050 19       		.uleb128 0x19
 480 0051 02       		.uleb128 0x2
 481 0052 18       		.uleb128 0x18
 482 0053 00       		.byte	0
 483 0054 00       		.byte	0
 484 0055 08       		.uleb128 0x8
 485 0056 26       		.uleb128 0x26
 486 0057 00       		.byte	0
 487 0058 49       		.uleb128 0x49
 488 0059 13       		.uleb128 0x13
 489 005a 00       		.byte	0
 490 005b 00       		.byte	0
 491 005c 00       		.byte	0
 492              		.section	.debug_aranges,"",%progbits
 493 0000 14000000 		.4byte	0x14
 494 0004 0200     		.2byte	0x2
 495 0006 00000000 		.4byte	.Ldebug_info0
 496 000a 04       		.byte	0x4
 497 000b 00       		.byte	0
 498 000c 0000     		.2byte	0
 499 000e 0000     		.2byte	0
 500 0010 00000000 		.4byte	0
 501 0014 00000000 		.4byte	0
 502              		.section	.debug_line,"",%progbits
 503              	.Ldebug_line0:
 504 0000 4F000000 		.section	.debug_str,"MS",%progbits,1
 504      02004900 
 504      00000201 
 504      FB0E0D00 
 504      01010101 
 505              	.LASF19:
ARM GAS  C:\Users\JOSEAN~1\AppData\Local\Temp\ccLtFbKz.s 			page 10


 506 0000 2E5C4765 		.ascii	".\\Generated_Source\\PSoC5\\cymetadata.c\000"
 506      6E657261 
 506      7465645F 
 506      536F7572 
 506      63655C50 
 507              	.LASF17:
 508 0026 63795F6D 		.ascii	"cy_metadata\000"
 508      65746164 
 508      61746100 
 509              	.LASF9:
 510 0032 666C6F61 		.ascii	"float\000"
 510      7400
 511              	.LASF1:
 512 0038 756E7369 		.ascii	"unsigned char\000"
 512      676E6564 
 512      20636861 
 512      7200
 513              	.LASF5:
 514 0046 6C6F6E67 		.ascii	"long unsigned int\000"
 514      20756E73 
 514      69676E65 
 514      6420696E 
 514      7400
 515              	.LASF3:
 516 0058 73686F72 		.ascii	"short unsigned int\000"
 516      7420756E 
 516      7369676E 
 516      65642069 
 516      6E7400
 517              	.LASF10:
 518 006b 646F7562 		.ascii	"double\000"
 518      6C6500
 519              	.LASF14:
 520 0072 63795F6D 		.ascii	"cy_meta_custnvl\000"
 520      6574615F 
 520      63757374 
 520      6E766C00 
 521              	.LASF13:
 522 0082 63795F6D 		.ascii	"cy_meta_configecc\000"
 522      6574615F 
 522      636F6E66 
 522      69676563 
 522      6300
 523              	.LASF8:
 524 0094 756E7369 		.ascii	"unsigned int\000"
 524      676E6564 
 524      20696E74 
 524      00
 525              	.LASF7:
 526 00a1 6C6F6E67 		.ascii	"long long unsigned int\000"
 526      206C6F6E 
 526      6720756E 
 526      7369676E 
 526      65642069 
 527              	.LASF18:
 528 00b8 474E5520 		.ascii	"GNU C 4.8.4 20140526 (release) [ARM/embedded-4_8-br"
 528      4320342E 
ARM GAS  C:\Users\JOSEAN~1\AppData\Local\Temp\ccLtFbKz.s 			page 11


 528      382E3420 
 528      32303134 
 528      30353236 
 529 00eb 616E6368 		.ascii	"anch revision 211358] -mcpu=cortex-m3 -mthumb -g -O"
 529      20726576 
 529      6973696F 
 529      6E203231 
 529      31333538 
 530 011e 30202D66 		.ascii	"0 -ffunction-sections\000"
 530      66756E63 
 530      74696F6E 
 530      2D736563 
 530      74696F6E 
 531              	.LASF16:
 532 0134 63795F6D 		.ascii	"cy_meta_flashprotect\000"
 532      6574615F 
 532      666C6173 
 532      6870726F 
 532      74656374 
 533              	.LASF15:
 534 0149 63795F6D 		.ascii	"cy_meta_wonvl\000"
 534      6574615F 
 534      776F6E76 
 534      6C00
 535              	.LASF12:
 536 0157 73697A65 		.ascii	"sizetype\000"
 536      74797065 
 536      00
 537              	.LASF6:
 538 0160 6C6F6E67 		.ascii	"long long int\000"
 538      206C6F6E 
 538      6720696E 
 538      7400
 539              	.LASF11:
 540 016e 63686172 		.ascii	"char\000"
 540      00
 541              	.LASF2:
 542 0173 73686F72 		.ascii	"short int\000"
 542      7420696E 
 542      7400
 543              	.LASF21:
 544 017d 75696E74 		.ascii	"uint8\000"
 544      3800
 545              	.LASF4:
 546 0183 6C6F6E67 		.ascii	"long int\000"
 546      20696E74 
 546      00
 547              	.LASF0:
 548 018c 7369676E 		.ascii	"signed char\000"
 548      65642063 
 548      68617200 
 549              	.LASF20:
 550 0198 473A5C44 		.ascii	"G:\\Documentos\\UNIVERSIDAD\\TFG\\Psoc_Practicas\\P"
 550      6F63756D 
 550      656E746F 
 550      735C554E 
 550      49564552 
ARM GAS  C:\Users\JOSEAN~1\AppData\Local\Temp\ccLtFbKz.s 			page 12


 551 01c6 72616374 		.ascii	"racticas\\Puertas_Logicas.cydsn\000"
 551      69636173 
 551      5C507565 
 551      72746173 
 551      5F4C6F67 
 552              		.ident	"GCC: (GNU Tools for ARM Embedded Processors) 4.8.4 20140526 (release) [ARM/embedded-4_8-br
