ARM GAS  C:\Users\JOSEAN~1\AppData\Local\Temp\ccPBtbxP.s 			page 1


   1              		.syntax unified
   2              		.cpu cortex-m3
   3              		.fpu softvfp
   4              		.eabi_attribute 20, 1
   5              		.eabi_attribute 21, 1
   6              		.eabi_attribute 23, 3
   7              		.eabi_attribute 24, 1
   8              		.eabi_attribute 25, 1
   9              		.eabi_attribute 26, 1
  10              		.eabi_attribute 30, 1
  11              		.eabi_attribute 34, 1
  12              		.eabi_attribute 18, 4
  13              		.thumb
  14              		.syntax unified
  15              		.file	"WaveDAC_hall3_Wave2_DMA_dma.c"
  16              		.text
  17              	.Ltext0:
  18              		.cfi_sections	.debug_frame
  19              		.section	.text.WaveDAC_hall3_Wave2_DMA_DmaInitialize,"ax",%progbits
  20              		.align	2
  21              		.global	WaveDAC_hall3_Wave2_DMA_DmaInitialize
  22              		.thumb
  23              		.thumb_func
  24              		.type	WaveDAC_hall3_Wave2_DMA_DmaInitialize, %function
  25              	WaveDAC_hall3_Wave2_DMA_DmaInitialize:
  26              	.LFB0:
  27              		.file 1 "Generated_Source\\PSoC5\\WaveDAC_hall3_Wave2_DMA_dma.c"
   1:Generated_Source\PSoC5/WaveDAC_hall3_Wave2_DMA_dma.c **** /***************************************************************************
   2:Generated_Source\PSoC5/WaveDAC_hall3_Wave2_DMA_dma.c **** * File Name: WaveDAC_hall3_Wave2_DMA_dma.c  
   3:Generated_Source\PSoC5/WaveDAC_hall3_Wave2_DMA_dma.c **** * Version 1.70
   4:Generated_Source\PSoC5/WaveDAC_hall3_Wave2_DMA_dma.c **** *
   5:Generated_Source\PSoC5/WaveDAC_hall3_Wave2_DMA_dma.c **** *  Description:
   6:Generated_Source\PSoC5/WaveDAC_hall3_Wave2_DMA_dma.c **** *   Provides an API for the DMAC component. The API includes functions
   7:Generated_Source\PSoC5/WaveDAC_hall3_Wave2_DMA_dma.c **** *   for the DMA controller, DMA channels and Transfer Descriptors.
   8:Generated_Source\PSoC5/WaveDAC_hall3_Wave2_DMA_dma.c **** *
   9:Generated_Source\PSoC5/WaveDAC_hall3_Wave2_DMA_dma.c **** *
  10:Generated_Source\PSoC5/WaveDAC_hall3_Wave2_DMA_dma.c **** *   Note:
  11:Generated_Source\PSoC5/WaveDAC_hall3_Wave2_DMA_dma.c **** *     This module requires the developer to finish or fill in the auto
  12:Generated_Source\PSoC5/WaveDAC_hall3_Wave2_DMA_dma.c **** *     generated funcions and setup the dma channel and TD's.
  13:Generated_Source\PSoC5/WaveDAC_hall3_Wave2_DMA_dma.c **** *
  14:Generated_Source\PSoC5/WaveDAC_hall3_Wave2_DMA_dma.c **** ********************************************************************************
  15:Generated_Source\PSoC5/WaveDAC_hall3_Wave2_DMA_dma.c **** * Copyright 2008-2010, Cypress Semiconductor Corporation.  All rights reserved.
  16:Generated_Source\PSoC5/WaveDAC_hall3_Wave2_DMA_dma.c **** * You may use this file only in accordance with the license, terms, conditions, 
  17:Generated_Source\PSoC5/WaveDAC_hall3_Wave2_DMA_dma.c **** * disclaimers, and limitations in the end user license agreement accompanying 
  18:Generated_Source\PSoC5/WaveDAC_hall3_Wave2_DMA_dma.c **** * the software package with which this file was provided.
  19:Generated_Source\PSoC5/WaveDAC_hall3_Wave2_DMA_dma.c **** ********************************************************************************/
  20:Generated_Source\PSoC5/WaveDAC_hall3_Wave2_DMA_dma.c **** #include <CYLIB.H>
  21:Generated_Source\PSoC5/WaveDAC_hall3_Wave2_DMA_dma.c **** #include <CYDMAC.H>
  22:Generated_Source\PSoC5/WaveDAC_hall3_Wave2_DMA_dma.c **** #include <WaveDAC_hall3_Wave2_DMA_dma.H>
  23:Generated_Source\PSoC5/WaveDAC_hall3_Wave2_DMA_dma.c **** 
  24:Generated_Source\PSoC5/WaveDAC_hall3_Wave2_DMA_dma.c **** 
  25:Generated_Source\PSoC5/WaveDAC_hall3_Wave2_DMA_dma.c **** 
  26:Generated_Source\PSoC5/WaveDAC_hall3_Wave2_DMA_dma.c **** /****************************************************************************
  27:Generated_Source\PSoC5/WaveDAC_hall3_Wave2_DMA_dma.c **** * 
  28:Generated_Source\PSoC5/WaveDAC_hall3_Wave2_DMA_dma.c **** * The following defines are available in Cyfitter.h
  29:Generated_Source\PSoC5/WaveDAC_hall3_Wave2_DMA_dma.c **** * 
  30:Generated_Source\PSoC5/WaveDAC_hall3_Wave2_DMA_dma.c **** * 
ARM GAS  C:\Users\JOSEAN~1\AppData\Local\Temp\ccPBtbxP.s 			page 2


  31:Generated_Source\PSoC5/WaveDAC_hall3_Wave2_DMA_dma.c **** * 
  32:Generated_Source\PSoC5/WaveDAC_hall3_Wave2_DMA_dma.c **** * WaveDAC_hall3_Wave2_DMA__DRQ_CTL_REG
  33:Generated_Source\PSoC5/WaveDAC_hall3_Wave2_DMA_dma.c **** * 
  34:Generated_Source\PSoC5/WaveDAC_hall3_Wave2_DMA_dma.c **** * 
  35:Generated_Source\PSoC5/WaveDAC_hall3_Wave2_DMA_dma.c **** * WaveDAC_hall3_Wave2_DMA__DRQ_NUMBER
  36:Generated_Source\PSoC5/WaveDAC_hall3_Wave2_DMA_dma.c **** * 
  37:Generated_Source\PSoC5/WaveDAC_hall3_Wave2_DMA_dma.c **** * Number of TD's used by this channel.
  38:Generated_Source\PSoC5/WaveDAC_hall3_Wave2_DMA_dma.c **** * WaveDAC_hall3_Wave2_DMA__NUMBEROF_TDS
  39:Generated_Source\PSoC5/WaveDAC_hall3_Wave2_DMA_dma.c **** * 
  40:Generated_Source\PSoC5/WaveDAC_hall3_Wave2_DMA_dma.c **** * Priority of this channel.
  41:Generated_Source\PSoC5/WaveDAC_hall3_Wave2_DMA_dma.c **** * WaveDAC_hall3_Wave2_DMA__PRIORITY
  42:Generated_Source\PSoC5/WaveDAC_hall3_Wave2_DMA_dma.c **** * 
  43:Generated_Source\PSoC5/WaveDAC_hall3_Wave2_DMA_dma.c **** * True if WaveDAC_hall3_Wave2_DMA_TERMIN_SEL is used.
  44:Generated_Source\PSoC5/WaveDAC_hall3_Wave2_DMA_dma.c **** * WaveDAC_hall3_Wave2_DMA__TERMIN_EN
  45:Generated_Source\PSoC5/WaveDAC_hall3_Wave2_DMA_dma.c **** * 
  46:Generated_Source\PSoC5/WaveDAC_hall3_Wave2_DMA_dma.c **** * TERMIN interrupt line to signal terminate.
  47:Generated_Source\PSoC5/WaveDAC_hall3_Wave2_DMA_dma.c **** * WaveDAC_hall3_Wave2_DMA__TERMIN_SEL
  48:Generated_Source\PSoC5/WaveDAC_hall3_Wave2_DMA_dma.c **** * 
  49:Generated_Source\PSoC5/WaveDAC_hall3_Wave2_DMA_dma.c **** * 
  50:Generated_Source\PSoC5/WaveDAC_hall3_Wave2_DMA_dma.c **** * True if WaveDAC_hall3_Wave2_DMA_TERMOUT0_SEL is used.
  51:Generated_Source\PSoC5/WaveDAC_hall3_Wave2_DMA_dma.c **** * WaveDAC_hall3_Wave2_DMA__TERMOUT0_EN
  52:Generated_Source\PSoC5/WaveDAC_hall3_Wave2_DMA_dma.c **** * 
  53:Generated_Source\PSoC5/WaveDAC_hall3_Wave2_DMA_dma.c **** * 
  54:Generated_Source\PSoC5/WaveDAC_hall3_Wave2_DMA_dma.c **** * TERMOUT0 interrupt line to signal completion.
  55:Generated_Source\PSoC5/WaveDAC_hall3_Wave2_DMA_dma.c **** * WaveDAC_hall3_Wave2_DMA__TERMOUT0_SEL
  56:Generated_Source\PSoC5/WaveDAC_hall3_Wave2_DMA_dma.c **** * 
  57:Generated_Source\PSoC5/WaveDAC_hall3_Wave2_DMA_dma.c **** * 
  58:Generated_Source\PSoC5/WaveDAC_hall3_Wave2_DMA_dma.c **** * True if WaveDAC_hall3_Wave2_DMA_TERMOUT1_SEL is used.
  59:Generated_Source\PSoC5/WaveDAC_hall3_Wave2_DMA_dma.c **** * WaveDAC_hall3_Wave2_DMA__TERMOUT1_EN
  60:Generated_Source\PSoC5/WaveDAC_hall3_Wave2_DMA_dma.c **** * 
  61:Generated_Source\PSoC5/WaveDAC_hall3_Wave2_DMA_dma.c **** * 
  62:Generated_Source\PSoC5/WaveDAC_hall3_Wave2_DMA_dma.c **** * TERMOUT1 interrupt line to signal completion.
  63:Generated_Source\PSoC5/WaveDAC_hall3_Wave2_DMA_dma.c **** * WaveDAC_hall3_Wave2_DMA__TERMOUT1_SEL
  64:Generated_Source\PSoC5/WaveDAC_hall3_Wave2_DMA_dma.c **** * 
  65:Generated_Source\PSoC5/WaveDAC_hall3_Wave2_DMA_dma.c **** ****************************************************************************/
  66:Generated_Source\PSoC5/WaveDAC_hall3_Wave2_DMA_dma.c **** 
  67:Generated_Source\PSoC5/WaveDAC_hall3_Wave2_DMA_dma.c **** 
  68:Generated_Source\PSoC5/WaveDAC_hall3_Wave2_DMA_dma.c **** /* Zero based index of WaveDAC_hall3_Wave2_DMA dma channel */
  69:Generated_Source\PSoC5/WaveDAC_hall3_Wave2_DMA_dma.c **** uint8 WaveDAC_hall3_Wave2_DMA_DmaHandle = DMA_INVALID_CHANNEL;
  70:Generated_Source\PSoC5/WaveDAC_hall3_Wave2_DMA_dma.c **** 
  71:Generated_Source\PSoC5/WaveDAC_hall3_Wave2_DMA_dma.c **** /*********************************************************************
  72:Generated_Source\PSoC5/WaveDAC_hall3_Wave2_DMA_dma.c **** * Function Name: uint8 WaveDAC_hall3_Wave2_DMA_DmaInitalize
  73:Generated_Source\PSoC5/WaveDAC_hall3_Wave2_DMA_dma.c **** **********************************************************************
  74:Generated_Source\PSoC5/WaveDAC_hall3_Wave2_DMA_dma.c **** * Summary:
  75:Generated_Source\PSoC5/WaveDAC_hall3_Wave2_DMA_dma.c **** *   Allocates and initialises a channel of the DMAC to be used by the
  76:Generated_Source\PSoC5/WaveDAC_hall3_Wave2_DMA_dma.c **** *   caller.
  77:Generated_Source\PSoC5/WaveDAC_hall3_Wave2_DMA_dma.c **** *
  78:Generated_Source\PSoC5/WaveDAC_hall3_Wave2_DMA_dma.c **** * Parameters:
  79:Generated_Source\PSoC5/WaveDAC_hall3_Wave2_DMA_dma.c **** *   BurstCount.
  80:Generated_Source\PSoC5/WaveDAC_hall3_Wave2_DMA_dma.c **** *       
  81:Generated_Source\PSoC5/WaveDAC_hall3_Wave2_DMA_dma.c **** *       
  82:Generated_Source\PSoC5/WaveDAC_hall3_Wave2_DMA_dma.c **** *   ReqestPerBurst.
  83:Generated_Source\PSoC5/WaveDAC_hall3_Wave2_DMA_dma.c **** *       
  84:Generated_Source\PSoC5/WaveDAC_hall3_Wave2_DMA_dma.c **** *       
  85:Generated_Source\PSoC5/WaveDAC_hall3_Wave2_DMA_dma.c **** *   UpperSrcAddress.
  86:Generated_Source\PSoC5/WaveDAC_hall3_Wave2_DMA_dma.c **** *       
  87:Generated_Source\PSoC5/WaveDAC_hall3_Wave2_DMA_dma.c **** *       
ARM GAS  C:\Users\JOSEAN~1\AppData\Local\Temp\ccPBtbxP.s 			page 3


  88:Generated_Source\PSoC5/WaveDAC_hall3_Wave2_DMA_dma.c **** *   UpperDestAddress.
  89:Generated_Source\PSoC5/WaveDAC_hall3_Wave2_DMA_dma.c **** *       
  90:Generated_Source\PSoC5/WaveDAC_hall3_Wave2_DMA_dma.c **** *
  91:Generated_Source\PSoC5/WaveDAC_hall3_Wave2_DMA_dma.c **** * Return:
  92:Generated_Source\PSoC5/WaveDAC_hall3_Wave2_DMA_dma.c **** *   The channel that can be used by the caller for DMA activity.
  93:Generated_Source\PSoC5/WaveDAC_hall3_Wave2_DMA_dma.c **** *   DMA_INVALID_CHANNEL (0xFF) if there are no channels left. 
  94:Generated_Source\PSoC5/WaveDAC_hall3_Wave2_DMA_dma.c **** *
  95:Generated_Source\PSoC5/WaveDAC_hall3_Wave2_DMA_dma.c **** *
  96:Generated_Source\PSoC5/WaveDAC_hall3_Wave2_DMA_dma.c **** *******************************************************************/
  97:Generated_Source\PSoC5/WaveDAC_hall3_Wave2_DMA_dma.c **** uint8 WaveDAC_hall3_Wave2_DMA_DmaInitialize(uint8 BurstCount, uint8 ReqestPerBurst, uint16 UpperSrc
  98:Generated_Source\PSoC5/WaveDAC_hall3_Wave2_DMA_dma.c **** {
  28              		.loc 1 98 0
  29              		.cfi_startproc
  30              		@ args = 0, pretend = 0, frame = 0
  31              		@ frame_needed = 0, uses_anonymous_args = 0
  32              	.LVL0:
  33 0000 F0B5     		push	{r4, r5, r6, r7, lr}
  34              		.cfi_def_cfa_offset 20
  35              		.cfi_offset 4, -20
  36              		.cfi_offset 5, -16
  37              		.cfi_offset 6, -12
  38              		.cfi_offset 7, -8
  39              		.cfi_offset 14, -4
  40 0002 83B0     		sub	sp, sp, #12
  41              		.cfi_def_cfa_offset 32
  42 0004 1646     		mov	r6, r2
  43 0006 1F46     		mov	r7, r3
  99:Generated_Source\PSoC5/WaveDAC_hall3_Wave2_DMA_dma.c **** 
 100:Generated_Source\PSoC5/WaveDAC_hall3_Wave2_DMA_dma.c ****     /* Allocate a DMA channel. */
 101:Generated_Source\PSoC5/WaveDAC_hall3_Wave2_DMA_dma.c ****     WaveDAC_hall3_Wave2_DMA_DmaHandle = (uint8)WaveDAC_hall3_Wave2_DMA__DRQ_NUMBER;
  44              		.loc 1 101 0
  45 0008 0B4C     		ldr	r4, .L3
  46 000a 0525     		movs	r5, #5
  47 000c 2570     		strb	r5, [r4]
 102:Generated_Source\PSoC5/WaveDAC_hall3_Wave2_DMA_dma.c **** 
 103:Generated_Source\PSoC5/WaveDAC_hall3_Wave2_DMA_dma.c ****     /* Configure the channel. */
 104:Generated_Source\PSoC5/WaveDAC_hall3_Wave2_DMA_dma.c ****     (void)CyDmaChSetConfiguration(WaveDAC_hall3_Wave2_DMA_DmaHandle,
  48              		.loc 1 104 0
  49 000e 0023     		movs	r3, #0
  50              	.LVL1:
  51 0010 0193     		str	r3, [sp, #4]
  52 0012 0093     		str	r3, [sp]
  53 0014 0A46     		mov	r2, r1
  54              	.LVL2:
  55 0016 0146     		mov	r1, r0
  56              	.LVL3:
  57 0018 2846     		mov	r0, r5
  58              	.LVL4:
  59 001a FFF7FEFF 		bl	CyDmaChSetConfiguration
  60              	.LVL5:
 105:Generated_Source\PSoC5/WaveDAC_hall3_Wave2_DMA_dma.c ****                                   BurstCount,
 106:Generated_Source\PSoC5/WaveDAC_hall3_Wave2_DMA_dma.c ****                                   ReqestPerBurst,
 107:Generated_Source\PSoC5/WaveDAC_hall3_Wave2_DMA_dma.c ****                                   (uint8)WaveDAC_hall3_Wave2_DMA__TERMOUT0_SEL,
 108:Generated_Source\PSoC5/WaveDAC_hall3_Wave2_DMA_dma.c ****                                   (uint8)WaveDAC_hall3_Wave2_DMA__TERMOUT1_SEL,
 109:Generated_Source\PSoC5/WaveDAC_hall3_Wave2_DMA_dma.c ****                                   (uint8)WaveDAC_hall3_Wave2_DMA__TERMIN_SEL);
 110:Generated_Source\PSoC5/WaveDAC_hall3_Wave2_DMA_dma.c **** 
 111:Generated_Source\PSoC5/WaveDAC_hall3_Wave2_DMA_dma.c ****     /* Set the extended address for the transfers */
ARM GAS  C:\Users\JOSEAN~1\AppData\Local\Temp\ccPBtbxP.s 			page 4


 112:Generated_Source\PSoC5/WaveDAC_hall3_Wave2_DMA_dma.c ****     (void)CyDmaChSetExtendedAddress(WaveDAC_hall3_Wave2_DMA_DmaHandle, UpperSrcAddress, UpperDestAd
  61              		.loc 1 112 0
  62 001e 3A46     		mov	r2, r7
  63 0020 3146     		mov	r1, r6
  64 0022 2078     		ldrb	r0, [r4]	@ zero_extendqisi2
  65 0024 FFF7FEFF 		bl	CyDmaChSetExtendedAddress
  66              	.LVL6:
 113:Generated_Source\PSoC5/WaveDAC_hall3_Wave2_DMA_dma.c **** 
 114:Generated_Source\PSoC5/WaveDAC_hall3_Wave2_DMA_dma.c ****     /* Set the priority for this channel */
 115:Generated_Source\PSoC5/WaveDAC_hall3_Wave2_DMA_dma.c ****     (void)CyDmaChPriority(WaveDAC_hall3_Wave2_DMA_DmaHandle, (uint8)WaveDAC_hall3_Wave2_DMA__PRIORI
  67              		.loc 1 115 0
  68 0028 0221     		movs	r1, #2
  69 002a 2078     		ldrb	r0, [r4]	@ zero_extendqisi2
  70 002c FFF7FEFF 		bl	CyDmaChPriority
  71              	.LVL7:
 116:Generated_Source\PSoC5/WaveDAC_hall3_Wave2_DMA_dma.c ****     
 117:Generated_Source\PSoC5/WaveDAC_hall3_Wave2_DMA_dma.c ****     return WaveDAC_hall3_Wave2_DMA_DmaHandle;
 118:Generated_Source\PSoC5/WaveDAC_hall3_Wave2_DMA_dma.c **** }
  72              		.loc 1 118 0
  73 0030 2078     		ldrb	r0, [r4]	@ zero_extendqisi2
  74 0032 03B0     		add	sp, sp, #12
  75              		.cfi_def_cfa_offset 20
  76              		@ sp needed
  77 0034 F0BD     		pop	{r4, r5, r6, r7, pc}
  78              	.L4:
  79 0036 00BF     		.align	2
  80              	.L3:
  81 0038 00000000 		.word	.LANCHOR0
  82              		.cfi_endproc
  83              	.LFE0:
  84              		.size	WaveDAC_hall3_Wave2_DMA_DmaInitialize, .-WaveDAC_hall3_Wave2_DMA_DmaInitialize
  85              		.section	.text.WaveDAC_hall3_Wave2_DMA_DmaRelease,"ax",%progbits
  86              		.align	2
  87              		.global	WaveDAC_hall3_Wave2_DMA_DmaRelease
  88              		.thumb
  89              		.thumb_func
  90              		.type	WaveDAC_hall3_Wave2_DMA_DmaRelease, %function
  91              	WaveDAC_hall3_Wave2_DMA_DmaRelease:
  92              	.LFB1:
 119:Generated_Source\PSoC5/WaveDAC_hall3_Wave2_DMA_dma.c **** 
 120:Generated_Source\PSoC5/WaveDAC_hall3_Wave2_DMA_dma.c **** /*********************************************************************
 121:Generated_Source\PSoC5/WaveDAC_hall3_Wave2_DMA_dma.c **** * Function Name: void WaveDAC_hall3_Wave2_DMA_DmaRelease
 122:Generated_Source\PSoC5/WaveDAC_hall3_Wave2_DMA_dma.c **** **********************************************************************
 123:Generated_Source\PSoC5/WaveDAC_hall3_Wave2_DMA_dma.c **** * Summary:
 124:Generated_Source\PSoC5/WaveDAC_hall3_Wave2_DMA_dma.c **** *   Frees the channel associated with WaveDAC_hall3_Wave2_DMA.
 125:Generated_Source\PSoC5/WaveDAC_hall3_Wave2_DMA_dma.c **** *
 126:Generated_Source\PSoC5/WaveDAC_hall3_Wave2_DMA_dma.c **** *
 127:Generated_Source\PSoC5/WaveDAC_hall3_Wave2_DMA_dma.c **** * Parameters:
 128:Generated_Source\PSoC5/WaveDAC_hall3_Wave2_DMA_dma.c **** *   void.
 129:Generated_Source\PSoC5/WaveDAC_hall3_Wave2_DMA_dma.c **** *
 130:Generated_Source\PSoC5/WaveDAC_hall3_Wave2_DMA_dma.c **** *
 131:Generated_Source\PSoC5/WaveDAC_hall3_Wave2_DMA_dma.c **** *
 132:Generated_Source\PSoC5/WaveDAC_hall3_Wave2_DMA_dma.c **** * Return:
 133:Generated_Source\PSoC5/WaveDAC_hall3_Wave2_DMA_dma.c **** *   void.
 134:Generated_Source\PSoC5/WaveDAC_hall3_Wave2_DMA_dma.c **** *
 135:Generated_Source\PSoC5/WaveDAC_hall3_Wave2_DMA_dma.c **** *******************************************************************/
 136:Generated_Source\PSoC5/WaveDAC_hall3_Wave2_DMA_dma.c **** void WaveDAC_hall3_Wave2_DMA_DmaRelease(void) 
ARM GAS  C:\Users\JOSEAN~1\AppData\Local\Temp\ccPBtbxP.s 			page 5


 137:Generated_Source\PSoC5/WaveDAC_hall3_Wave2_DMA_dma.c **** {
  93              		.loc 1 137 0
  94              		.cfi_startproc
  95              		@ args = 0, pretend = 0, frame = 0
  96              		@ frame_needed = 0, uses_anonymous_args = 0
  97 0000 08B5     		push	{r3, lr}
  98              		.cfi_def_cfa_offset 8
  99              		.cfi_offset 3, -8
 100              		.cfi_offset 14, -4
 138:Generated_Source\PSoC5/WaveDAC_hall3_Wave2_DMA_dma.c ****     /* Disable the channel */
 139:Generated_Source\PSoC5/WaveDAC_hall3_Wave2_DMA_dma.c ****     (void)CyDmaChDisable(WaveDAC_hall3_Wave2_DMA_DmaHandle);
 101              		.loc 1 139 0
 102 0002 024B     		ldr	r3, .L7
 103 0004 1878     		ldrb	r0, [r3]	@ zero_extendqisi2
 104 0006 FFF7FEFF 		bl	CyDmaChDisable
 105              	.LVL8:
 106 000a 08BD     		pop	{r3, pc}
 107              	.L8:
 108              		.align	2
 109              	.L7:
 110 000c 00000000 		.word	.LANCHOR0
 111              		.cfi_endproc
 112              	.LFE1:
 113              		.size	WaveDAC_hall3_Wave2_DMA_DmaRelease, .-WaveDAC_hall3_Wave2_DMA_DmaRelease
 114              		.global	WaveDAC_hall3_Wave2_DMA_DmaHandle
 115              		.data
 116              		.set	.LANCHOR0,. + 0
 117              		.type	WaveDAC_hall3_Wave2_DMA_DmaHandle, %object
 118              		.size	WaveDAC_hall3_Wave2_DMA_DmaHandle, 1
 119              	WaveDAC_hall3_Wave2_DMA_DmaHandle:
 120 0000 FF       		.byte	-1
 121              		.text
 122              	.Letext0:
 123              		.file 2 "Generated_Source\\PSoC5/cytypes.h"
 124              		.file 3 "Generated_Source\\PSoC5/CYDMAC.H"
 125              		.section	.debug_info,"",%progbits
 126              	.Ldebug_info0:
 127 0000 A3010000 		.4byte	0x1a3
 128 0004 0400     		.2byte	0x4
 129 0006 00000000 		.4byte	.Ldebug_abbrev0
 130 000a 04       		.byte	0x4
 131 000b 01       		.uleb128 0x1
 132 000c 9F000000 		.4byte	.LASF24
 133 0010 0C       		.byte	0xc
 134 0011 17020000 		.4byte	.LASF25
 135 0015 2D010000 		.4byte	.LASF26
 136 0019 00000000 		.4byte	.Ldebug_ranges0+0
 137 001d 00000000 		.4byte	0
 138 0021 00000000 		.4byte	.Ldebug_line0
 139 0025 02       		.uleb128 0x2
 140 0026 04       		.byte	0x4
 141 0027 05       		.byte	0x5
 142 0028 696E7400 		.ascii	"int\000"
 143 002c 03       		.uleb128 0x3
 144 002d 04       		.byte	0x4
 145 002e 07       		.byte	0x7
 146 002f A2010000 		.4byte	.LASF0
ARM GAS  C:\Users\JOSEAN~1\AppData\Local\Temp\ccPBtbxP.s 			page 6


 147 0033 03       		.uleb128 0x3
 148 0034 08       		.byte	0x8
 149 0035 05       		.byte	0x5
 150 0036 E0010000 		.4byte	.LASF1
 151 003a 03       		.uleb128 0x3
 152 003b 08       		.byte	0x8
 153 003c 04       		.byte	0x4
 154 003d 77020000 		.4byte	.LASF2
 155 0041 03       		.uleb128 0x3
 156 0042 01       		.byte	0x1
 157 0043 06       		.byte	0x6
 158 0044 83020000 		.4byte	.LASF3
 159 0048 03       		.uleb128 0x3
 160 0049 01       		.byte	0x1
 161 004a 08       		.byte	0x8
 162 004b 91000000 		.4byte	.LASF4
 163 004f 03       		.uleb128 0x3
 164 0050 02       		.byte	0x2
 165 0051 05       		.byte	0x5
 166 0052 0D020000 		.4byte	.LASF5
 167 0056 03       		.uleb128 0x3
 168 0057 02       		.byte	0x2
 169 0058 07       		.byte	0x7
 170 0059 55000000 		.4byte	.LASF6
 171 005d 03       		.uleb128 0x3
 172 005e 04       		.byte	0x4
 173 005f 05       		.byte	0x5
 174 0060 6E020000 		.4byte	.LASF7
 175 0064 03       		.uleb128 0x3
 176 0065 04       		.byte	0x4
 177 0066 07       		.byte	0x7
 178 0067 7C010000 		.4byte	.LASF8
 179 006b 03       		.uleb128 0x3
 180 006c 08       		.byte	0x8
 181 006d 07       		.byte	0x7
 182 006e AF010000 		.4byte	.LASF9
 183 0072 03       		.uleb128 0x3
 184 0073 04       		.byte	0x4
 185 0074 07       		.byte	0x7
 186 0075 D7010000 		.4byte	.LASF10
 187 0079 03       		.uleb128 0x3
 188 007a 01       		.byte	0x1
 189 007b 08       		.byte	0x8
 190 007c 08020000 		.4byte	.LASF11
 191 0080 04       		.uleb128 0x4
 192 0081 8E010000 		.4byte	.LASF12
 193 0085 02       		.byte	0x2
 194 0086 E401     		.2byte	0x1e4
 195 0088 48000000 		.4byte	0x48
 196 008c 04       		.uleb128 0x4
 197 008d 9B010000 		.4byte	.LASF13
 198 0091 02       		.byte	0x2
 199 0092 E501     		.2byte	0x1e5
 200 0094 56000000 		.4byte	0x56
 201 0098 03       		.uleb128 0x3
 202 0099 04       		.byte	0x4
 203 009a 04       		.byte	0x4
ARM GAS  C:\Users\JOSEAN~1\AppData\Local\Temp\ccPBtbxP.s 			page 7


 204 009b 8B000000 		.4byte	.LASF14
 205 009f 03       		.uleb128 0x3
 206 00a0 08       		.byte	0x8
 207 00a1 04       		.byte	0x4
 208 00a2 94010000 		.4byte	.LASF15
 209 00a6 05       		.uleb128 0x5
 210 00a7 00000000 		.4byte	.LASF27
 211 00ab 01       		.byte	0x1
 212 00ac 61       		.byte	0x61
 213 00ad 80000000 		.4byte	0x80
 214 00b1 00000000 		.4byte	.LFB0
 215 00b5 3C000000 		.4byte	.LFE0-.LFB0
 216 00b9 01       		.uleb128 0x1
 217 00ba 9C       		.byte	0x9c
 218 00bb 4A010000 		.4byte	0x14a
 219 00bf 06       		.uleb128 0x6
 220 00c0 B6020000 		.4byte	.LASF16
 221 00c4 01       		.byte	0x1
 222 00c5 61       		.byte	0x61
 223 00c6 80000000 		.4byte	0x80
 224 00ca 00000000 		.4byte	.LLST0
 225 00ce 06       		.uleb128 0x6
 226 00cf 46000000 		.4byte	.LASF17
 227 00d3 01       		.byte	0x1
 228 00d4 61       		.byte	0x61
 229 00d5 80000000 		.4byte	0x80
 230 00d9 21000000 		.4byte	.LLST1
 231 00dd 06       		.uleb128 0x6
 232 00de 26000000 		.4byte	.LASF18
 233 00e2 01       		.byte	0x1
 234 00e3 61       		.byte	0x61
 235 00e4 8C000000 		.4byte	0x8c
 236 00e8 42000000 		.4byte	.LLST2
 237 00ec 06       		.uleb128 0x6
 238 00ed C6010000 		.4byte	.LASF19
 239 00f1 01       		.byte	0x1
 240 00f2 61       		.byte	0x61
 241 00f3 8C000000 		.4byte	0x8c
 242 00f7 63000000 		.4byte	.LLST3
 243 00fb 07       		.uleb128 0x7
 244 00fc 1E000000 		.4byte	.LVL5
 245 0100 7A010000 		.4byte	0x17a
 246 0104 20010000 		.4byte	0x120
 247 0108 08       		.uleb128 0x8
 248 0109 01       		.uleb128 0x1
 249 010a 50       		.byte	0x50
 250 010b 02       		.uleb128 0x2
 251 010c 75       		.byte	0x75
 252 010d 00       		.sleb128 0
 253 010e 08       		.uleb128 0x8
 254 010f 01       		.uleb128 0x1
 255 0110 53       		.byte	0x53
 256 0111 01       		.uleb128 0x1
 257 0112 30       		.byte	0x30
 258 0113 08       		.uleb128 0x8
 259 0114 02       		.uleb128 0x2
 260 0115 7D       		.byte	0x7d
ARM GAS  C:\Users\JOSEAN~1\AppData\Local\Temp\ccPBtbxP.s 			page 8


 261 0116 00       		.sleb128 0
 262 0117 01       		.uleb128 0x1
 263 0118 30       		.byte	0x30
 264 0119 08       		.uleb128 0x8
 265 011a 02       		.uleb128 0x2
 266 011b 7D       		.byte	0x7d
 267 011c 04       		.sleb128 4
 268 011d 01       		.uleb128 0x1
 269 011e 30       		.byte	0x30
 270 011f 00       		.byte	0
 271 0120 07       		.uleb128 0x7
 272 0121 28000000 		.4byte	.LVL6
 273 0125 85010000 		.4byte	0x185
 274 0129 3A010000 		.4byte	0x13a
 275 012d 08       		.uleb128 0x8
 276 012e 01       		.uleb128 0x1
 277 012f 51       		.byte	0x51
 278 0130 02       		.uleb128 0x2
 279 0131 76       		.byte	0x76
 280 0132 00       		.sleb128 0
 281 0133 08       		.uleb128 0x8
 282 0134 01       		.uleb128 0x1
 283 0135 52       		.byte	0x52
 284 0136 02       		.uleb128 0x2
 285 0137 77       		.byte	0x77
 286 0138 00       		.sleb128 0
 287 0139 00       		.byte	0
 288 013a 09       		.uleb128 0x9
 289 013b 30000000 		.4byte	.LVL7
 290 013f 90010000 		.4byte	0x190
 291 0143 08       		.uleb128 0x8
 292 0144 01       		.uleb128 0x1
 293 0145 51       		.byte	0x51
 294 0146 01       		.uleb128 0x1
 295 0147 32       		.byte	0x32
 296 0148 00       		.byte	0
 297 0149 00       		.byte	0
 298 014a 0A       		.uleb128 0xa
 299 014b 68000000 		.4byte	.LASF28
 300 014f 01       		.byte	0x1
 301 0150 88       		.byte	0x88
 302 0151 00000000 		.4byte	.LFB1
 303 0155 10000000 		.4byte	.LFE1-.LFB1
 304 0159 01       		.uleb128 0x1
 305 015a 9C       		.byte	0x9c
 306 015b 69010000 		.4byte	0x169
 307 015f 0B       		.uleb128 0xb
 308 0160 0A000000 		.4byte	.LVL8
 309 0164 9B010000 		.4byte	0x19b
 310 0168 00       		.byte	0
 311 0169 0C       		.uleb128 0xc
 312 016a 4C020000 		.4byte	.LASF29
 313 016e 01       		.byte	0x1
 314 016f 45       		.byte	0x45
 315 0170 80000000 		.4byte	0x80
 316 0174 05       		.uleb128 0x5
 317 0175 03       		.byte	0x3
ARM GAS  C:\Users\JOSEAN~1\AppData\Local\Temp\ccPBtbxP.s 			page 9


 318 0176 00000000 		.4byte	WaveDAC_hall3_Wave2_DMA_DmaHandle
 319 017a 0D       		.uleb128 0xd
 320 017b 9E020000 		.4byte	.LASF20
 321 017f 9E020000 		.4byte	.LASF20
 322 0183 03       		.byte	0x3
 323 0184 33       		.byte	0x33
 324 0185 0D       		.uleb128 0xd
 325 0186 EE010000 		.4byte	.LASF21
 326 018a EE010000 		.4byte	.LASF21
 327 018e 03       		.byte	0x3
 328 018f 2D       		.byte	0x2d
 329 0190 0D       		.uleb128 0xd
 330 0191 36000000 		.4byte	.LASF22
 331 0195 36000000 		.4byte	.LASF22
 332 0199 03       		.byte	0x3
 333 019a 2C       		.byte	0x2c
 334 019b 0D       		.uleb128 0xd
 335 019c 8F020000 		.4byte	.LASF23
 336 01a0 8F020000 		.4byte	.LASF23
 337 01a4 03       		.byte	0x3
 338 01a5 2A       		.byte	0x2a
 339 01a6 00       		.byte	0
 340              		.section	.debug_abbrev,"",%progbits
 341              	.Ldebug_abbrev0:
 342 0000 01       		.uleb128 0x1
 343 0001 11       		.uleb128 0x11
 344 0002 01       		.byte	0x1
 345 0003 25       		.uleb128 0x25
 346 0004 0E       		.uleb128 0xe
 347 0005 13       		.uleb128 0x13
 348 0006 0B       		.uleb128 0xb
 349 0007 03       		.uleb128 0x3
 350 0008 0E       		.uleb128 0xe
 351 0009 1B       		.uleb128 0x1b
 352 000a 0E       		.uleb128 0xe
 353 000b 55       		.uleb128 0x55
 354 000c 17       		.uleb128 0x17
 355 000d 11       		.uleb128 0x11
 356 000e 01       		.uleb128 0x1
 357 000f 10       		.uleb128 0x10
 358 0010 17       		.uleb128 0x17
 359 0011 00       		.byte	0
 360 0012 00       		.byte	0
 361 0013 02       		.uleb128 0x2
 362 0014 24       		.uleb128 0x24
 363 0015 00       		.byte	0
 364 0016 0B       		.uleb128 0xb
 365 0017 0B       		.uleb128 0xb
 366 0018 3E       		.uleb128 0x3e
 367 0019 0B       		.uleb128 0xb
 368 001a 03       		.uleb128 0x3
 369 001b 08       		.uleb128 0x8
 370 001c 00       		.byte	0
 371 001d 00       		.byte	0
 372 001e 03       		.uleb128 0x3
 373 001f 24       		.uleb128 0x24
 374 0020 00       		.byte	0
ARM GAS  C:\Users\JOSEAN~1\AppData\Local\Temp\ccPBtbxP.s 			page 10


 375 0021 0B       		.uleb128 0xb
 376 0022 0B       		.uleb128 0xb
 377 0023 3E       		.uleb128 0x3e
 378 0024 0B       		.uleb128 0xb
 379 0025 03       		.uleb128 0x3
 380 0026 0E       		.uleb128 0xe
 381 0027 00       		.byte	0
 382 0028 00       		.byte	0
 383 0029 04       		.uleb128 0x4
 384 002a 16       		.uleb128 0x16
 385 002b 00       		.byte	0
 386 002c 03       		.uleb128 0x3
 387 002d 0E       		.uleb128 0xe
 388 002e 3A       		.uleb128 0x3a
 389 002f 0B       		.uleb128 0xb
 390 0030 3B       		.uleb128 0x3b
 391 0031 05       		.uleb128 0x5
 392 0032 49       		.uleb128 0x49
 393 0033 13       		.uleb128 0x13
 394 0034 00       		.byte	0
 395 0035 00       		.byte	0
 396 0036 05       		.uleb128 0x5
 397 0037 2E       		.uleb128 0x2e
 398 0038 01       		.byte	0x1
 399 0039 3F       		.uleb128 0x3f
 400 003a 19       		.uleb128 0x19
 401 003b 03       		.uleb128 0x3
 402 003c 0E       		.uleb128 0xe
 403 003d 3A       		.uleb128 0x3a
 404 003e 0B       		.uleb128 0xb
 405 003f 3B       		.uleb128 0x3b
 406 0040 0B       		.uleb128 0xb
 407 0041 27       		.uleb128 0x27
 408 0042 19       		.uleb128 0x19
 409 0043 49       		.uleb128 0x49
 410 0044 13       		.uleb128 0x13
 411 0045 11       		.uleb128 0x11
 412 0046 01       		.uleb128 0x1
 413 0047 12       		.uleb128 0x12
 414 0048 06       		.uleb128 0x6
 415 0049 40       		.uleb128 0x40
 416 004a 18       		.uleb128 0x18
 417 004b 9742     		.uleb128 0x2117
 418 004d 19       		.uleb128 0x19
 419 004e 01       		.uleb128 0x1
 420 004f 13       		.uleb128 0x13
 421 0050 00       		.byte	0
 422 0051 00       		.byte	0
 423 0052 06       		.uleb128 0x6
 424 0053 05       		.uleb128 0x5
 425 0054 00       		.byte	0
 426 0055 03       		.uleb128 0x3
 427 0056 0E       		.uleb128 0xe
 428 0057 3A       		.uleb128 0x3a
 429 0058 0B       		.uleb128 0xb
 430 0059 3B       		.uleb128 0x3b
 431 005a 0B       		.uleb128 0xb
ARM GAS  C:\Users\JOSEAN~1\AppData\Local\Temp\ccPBtbxP.s 			page 11


 432 005b 49       		.uleb128 0x49
 433 005c 13       		.uleb128 0x13
 434 005d 02       		.uleb128 0x2
 435 005e 17       		.uleb128 0x17
 436 005f 00       		.byte	0
 437 0060 00       		.byte	0
 438 0061 07       		.uleb128 0x7
 439 0062 898201   		.uleb128 0x4109
 440 0065 01       		.byte	0x1
 441 0066 11       		.uleb128 0x11
 442 0067 01       		.uleb128 0x1
 443 0068 31       		.uleb128 0x31
 444 0069 13       		.uleb128 0x13
 445 006a 01       		.uleb128 0x1
 446 006b 13       		.uleb128 0x13
 447 006c 00       		.byte	0
 448 006d 00       		.byte	0
 449 006e 08       		.uleb128 0x8
 450 006f 8A8201   		.uleb128 0x410a
 451 0072 00       		.byte	0
 452 0073 02       		.uleb128 0x2
 453 0074 18       		.uleb128 0x18
 454 0075 9142     		.uleb128 0x2111
 455 0077 18       		.uleb128 0x18
 456 0078 00       		.byte	0
 457 0079 00       		.byte	0
 458 007a 09       		.uleb128 0x9
 459 007b 898201   		.uleb128 0x4109
 460 007e 01       		.byte	0x1
 461 007f 11       		.uleb128 0x11
 462 0080 01       		.uleb128 0x1
 463 0081 31       		.uleb128 0x31
 464 0082 13       		.uleb128 0x13
 465 0083 00       		.byte	0
 466 0084 00       		.byte	0
 467 0085 0A       		.uleb128 0xa
 468 0086 2E       		.uleb128 0x2e
 469 0087 01       		.byte	0x1
 470 0088 3F       		.uleb128 0x3f
 471 0089 19       		.uleb128 0x19
 472 008a 03       		.uleb128 0x3
 473 008b 0E       		.uleb128 0xe
 474 008c 3A       		.uleb128 0x3a
 475 008d 0B       		.uleb128 0xb
 476 008e 3B       		.uleb128 0x3b
 477 008f 0B       		.uleb128 0xb
 478 0090 27       		.uleb128 0x27
 479 0091 19       		.uleb128 0x19
 480 0092 11       		.uleb128 0x11
 481 0093 01       		.uleb128 0x1
 482 0094 12       		.uleb128 0x12
 483 0095 06       		.uleb128 0x6
 484 0096 40       		.uleb128 0x40
 485 0097 18       		.uleb128 0x18
 486 0098 9742     		.uleb128 0x2117
 487 009a 19       		.uleb128 0x19
 488 009b 01       		.uleb128 0x1
ARM GAS  C:\Users\JOSEAN~1\AppData\Local\Temp\ccPBtbxP.s 			page 12


 489 009c 13       		.uleb128 0x13
 490 009d 00       		.byte	0
 491 009e 00       		.byte	0
 492 009f 0B       		.uleb128 0xb
 493 00a0 898201   		.uleb128 0x4109
 494 00a3 00       		.byte	0
 495 00a4 11       		.uleb128 0x11
 496 00a5 01       		.uleb128 0x1
 497 00a6 31       		.uleb128 0x31
 498 00a7 13       		.uleb128 0x13
 499 00a8 00       		.byte	0
 500 00a9 00       		.byte	0
 501 00aa 0C       		.uleb128 0xc
 502 00ab 34       		.uleb128 0x34
 503 00ac 00       		.byte	0
 504 00ad 03       		.uleb128 0x3
 505 00ae 0E       		.uleb128 0xe
 506 00af 3A       		.uleb128 0x3a
 507 00b0 0B       		.uleb128 0xb
 508 00b1 3B       		.uleb128 0x3b
 509 00b2 0B       		.uleb128 0xb
 510 00b3 49       		.uleb128 0x49
 511 00b4 13       		.uleb128 0x13
 512 00b5 3F       		.uleb128 0x3f
 513 00b6 19       		.uleb128 0x19
 514 00b7 02       		.uleb128 0x2
 515 00b8 18       		.uleb128 0x18
 516 00b9 00       		.byte	0
 517 00ba 00       		.byte	0
 518 00bb 0D       		.uleb128 0xd
 519 00bc 2E       		.uleb128 0x2e
 520 00bd 00       		.byte	0
 521 00be 3F       		.uleb128 0x3f
 522 00bf 19       		.uleb128 0x19
 523 00c0 3C       		.uleb128 0x3c
 524 00c1 19       		.uleb128 0x19
 525 00c2 6E       		.uleb128 0x6e
 526 00c3 0E       		.uleb128 0xe
 527 00c4 03       		.uleb128 0x3
 528 00c5 0E       		.uleb128 0xe
 529 00c6 3A       		.uleb128 0x3a
 530 00c7 0B       		.uleb128 0xb
 531 00c8 3B       		.uleb128 0x3b
 532 00c9 0B       		.uleb128 0xb
 533 00ca 00       		.byte	0
 534 00cb 00       		.byte	0
 535 00cc 00       		.byte	0
 536              		.section	.debug_loc,"",%progbits
 537              	.Ldebug_loc0:
 538              	.LLST0:
 539 0000 00000000 		.4byte	.LVL0
 540 0004 1A000000 		.4byte	.LVL4
 541 0008 0100     		.2byte	0x1
 542 000a 50       		.byte	0x50
 543 000b 1A000000 		.4byte	.LVL4
 544 000f 3C000000 		.4byte	.LFE0
 545 0013 0400     		.2byte	0x4
ARM GAS  C:\Users\JOSEAN~1\AppData\Local\Temp\ccPBtbxP.s 			page 13


 546 0015 F3       		.byte	0xf3
 547 0016 01       		.uleb128 0x1
 548 0017 50       		.byte	0x50
 549 0018 9F       		.byte	0x9f
 550 0019 00000000 		.4byte	0
 551 001d 00000000 		.4byte	0
 552              	.LLST1:
 553 0021 00000000 		.4byte	.LVL0
 554 0025 18000000 		.4byte	.LVL3
 555 0029 0100     		.2byte	0x1
 556 002b 51       		.byte	0x51
 557 002c 18000000 		.4byte	.LVL3
 558 0030 3C000000 		.4byte	.LFE0
 559 0034 0400     		.2byte	0x4
 560 0036 F3       		.byte	0xf3
 561 0037 01       		.uleb128 0x1
 562 0038 51       		.byte	0x51
 563 0039 9F       		.byte	0x9f
 564 003a 00000000 		.4byte	0
 565 003e 00000000 		.4byte	0
 566              	.LLST2:
 567 0042 00000000 		.4byte	.LVL0
 568 0046 16000000 		.4byte	.LVL2
 569 004a 0100     		.2byte	0x1
 570 004c 52       		.byte	0x52
 571 004d 16000000 		.4byte	.LVL2
 572 0051 3C000000 		.4byte	.LFE0
 573 0055 0400     		.2byte	0x4
 574 0057 F3       		.byte	0xf3
 575 0058 01       		.uleb128 0x1
 576 0059 52       		.byte	0x52
 577 005a 9F       		.byte	0x9f
 578 005b 00000000 		.4byte	0
 579 005f 00000000 		.4byte	0
 580              	.LLST3:
 581 0063 00000000 		.4byte	.LVL0
 582 0067 10000000 		.4byte	.LVL1
 583 006b 0100     		.2byte	0x1
 584 006d 53       		.byte	0x53
 585 006e 10000000 		.4byte	.LVL1
 586 0072 3C000000 		.4byte	.LFE0
 587 0076 0400     		.2byte	0x4
 588 0078 F3       		.byte	0xf3
 589 0079 01       		.uleb128 0x1
 590 007a 53       		.byte	0x53
 591 007b 9F       		.byte	0x9f
 592 007c 00000000 		.4byte	0
 593 0080 00000000 		.4byte	0
 594              		.section	.debug_aranges,"",%progbits
 595 0000 24000000 		.4byte	0x24
 596 0004 0200     		.2byte	0x2
 597 0006 00000000 		.4byte	.Ldebug_info0
 598 000a 04       		.byte	0x4
 599 000b 00       		.byte	0
 600 000c 0000     		.2byte	0
 601 000e 0000     		.2byte	0
 602 0010 00000000 		.4byte	.LFB0
ARM GAS  C:\Users\JOSEAN~1\AppData\Local\Temp\ccPBtbxP.s 			page 14


 603 0014 3C000000 		.4byte	.LFE0-.LFB0
 604 0018 00000000 		.4byte	.LFB1
 605 001c 10000000 		.4byte	.LFE1-.LFB1
 606 0020 00000000 		.4byte	0
 607 0024 00000000 		.4byte	0
 608              		.section	.debug_ranges,"",%progbits
 609              	.Ldebug_ranges0:
 610 0000 00000000 		.4byte	.LFB0
 611 0004 3C000000 		.4byte	.LFE0
 612 0008 00000000 		.4byte	.LFB1
 613 000c 10000000 		.4byte	.LFE1
 614 0010 00000000 		.4byte	0
 615 0014 00000000 		.4byte	0
 616              		.section	.debug_line,"",%progbits
 617              	.Ldebug_line0:
 618 0000 90000000 		.section	.debug_str,"MS",%progbits,1
 618      02006400 
 618      00000201 
 618      FB0E0D00 
 618      01010101 
 619              	.LASF27:
 620 0000 57617665 		.ascii	"WaveDAC_hall3_Wave2_DMA_DmaInitialize\000"
 620      4441435F 
 620      68616C6C 
 620      335F5761 
 620      7665325F 
 621              	.LASF18:
 622 0026 55707065 		.ascii	"UpperSrcAddress\000"
 622      72537263 
 622      41646472 
 622      65737300 
 623              	.LASF22:
 624 0036 4379446D 		.ascii	"CyDmaChPriority\000"
 624      61436850 
 624      72696F72 
 624      69747900 
 625              	.LASF17:
 626 0046 52657165 		.ascii	"ReqestPerBurst\000"
 626      73745065 
 626      72427572 
 626      737400
 627              	.LASF6:
 628 0055 73686F72 		.ascii	"short unsigned int\000"
 628      7420756E 
 628      7369676E 
 628      65642069 
 628      6E7400
 629              	.LASF28:
 630 0068 57617665 		.ascii	"WaveDAC_hall3_Wave2_DMA_DmaRelease\000"
 630      4441435F 
 630      68616C6C 
 630      335F5761 
 630      7665325F 
 631              	.LASF14:
 632 008b 666C6F61 		.ascii	"float\000"
 632      7400
 633              	.LASF4:
ARM GAS  C:\Users\JOSEAN~1\AppData\Local\Temp\ccPBtbxP.s 			page 15


 634 0091 756E7369 		.ascii	"unsigned char\000"
 634      676E6564 
 634      20636861 
 634      7200
 635              	.LASF24:
 636 009f 474E5520 		.ascii	"GNU C11 5.4.1 20160609 (release) [ARM/embedded-5-br"
 636      43313120 
 636      352E342E 
 636      31203230 
 636      31363036 
 637 00d2 616E6368 		.ascii	"anch revision 237715] -mcpu=cortex-m3 -mthumb -g -O"
 637      20726576 
 637      6973696F 
 637      6E203233 
 637      37373135 
 638 0105 67202D66 		.ascii	"g -ffunction-sections -ffat-lto-objects\000"
 638      66756E63 
 638      74696F6E 
 638      2D736563 
 638      74696F6E 
 639              	.LASF26:
 640 012d 443A5C44 		.ascii	"D:\\Documentos\\UNIVERSIDAD\\TFG\\Psoc5_proyectillo"
 640      6F63756D 
 640      656E746F 
 640      735C554E 
 640      49564552 
 641 015c 735C436F 		.ascii	"s\\ControlBrigde2\\Sensored.cydsn\000"
 641      6E74726F 
 641      6C427269 
 641      67646532 
 641      5C53656E 
 642              	.LASF8:
 643 017c 6C6F6E67 		.ascii	"long unsigned int\000"
 643      20756E73 
 643      69676E65 
 643      6420696E 
 643      7400
 644              	.LASF12:
 645 018e 75696E74 		.ascii	"uint8\000"
 645      3800
 646              	.LASF15:
 647 0194 646F7562 		.ascii	"double\000"
 647      6C6500
 648              	.LASF13:
 649 019b 75696E74 		.ascii	"uint16\000"
 649      313600
 650              	.LASF0:
 651 01a2 756E7369 		.ascii	"unsigned int\000"
 651      676E6564 
 651      20696E74 
 651      00
 652              	.LASF9:
 653 01af 6C6F6E67 		.ascii	"long long unsigned int\000"
 653      206C6F6E 
 653      6720756E 
 653      7369676E 
 653      65642069 
ARM GAS  C:\Users\JOSEAN~1\AppData\Local\Temp\ccPBtbxP.s 			page 16


 654              	.LASF19:
 655 01c6 55707065 		.ascii	"UpperDestAddress\000"
 655      72446573 
 655      74416464 
 655      72657373 
 655      00
 656              	.LASF10:
 657 01d7 73697A65 		.ascii	"sizetype\000"
 657      74797065 
 657      00
 658              	.LASF1:
 659 01e0 6C6F6E67 		.ascii	"long long int\000"
 659      206C6F6E 
 659      6720696E 
 659      7400
 660              	.LASF21:
 661 01ee 4379446D 		.ascii	"CyDmaChSetExtendedAddress\000"
 661      61436853 
 661      65744578 
 661      74656E64 
 661      65644164 
 662              	.LASF11:
 663 0208 63686172 		.ascii	"char\000"
 663      00
 664              	.LASF5:
 665 020d 73686F72 		.ascii	"short int\000"
 665      7420696E 
 665      7400
 666              	.LASF25:
 667 0217 47656E65 		.ascii	"Generated_Source\\PSoC5\\WaveDAC_hall3_Wave2_DMA_dm"
 667      72617465 
 667      645F536F 
 667      75726365 
 667      5C50536F 
 668 0248 612E6300 		.ascii	"a.c\000"
 669              	.LASF29:
 670 024c 57617665 		.ascii	"WaveDAC_hall3_Wave2_DMA_DmaHandle\000"
 670      4441435F 
 670      68616C6C 
 670      335F5761 
 670      7665325F 
 671              	.LASF7:
 672 026e 6C6F6E67 		.ascii	"long int\000"
 672      20696E74 
 672      00
 673              	.LASF2:
 674 0277 6C6F6E67 		.ascii	"long double\000"
 674      20646F75 
 674      626C6500 
 675              	.LASF3:
 676 0283 7369676E 		.ascii	"signed char\000"
 676      65642063 
 676      68617200 
 677              	.LASF23:
 678 028f 4379446D 		.ascii	"CyDmaChDisable\000"
 678      61436844 
 678      69736162 
ARM GAS  C:\Users\JOSEAN~1\AppData\Local\Temp\ccPBtbxP.s 			page 17


 678      6C6500
 679              	.LASF20:
 680 029e 4379446D 		.ascii	"CyDmaChSetConfiguration\000"
 680      61436853 
 680      6574436F 
 680      6E666967 
 680      75726174 
 681              	.LASF16:
 682 02b6 42757273 		.ascii	"BurstCount\000"
 682      74436F75 
 682      6E7400
 683              		.ident	"GCC: (GNU Tools for ARM Embedded Processors) 5.4.1 20160609 (release) [ARM/embedded-5-bran
