ARM GAS  C:\Users\JOSEAN~1\AppData\Local\Temp\ccwwiPJS.s 			page 1


   1              		.syntax unified
   2              		.cpu cortex-m3
   3              		.fpu softvfp
   4              		.eabi_attribute 20, 1
   5              		.eabi_attribute 21, 1
   6              		.eabi_attribute 23, 3
   7              		.eabi_attribute 24, 1
   8              		.eabi_attribute 25, 1
   9              		.eabi_attribute 26, 1
  10              		.eabi_attribute 30, 1
  11              		.eabi_attribute 34, 1
  12              		.eabi_attribute 18, 4
  13              		.thumb
  14              		.syntax unified
  15              		.file	"main.c"
  16              		.text
  17              	.Ltext0:
  18              		.cfi_sections	.debug_frame
  19              		.global	__aeabi_f2d
  20              		.global	__aeabi_i2d
  21              		.global	__aeabi_d2uiz
  22              		.global	__aeabi_i2f
  23              		.global	__aeabi_ui2f
  24              		.global	__aeabi_fmul
  25              		.global	__aeabi_fdiv
  26              		.global	__aeabi_dmul
  27              		.section	.text.main,"ax",%progbits
  28              		.align	2
  29              		.global	main
  30              		.thumb
  31              		.thumb_func
  32              		.type	main, %function
  33              	main:
  34              	.LFB64:
  35              		.file 1 "main.c"
   1:main.c        **** /* ========================================
   2:main.c        ****  *
   3:main.c        ****  * Copyright YOUR COMPANY, THE YEAR
   4:main.c        ****  * All Rights Reserved
   5:main.c        ****  * UNPUBLISHED, LICENSED SOFTWARE.
   6:main.c        ****  *
   7:main.c        ****  * CONFIDENTIAL AND PROPRIETARY INFORMATION
   8:main.c        ****  * WHICH IS THE PROPERTY OF your company.
   9:main.c        ****  *
  10:main.c        ****  * ========================================
  11:main.c        **** */
  12:main.c        **** #include "project.h"
  13:main.c        **** #include "stdio.h" //Para sprintf
  14:main.c        **** #include "math.h" //Hay que incluirla tb en el linker
  15:main.c        **** //Creator -> Project -> Build Settings -> Linker  the "Additional Libraries" to "m" 
  16:main.c        **** 
  17:main.c        **** #define MAX_PWM_PERIOD (uint16)(pow(2,PWM_Resolution)-1) //Máximo n bits del período del PWM
  18:main.c        **** #define MAX_POT_LECTURE (uint16)(pow(2,ADC_SAR_DEFAULT_RESOLUTION)-1) //Máximo n bits de lectura e
  19:main.c        **** #define PERIOD_CLOCK (float)(1/24e6) //Período de la señal de reloj principal
  20:main.c        **** 
  21:main.c        **** float dutyPWM; //Duty cycle, de 0% a 100%
  22:main.c        **** uint32 periodPWM; //Period del PWM, de 0 a 255
ARM GAS  C:\Users\JOSEAN~1\AppData\Local\Temp\ccwwiPJS.s 			page 2


  23:main.c        **** uint16 freqPWM; //Frecuencia, de 0-65535Hz
  24:main.c        **** 
  25:main.c        **** int16 data[ADC_NUMBER_OF_CHANNELS];
  26:main.c        **** float volts[ADC_NUMBER_OF_CHANNELS];
  27:main.c        **** 
  28:main.c        **** char str[100]; //String para la representación
  29:main.c        **** 
  30:main.c        **** uint16 countH; //Cuenta realizada por el contador que mide el estado en alto
  31:main.c        **** uint16 countL; //Cuenta realizada por el contador que mide el estado en bajo
  32:main.c        **** 
  33:main.c        **** float period_calc; //Variable para almacenar el período calculado
  34:main.c        **** float freq; //Frecuencia calculada
  35:main.c        **** float duty; //Variable para almacenar el tiempo en alto
  36:main.c        **** float duty_perc; //Variable para convertir el duty en porcentaje
  37:main.c        **** 
  38:main.c        **** int main(void)
  39:main.c        **** {    
  36              		.loc 1 39 0
  37              		.cfi_startproc
  38              		@ args = 0, pretend = 0, frame = 0
  39              		@ frame_needed = 0, uses_anonymous_args = 0
  40 0000 2DE9F043 		push	{r4, r5, r6, r7, r8, r9, lr}
  41              		.cfi_def_cfa_offset 28
  42              		.cfi_offset 4, -28
  43              		.cfi_offset 5, -24
  44              		.cfi_offset 6, -20
  45              		.cfi_offset 7, -16
  46              		.cfi_offset 8, -12
  47              		.cfi_offset 9, -8
  48              		.cfi_offset 14, -4
  49 0004 87B0     		sub	sp, sp, #28
  50              		.cfi_def_cfa_offset 56
  40:main.c        ****     CyGlobalIntEnable; /* Enable global interrupts. */
  51              		.loc 1 40 0
  52              		.syntax unified
  53              	@ 40 "main.c" 1
  54 0006 62B6     		CPSIE   i
  55              	@ 0 "" 2
  41:main.c        ****  
  42:main.c        ****     /* INICIALIZACIÓN COMPONENTES */
  43:main.c        ****     UART_Start();
  56              		.loc 1 43 0
  57              		.thumb
  58              		.syntax unified
  59 0008 FFF7FEFF 		bl	UART_Start
  60              	.LVL0:
  44:main.c        ****     ADC_Start();
  61              		.loc 1 44 0
  62 000c FFF7FEFF 		bl	ADC_Start
  63              	.LVL1:
  45:main.c        ****     PWM_Start();
  64              		.loc 1 45 0
  65 0010 FFF7FEFF 		bl	PWM_Start
  66              	.LVL2:
  46:main.c        ****     CounterH_Start();
  67              		.loc 1 46 0
  68 0014 FFF7FEFF 		bl	CounterH_Start
ARM GAS  C:\Users\JOSEAN~1\AppData\Local\Temp\ccwwiPJS.s 			page 3


  69              	.LVL3:
  47:main.c        ****     CounterL_Start();
  70              		.loc 1 47 0
  71 0018 FFF7FEFF 		bl	CounterL_Start
  72              	.LVL4:
  73              	.L4:
  48:main.c        ****     
  49:main.c        ****     for(;;)
  50:main.c        ****     {
  51:main.c        ****         /**************** LEER POTENCIÓMETROS Y GENERAR SEÑAL *****************/
  52:main.c        ****         
  53:main.c        ****             ADC_StartConvert(); //Empieza la conversión del ADC
  74              		.loc 1 53 0
  75 001c FFF7FEFF 		bl	ADC_StartConvert
  76              	.LVL5:
  54:main.c        ****             ADC_IsEndConversion(ADC_WAIT_FOR_RESULT); //Espera a que se termine
  77              		.loc 1 54 0
  78 0020 0020     		movs	r0, #0
  79 0022 FFF7FEFF 		bl	ADC_IsEndConversion
  80              	.LVL6:
  81              	.LBB2:
  55:main.c        ****             for (uint i = 0; i < ADC_NUMBER_OF_CHANNELS ; i++){ //Leemos los canales del ADC
  82              		.loc 1 55 0
  83 0026 0024     		movs	r4, #0
  84 0028 23E0     		b	.L2
  85              	.LVL7:
  86              	.L3:
  56:main.c        ****                 data[i] = ADC_GetResult16(i); //Almacenamos cada uno en la variable data
  87              		.loc 1 56 0 discriminator 3
  88 002a A0B2     		uxth	r0, r4
  89 002c FFF7FEFF 		bl	ADC_GetResult16
  90              	.LVL8:
  91 0030 0346     		mov	r3, r0
  92 0032 6F4E     		ldr	r6, .L6+16
  93 0034 26F81400 		strh	r0, [r6, r4, lsl #1]	@ movhi
  57:main.c        ****                 sprintf(str, "Data%d: %d bits\n",i,data[i]);  //Creamos un string para representarl
  94              		.loc 1 57 0 discriminator 3
  95 0038 6E4D     		ldr	r5, .L6+20
  96 003a 2246     		mov	r2, r4
  97 003c 6E49     		ldr	r1, .L6+24
  98 003e 2846     		mov	r0, r5
  99 0040 FFF7FEFF 		bl	sprintf
 100              	.LVL9:
  58:main.c        ****                 UART_PutString(str); //Representamos el string
 101              		.loc 1 58 0 discriminator 3
 102 0044 2846     		mov	r0, r5
 103 0046 FFF7FEFF 		bl	UART_PutString
 104              	.LVL10:
  59:main.c        ****                 volts[i] = ADC_CountsTo_Volts(data[i]); //Lo mismo hacemos pero convirtiendo el nbi
 105              		.loc 1 59 0 discriminator 3
 106 004a 36F91400 		ldrsh	r0, [r6, r4, lsl #1]
 107 004e FFF7FEFF 		bl	ADC_CountsTo_Volts
 108              	.LVL11:
 109 0052 6A4B     		ldr	r3, .L6+28
 110 0054 43F82400 		str	r0, [r3, r4, lsl #2]	@ float
  60:main.c        ****                 sprintf(str, "Volts%d: %0.02f V\n",i,volts[i]);
 111              		.loc 1 60 0 discriminator 3
ARM GAS  C:\Users\JOSEAN~1\AppData\Local\Temp\ccwwiPJS.s 			page 4


 112 0058 FFF7FEFF 		bl	__aeabi_f2d
 113              	.LVL12:
 114 005c CDE90001 		strd	r0, [sp]
 115 0060 2246     		mov	r2, r4
 116 0062 6749     		ldr	r1, .L6+32
 117 0064 2846     		mov	r0, r5
 118 0066 FFF7FEFF 		bl	sprintf
 119              	.LVL13:
  61:main.c        ****                 UART_PutString(str);
 120              		.loc 1 61 0 discriminator 3
 121 006a 2846     		mov	r0, r5
 122 006c FFF7FEFF 		bl	UART_PutString
 123              	.LVL14:
  55:main.c        ****                 data[i] = ADC_GetResult16(i); //Almacenamos cada uno en la variable data
 124              		.loc 1 55 0 discriminator 3
 125 0070 0134     		adds	r4, r4, #1
 126              	.LVL15:
 127              	.L2:
  55:main.c        ****                 data[i] = ADC_GetResult16(i); //Almacenamos cada uno en la variable data
 128              		.loc 1 55 0 is_stmt 0 discriminator 1
 129 0072 012C     		cmp	r4, #1
 130 0074 D9D9     		bls	.L3
 131              	.LBE2:
  62:main.c        ****             }
  63:main.c        ****             /* Necesitamos mostrar el duty como un %, ya que se debe aplicar al período, para que 
  64:main.c        ****              * nunca se dé el caso de que el duty sea mayor que el período */
  65:main.c        ****             periodPWM = round(MAX_PWM_PERIOD-MAX_PWM_PERIOD*(MAX_POT_LECTURE-data[0])/MAX_POT_LECTU
 132              		.loc 1 65 0 is_stmt 1
 133 0076 5E4E     		ldr	r6, .L6+16
 134 0078 B6F90030 		ldrsh	r3, [r6]
 135 007c 40F6FF74 		movw	r4, #4095
 136              	.LVL16:
 137 0080 E31A     		subs	r3, r4, r3
 138 0082 C3EB0323 		rsb	r3, r3, r3, lsl #8
 139 0086 5F4D     		ldr	r5, .L6+36
 140 0088 85FB0320 		smull	r2, r0, r5, r3
 141 008c 1844     		add	r0, r0, r3
 142 008e DB17     		asrs	r3, r3, #31
 143 0090 C3EBE020 		rsb	r0, r3, r0, asr #11
 144 0094 C0F1FF00 		rsb	r0, r0, #255
 145 0098 FFF7FEFF 		bl	__aeabi_i2d
 146              	.LVL17:
 147 009c FFF7FEFF 		bl	round
 148              	.LVL18:
 149 00a0 FFF7FEFF 		bl	__aeabi_d2uiz
 150              	.LVL19:
 151 00a4 8046     		mov	r8, r0
 152 00a6 584F     		ldr	r7, .L6+40
 153 00a8 3860     		str	r0, [r7]
  66:main.c        ****             dutyPWM = data[1]*100/MAX_POT_LECTURE; //Duty en tanto por ciento %
 154              		.loc 1 66 0
 155 00aa B6F90200 		ldrsh	r0, [r6, #2]
 156 00ae 6423     		movs	r3, #100
 157 00b0 03FB00F3 		mul	r3, r3, r0
 158 00b4 85FB0320 		smull	r2, r0, r5, r3
 159 00b8 1844     		add	r0, r0, r3
 160 00ba DB17     		asrs	r3, r3, #31
ARM GAS  C:\Users\JOSEAN~1\AppData\Local\Temp\ccwwiPJS.s 			page 5


 161 00bc C3EBE020 		rsb	r0, r3, r0, asr #11
 162 00c0 FFF7FEFF 		bl	__aeabi_i2f
 163              	.LVL20:
 164 00c4 514E     		ldr	r6, .L6+44
 165 00c6 3060     		str	r0, [r6]	@ float
  67:main.c        ****             sprintf(str, "Period: %lu, Duty: %0.2f%% PWM max: %d, Pot Max: %d\n\n",periodPWM,dutyPW
 166              		.loc 1 67 0
 167 00c8 4A4D     		ldr	r5, .L6+20
 168 00ca 0394     		str	r4, [sp, #12]
 169 00cc FF23     		movs	r3, #255
 170 00ce 0293     		str	r3, [sp, #8]
 171 00d0 FFF7FEFF 		bl	__aeabi_f2d
 172              	.LVL21:
 173 00d4 CDE90001 		strd	r0, [sp]
 174 00d8 4246     		mov	r2, r8
 175 00da 4D49     		ldr	r1, .L6+48
 176 00dc 2846     		mov	r0, r5
 177 00de FFF7FEFF 		bl	sprintf
 178              	.LVL22:
  68:main.c        ****             UART_PutString(str);
 179              		.loc 1 68 0
 180 00e2 2846     		mov	r0, r5
 181 00e4 FFF7FEFF 		bl	UART_PutString
 182              	.LVL23:
  69:main.c        **** 
  70:main.c        ****             /* Modificamos el PWM en función de la lectura de los potenciómetros */
  71:main.c        ****             PWM_WritePeriod(periodPWM); //Escribimos el período
 183              		.loc 1 71 0
 184 00e8 3878     		ldrb	r0, [r7]	@ zero_extendqisi2
 185 00ea FFF7FEFF 		bl	PWM_WritePeriod
 186              	.LVL24:
  72:main.c        ****             PWM_WriteCompare(round(periodPWM*dutyPWM/100)); //Escribimos el nuevo duty cycle
 187              		.loc 1 72 0
 188 00ee 3868     		ldr	r0, [r7]
 189 00f0 FFF7FEFF 		bl	__aeabi_ui2f
 190              	.LVL25:
 191 00f4 3168     		ldr	r1, [r6]	@ float
 192 00f6 FFF7FEFF 		bl	__aeabi_fmul
 193              	.LVL26:
 194 00fa 4649     		ldr	r1, .L6+52
 195 00fc FFF7FEFF 		bl	__aeabi_fdiv
 196              	.LVL27:
 197 0100 FFF7FEFF 		bl	__aeabi_f2d
 198              	.LVL28:
 199 0104 FFF7FEFF 		bl	round
 200              	.LVL29:
 201 0108 FFF7FEFF 		bl	__aeabi_d2uiz
 202              	.LVL30:
 203 010c C0B2     		uxtb	r0, r0
 204 010e FFF7FEFF 		bl	PWM_WriteCompare
 205              	.LVL31:
  73:main.c        ****             
  74:main.c        ****             
  75:main.c        ****        /********************** CALCULAR PERÍODO Y DUTY CYCLE ***********************************/
  76:main.c        ****             
  77:main.c        ****             //Leemos el valor de las capturas, nos dará un número del 0 al 65536
  78:main.c        ****             countH = CounterH_ReadCapture();
ARM GAS  C:\Users\JOSEAN~1\AppData\Local\Temp\ccwwiPJS.s 			page 6


 206              		.loc 1 78 0
 207 0112 FFF7FEFF 		bl	CounterH_ReadCapture
 208              	.LVL32:
 209 0116 404C     		ldr	r4, .L6+56
 210 0118 2080     		strh	r0, [r4]	@ movhi
  79:main.c        ****             countL = CounterL_ReadCapture();
 211              		.loc 1 79 0
 212 011a FFF7FEFF 		bl	CounterL_ReadCapture
 213              	.LVL33:
 214 011e 3F4B     		ldr	r3, .L6+60
 215 0120 1880     		strh	r0, [r3]	@ movhi
  80:main.c        ****             
  81:main.c        ****             //El período será la suma de los dos, y el duty sólo el de high
  82:main.c        ****             period_calc = (countH+countL)*2*PERIOD_CLOCK;
 216              		.loc 1 82 0
 217 0122 2688     		ldrh	r6, [r4]
 218 0124 3044     		add	r0, r0, r6
 219 0126 4000     		lsls	r0, r0, #1
 220 0128 FFF7FEFF 		bl	__aeabi_i2f
 221              	.LVL34:
 222 012c 3C49     		ldr	r1, .L6+64
 223 012e FFF7FEFF 		bl	__aeabi_fmul
 224              	.LVL35:
 225 0132 0446     		mov	r4, r0
 226 0134 DFF80481 		ldr	r8, .L6+92
 227 0138 C8F80000 		str	r0, [r8]	@ float
  83:main.c        ****             freq = 1/period_calc;
 228              		.loc 1 83 0
 229 013c 0146     		mov	r1, r0
 230 013e 4FF07E50 		mov	r0, #1065353216
 231 0142 FFF7FEFF 		bl	__aeabi_fdiv
 232              	.LVL36:
 233 0146 374F     		ldr	r7, .L6+68
 234 0148 3860     		str	r0, [r7]	@ float
  84:main.c        ****             /* Cada bit equivale a un período de Count, que equivale a su vez a dos ciclos  *
  85:main.c        ****              * de reloj global de 24 Mhz.                                                   *
  86:main.c        ****              * count tiene una frecuencia de la mitad, 12 Mhz                               *
  87:main.c        ****              */
  88:main.c        ****             duty = countH*2*PERIOD_CLOCK; //Tiempo que está en alto en us
 235              		.loc 1 88 0
 236 014a 7000     		lsls	r0, r6, #1
 237 014c FFF7FEFF 		bl	__aeabi_i2f
 238              	.LVL37:
 239 0150 3349     		ldr	r1, .L6+64
 240 0152 FFF7FEFF 		bl	__aeabi_fmul
 241              	.LVL38:
 242 0156 344E     		ldr	r6, .L6+72
 243 0158 3060     		str	r0, [r6]	@ float
  89:main.c        ****             duty_perc = duty*100/period_calc;
 244              		.loc 1 89 0
 245 015a 2E49     		ldr	r1, .L6+52
 246 015c FFF7FEFF 		bl	__aeabi_fmul
 247              	.LVL39:
 248 0160 2146     		mov	r1, r4
 249 0162 FFF7FEFF 		bl	__aeabi_fdiv
 250              	.LVL40:
 251 0166 314C     		ldr	r4, .L6+76
ARM GAS  C:\Users\JOSEAN~1\AppData\Local\Temp\ccwwiPJS.s 			page 7


 252 0168 2060     		str	r0, [r4]	@ float
  90:main.c        ****             
  91:main.c        ****             UART_PutString("MEDICIONES\n");
 253              		.loc 1 91 0
 254 016a 3148     		ldr	r0, .L6+80
 255 016c FFF7FEFF 		bl	UART_PutString
 256              	.LVL41:
  92:main.c        ****             sprintf(str, "Periodo calc: %0.2f us, Duty: %0.3fus \nFrecuencia: %0.2fkHz, Duty perc: 
 257              		.loc 1 92 0
 258 0170 D8F80000 		ldr	r0, [r8]	@ float
 259 0174 FFF7FEFF 		bl	__aeabi_f2d
 260              	.LVL42:
 261 0178 19A3     		adr	r3, .L6
 262 017a D3E90023 		ldrd	r2, [r3]
 263 017e FFF7FEFF 		bl	__aeabi_dmul
 264              	.LVL43:
 265 0182 8046     		mov	r8, r0
 266 0184 8946     		mov	r9, r1
 267 0186 2068     		ldr	r0, [r4]	@ float
 268 0188 FFF7FEFF 		bl	__aeabi_f2d
 269              	.LVL44:
 270 018c CDE90401 		strd	r0, [sp, #16]
 271 0190 3868     		ldr	r0, [r7]	@ float
 272 0192 FFF7FEFF 		bl	__aeabi_f2d
 273              	.LVL45:
 274 0196 14A3     		adr	r3, .L6+8
 275 0198 D3E90023 		ldrd	r2, [r3]
 276 019c FFF7FEFF 		bl	__aeabi_dmul
 277              	.LVL46:
 278 01a0 CDE90201 		strd	r0, [sp, #8]
 279 01a4 3068     		ldr	r0, [r6]	@ float
 280 01a6 FFF7FEFF 		bl	__aeabi_f2d
 281              	.LVL47:
 282 01aa 0DA3     		adr	r3, .L6
 283 01ac D3E90023 		ldrd	r2, [r3]
 284 01b0 FFF7FEFF 		bl	__aeabi_dmul
 285              	.LVL48:
 286 01b4 CDE90001 		strd	r0, [sp]
 287 01b8 4246     		mov	r2, r8
 288 01ba 4B46     		mov	r3, r9
 289 01bc 1D49     		ldr	r1, .L6+84
 290 01be 2846     		mov	r0, r5
 291 01c0 FFF7FEFF 		bl	sprintf
 292              	.LVL49:
  93:main.c        ****             UART_PutString(str);
 293              		.loc 1 93 0
 294 01c4 2846     		mov	r0, r5
 295 01c6 FFF7FEFF 		bl	UART_PutString
 296              	.LVL50:
  94:main.c        ****             UART_PutString("******************************\n");
 297              		.loc 1 94 0
 298 01ca 1B48     		ldr	r0, .L6+88
 299 01cc FFF7FEFF 		bl	UART_PutString
 300              	.LVL51:
  95:main.c        ****             CyDelay(3000);          
 301              		.loc 1 95 0
 302 01d0 40F6B830 		movw	r0, #3000
ARM GAS  C:\Users\JOSEAN~1\AppData\Local\Temp\ccwwiPJS.s 			page 8


 303 01d4 FFF7FEFF 		bl	CyDelay
 304              	.LVL52:
  96:main.c        ****     }
 305              		.loc 1 96 0
 306 01d8 20E7     		b	.L4
 307              	.L7:
 308 01da 00BFAFF3 		.align	3
 308      0080
 309              	.L6:
 310 01e0 00000000 		.word	0
 311 01e4 80842E41 		.word	1093567616
 312 01e8 FCA9F1D2 		.word	-755914244
 313 01ec 4D62503F 		.word	1062232653
 314 01f0 00000000 		.word	data
 315 01f4 00000000 		.word	str
 316 01f8 00000000 		.word	.LC0
 317 01fc 00000000 		.word	volts
 318 0200 14000000 		.word	.LC1
 319 0204 81000880 		.word	-2146959231
 320 0208 00000000 		.word	periodPWM
 321 020c 00000000 		.word	dutyPWM
 322 0210 28000000 		.word	.LC2
 323 0214 0000C842 		.word	1120403456
 324 0218 00000000 		.word	countH
 325 021c 00000000 		.word	countL
 326 0220 FCF43233 		.word	858977532
 327 0224 00000000 		.word	freq
 328 0228 00000000 		.word	duty
 329 022c 00000000 		.word	duty_perc
 330 0230 60000000 		.word	.LC3
 331 0234 6C000000 		.word	.LC4
 332 0238 C0000000 		.word	.LC5
 333 023c 00000000 		.word	period_calc
 334              		.cfi_endproc
 335              	.LFE64:
 336              		.size	main, .-main
 337              		.comm	duty_perc,4,4
 338              		.comm	duty,4,4
 339              		.comm	freq,4,4
 340              		.comm	period_calc,4,4
 341              		.comm	countL,2,2
 342              		.comm	countH,2,2
 343              		.comm	str,100,4
 344              		.comm	volts,8,4
 345              		.comm	data,4,4
 346              		.comm	freqPWM,2,2
 347              		.comm	periodPWM,4,4
 348              		.comm	dutyPWM,4,4
 349              		.section	.rodata.str1.4,"aMS",%progbits,1
 350              		.align	2
 351              	.LC0:
 352 0000 44617461 		.ascii	"Data%d: %d bits\012\000"
 352      25643A20 
 352      25642062 
 352      6974730A 
 352      00
 353 0011 000000   		.space	3
ARM GAS  C:\Users\JOSEAN~1\AppData\Local\Temp\ccwwiPJS.s 			page 9


 354              	.LC1:
 355 0014 566F6C74 		.ascii	"Volts%d: %0.02f V\012\000"
 355      7325643A 
 355      2025302E 
 355      30326620 
 355      560A00
 356 0027 00       		.space	1
 357              	.LC2:
 358 0028 50657269 		.ascii	"Period: %lu, Duty: %0.2f%% PWM max: %d, Pot Max: %d"
 358      6F643A20 
 358      256C752C 
 358      20447574 
 358      793A2025 
 359 005b 0A0A00   		.ascii	"\012\012\000"
 360 005e 0000     		.space	2
 361              	.LC3:
 362 0060 4D454449 		.ascii	"MEDICIONES\012\000"
 362      43494F4E 
 362      45530A00 
 363              	.LC4:
 364 006c 50657269 		.ascii	"Periodo calc: %0.2f us, Duty: %0.3fus \012Frecuenci"
 364      6F646F20 
 364      63616C63 
 364      3A202530 
 364      2E326620 
 365 009c 613A2025 		.ascii	"a: %0.2fkHz, Duty perc: %0.2f%%\012\000"
 365      302E3266 
 365      6B487A2C 
 365      20447574 
 365      79207065 
 366 00bd 000000   		.space	3
 367              	.LC5:
 368 00c0 2A2A2A2A 		.ascii	"******************************\012\000"
 368      2A2A2A2A 
 368      2A2A2A2A 
 368      2A2A2A2A 
 368      2A2A2A2A 
 369              		.text
 370              	.Letext0:
 371              		.file 2 "c:\\program files (x86)\\cypress\\psoc creator\\4.2\\psoc creator\\import\\gnu\\arm\\5.4.
 372              		.file 3 "c:\\program files (x86)\\cypress\\psoc creator\\4.2\\psoc creator\\import\\gnu\\arm\\5.4.
 373              		.file 4 "Generated_Source\\PSoC5/cytypes.h"
 374              		.file 5 "c:\\program files (x86)\\cypress\\psoc creator\\4.2\\psoc creator\\import\\gnu\\arm\\5.4.
 375              		.file 6 "Generated_Source\\PSoC5/core_cm3.h"
 376              		.file 7 "Generated_Source\\PSoC5/ADC.h"
 377              		.file 8 "c:\\program files (x86)\\cypress\\psoc creator\\4.2\\psoc creator\\import\\gnu\\arm\\5.4.
 378              		.file 9 "Generated_Source\\PSoC5/UART.h"
 379              		.file 10 "Generated_Source\\PSoC5/PWM.h"
 380              		.file 11 "Generated_Source\\PSoC5/CounterH.h"
 381              		.file 12 "Generated_Source\\PSoC5/CounterL.h"
 382              		.file 13 "c:\\program files (x86)\\cypress\\psoc creator\\4.2\\psoc creator\\import\\gnu\\arm\\5.4
 383              		.file 14 "Generated_Source\\PSoC5/CyLib.h"
 384              		.section	.debug_info,"",%progbits
 385              	.Ldebug_info0:
 386 0000 89040000 		.4byte	0x489
 387 0004 0400     		.2byte	0x4
 388 0006 00000000 		.4byte	.Ldebug_abbrev0
ARM GAS  C:\Users\JOSEAN~1\AppData\Local\Temp\ccwwiPJS.s 			page 10


 389 000a 04       		.byte	0x4
 390 000b 01       		.uleb128 0x1
 391 000c 69000000 		.4byte	.LASF49
 392 0010 0C       		.byte	0xc
 393 0011 44020000 		.4byte	.LASF50
 394 0015 5A020000 		.4byte	.LASF51
 395 0019 00000000 		.4byte	.Ldebug_ranges0+0
 396 001d 00000000 		.4byte	0
 397 0021 00000000 		.4byte	.Ldebug_line0
 398 0025 02       		.uleb128 0x2
 399 0026 01       		.byte	0x1
 400 0027 06       		.byte	0x6
 401 0028 0C030000 		.4byte	.LASF0
 402 002c 02       		.uleb128 0x2
 403 002d 01       		.byte	0x1
 404 002e 08       		.byte	0x8
 405 002f 5B000000 		.4byte	.LASF1
 406 0033 02       		.uleb128 0x2
 407 0034 02       		.byte	0x2
 408 0035 05       		.byte	0x5
 409 0036 7D010000 		.4byte	.LASF2
 410 003a 02       		.uleb128 0x2
 411 003b 02       		.byte	0x2
 412 003c 07       		.byte	0x7
 413 003d 2A010000 		.4byte	.LASF3
 414 0041 03       		.uleb128 0x3
 415 0042 19000000 		.4byte	.LASF9
 416 0046 02       		.byte	0x2
 417 0047 3F       		.byte	0x3f
 418 0048 4C000000 		.4byte	0x4c
 419 004c 02       		.uleb128 0x2
 420 004d 04       		.byte	0x4
 421 004e 05       		.byte	0x5
 422 004f F7020000 		.4byte	.LASF4
 423 0053 02       		.uleb128 0x2
 424 0054 04       		.byte	0x4
 425 0055 07       		.byte	0x7
 426 0056 5A010000 		.4byte	.LASF5
 427 005a 02       		.uleb128 0x2
 428 005b 08       		.byte	0x8
 429 005c 05       		.byte	0x5
 430 005d 36020000 		.4byte	.LASF6
 431 0061 02       		.uleb128 0x2
 432 0062 08       		.byte	0x8
 433 0063 07       		.byte	0x7
 434 0064 BC010000 		.4byte	.LASF7
 435 0068 04       		.uleb128 0x4
 436 0069 04       		.byte	0x4
 437 006a 05       		.byte	0x5
 438 006b 696E7400 		.ascii	"int\000"
 439 006f 02       		.uleb128 0x2
 440 0070 04       		.byte	0x4
 441 0071 07       		.byte	0x7
 442 0072 AF010000 		.4byte	.LASF8
 443 0076 03       		.uleb128 0x3
 444 0077 3A000000 		.4byte	.LASF10
 445 007b 03       		.byte	0x3
ARM GAS  C:\Users\JOSEAN~1\AppData\Local\Temp\ccwwiPJS.s 			page 11


 446 007c 2C       		.byte	0x2c
 447 007d 41000000 		.4byte	0x41
 448 0081 05       		.uleb128 0x5
 449 0082 87010000 		.4byte	.LASF11
 450 0086 04       		.byte	0x4
 451 0087 E501     		.2byte	0x1e5
 452 0089 3A000000 		.4byte	0x3a
 453 008d 05       		.uleb128 0x5
 454 008e 94010000 		.4byte	.LASF12
 455 0092 04       		.byte	0x4
 456 0093 E601     		.2byte	0x1e6
 457 0095 53000000 		.4byte	0x53
 458 0099 05       		.uleb128 0x5
 459 009a 08010000 		.4byte	.LASF13
 460 009e 04       		.byte	0x4
 461 009f E801     		.2byte	0x1e8
 462 00a1 33000000 		.4byte	0x33
 463 00a5 02       		.uleb128 0x2
 464 00a6 04       		.byte	0x4
 465 00a7 04       		.byte	0x4
 466 00a8 49000000 		.4byte	.LASF14
 467 00ac 02       		.uleb128 0x2
 468 00ad 08       		.byte	0x8
 469 00ae 04       		.byte	0x4
 470 00af 23000000 		.4byte	.LASF15
 471 00b3 02       		.uleb128 0x2
 472 00b4 01       		.byte	0x1
 473 00b5 08       		.byte	0x8
 474 00b6 4B020000 		.4byte	.LASF16
 475 00ba 02       		.uleb128 0x2
 476 00bb 08       		.byte	0x8
 477 00bc 04       		.byte	0x4
 478 00bd 00030000 		.4byte	.LASF17
 479 00c1 02       		.uleb128 0x2
 480 00c2 04       		.byte	0x4
 481 00c3 07       		.byte	0x7
 482 00c4 1A020000 		.4byte	.LASF18
 483 00c8 03       		.uleb128 0x3
 484 00c9 0C000000 		.4byte	.LASF19
 485 00cd 05       		.byte	0x5
 486 00ce 6C       		.byte	0x6c
 487 00cf 6F000000 		.4byte	0x6f
 488 00d3 06       		.uleb128 0x6
 489 00d4 9B010000 		.4byte	.LASF52
 490 00d8 01       		.byte	0x1
 491 00d9 26       		.byte	0x26
 492 00da 68000000 		.4byte	0x68
 493 00de 00000000 		.4byte	.LFB64
 494 00e2 40020000 		.4byte	.LFE64-.LFB64
 495 00e6 01       		.uleb128 0x1
 496 00e7 9C       		.byte	0x9c
 497 00e8 C3020000 		.4byte	0x2c3
 498 00ec 07       		.uleb128 0x7
 499 00ed 26000000 		.4byte	.LBB2
 500 00f1 50000000 		.4byte	.LBE2-.LBB2
 501 00f5 8E010000 		.4byte	0x18e
 502 00f9 08       		.uleb128 0x8
ARM GAS  C:\Users\JOSEAN~1\AppData\Local\Temp\ccwwiPJS.s 			page 12


 503 00fa 6900     		.ascii	"i\000"
 504 00fc 01       		.byte	0x1
 505 00fd 37       		.byte	0x37
 506 00fe C8000000 		.4byte	0xc8
 507 0102 00000000 		.4byte	.LLST0
 508 0106 09       		.uleb128 0x9
 509 0107 30000000 		.4byte	.LVL8
 510 010b D0030000 		.4byte	0x3d0
 511 010f 1A010000 		.4byte	0x11a
 512 0113 0A       		.uleb128 0xa
 513 0114 01       		.uleb128 0x1
 514 0115 50       		.byte	0x50
 515 0116 02       		.uleb128 0x2
 516 0117 74       		.byte	0x74
 517 0118 00       		.sleb128 0
 518 0119 00       		.byte	0
 519 011a 09       		.uleb128 0x9
 520 011b 44000000 		.4byte	.LVL9
 521 011f DB030000 		.4byte	0x3db
 522 0123 3D010000 		.4byte	0x13d
 523 0127 0A       		.uleb128 0xa
 524 0128 01       		.uleb128 0x1
 525 0129 50       		.byte	0x50
 526 012a 02       		.uleb128 0x2
 527 012b 75       		.byte	0x75
 528 012c 00       		.sleb128 0
 529 012d 0A       		.uleb128 0xa
 530 012e 01       		.uleb128 0x1
 531 012f 51       		.byte	0x51
 532 0130 05       		.uleb128 0x5
 533 0131 03       		.byte	0x3
 534 0132 00000000 		.4byte	.LC0
 535 0136 0A       		.uleb128 0xa
 536 0137 01       		.uleb128 0x1
 537 0138 52       		.byte	0x52
 538 0139 02       		.uleb128 0x2
 539 013a 74       		.byte	0x74
 540 013b 00       		.sleb128 0
 541 013c 00       		.byte	0
 542 013d 09       		.uleb128 0x9
 543 013e 4A000000 		.4byte	.LVL10
 544 0142 E6030000 		.4byte	0x3e6
 545 0146 51010000 		.4byte	0x151
 546 014a 0A       		.uleb128 0xa
 547 014b 01       		.uleb128 0x1
 548 014c 50       		.byte	0x50
 549 014d 02       		.uleb128 0x2
 550 014e 75       		.byte	0x75
 551 014f 00       		.sleb128 0
 552 0150 00       		.byte	0
 553 0151 0B       		.uleb128 0xb
 554 0152 52000000 		.4byte	.LVL11
 555 0156 F1030000 		.4byte	0x3f1
 556 015a 09       		.uleb128 0x9
 557 015b 6A000000 		.4byte	.LVL13
 558 015f DB030000 		.4byte	0x3db
 559 0163 7D010000 		.4byte	0x17d
ARM GAS  C:\Users\JOSEAN~1\AppData\Local\Temp\ccwwiPJS.s 			page 13


 560 0167 0A       		.uleb128 0xa
 561 0168 01       		.uleb128 0x1
 562 0169 50       		.byte	0x50
 563 016a 02       		.uleb128 0x2
 564 016b 75       		.byte	0x75
 565 016c 00       		.sleb128 0
 566 016d 0A       		.uleb128 0xa
 567 016e 01       		.uleb128 0x1
 568 016f 51       		.byte	0x51
 569 0170 05       		.uleb128 0x5
 570 0171 03       		.byte	0x3
 571 0172 14000000 		.4byte	.LC1
 572 0176 0A       		.uleb128 0xa
 573 0177 01       		.uleb128 0x1
 574 0178 52       		.byte	0x52
 575 0179 02       		.uleb128 0x2
 576 017a 74       		.byte	0x74
 577 017b 00       		.sleb128 0
 578 017c 00       		.byte	0
 579 017d 0C       		.uleb128 0xc
 580 017e 70000000 		.4byte	.LVL14
 581 0182 E6030000 		.4byte	0x3e6
 582 0186 0A       		.uleb128 0xa
 583 0187 01       		.uleb128 0x1
 584 0188 50       		.byte	0x50
 585 0189 02       		.uleb128 0x2
 586 018a 75       		.byte	0x75
 587 018b 00       		.sleb128 0
 588 018c 00       		.byte	0
 589 018d 00       		.byte	0
 590 018e 0B       		.uleb128 0xb
 591 018f 0C000000 		.4byte	.LVL0
 592 0193 FC030000 		.4byte	0x3fc
 593 0197 0B       		.uleb128 0xb
 594 0198 10000000 		.4byte	.LVL1
 595 019c 07040000 		.4byte	0x407
 596 01a0 0B       		.uleb128 0xb
 597 01a1 14000000 		.4byte	.LVL2
 598 01a5 12040000 		.4byte	0x412
 599 01a9 0B       		.uleb128 0xb
 600 01aa 18000000 		.4byte	.LVL3
 601 01ae 1D040000 		.4byte	0x41d
 602 01b2 0B       		.uleb128 0xb
 603 01b3 1C000000 		.4byte	.LVL4
 604 01b7 28040000 		.4byte	0x428
 605 01bb 0B       		.uleb128 0xb
 606 01bc 20000000 		.4byte	.LVL5
 607 01c0 33040000 		.4byte	0x433
 608 01c4 09       		.uleb128 0x9
 609 01c5 26000000 		.4byte	.LVL6
 610 01c9 3E040000 		.4byte	0x43e
 611 01cd D7010000 		.4byte	0x1d7
 612 01d1 0A       		.uleb128 0xa
 613 01d2 01       		.uleb128 0x1
 614 01d3 50       		.byte	0x50
 615 01d4 01       		.uleb128 0x1
 616 01d5 30       		.byte	0x30
ARM GAS  C:\Users\JOSEAN~1\AppData\Local\Temp\ccwwiPJS.s 			page 14


 617 01d6 00       		.byte	0
 618 01d7 0B       		.uleb128 0xb
 619 01d8 A0000000 		.4byte	.LVL18
 620 01dc 49040000 		.4byte	0x449
 621 01e0 09       		.uleb128 0x9
 622 01e1 E2000000 		.4byte	.LVL22
 623 01e5 DB030000 		.4byte	0x3db
 624 01e9 11020000 		.4byte	0x211
 625 01ed 0A       		.uleb128 0xa
 626 01ee 01       		.uleb128 0x1
 627 01ef 50       		.byte	0x50
 628 01f0 02       		.uleb128 0x2
 629 01f1 75       		.byte	0x75
 630 01f2 00       		.sleb128 0
 631 01f3 0A       		.uleb128 0xa
 632 01f4 01       		.uleb128 0x1
 633 01f5 51       		.byte	0x51
 634 01f6 05       		.uleb128 0x5
 635 01f7 03       		.byte	0x3
 636 01f8 28000000 		.4byte	.LC2
 637 01fc 0A       		.uleb128 0xa
 638 01fd 01       		.uleb128 0x1
 639 01fe 52       		.byte	0x52
 640 01ff 02       		.uleb128 0x2
 641 0200 78       		.byte	0x78
 642 0201 00       		.sleb128 0
 643 0202 0A       		.uleb128 0xa
 644 0203 02       		.uleb128 0x2
 645 0204 7D       		.byte	0x7d
 646 0205 08       		.sleb128 8
 647 0206 02       		.uleb128 0x2
 648 0207 08       		.byte	0x8
 649 0208 FF       		.byte	0xff
 650 0209 0A       		.uleb128 0xa
 651 020a 02       		.uleb128 0x2
 652 020b 7D       		.byte	0x7d
 653 020c 0C       		.sleb128 12
 654 020d 02       		.uleb128 0x2
 655 020e 74       		.byte	0x74
 656 020f 00       		.sleb128 0
 657 0210 00       		.byte	0
 658 0211 09       		.uleb128 0x9
 659 0212 E8000000 		.4byte	.LVL23
 660 0216 E6030000 		.4byte	0x3e6
 661 021a 25020000 		.4byte	0x225
 662 021e 0A       		.uleb128 0xa
 663 021f 01       		.uleb128 0x1
 664 0220 50       		.byte	0x50
 665 0221 02       		.uleb128 0x2
 666 0222 75       		.byte	0x75
 667 0223 00       		.sleb128 0
 668 0224 00       		.byte	0
 669 0225 0B       		.uleb128 0xb
 670 0226 EE000000 		.4byte	.LVL24
 671 022a 55040000 		.4byte	0x455
 672 022e 0B       		.uleb128 0xb
 673 022f 08010000 		.4byte	.LVL29
ARM GAS  C:\Users\JOSEAN~1\AppData\Local\Temp\ccwwiPJS.s 			page 15


 674 0233 49040000 		.4byte	0x449
 675 0237 0B       		.uleb128 0xb
 676 0238 12010000 		.4byte	.LVL31
 677 023c 60040000 		.4byte	0x460
 678 0240 0B       		.uleb128 0xb
 679 0241 16010000 		.4byte	.LVL32
 680 0245 6B040000 		.4byte	0x46b
 681 0249 0B       		.uleb128 0xb
 682 024a 1E010000 		.4byte	.LVL33
 683 024e 76040000 		.4byte	0x476
 684 0252 09       		.uleb128 0x9
 685 0253 70010000 		.4byte	.LVL41
 686 0257 E6030000 		.4byte	0x3e6
 687 025b 69020000 		.4byte	0x269
 688 025f 0A       		.uleb128 0xa
 689 0260 01       		.uleb128 0x1
 690 0261 50       		.byte	0x50
 691 0262 05       		.uleb128 0x5
 692 0263 03       		.byte	0x3
 693 0264 60000000 		.4byte	.LC3
 694 0268 00       		.byte	0
 695 0269 09       		.uleb128 0x9
 696 026a C4010000 		.4byte	.LVL49
 697 026e DB030000 		.4byte	0x3db
 698 0272 86020000 		.4byte	0x286
 699 0276 0A       		.uleb128 0xa
 700 0277 01       		.uleb128 0x1
 701 0278 50       		.byte	0x50
 702 0279 02       		.uleb128 0x2
 703 027a 75       		.byte	0x75
 704 027b 00       		.sleb128 0
 705 027c 0A       		.uleb128 0xa
 706 027d 01       		.uleb128 0x1
 707 027e 51       		.byte	0x51
 708 027f 05       		.uleb128 0x5
 709 0280 03       		.byte	0x3
 710 0281 6C000000 		.4byte	.LC4
 711 0285 00       		.byte	0
 712 0286 09       		.uleb128 0x9
 713 0287 CA010000 		.4byte	.LVL50
 714 028b E6030000 		.4byte	0x3e6
 715 028f 9A020000 		.4byte	0x29a
 716 0293 0A       		.uleb128 0xa
 717 0294 01       		.uleb128 0x1
 718 0295 50       		.byte	0x50
 719 0296 02       		.uleb128 0x2
 720 0297 75       		.byte	0x75
 721 0298 00       		.sleb128 0
 722 0299 00       		.byte	0
 723 029a 09       		.uleb128 0x9
 724 029b D0010000 		.4byte	.LVL51
 725 029f E6030000 		.4byte	0x3e6
 726 02a3 B1020000 		.4byte	0x2b1
 727 02a7 0A       		.uleb128 0xa
 728 02a8 01       		.uleb128 0x1
 729 02a9 50       		.byte	0x50
 730 02aa 05       		.uleb128 0x5
ARM GAS  C:\Users\JOSEAN~1\AppData\Local\Temp\ccwwiPJS.s 			page 16


 731 02ab 03       		.byte	0x3
 732 02ac C0000000 		.4byte	.LC5
 733 02b0 00       		.byte	0
 734 02b1 0C       		.uleb128 0xc
 735 02b2 D8010000 		.4byte	.LVL52
 736 02b6 81040000 		.4byte	0x481
 737 02ba 0A       		.uleb128 0xa
 738 02bb 01       		.uleb128 0x1
 739 02bc 50       		.byte	0x50
 740 02bd 03       		.uleb128 0x3
 741 02be 0A       		.byte	0xa
 742 02bf B80B     		.2byte	0xbb8
 743 02c1 00       		.byte	0
 744 02c2 00       		.byte	0
 745 02c3 0D       		.uleb128 0xd
 746 02c4 4D010000 		.4byte	.LASF20
 747 02c8 06       		.byte	0x6
 748 02c9 1207     		.2byte	0x712
 749 02cb CF020000 		.4byte	0x2cf
 750 02cf 0E       		.uleb128 0xe
 751 02d0 76000000 		.4byte	0x76
 752 02d4 0F       		.uleb128 0xf
 753 02d5 22010000 		.4byte	.LASF21
 754 02d9 01       		.byte	0x1
 755 02da 15       		.byte	0x15
 756 02db A5000000 		.4byte	0xa5
 757 02df 05       		.uleb128 0x5
 758 02e0 03       		.byte	0x3
 759 02e1 00000000 		.4byte	dutyPWM
 760 02e5 0F       		.uleb128 0xf
 761 02e6 50020000 		.4byte	.LASF22
 762 02ea 01       		.byte	0x1
 763 02eb 16       		.byte	0x16
 764 02ec 8D000000 		.4byte	0x8d
 765 02f0 05       		.uleb128 0x5
 766 02f1 03       		.byte	0x3
 767 02f2 00000000 		.4byte	periodPWM
 768 02f6 0F       		.uleb128 0xf
 769 02f7 11000000 		.4byte	.LASF23
 770 02fb 01       		.byte	0x1
 771 02fc 17       		.byte	0x17
 772 02fd 81000000 		.4byte	0x81
 773 0301 05       		.uleb128 0x5
 774 0302 03       		.byte	0x3
 775 0303 00000000 		.4byte	freqPWM
 776 0307 10       		.uleb128 0x10
 777 0308 99000000 		.4byte	0x99
 778 030c 17030000 		.4byte	0x317
 779 0310 11       		.uleb128 0x11
 780 0311 C1000000 		.4byte	0xc1
 781 0315 01       		.byte	0x1
 782 0316 00       		.byte	0
 783 0317 0F       		.uleb128 0xf
 784 0318 4F000000 		.4byte	.LASF24
 785 031c 01       		.byte	0x1
 786 031d 19       		.byte	0x19
 787 031e 07030000 		.4byte	0x307
ARM GAS  C:\Users\JOSEAN~1\AppData\Local\Temp\ccwwiPJS.s 			page 17


 788 0322 05       		.uleb128 0x5
 789 0323 03       		.byte	0x3
 790 0324 00000000 		.4byte	data
 791 0328 10       		.uleb128 0x10
 792 0329 A5000000 		.4byte	0xa5
 793 032d 38030000 		.4byte	0x338
 794 0331 11       		.uleb128 0x11
 795 0332 C1000000 		.4byte	0xc1
 796 0336 01       		.byte	0x1
 797 0337 00       		.byte	0
 798 0338 0F       		.uleb128 0xf
 799 0339 F2010000 		.4byte	.LASF25
 800 033d 01       		.byte	0x1
 801 033e 1A       		.byte	0x1a
 802 033f 28030000 		.4byte	0x328
 803 0343 05       		.uleb128 0x5
 804 0344 03       		.byte	0x3
 805 0345 00000000 		.4byte	volts
 806 0349 10       		.uleb128 0x10
 807 034a B3000000 		.4byte	0xb3
 808 034e 59030000 		.4byte	0x359
 809 0352 11       		.uleb128 0x11
 810 0353 C1000000 		.4byte	0xc1
 811 0357 63       		.byte	0x63
 812 0358 00       		.byte	0
 813 0359 12       		.uleb128 0x12
 814 035a 73747200 		.ascii	"str\000"
 815 035e 01       		.byte	0x1
 816 035f 1C       		.byte	0x1c
 817 0360 49030000 		.4byte	0x349
 818 0364 05       		.uleb128 0x5
 819 0365 03       		.byte	0x3
 820 0366 00000000 		.4byte	str
 821 036a 0F       		.uleb128 0xf
 822 036b 42000000 		.4byte	.LASF26
 823 036f 01       		.byte	0x1
 824 0370 1E       		.byte	0x1e
 825 0371 81000000 		.4byte	0x81
 826 0375 05       		.uleb128 0x5
 827 0376 03       		.byte	0x3
 828 0377 00000000 		.4byte	countH
 829 037b 0F       		.uleb128 0xf
 830 037c 54000000 		.4byte	.LASF27
 831 0380 01       		.byte	0x1
 832 0381 1F       		.byte	0x1f
 833 0382 81000000 		.4byte	0x81
 834 0386 05       		.uleb128 0x5
 835 0387 03       		.byte	0x3
 836 0388 00000000 		.4byte	countL
 837 038c 0F       		.uleb128 0xf
 838 038d 00000000 		.4byte	.LASF28
 839 0391 01       		.byte	0x1
 840 0392 21       		.byte	0x21
 841 0393 A5000000 		.4byte	0xa5
 842 0397 05       		.uleb128 0x5
 843 0398 03       		.byte	0x3
 844 0399 00000000 		.4byte	period_calc
ARM GAS  C:\Users\JOSEAN~1\AppData\Local\Temp\ccwwiPJS.s 			page 18


 845 039d 0F       		.uleb128 0xf
 846 039e E8020000 		.4byte	.LASF29
 847 03a2 01       		.byte	0x1
 848 03a3 22       		.byte	0x22
 849 03a4 A5000000 		.4byte	0xa5
 850 03a8 05       		.uleb128 0x5
 851 03a9 03       		.byte	0x3
 852 03aa 00000000 		.4byte	freq
 853 03ae 0F       		.uleb128 0xf
 854 03af 48010000 		.4byte	.LASF30
 855 03b3 01       		.byte	0x1
 856 03b4 23       		.byte	0x23
 857 03b5 A5000000 		.4byte	0xa5
 858 03b9 05       		.uleb128 0x5
 859 03ba 03       		.byte	0x3
 860 03bb 00000000 		.4byte	duty
 861 03bf 0F       		.uleb128 0xf
 862 03c0 10020000 		.4byte	.LASF31
 863 03c4 01       		.byte	0x1
 864 03c5 24       		.byte	0x24
 865 03c6 A5000000 		.4byte	0xa5
 866 03ca 05       		.uleb128 0x5
 867 03cb 03       		.byte	0x3
 868 03cc 00000000 		.4byte	duty_perc
 869 03d0 13       		.uleb128 0x13
 870 03d1 2A000000 		.4byte	.LASF32
 871 03d5 2A000000 		.4byte	.LASF32
 872 03d9 07       		.byte	0x7
 873 03da 35       		.byte	0x35
 874 03db 13       		.uleb128 0x13
 875 03dc F8010000 		.4byte	.LASF33
 876 03e0 F8010000 		.4byte	.LASF33
 877 03e4 08       		.byte	0x8
 878 03e5 E7       		.byte	0xe7
 879 03e6 13       		.uleb128 0x13
 880 03e7 44030000 		.4byte	.LASF34
 881 03eb 44030000 		.4byte	.LASF34
 882 03ef 09       		.byte	0x9
 883 03f0 26       		.byte	0x26
 884 03f1 13       		.uleb128 0x13
 885 03f2 23020000 		.4byte	.LASF35
 886 03f6 23020000 		.4byte	.LASF35
 887 03fa 07       		.byte	0x7
 888 03fb 3C       		.byte	0x3c
 889 03fc 13       		.uleb128 0x13
 890 03fd 3D010000 		.4byte	.LASF36
 891 0401 3D010000 		.4byte	.LASF36
 892 0405 09       		.byte	0x9
 893 0406 1F       		.byte	0x1f
 894 0407 13       		.uleb128 0x13
 895 0408 E8010000 		.4byte	.LASF37
 896 040c E8010000 		.4byte	.LASF37
 897 0410 07       		.byte	0x7
 898 0411 31       		.byte	0x31
 899 0412 13       		.uleb128 0x13
 900 0413 ED020000 		.4byte	.LASF38
 901 0417 ED020000 		.4byte	.LASF38
ARM GAS  C:\Users\JOSEAN~1\AppData\Local\Temp\ccwwiPJS.s 			page 19


 902 041b 0A       		.byte	0xa
 903 041c 92       		.byte	0x92
 904 041d 13       		.uleb128 0x13
 905 041e A0010000 		.4byte	.LASF39
 906 0422 A0010000 		.4byte	.LASF39
 907 0426 0B       		.byte	0xb
 908 0427 4F       		.byte	0x4f
 909 0428 13       		.uleb128 0x13
 910 0429 18030000 		.4byte	.LASF40
 911 042d 18030000 		.4byte	.LASF40
 912 0431 0C       		.byte	0xc
 913 0432 4F       		.byte	0x4f
 914 0433 13       		.uleb128 0x13
 915 0434 F7000000 		.4byte	.LASF41
 916 0438 F7000000 		.4byte	.LASF41
 917 043c 07       		.byte	0x7
 918 043d A1       		.byte	0xa1
 919 043e 13       		.uleb128 0x13
 920 043f 0E010000 		.4byte	.LASF42
 921 0443 0E010000 		.4byte	.LASF42
 922 0447 07       		.byte	0x7
 923 0448 34       		.byte	0x34
 924 0449 14       		.uleb128 0x14
 925 044a 8E010000 		.4byte	.LASF43
 926 044e 8E010000 		.4byte	.LASF43
 927 0452 0D       		.byte	0xd
 928 0453 4B01     		.2byte	0x14b
 929 0455 13       		.uleb128 0x13
 930 0456 00020000 		.4byte	.LASF44
 931 045a 00020000 		.4byte	.LASF44
 932 045e 0A       		.byte	0xa
 933 045f BE       		.byte	0xbe
 934 0460 13       		.uleb128 0x13
 935 0461 6C010000 		.4byte	.LASF45
 936 0465 6C010000 		.4byte	.LASF45
 937 0469 0A       		.byte	0xa
 938 046a C3       		.byte	0xc3
 939 046b 13       		.uleb128 0x13
 940 046c 27030000 		.4byte	.LASF46
 941 0470 27030000 		.4byte	.LASF46
 942 0474 0B       		.byte	0xb
 943 0475 5E       		.byte	0x5e
 944 0476 13       		.uleb128 0x13
 945 0477 D3010000 		.4byte	.LASF47
 946 047b D3010000 		.4byte	.LASF47
 947 047f 0C       		.byte	0xc
 948 0480 5E       		.byte	0x5e
 949 0481 13       		.uleb128 0x13
 950 0482 3C030000 		.4byte	.LASF48
 951 0486 3C030000 		.4byte	.LASF48
 952 048a 0E       		.byte	0xe
 953 048b 76       		.byte	0x76
 954 048c 00       		.byte	0
 955              		.section	.debug_abbrev,"",%progbits
 956              	.Ldebug_abbrev0:
 957 0000 01       		.uleb128 0x1
 958 0001 11       		.uleb128 0x11
ARM GAS  C:\Users\JOSEAN~1\AppData\Local\Temp\ccwwiPJS.s 			page 20


 959 0002 01       		.byte	0x1
 960 0003 25       		.uleb128 0x25
 961 0004 0E       		.uleb128 0xe
 962 0005 13       		.uleb128 0x13
 963 0006 0B       		.uleb128 0xb
 964 0007 03       		.uleb128 0x3
 965 0008 0E       		.uleb128 0xe
 966 0009 1B       		.uleb128 0x1b
 967 000a 0E       		.uleb128 0xe
 968 000b 55       		.uleb128 0x55
 969 000c 17       		.uleb128 0x17
 970 000d 11       		.uleb128 0x11
 971 000e 01       		.uleb128 0x1
 972 000f 10       		.uleb128 0x10
 973 0010 17       		.uleb128 0x17
 974 0011 00       		.byte	0
 975 0012 00       		.byte	0
 976 0013 02       		.uleb128 0x2
 977 0014 24       		.uleb128 0x24
 978 0015 00       		.byte	0
 979 0016 0B       		.uleb128 0xb
 980 0017 0B       		.uleb128 0xb
 981 0018 3E       		.uleb128 0x3e
 982 0019 0B       		.uleb128 0xb
 983 001a 03       		.uleb128 0x3
 984 001b 0E       		.uleb128 0xe
 985 001c 00       		.byte	0
 986 001d 00       		.byte	0
 987 001e 03       		.uleb128 0x3
 988 001f 16       		.uleb128 0x16
 989 0020 00       		.byte	0
 990 0021 03       		.uleb128 0x3
 991 0022 0E       		.uleb128 0xe
 992 0023 3A       		.uleb128 0x3a
 993 0024 0B       		.uleb128 0xb
 994 0025 3B       		.uleb128 0x3b
 995 0026 0B       		.uleb128 0xb
 996 0027 49       		.uleb128 0x49
 997 0028 13       		.uleb128 0x13
 998 0029 00       		.byte	0
 999 002a 00       		.byte	0
 1000 002b 04       		.uleb128 0x4
 1001 002c 24       		.uleb128 0x24
 1002 002d 00       		.byte	0
 1003 002e 0B       		.uleb128 0xb
 1004 002f 0B       		.uleb128 0xb
 1005 0030 3E       		.uleb128 0x3e
 1006 0031 0B       		.uleb128 0xb
 1007 0032 03       		.uleb128 0x3
 1008 0033 08       		.uleb128 0x8
 1009 0034 00       		.byte	0
 1010 0035 00       		.byte	0
 1011 0036 05       		.uleb128 0x5
 1012 0037 16       		.uleb128 0x16
 1013 0038 00       		.byte	0
 1014 0039 03       		.uleb128 0x3
 1015 003a 0E       		.uleb128 0xe
ARM GAS  C:\Users\JOSEAN~1\AppData\Local\Temp\ccwwiPJS.s 			page 21


 1016 003b 3A       		.uleb128 0x3a
 1017 003c 0B       		.uleb128 0xb
 1018 003d 3B       		.uleb128 0x3b
 1019 003e 05       		.uleb128 0x5
 1020 003f 49       		.uleb128 0x49
 1021 0040 13       		.uleb128 0x13
 1022 0041 00       		.byte	0
 1023 0042 00       		.byte	0
 1024 0043 06       		.uleb128 0x6
 1025 0044 2E       		.uleb128 0x2e
 1026 0045 01       		.byte	0x1
 1027 0046 3F       		.uleb128 0x3f
 1028 0047 19       		.uleb128 0x19
 1029 0048 03       		.uleb128 0x3
 1030 0049 0E       		.uleb128 0xe
 1031 004a 3A       		.uleb128 0x3a
 1032 004b 0B       		.uleb128 0xb
 1033 004c 3B       		.uleb128 0x3b
 1034 004d 0B       		.uleb128 0xb
 1035 004e 27       		.uleb128 0x27
 1036 004f 19       		.uleb128 0x19
 1037 0050 49       		.uleb128 0x49
 1038 0051 13       		.uleb128 0x13
 1039 0052 8701     		.uleb128 0x87
 1040 0054 19       		.uleb128 0x19
 1041 0055 11       		.uleb128 0x11
 1042 0056 01       		.uleb128 0x1
 1043 0057 12       		.uleb128 0x12
 1044 0058 06       		.uleb128 0x6
 1045 0059 40       		.uleb128 0x40
 1046 005a 18       		.uleb128 0x18
 1047 005b 9642     		.uleb128 0x2116
 1048 005d 19       		.uleb128 0x19
 1049 005e 01       		.uleb128 0x1
 1050 005f 13       		.uleb128 0x13
 1051 0060 00       		.byte	0
 1052 0061 00       		.byte	0
 1053 0062 07       		.uleb128 0x7
 1054 0063 0B       		.uleb128 0xb
 1055 0064 01       		.byte	0x1
 1056 0065 11       		.uleb128 0x11
 1057 0066 01       		.uleb128 0x1
 1058 0067 12       		.uleb128 0x12
 1059 0068 06       		.uleb128 0x6
 1060 0069 01       		.uleb128 0x1
 1061 006a 13       		.uleb128 0x13
 1062 006b 00       		.byte	0
 1063 006c 00       		.byte	0
 1064 006d 08       		.uleb128 0x8
 1065 006e 34       		.uleb128 0x34
 1066 006f 00       		.byte	0
 1067 0070 03       		.uleb128 0x3
 1068 0071 08       		.uleb128 0x8
 1069 0072 3A       		.uleb128 0x3a
 1070 0073 0B       		.uleb128 0xb
 1071 0074 3B       		.uleb128 0x3b
 1072 0075 0B       		.uleb128 0xb
ARM GAS  C:\Users\JOSEAN~1\AppData\Local\Temp\ccwwiPJS.s 			page 22


 1073 0076 49       		.uleb128 0x49
 1074 0077 13       		.uleb128 0x13
 1075 0078 02       		.uleb128 0x2
 1076 0079 17       		.uleb128 0x17
 1077 007a 00       		.byte	0
 1078 007b 00       		.byte	0
 1079 007c 09       		.uleb128 0x9
 1080 007d 898201   		.uleb128 0x4109
 1081 0080 01       		.byte	0x1
 1082 0081 11       		.uleb128 0x11
 1083 0082 01       		.uleb128 0x1
 1084 0083 31       		.uleb128 0x31
 1085 0084 13       		.uleb128 0x13
 1086 0085 01       		.uleb128 0x1
 1087 0086 13       		.uleb128 0x13
 1088 0087 00       		.byte	0
 1089 0088 00       		.byte	0
 1090 0089 0A       		.uleb128 0xa
 1091 008a 8A8201   		.uleb128 0x410a
 1092 008d 00       		.byte	0
 1093 008e 02       		.uleb128 0x2
 1094 008f 18       		.uleb128 0x18
 1095 0090 9142     		.uleb128 0x2111
 1096 0092 18       		.uleb128 0x18
 1097 0093 00       		.byte	0
 1098 0094 00       		.byte	0
 1099 0095 0B       		.uleb128 0xb
 1100 0096 898201   		.uleb128 0x4109
 1101 0099 00       		.byte	0
 1102 009a 11       		.uleb128 0x11
 1103 009b 01       		.uleb128 0x1
 1104 009c 31       		.uleb128 0x31
 1105 009d 13       		.uleb128 0x13
 1106 009e 00       		.byte	0
 1107 009f 00       		.byte	0
 1108 00a0 0C       		.uleb128 0xc
 1109 00a1 898201   		.uleb128 0x4109
 1110 00a4 01       		.byte	0x1
 1111 00a5 11       		.uleb128 0x11
 1112 00a6 01       		.uleb128 0x1
 1113 00a7 31       		.uleb128 0x31
 1114 00a8 13       		.uleb128 0x13
 1115 00a9 00       		.byte	0
 1116 00aa 00       		.byte	0
 1117 00ab 0D       		.uleb128 0xd
 1118 00ac 34       		.uleb128 0x34
 1119 00ad 00       		.byte	0
 1120 00ae 03       		.uleb128 0x3
 1121 00af 0E       		.uleb128 0xe
 1122 00b0 3A       		.uleb128 0x3a
 1123 00b1 0B       		.uleb128 0xb
 1124 00b2 3B       		.uleb128 0x3b
 1125 00b3 05       		.uleb128 0x5
 1126 00b4 49       		.uleb128 0x49
 1127 00b5 13       		.uleb128 0x13
 1128 00b6 3F       		.uleb128 0x3f
 1129 00b7 19       		.uleb128 0x19
ARM GAS  C:\Users\JOSEAN~1\AppData\Local\Temp\ccwwiPJS.s 			page 23


 1130 00b8 3C       		.uleb128 0x3c
 1131 00b9 19       		.uleb128 0x19
 1132 00ba 00       		.byte	0
 1133 00bb 00       		.byte	0
 1134 00bc 0E       		.uleb128 0xe
 1135 00bd 35       		.uleb128 0x35
 1136 00be 00       		.byte	0
 1137 00bf 49       		.uleb128 0x49
 1138 00c0 13       		.uleb128 0x13
 1139 00c1 00       		.byte	0
 1140 00c2 00       		.byte	0
 1141 00c3 0F       		.uleb128 0xf
 1142 00c4 34       		.uleb128 0x34
 1143 00c5 00       		.byte	0
 1144 00c6 03       		.uleb128 0x3
 1145 00c7 0E       		.uleb128 0xe
 1146 00c8 3A       		.uleb128 0x3a
 1147 00c9 0B       		.uleb128 0xb
 1148 00ca 3B       		.uleb128 0x3b
 1149 00cb 0B       		.uleb128 0xb
 1150 00cc 49       		.uleb128 0x49
 1151 00cd 13       		.uleb128 0x13
 1152 00ce 3F       		.uleb128 0x3f
 1153 00cf 19       		.uleb128 0x19
 1154 00d0 02       		.uleb128 0x2
 1155 00d1 18       		.uleb128 0x18
 1156 00d2 00       		.byte	0
 1157 00d3 00       		.byte	0
 1158 00d4 10       		.uleb128 0x10
 1159 00d5 01       		.uleb128 0x1
 1160 00d6 01       		.byte	0x1
 1161 00d7 49       		.uleb128 0x49
 1162 00d8 13       		.uleb128 0x13
 1163 00d9 01       		.uleb128 0x1
 1164 00da 13       		.uleb128 0x13
 1165 00db 00       		.byte	0
 1166 00dc 00       		.byte	0
 1167 00dd 11       		.uleb128 0x11
 1168 00de 21       		.uleb128 0x21
 1169 00df 00       		.byte	0
 1170 00e0 49       		.uleb128 0x49
 1171 00e1 13       		.uleb128 0x13
 1172 00e2 2F       		.uleb128 0x2f
 1173 00e3 0B       		.uleb128 0xb
 1174 00e4 00       		.byte	0
 1175 00e5 00       		.byte	0
 1176 00e6 12       		.uleb128 0x12
 1177 00e7 34       		.uleb128 0x34
 1178 00e8 00       		.byte	0
 1179 00e9 03       		.uleb128 0x3
 1180 00ea 08       		.uleb128 0x8
 1181 00eb 3A       		.uleb128 0x3a
 1182 00ec 0B       		.uleb128 0xb
 1183 00ed 3B       		.uleb128 0x3b
 1184 00ee 0B       		.uleb128 0xb
 1185 00ef 49       		.uleb128 0x49
 1186 00f0 13       		.uleb128 0x13
ARM GAS  C:\Users\JOSEAN~1\AppData\Local\Temp\ccwwiPJS.s 			page 24


 1187 00f1 3F       		.uleb128 0x3f
 1188 00f2 19       		.uleb128 0x19
 1189 00f3 02       		.uleb128 0x2
 1190 00f4 18       		.uleb128 0x18
 1191 00f5 00       		.byte	0
 1192 00f6 00       		.byte	0
 1193 00f7 13       		.uleb128 0x13
 1194 00f8 2E       		.uleb128 0x2e
 1195 00f9 00       		.byte	0
 1196 00fa 3F       		.uleb128 0x3f
 1197 00fb 19       		.uleb128 0x19
 1198 00fc 3C       		.uleb128 0x3c
 1199 00fd 19       		.uleb128 0x19
 1200 00fe 6E       		.uleb128 0x6e
 1201 00ff 0E       		.uleb128 0xe
 1202 0100 03       		.uleb128 0x3
 1203 0101 0E       		.uleb128 0xe
 1204 0102 3A       		.uleb128 0x3a
 1205 0103 0B       		.uleb128 0xb
 1206 0104 3B       		.uleb128 0x3b
 1207 0105 0B       		.uleb128 0xb
 1208 0106 00       		.byte	0
 1209 0107 00       		.byte	0
 1210 0108 14       		.uleb128 0x14
 1211 0109 2E       		.uleb128 0x2e
 1212 010a 00       		.byte	0
 1213 010b 3F       		.uleb128 0x3f
 1214 010c 19       		.uleb128 0x19
 1215 010d 3C       		.uleb128 0x3c
 1216 010e 19       		.uleb128 0x19
 1217 010f 6E       		.uleb128 0x6e
 1218 0110 0E       		.uleb128 0xe
 1219 0111 03       		.uleb128 0x3
 1220 0112 0E       		.uleb128 0xe
 1221 0113 3A       		.uleb128 0x3a
 1222 0114 0B       		.uleb128 0xb
 1223 0115 3B       		.uleb128 0x3b
 1224 0116 05       		.uleb128 0x5
 1225 0117 00       		.byte	0
 1226 0118 00       		.byte	0
 1227 0119 00       		.byte	0
 1228              		.section	.debug_loc,"",%progbits
 1229              	.Ldebug_loc0:
 1230              	.LLST0:
 1231 0000 26000000 		.4byte	.LVL6
 1232 0004 2A000000 		.4byte	.LVL7
 1233 0008 0200     		.2byte	0x2
 1234 000a 30       		.byte	0x30
 1235 000b 9F       		.byte	0x9f
 1236 000c 2A000000 		.4byte	.LVL7
 1237 0010 80000000 		.4byte	.LVL16
 1238 0014 0100     		.2byte	0x1
 1239 0016 54       		.byte	0x54
 1240 0017 00000000 		.4byte	0
 1241 001b 00000000 		.4byte	0
 1242              		.section	.debug_aranges,"",%progbits
 1243 0000 1C000000 		.4byte	0x1c
ARM GAS  C:\Users\JOSEAN~1\AppData\Local\Temp\ccwwiPJS.s 			page 25


 1244 0004 0200     		.2byte	0x2
 1245 0006 00000000 		.4byte	.Ldebug_info0
 1246 000a 04       		.byte	0x4
 1247 000b 00       		.byte	0
 1248 000c 0000     		.2byte	0
 1249 000e 0000     		.2byte	0
 1250 0010 00000000 		.4byte	.LFB64
 1251 0014 40020000 		.4byte	.LFE64-.LFB64
 1252 0018 00000000 		.4byte	0
 1253 001c 00000000 		.4byte	0
 1254              		.section	.debug_ranges,"",%progbits
 1255              	.Ldebug_ranges0:
 1256 0000 00000000 		.4byte	.LFB64
 1257 0004 40020000 		.4byte	.LFE64
 1258 0008 00000000 		.4byte	0
 1259 000c 00000000 		.4byte	0
 1260              		.section	.debug_line,"",%progbits
 1261              	.Ldebug_line0:
 1262 0000 79020000 		.section	.debug_str,"MS",%progbits,1
 1262      02001702 
 1262      00000201 
 1262      FB0E0D00 
 1262      01010101 
 1263              	.LASF28:
 1264 0000 70657269 		.ascii	"period_calc\000"
 1264      6F645F63 
 1264      616C6300 
 1265              	.LASF19:
 1266 000c 75696E74 		.ascii	"uint\000"
 1266      00
 1267              	.LASF23:
 1268 0011 66726571 		.ascii	"freqPWM\000"
 1268      50574D00 
 1269              	.LASF9:
 1270 0019 5F5F696E 		.ascii	"__int32_t\000"
 1270      7433325F 
 1270      7400
 1271              	.LASF15:
 1272 0023 646F7562 		.ascii	"double\000"
 1272      6C6500
 1273              	.LASF32:
 1274 002a 4144435F 		.ascii	"ADC_GetResult16\000"
 1274      47657452 
 1274      6573756C 
 1274      74313600 
 1275              	.LASF10:
 1276 003a 696E7433 		.ascii	"int32_t\000"
 1276      325F7400 
 1277              	.LASF26:
 1278 0042 636F756E 		.ascii	"countH\000"
 1278      744800
 1279              	.LASF14:
 1280 0049 666C6F61 		.ascii	"float\000"
 1280      7400
 1281              	.LASF24:
 1282 004f 64617461 		.ascii	"data\000"
 1282      00
ARM GAS  C:\Users\JOSEAN~1\AppData\Local\Temp\ccwwiPJS.s 			page 26


 1283              	.LASF27:
 1284 0054 636F756E 		.ascii	"countL\000"
 1284      744C00
 1285              	.LASF1:
 1286 005b 756E7369 		.ascii	"unsigned char\000"
 1286      676E6564 
 1286      20636861 
 1286      7200
 1287              	.LASF49:
 1288 0069 474E5520 		.ascii	"GNU C11 5.4.1 20160609 (release) [ARM/embedded-5-br"
 1288      43313120 
 1288      352E342E 
 1288      31203230 
 1288      31363036 
 1289 009c 616E6368 		.ascii	"anch revision 237715] -mcpu=cortex-m3 -mthumb -g -O"
 1289      20726576 
 1289      6973696F 
 1289      6E203233 
 1289      37373135 
 1290 00cf 67202D66 		.ascii	"g -ffunction-sections -ffat-lto-objects\000"
 1290      66756E63 
 1290      74696F6E 
 1290      2D736563 
 1290      74696F6E 
 1291              	.LASF41:
 1292 00f7 4144435F 		.ascii	"ADC_StartConvert\000"
 1292      53746172 
 1292      74436F6E 
 1292      76657274 
 1292      00
 1293              	.LASF13:
 1294 0108 696E7431 		.ascii	"int16\000"
 1294      3600
 1295              	.LASF42:
 1296 010e 4144435F 		.ascii	"ADC_IsEndConversion\000"
 1296      4973456E 
 1296      64436F6E 
 1296      76657273 
 1296      696F6E00 
 1297              	.LASF21:
 1298 0122 64757479 		.ascii	"dutyPWM\000"
 1298      50574D00 
 1299              	.LASF3:
 1300 012a 73686F72 		.ascii	"short unsigned int\000"
 1300      7420756E 
 1300      7369676E 
 1300      65642069 
 1300      6E7400
 1301              	.LASF36:
 1302 013d 55415254 		.ascii	"UART_Start\000"
 1302      5F537461 
 1302      727400
 1303              	.LASF30:
 1304 0148 64757479 		.ascii	"duty\000"
 1304      00
 1305              	.LASF20:
 1306 014d 49544D5F 		.ascii	"ITM_RxBuffer\000"
ARM GAS  C:\Users\JOSEAN~1\AppData\Local\Temp\ccwwiPJS.s 			page 27


 1306      52784275 
 1306      66666572 
 1306      00
 1307              	.LASF5:
 1308 015a 6C6F6E67 		.ascii	"long unsigned int\000"
 1308      20756E73 
 1308      69676E65 
 1308      6420696E 
 1308      7400
 1309              	.LASF45:
 1310 016c 50574D5F 		.ascii	"PWM_WriteCompare\000"
 1310      57726974 
 1310      65436F6D 
 1310      70617265 
 1310      00
 1311              	.LASF2:
 1312 017d 73686F72 		.ascii	"short int\000"
 1312      7420696E 
 1312      7400
 1313              	.LASF11:
 1314 0187 75696E74 		.ascii	"uint16\000"
 1314      313600
 1315              	.LASF43:
 1316 018e 726F756E 		.ascii	"round\000"
 1316      6400
 1317              	.LASF12:
 1318 0194 75696E74 		.ascii	"uint32\000"
 1318      333200
 1319              	.LASF52:
 1320 019b 6D61696E 		.ascii	"main\000"
 1320      00
 1321              	.LASF39:
 1322 01a0 436F756E 		.ascii	"CounterH_Start\000"
 1322      74657248 
 1322      5F537461 
 1322      727400
 1323              	.LASF8:
 1324 01af 756E7369 		.ascii	"unsigned int\000"
 1324      676E6564 
 1324      20696E74 
 1324      00
 1325              	.LASF7:
 1326 01bc 6C6F6E67 		.ascii	"long long unsigned int\000"
 1326      206C6F6E 
 1326      6720756E 
 1326      7369676E 
 1326      65642069 
 1327              	.LASF47:
 1328 01d3 436F756E 		.ascii	"CounterL_ReadCapture\000"
 1328      7465724C 
 1328      5F526561 
 1328      64436170 
 1328      74757265 
 1329              	.LASF37:
 1330 01e8 4144435F 		.ascii	"ADC_Start\000"
 1330      53746172 
 1330      7400
ARM GAS  C:\Users\JOSEAN~1\AppData\Local\Temp\ccwwiPJS.s 			page 28


 1331              	.LASF25:
 1332 01f2 766F6C74 		.ascii	"volts\000"
 1332      7300
 1333              	.LASF33:
 1334 01f8 73707269 		.ascii	"sprintf\000"
 1334      6E746600 
 1335              	.LASF44:
 1336 0200 50574D5F 		.ascii	"PWM_WritePeriod\000"
 1336      57726974 
 1336      65506572 
 1336      696F6400 
 1337              	.LASF31:
 1338 0210 64757479 		.ascii	"duty_perc\000"
 1338      5F706572 
 1338      6300
 1339              	.LASF18:
 1340 021a 73697A65 		.ascii	"sizetype\000"
 1340      74797065 
 1340      00
 1341              	.LASF35:
 1342 0223 4144435F 		.ascii	"ADC_CountsTo_Volts\000"
 1342      436F756E 
 1342      7473546F 
 1342      5F566F6C 
 1342      747300
 1343              	.LASF6:
 1344 0236 6C6F6E67 		.ascii	"long long int\000"
 1344      206C6F6E 
 1344      6720696E 
 1344      7400
 1345              	.LASF50:
 1346 0244 6D61696E 		.ascii	"main.c\000"
 1346      2E6300
 1347              	.LASF16:
 1348 024b 63686172 		.ascii	"char\000"
 1348      00
 1349              	.LASF22:
 1350 0250 70657269 		.ascii	"periodPWM\000"
 1350      6F645057 
 1350      4D00
 1351              	.LASF51:
 1352 025a 443A5C44 		.ascii	"D:\\Documentos\\UNIVERSIDAD\\TFG\\Application Notes"
 1352      6F63756D 
 1352      656E746F 
 1352      735C554E 
 1352      49564552 
 1353 0289 20792050 		.ascii	" y Proyectos\\CE224594_TimerCounter_PSoC4\\TimerCou"
 1353      726F7965 
 1353      63746F73 
 1353      5C434532 
 1353      32343539 
 1354 02ba 6E746572 		.ascii	"nter_PSoC5\\B_CounterFrequency_DutyCycle.cydsn\000"
 1354      5F50536F 
 1354      43355C42 
 1354      5F436F75 
 1354      6E746572 
 1355              	.LASF29:
ARM GAS  C:\Users\JOSEAN~1\AppData\Local\Temp\ccwwiPJS.s 			page 29


 1356 02e8 66726571 		.ascii	"freq\000"
 1356      00
 1357              	.LASF38:
 1358 02ed 50574D5F 		.ascii	"PWM_Start\000"
 1358      53746172 
 1358      7400
 1359              	.LASF4:
 1360 02f7 6C6F6E67 		.ascii	"long int\000"
 1360      20696E74 
 1360      00
 1361              	.LASF17:
 1362 0300 6C6F6E67 		.ascii	"long double\000"
 1362      20646F75 
 1362      626C6500 
 1363              	.LASF0:
 1364 030c 7369676E 		.ascii	"signed char\000"
 1364      65642063 
 1364      68617200 
 1365              	.LASF40:
 1366 0318 436F756E 		.ascii	"CounterL_Start\000"
 1366      7465724C 
 1366      5F537461 
 1366      727400
 1367              	.LASF46:
 1368 0327 436F756E 		.ascii	"CounterH_ReadCapture\000"
 1368      74657248 
 1368      5F526561 
 1368      64436170 
 1368      74757265 
 1369              	.LASF48:
 1370 033c 43794465 		.ascii	"CyDelay\000"
 1370      6C617900 
 1371              	.LASF34:
 1372 0344 55415254 		.ascii	"UART_PutString\000"
 1372      5F507574 
 1372      53747269 
 1372      6E6700
 1373              		.ident	"GCC: (GNU Tools for ARM Embedded Processors) 5.4.1 20160609 (release) [ARM/embedded-5-bran
