ARM GAS  C:\Users\JOSEAN~1\AppData\Local\Temp\ccunp7rL.s 			page 1


   1              		.syntax unified
   2              		.cpu cortex-m3
   3              		.fpu softvfp
   4              		.eabi_attribute 20, 1
   5              		.eabi_attribute 21, 1
   6              		.eabi_attribute 23, 3
   7              		.eabi_attribute 24, 1
   8              		.eabi_attribute 25, 1
   9              		.eabi_attribute 26, 1
  10              		.eabi_attribute 30, 1
  11              		.eabi_attribute 34, 1
  12              		.eabi_attribute 18, 4
  13              		.thumb
  14              		.syntax unified
  15              		.file	"PinSignal.c"
  16              		.text
  17              	.Ltext0:
  18              		.cfi_sections	.debug_frame
  19              		.section	.text.PinSignal_Write,"ax",%progbits
  20              		.align	2
  21              		.global	PinSignal_Write
  22              		.thumb
  23              		.thumb_func
  24              		.type	PinSignal_Write, %function
  25              	PinSignal_Write:
  26              	.LFB0:
  27              		.file 1 "Generated_Source\\PSoC5\\PinSignal.c"
   1:Generated_Source\PSoC5/PinSignal.c **** /*******************************************************************************
   2:Generated_Source\PSoC5/PinSignal.c **** * File Name: PinSignal.c  
   3:Generated_Source\PSoC5/PinSignal.c **** * Version 2.20
   4:Generated_Source\PSoC5/PinSignal.c **** *
   5:Generated_Source\PSoC5/PinSignal.c **** * Description:
   6:Generated_Source\PSoC5/PinSignal.c **** *  This file contains API to enable firmware control of a Pins component.
   7:Generated_Source\PSoC5/PinSignal.c **** *
   8:Generated_Source\PSoC5/PinSignal.c **** * Note:
   9:Generated_Source\PSoC5/PinSignal.c **** *
  10:Generated_Source\PSoC5/PinSignal.c **** ********************************************************************************
  11:Generated_Source\PSoC5/PinSignal.c **** * Copyright 2008-2015, Cypress Semiconductor Corporation.  All rights reserved.
  12:Generated_Source\PSoC5/PinSignal.c **** * You may use this file only in accordance with the license, terms, conditions, 
  13:Generated_Source\PSoC5/PinSignal.c **** * disclaimers, and limitations in the end user license agreement accompanying 
  14:Generated_Source\PSoC5/PinSignal.c **** * the software package with which this file was provided.
  15:Generated_Source\PSoC5/PinSignal.c **** *******************************************************************************/
  16:Generated_Source\PSoC5/PinSignal.c **** 
  17:Generated_Source\PSoC5/PinSignal.c **** #include "cytypes.h"
  18:Generated_Source\PSoC5/PinSignal.c **** #include "PinSignal.h"
  19:Generated_Source\PSoC5/PinSignal.c **** 
  20:Generated_Source\PSoC5/PinSignal.c **** /* APIs are not generated for P15[7:6] on PSoC 5 */
  21:Generated_Source\PSoC5/PinSignal.c **** #if !(CY_PSOC5A &&\
  22:Generated_Source\PSoC5/PinSignal.c **** 	 PinSignal__PORT == 15 && ((PinSignal__MASK & 0xC0) != 0))
  23:Generated_Source\PSoC5/PinSignal.c **** 
  24:Generated_Source\PSoC5/PinSignal.c **** 
  25:Generated_Source\PSoC5/PinSignal.c **** /*******************************************************************************
  26:Generated_Source\PSoC5/PinSignal.c **** * Function Name: PinSignal_Write
  27:Generated_Source\PSoC5/PinSignal.c **** ****************************************************************************//**
  28:Generated_Source\PSoC5/PinSignal.c **** *
  29:Generated_Source\PSoC5/PinSignal.c **** * \brief Writes the value to the physical port (data output register), masking
  30:Generated_Source\PSoC5/PinSignal.c **** *  and shifting the bits appropriately. 
ARM GAS  C:\Users\JOSEAN~1\AppData\Local\Temp\ccunp7rL.s 			page 2


  31:Generated_Source\PSoC5/PinSignal.c **** *
  32:Generated_Source\PSoC5/PinSignal.c **** * The data output register controls the signal applied to the physical pin in 
  33:Generated_Source\PSoC5/PinSignal.c **** * conjunction with the drive mode parameter. This function avoids changing 
  34:Generated_Source\PSoC5/PinSignal.c **** * other bits in the port by using the appropriate method (read-modify-write or
  35:Generated_Source\PSoC5/PinSignal.c **** * bit banding).
  36:Generated_Source\PSoC5/PinSignal.c **** *
  37:Generated_Source\PSoC5/PinSignal.c **** * <b>Note</b> This function should not be used on a hardware digital output pin 
  38:Generated_Source\PSoC5/PinSignal.c **** * as it is driven by the hardware signal attached to it.
  39:Generated_Source\PSoC5/PinSignal.c **** *
  40:Generated_Source\PSoC5/PinSignal.c **** * \param value
  41:Generated_Source\PSoC5/PinSignal.c **** *  Value to write to the component instance.
  42:Generated_Source\PSoC5/PinSignal.c **** *
  43:Generated_Source\PSoC5/PinSignal.c **** * \return 
  44:Generated_Source\PSoC5/PinSignal.c **** *  None 
  45:Generated_Source\PSoC5/PinSignal.c **** *
  46:Generated_Source\PSoC5/PinSignal.c **** * \sideeffect
  47:Generated_Source\PSoC5/PinSignal.c **** *  If you use read-modify-write operations that are not atomic; the Interrupt 
  48:Generated_Source\PSoC5/PinSignal.c **** *  Service Routines (ISR) can cause corruption of this function. An ISR that 
  49:Generated_Source\PSoC5/PinSignal.c **** *  interrupts this function and performs writes to the Pins component data 
  50:Generated_Source\PSoC5/PinSignal.c **** *  register can cause corrupted port data. To avoid this issue, you should 
  51:Generated_Source\PSoC5/PinSignal.c **** *  either use the Per-Pin APIs (primary method) or disable interrupts around 
  52:Generated_Source\PSoC5/PinSignal.c **** *  this function.
  53:Generated_Source\PSoC5/PinSignal.c **** *
  54:Generated_Source\PSoC5/PinSignal.c **** * \funcusage
  55:Generated_Source\PSoC5/PinSignal.c **** *  \snippet PinSignal_SUT.c usage_PinSignal_Write
  56:Generated_Source\PSoC5/PinSignal.c **** *******************************************************************************/
  57:Generated_Source\PSoC5/PinSignal.c **** void PinSignal_Write(uint8 value)
  58:Generated_Source\PSoC5/PinSignal.c **** {
  28              		.loc 1 58 0
  29              		.cfi_startproc
  30              		@ args = 0, pretend = 0, frame = 0
  31              		@ frame_needed = 0, uses_anonymous_args = 0
  32              		@ link register save eliminated.
  33              	.LVL0:
  59:Generated_Source\PSoC5/PinSignal.c ****     uint8 staticBits = (PinSignal_DR & (uint8)(~PinSignal_MASK));
  34              		.loc 1 59 0
  35 0000 044A     		ldr	r2, .L2
  36 0002 1378     		ldrb	r3, [r2]	@ zero_extendqisi2
  37 0004 03F0FE03 		and	r3, r3, #254
  38              	.LVL1:
  60:Generated_Source\PSoC5/PinSignal.c ****     PinSignal_DR = staticBits | ((uint8)(value << PinSignal_SHIFT) & PinSignal_MASK);
  39              		.loc 1 60 0
  40 0008 00F00100 		and	r0, r0, #1
  41              	.LVL2:
  42 000c 1843     		orrs	r0, r0, r3
  43 000e 1070     		strb	r0, [r2]
  44 0010 7047     		bx	lr
  45              	.L3:
  46 0012 00BF     		.align	2
  47              	.L2:
  48 0014 30510040 		.word	1073762608
  49              		.cfi_endproc
  50              	.LFE0:
  51              		.size	PinSignal_Write, .-PinSignal_Write
  52              		.section	.text.PinSignal_SetDriveMode,"ax",%progbits
  53              		.align	2
  54              		.global	PinSignal_SetDriveMode
ARM GAS  C:\Users\JOSEAN~1\AppData\Local\Temp\ccunp7rL.s 			page 3


  55              		.thumb
  56              		.thumb_func
  57              		.type	PinSignal_SetDriveMode, %function
  58              	PinSignal_SetDriveMode:
  59              	.LFB1:
  61:Generated_Source\PSoC5/PinSignal.c **** }
  62:Generated_Source\PSoC5/PinSignal.c **** 
  63:Generated_Source\PSoC5/PinSignal.c **** 
  64:Generated_Source\PSoC5/PinSignal.c **** /*******************************************************************************
  65:Generated_Source\PSoC5/PinSignal.c **** * Function Name: PinSignal_SetDriveMode
  66:Generated_Source\PSoC5/PinSignal.c **** ****************************************************************************//**
  67:Generated_Source\PSoC5/PinSignal.c **** *
  68:Generated_Source\PSoC5/PinSignal.c **** * \brief Sets the drive mode for each of the Pins component's pins.
  69:Generated_Source\PSoC5/PinSignal.c **** * 
  70:Generated_Source\PSoC5/PinSignal.c **** * <b>Note</b> This affects all pins in the Pins component instance. Use the
  71:Generated_Source\PSoC5/PinSignal.c **** * Per-Pin APIs if you wish to control individual pin's drive modes.
  72:Generated_Source\PSoC5/PinSignal.c **** *
  73:Generated_Source\PSoC5/PinSignal.c **** * \param mode
  74:Generated_Source\PSoC5/PinSignal.c **** *  Mode for the selected signals. Valid options are documented in 
  75:Generated_Source\PSoC5/PinSignal.c **** *  \ref driveMode.
  76:Generated_Source\PSoC5/PinSignal.c **** *
  77:Generated_Source\PSoC5/PinSignal.c **** * \return
  78:Generated_Source\PSoC5/PinSignal.c **** *  None
  79:Generated_Source\PSoC5/PinSignal.c **** *
  80:Generated_Source\PSoC5/PinSignal.c **** * \sideeffect
  81:Generated_Source\PSoC5/PinSignal.c **** *  If you use read-modify-write operations that are not atomic, the ISR can
  82:Generated_Source\PSoC5/PinSignal.c **** *  cause corruption of this function. An ISR that interrupts this function 
  83:Generated_Source\PSoC5/PinSignal.c **** *  and performs writes to the Pins component Drive Mode registers can cause 
  84:Generated_Source\PSoC5/PinSignal.c **** *  corrupted port data. To avoid this issue, you should either use the Per-Pin
  85:Generated_Source\PSoC5/PinSignal.c **** *  APIs (primary method) or disable interrupts around this function.
  86:Generated_Source\PSoC5/PinSignal.c **** *
  87:Generated_Source\PSoC5/PinSignal.c **** * \funcusage
  88:Generated_Source\PSoC5/PinSignal.c **** *  \snippet PinSignal_SUT.c usage_PinSignal_SetDriveMode
  89:Generated_Source\PSoC5/PinSignal.c **** *******************************************************************************/
  90:Generated_Source\PSoC5/PinSignal.c **** void PinSignal_SetDriveMode(uint8 mode)
  91:Generated_Source\PSoC5/PinSignal.c **** {
  60              		.loc 1 91 0
  61              		.cfi_startproc
  62              		@ args = 0, pretend = 0, frame = 0
  63              		@ frame_needed = 0, uses_anonymous_args = 0
  64              		@ link register save eliminated.
  65              	.LVL3:
  92:Generated_Source\PSoC5/PinSignal.c **** 	CyPins_SetPinDriveMode(PinSignal_0, mode);
  66              		.loc 1 92 0
  67 0000 044A     		ldr	r2, .L5
  68 0002 1378     		ldrb	r3, [r2]	@ zero_extendqisi2
  69 0004 03F0F103 		and	r3, r3, #241
  70 0008 00F00E00 		and	r0, r0, #14
  71              	.LVL4:
  72 000c 1843     		orrs	r0, r0, r3
  73 000e 1070     		strb	r0, [r2]
  74 0010 7047     		bx	lr
  75              	.L6:
  76 0012 00BF     		.align	2
  77              	.L5:
  78 0014 18500040 		.word	1073762328
  79              		.cfi_endproc
ARM GAS  C:\Users\JOSEAN~1\AppData\Local\Temp\ccunp7rL.s 			page 4


  80              	.LFE1:
  81              		.size	PinSignal_SetDriveMode, .-PinSignal_SetDriveMode
  82              		.section	.text.PinSignal_Read,"ax",%progbits
  83              		.align	2
  84              		.global	PinSignal_Read
  85              		.thumb
  86              		.thumb_func
  87              		.type	PinSignal_Read, %function
  88              	PinSignal_Read:
  89              	.LFB2:
  93:Generated_Source\PSoC5/PinSignal.c **** }
  94:Generated_Source\PSoC5/PinSignal.c **** 
  95:Generated_Source\PSoC5/PinSignal.c **** 
  96:Generated_Source\PSoC5/PinSignal.c **** /*******************************************************************************
  97:Generated_Source\PSoC5/PinSignal.c **** * Function Name: PinSignal_Read
  98:Generated_Source\PSoC5/PinSignal.c **** ****************************************************************************//**
  99:Generated_Source\PSoC5/PinSignal.c **** *
 100:Generated_Source\PSoC5/PinSignal.c **** * \brief Reads the associated physical port (pin status register) and masks 
 101:Generated_Source\PSoC5/PinSignal.c **** *  the required bits according to the width and bit position of the component
 102:Generated_Source\PSoC5/PinSignal.c **** *  instance. 
 103:Generated_Source\PSoC5/PinSignal.c **** *
 104:Generated_Source\PSoC5/PinSignal.c **** * The pin's status register returns the current logic level present on the 
 105:Generated_Source\PSoC5/PinSignal.c **** * physical pin.
 106:Generated_Source\PSoC5/PinSignal.c **** *
 107:Generated_Source\PSoC5/PinSignal.c **** * \return 
 108:Generated_Source\PSoC5/PinSignal.c **** *  The current value for the pins in the component as a right justified number.
 109:Generated_Source\PSoC5/PinSignal.c **** *
 110:Generated_Source\PSoC5/PinSignal.c **** * \funcusage
 111:Generated_Source\PSoC5/PinSignal.c **** *  \snippet PinSignal_SUT.c usage_PinSignal_Read  
 112:Generated_Source\PSoC5/PinSignal.c **** *******************************************************************************/
 113:Generated_Source\PSoC5/PinSignal.c **** uint8 PinSignal_Read(void)
 114:Generated_Source\PSoC5/PinSignal.c **** {
  90              		.loc 1 114 0
  91              		.cfi_startproc
  92              		@ args = 0, pretend = 0, frame = 0
  93              		@ frame_needed = 0, uses_anonymous_args = 0
  94              		@ link register save eliminated.
 115:Generated_Source\PSoC5/PinSignal.c ****     return (PinSignal_PS & PinSignal_MASK) >> PinSignal_SHIFT;
  95              		.loc 1 115 0
  96 0000 024B     		ldr	r3, .L8
  97 0002 1878     		ldrb	r0, [r3]	@ zero_extendqisi2
 116:Generated_Source\PSoC5/PinSignal.c **** }
  98              		.loc 1 116 0
  99 0004 00F00100 		and	r0, r0, #1
 100 0008 7047     		bx	lr
 101              	.L9:
 102 000a 00BF     		.align	2
 103              	.L8:
 104 000c 31510040 		.word	1073762609
 105              		.cfi_endproc
 106              	.LFE2:
 107              		.size	PinSignal_Read, .-PinSignal_Read
 108              		.section	.text.PinSignal_ReadDataReg,"ax",%progbits
 109              		.align	2
 110              		.global	PinSignal_ReadDataReg
 111              		.thumb
 112              		.thumb_func
ARM GAS  C:\Users\JOSEAN~1\AppData\Local\Temp\ccunp7rL.s 			page 5


 113              		.type	PinSignal_ReadDataReg, %function
 114              	PinSignal_ReadDataReg:
 115              	.LFB3:
 117:Generated_Source\PSoC5/PinSignal.c **** 
 118:Generated_Source\PSoC5/PinSignal.c **** 
 119:Generated_Source\PSoC5/PinSignal.c **** /*******************************************************************************
 120:Generated_Source\PSoC5/PinSignal.c **** * Function Name: PinSignal_ReadDataReg
 121:Generated_Source\PSoC5/PinSignal.c **** ****************************************************************************//**
 122:Generated_Source\PSoC5/PinSignal.c **** *
 123:Generated_Source\PSoC5/PinSignal.c **** * \brief Reads the associated physical port's data output register and masks 
 124:Generated_Source\PSoC5/PinSignal.c **** *  the correct bits according to the width and bit position of the component 
 125:Generated_Source\PSoC5/PinSignal.c **** *  instance. 
 126:Generated_Source\PSoC5/PinSignal.c **** *
 127:Generated_Source\PSoC5/PinSignal.c **** * The data output register controls the signal applied to the physical pin in 
 128:Generated_Source\PSoC5/PinSignal.c **** * conjunction with the drive mode parameter. This is not the same as the 
 129:Generated_Source\PSoC5/PinSignal.c **** * preferred PinSignal_Read() API because the 
 130:Generated_Source\PSoC5/PinSignal.c **** * PinSignal_ReadDataReg() reads the data register instead of the status 
 131:Generated_Source\PSoC5/PinSignal.c **** * register. For output pins this is a useful function to determine the value 
 132:Generated_Source\PSoC5/PinSignal.c **** * just written to the pin.
 133:Generated_Source\PSoC5/PinSignal.c **** *
 134:Generated_Source\PSoC5/PinSignal.c **** * \return 
 135:Generated_Source\PSoC5/PinSignal.c **** *  The current value of the data register masked and shifted into a right 
 136:Generated_Source\PSoC5/PinSignal.c **** *  justified number for the component instance.
 137:Generated_Source\PSoC5/PinSignal.c **** *
 138:Generated_Source\PSoC5/PinSignal.c **** * \funcusage
 139:Generated_Source\PSoC5/PinSignal.c **** *  \snippet PinSignal_SUT.c usage_PinSignal_ReadDataReg 
 140:Generated_Source\PSoC5/PinSignal.c **** *******************************************************************************/
 141:Generated_Source\PSoC5/PinSignal.c **** uint8 PinSignal_ReadDataReg(void)
 142:Generated_Source\PSoC5/PinSignal.c **** {
 116              		.loc 1 142 0
 117              		.cfi_startproc
 118              		@ args = 0, pretend = 0, frame = 0
 119              		@ frame_needed = 0, uses_anonymous_args = 0
 120              		@ link register save eliminated.
 143:Generated_Source\PSoC5/PinSignal.c ****     return (PinSignal_DR & PinSignal_MASK) >> PinSignal_SHIFT;
 121              		.loc 1 143 0
 122 0000 024B     		ldr	r3, .L11
 123 0002 1878     		ldrb	r0, [r3]	@ zero_extendqisi2
 144:Generated_Source\PSoC5/PinSignal.c **** }
 124              		.loc 1 144 0
 125 0004 00F00100 		and	r0, r0, #1
 126 0008 7047     		bx	lr
 127              	.L12:
 128 000a 00BF     		.align	2
 129              	.L11:
 130 000c 30510040 		.word	1073762608
 131              		.cfi_endproc
 132              	.LFE3:
 133              		.size	PinSignal_ReadDataReg, .-PinSignal_ReadDataReg
 134              		.text
 135              	.Letext0:
 136              		.file 2 "Generated_Source\\PSoC5\\cytypes.h"
 137              		.section	.debug_info,"",%progbits
 138              	.Ldebug_info0:
 139 0000 1B010000 		.4byte	0x11b
 140 0004 0400     		.2byte	0x4
 141 0006 00000000 		.4byte	.Ldebug_abbrev0
ARM GAS  C:\Users\JOSEAN~1\AppData\Local\Temp\ccunp7rL.s 			page 6


 142 000a 04       		.byte	0x4
 143 000b 01       		.uleb128 0x1
 144 000c 3C000000 		.4byte	.LASF20
 145 0010 0C       		.byte	0xc
 146 0011 34010000 		.4byte	.LASF21
 147 0015 A5010000 		.4byte	.LASF22
 148 0019 00000000 		.4byte	.Ldebug_ranges0+0
 149 001d 00000000 		.4byte	0
 150 0021 00000000 		.4byte	.Ldebug_line0
 151 0025 02       		.uleb128 0x2
 152 0026 01       		.byte	0x1
 153 0027 06       		.byte	0x6
 154 0028 99010000 		.4byte	.LASF0
 155 002c 02       		.uleb128 0x2
 156 002d 01       		.byte	0x1
 157 002e 08       		.byte	0x8
 158 002f 2E000000 		.4byte	.LASF1
 159 0033 02       		.uleb128 0x2
 160 0034 02       		.byte	0x2
 161 0035 05       		.byte	0x5
 162 0036 80010000 		.4byte	.LASF2
 163 003a 02       		.uleb128 0x2
 164 003b 02       		.byte	0x2
 165 003c 07       		.byte	0x7
 166 003d E1000000 		.4byte	.LASF3
 167 0041 02       		.uleb128 0x2
 168 0042 04       		.byte	0x4
 169 0043 05       		.byte	0x5
 170 0044 90010000 		.4byte	.LASF4
 171 0048 02       		.uleb128 0x2
 172 0049 04       		.byte	0x4
 173 004a 07       		.byte	0x7
 174 004b CF000000 		.4byte	.LASF5
 175 004f 02       		.uleb128 0x2
 176 0050 08       		.byte	0x8
 177 0051 05       		.byte	0x5
 178 0052 6D010000 		.4byte	.LASF6
 179 0056 02       		.uleb128 0x2
 180 0057 08       		.byte	0x8
 181 0058 07       		.byte	0x7
 182 0059 18010000 		.4byte	.LASF7
 183 005d 03       		.uleb128 0x3
 184 005e 04       		.byte	0x4
 185 005f 05       		.byte	0x5
 186 0060 696E7400 		.ascii	"int\000"
 187 0064 02       		.uleb128 0x2
 188 0065 04       		.byte	0x4
 189 0066 07       		.byte	0x7
 190 0067 0B010000 		.4byte	.LASF8
 191 006b 04       		.uleb128 0x4
 192 006c 8A010000 		.4byte	.LASF12
 193 0070 02       		.byte	0x2
 194 0071 E401     		.2byte	0x1e4
 195 0073 2C000000 		.4byte	0x2c
 196 0077 02       		.uleb128 0x2
 197 0078 04       		.byte	0x4
 198 0079 04       		.byte	0x4
ARM GAS  C:\Users\JOSEAN~1\AppData\Local\Temp\ccunp7rL.s 			page 7


 199 007a 28000000 		.4byte	.LASF9
 200 007e 02       		.uleb128 0x2
 201 007f 08       		.byte	0x8
 202 0080 04       		.byte	0x4
 203 0081 F4000000 		.4byte	.LASF10
 204 0085 02       		.uleb128 0x2
 205 0086 01       		.byte	0x1
 206 0087 08       		.byte	0x8
 207 0088 7B010000 		.4byte	.LASF11
 208 008c 04       		.uleb128 0x4
 209 008d CA000000 		.4byte	.LASF13
 210 0091 02       		.byte	0x2
 211 0092 8E02     		.2byte	0x28e
 212 0094 98000000 		.4byte	0x98
 213 0098 05       		.uleb128 0x5
 214 0099 6B000000 		.4byte	0x6b
 215 009d 06       		.uleb128 0x6
 216 009e FB000000 		.4byte	.LASF14
 217 00a2 01       		.byte	0x1
 218 00a3 39       		.byte	0x39
 219 00a4 00000000 		.4byte	.LFB0
 220 00a8 18000000 		.4byte	.LFE0-.LFB0
 221 00ac 01       		.uleb128 0x1
 222 00ad 9C       		.byte	0x9c
 223 00ae CF000000 		.4byte	0xcf
 224 00b2 07       		.uleb128 0x7
 225 00b3 17000000 		.4byte	.LASF16
 226 00b7 01       		.byte	0x1
 227 00b8 39       		.byte	0x39
 228 00b9 6B000000 		.4byte	0x6b
 229 00bd 00000000 		.4byte	.LLST0
 230 00c1 08       		.uleb128 0x8
 231 00c2 1D000000 		.4byte	.LASF23
 232 00c6 01       		.byte	0x1
 233 00c7 3B       		.byte	0x3b
 234 00c8 6B000000 		.4byte	0x6b
 235 00cc 01       		.uleb128 0x1
 236 00cd 53       		.byte	0x53
 237 00ce 00       		.byte	0
 238 00cf 06       		.uleb128 0x6
 239 00d0 00000000 		.4byte	.LASF15
 240 00d4 01       		.byte	0x1
 241 00d5 5A       		.byte	0x5a
 242 00d6 00000000 		.4byte	.LFB1
 243 00da 18000000 		.4byte	.LFE1-.LFB1
 244 00de 01       		.uleb128 0x1
 245 00df 9C       		.byte	0x9c
 246 00e0 F4000000 		.4byte	0xf4
 247 00e4 07       		.uleb128 0x7
 248 00e5 2F010000 		.4byte	.LASF17
 249 00e9 01       		.byte	0x1
 250 00ea 5A       		.byte	0x5a
 251 00eb 6B000000 		.4byte	0x6b
 252 00ef 21000000 		.4byte	.LLST1
 253 00f3 00       		.byte	0
 254 00f4 09       		.uleb128 0x9
 255 00f5 33020000 		.4byte	.LASF18
ARM GAS  C:\Users\JOSEAN~1\AppData\Local\Temp\ccunp7rL.s 			page 8


 256 00f9 01       		.byte	0x1
 257 00fa 71       		.byte	0x71
 258 00fb 6B000000 		.4byte	0x6b
 259 00ff 00000000 		.4byte	.LFB2
 260 0103 10000000 		.4byte	.LFE2-.LFB2
 261 0107 01       		.uleb128 0x1
 262 0108 9C       		.byte	0x9c
 263 0109 09       		.uleb128 0x9
 264 010a 57010000 		.4byte	.LASF19
 265 010e 01       		.byte	0x1
 266 010f 8D       		.byte	0x8d
 267 0110 6B000000 		.4byte	0x6b
 268 0114 00000000 		.4byte	.LFB3
 269 0118 10000000 		.4byte	.LFE3-.LFB3
 270 011c 01       		.uleb128 0x1
 271 011d 9C       		.byte	0x9c
 272 011e 00       		.byte	0
 273              		.section	.debug_abbrev,"",%progbits
 274              	.Ldebug_abbrev0:
 275 0000 01       		.uleb128 0x1
 276 0001 11       		.uleb128 0x11
 277 0002 01       		.byte	0x1
 278 0003 25       		.uleb128 0x25
 279 0004 0E       		.uleb128 0xe
 280 0005 13       		.uleb128 0x13
 281 0006 0B       		.uleb128 0xb
 282 0007 03       		.uleb128 0x3
 283 0008 0E       		.uleb128 0xe
 284 0009 1B       		.uleb128 0x1b
 285 000a 0E       		.uleb128 0xe
 286 000b 55       		.uleb128 0x55
 287 000c 17       		.uleb128 0x17
 288 000d 11       		.uleb128 0x11
 289 000e 01       		.uleb128 0x1
 290 000f 10       		.uleb128 0x10
 291 0010 17       		.uleb128 0x17
 292 0011 00       		.byte	0
 293 0012 00       		.byte	0
 294 0013 02       		.uleb128 0x2
 295 0014 24       		.uleb128 0x24
 296 0015 00       		.byte	0
 297 0016 0B       		.uleb128 0xb
 298 0017 0B       		.uleb128 0xb
 299 0018 3E       		.uleb128 0x3e
 300 0019 0B       		.uleb128 0xb
 301 001a 03       		.uleb128 0x3
 302 001b 0E       		.uleb128 0xe
 303 001c 00       		.byte	0
 304 001d 00       		.byte	0
 305 001e 03       		.uleb128 0x3
 306 001f 24       		.uleb128 0x24
 307 0020 00       		.byte	0
 308 0021 0B       		.uleb128 0xb
 309 0022 0B       		.uleb128 0xb
 310 0023 3E       		.uleb128 0x3e
 311 0024 0B       		.uleb128 0xb
 312 0025 03       		.uleb128 0x3
ARM GAS  C:\Users\JOSEAN~1\AppData\Local\Temp\ccunp7rL.s 			page 9


 313 0026 08       		.uleb128 0x8
 314 0027 00       		.byte	0
 315 0028 00       		.byte	0
 316 0029 04       		.uleb128 0x4
 317 002a 16       		.uleb128 0x16
 318 002b 00       		.byte	0
 319 002c 03       		.uleb128 0x3
 320 002d 0E       		.uleb128 0xe
 321 002e 3A       		.uleb128 0x3a
 322 002f 0B       		.uleb128 0xb
 323 0030 3B       		.uleb128 0x3b
 324 0031 05       		.uleb128 0x5
 325 0032 49       		.uleb128 0x49
 326 0033 13       		.uleb128 0x13
 327 0034 00       		.byte	0
 328 0035 00       		.byte	0
 329 0036 05       		.uleb128 0x5
 330 0037 35       		.uleb128 0x35
 331 0038 00       		.byte	0
 332 0039 49       		.uleb128 0x49
 333 003a 13       		.uleb128 0x13
 334 003b 00       		.byte	0
 335 003c 00       		.byte	0
 336 003d 06       		.uleb128 0x6
 337 003e 2E       		.uleb128 0x2e
 338 003f 01       		.byte	0x1
 339 0040 3F       		.uleb128 0x3f
 340 0041 19       		.uleb128 0x19
 341 0042 03       		.uleb128 0x3
 342 0043 0E       		.uleb128 0xe
 343 0044 3A       		.uleb128 0x3a
 344 0045 0B       		.uleb128 0xb
 345 0046 3B       		.uleb128 0x3b
 346 0047 0B       		.uleb128 0xb
 347 0048 27       		.uleb128 0x27
 348 0049 19       		.uleb128 0x19
 349 004a 11       		.uleb128 0x11
 350 004b 01       		.uleb128 0x1
 351 004c 12       		.uleb128 0x12
 352 004d 06       		.uleb128 0x6
 353 004e 40       		.uleb128 0x40
 354 004f 18       		.uleb128 0x18
 355 0050 9742     		.uleb128 0x2117
 356 0052 19       		.uleb128 0x19
 357 0053 01       		.uleb128 0x1
 358 0054 13       		.uleb128 0x13
 359 0055 00       		.byte	0
 360 0056 00       		.byte	0
 361 0057 07       		.uleb128 0x7
 362 0058 05       		.uleb128 0x5
 363 0059 00       		.byte	0
 364 005a 03       		.uleb128 0x3
 365 005b 0E       		.uleb128 0xe
 366 005c 3A       		.uleb128 0x3a
 367 005d 0B       		.uleb128 0xb
 368 005e 3B       		.uleb128 0x3b
 369 005f 0B       		.uleb128 0xb
ARM GAS  C:\Users\JOSEAN~1\AppData\Local\Temp\ccunp7rL.s 			page 10


 370 0060 49       		.uleb128 0x49
 371 0061 13       		.uleb128 0x13
 372 0062 02       		.uleb128 0x2
 373 0063 17       		.uleb128 0x17
 374 0064 00       		.byte	0
 375 0065 00       		.byte	0
 376 0066 08       		.uleb128 0x8
 377 0067 34       		.uleb128 0x34
 378 0068 00       		.byte	0
 379 0069 03       		.uleb128 0x3
 380 006a 0E       		.uleb128 0xe
 381 006b 3A       		.uleb128 0x3a
 382 006c 0B       		.uleb128 0xb
 383 006d 3B       		.uleb128 0x3b
 384 006e 0B       		.uleb128 0xb
 385 006f 49       		.uleb128 0x49
 386 0070 13       		.uleb128 0x13
 387 0071 02       		.uleb128 0x2
 388 0072 18       		.uleb128 0x18
 389 0073 00       		.byte	0
 390 0074 00       		.byte	0
 391 0075 09       		.uleb128 0x9
 392 0076 2E       		.uleb128 0x2e
 393 0077 00       		.byte	0
 394 0078 3F       		.uleb128 0x3f
 395 0079 19       		.uleb128 0x19
 396 007a 03       		.uleb128 0x3
 397 007b 0E       		.uleb128 0xe
 398 007c 3A       		.uleb128 0x3a
 399 007d 0B       		.uleb128 0xb
 400 007e 3B       		.uleb128 0x3b
 401 007f 0B       		.uleb128 0xb
 402 0080 27       		.uleb128 0x27
 403 0081 19       		.uleb128 0x19
 404 0082 49       		.uleb128 0x49
 405 0083 13       		.uleb128 0x13
 406 0084 11       		.uleb128 0x11
 407 0085 01       		.uleb128 0x1
 408 0086 12       		.uleb128 0x12
 409 0087 06       		.uleb128 0x6
 410 0088 40       		.uleb128 0x40
 411 0089 18       		.uleb128 0x18
 412 008a 9742     		.uleb128 0x2117
 413 008c 19       		.uleb128 0x19
 414 008d 00       		.byte	0
 415 008e 00       		.byte	0
 416 008f 00       		.byte	0
 417              		.section	.debug_loc,"",%progbits
 418              	.Ldebug_loc0:
 419              	.LLST0:
 420 0000 00000000 		.4byte	.LVL0
 421 0004 0C000000 		.4byte	.LVL2
 422 0008 0100     		.2byte	0x1
 423 000a 50       		.byte	0x50
 424 000b 0C000000 		.4byte	.LVL2
 425 000f 18000000 		.4byte	.LFE0
 426 0013 0400     		.2byte	0x4
ARM GAS  C:\Users\JOSEAN~1\AppData\Local\Temp\ccunp7rL.s 			page 11


 427 0015 F3       		.byte	0xf3
 428 0016 01       		.uleb128 0x1
 429 0017 50       		.byte	0x50
 430 0018 9F       		.byte	0x9f
 431 0019 00000000 		.4byte	0
 432 001d 00000000 		.4byte	0
 433              	.LLST1:
 434 0021 00000000 		.4byte	.LVL3
 435 0025 0C000000 		.4byte	.LVL4
 436 0029 0100     		.2byte	0x1
 437 002b 50       		.byte	0x50
 438 002c 0C000000 		.4byte	.LVL4
 439 0030 18000000 		.4byte	.LFE1
 440 0034 0400     		.2byte	0x4
 441 0036 F3       		.byte	0xf3
 442 0037 01       		.uleb128 0x1
 443 0038 50       		.byte	0x50
 444 0039 9F       		.byte	0x9f
 445 003a 00000000 		.4byte	0
 446 003e 00000000 		.4byte	0
 447              		.section	.debug_aranges,"",%progbits
 448 0000 34000000 		.4byte	0x34
 449 0004 0200     		.2byte	0x2
 450 0006 00000000 		.4byte	.Ldebug_info0
 451 000a 04       		.byte	0x4
 452 000b 00       		.byte	0
 453 000c 0000     		.2byte	0
 454 000e 0000     		.2byte	0
 455 0010 00000000 		.4byte	.LFB0
 456 0014 18000000 		.4byte	.LFE0-.LFB0
 457 0018 00000000 		.4byte	.LFB1
 458 001c 18000000 		.4byte	.LFE1-.LFB1
 459 0020 00000000 		.4byte	.LFB2
 460 0024 10000000 		.4byte	.LFE2-.LFB2
 461 0028 00000000 		.4byte	.LFB3
 462 002c 10000000 		.4byte	.LFE3-.LFB3
 463 0030 00000000 		.4byte	0
 464 0034 00000000 		.4byte	0
 465              		.section	.debug_ranges,"",%progbits
 466              	.Ldebug_ranges0:
 467 0000 00000000 		.4byte	.LFB0
 468 0004 18000000 		.4byte	.LFE0
 469 0008 00000000 		.4byte	.LFB1
 470 000c 18000000 		.4byte	.LFE1
 471 0010 00000000 		.4byte	.LFB2
 472 0014 10000000 		.4byte	.LFE2
 473 0018 00000000 		.4byte	.LFB3
 474 001c 10000000 		.4byte	.LFE3
 475 0020 00000000 		.4byte	0
 476 0024 00000000 		.4byte	0
 477              		.section	.debug_line,"",%progbits
 478              	.Ldebug_line0:
 479 0000 92000000 		.section	.debug_str,"MS",%progbits,1
 479      02004600 
 479      00000201 
 479      FB0E0D00 
 479      01010101 
ARM GAS  C:\Users\JOSEAN~1\AppData\Local\Temp\ccunp7rL.s 			page 12


 480              	.LASF15:
 481 0000 50696E53 		.ascii	"PinSignal_SetDriveMode\000"
 481      69676E61 
 481      6C5F5365 
 481      74447269 
 481      76654D6F 
 482              	.LASF16:
 483 0017 76616C75 		.ascii	"value\000"
 483      6500
 484              	.LASF23:
 485 001d 73746174 		.ascii	"staticBits\000"
 485      69634269 
 485      747300
 486              	.LASF9:
 487 0028 666C6F61 		.ascii	"float\000"
 487      7400
 488              	.LASF1:
 489 002e 756E7369 		.ascii	"unsigned char\000"
 489      676E6564 
 489      20636861 
 489      7200
 490              	.LASF20:
 491 003c 474E5520 		.ascii	"GNU C11 5.4.1 20160609 (release) [ARM/embedded-5-br"
 491      43313120 
 491      352E342E 
 491      31203230 
 491      31363036 
 492 006f 616E6368 		.ascii	"anch revision 237715] -mcpu=cortex-m3 -mthumb -g -O"
 492      20726576 
 492      6973696F 
 492      6E203233 
 492      37373135 
 493 00a2 67202D66 		.ascii	"g -ffunction-sections -ffat-lto-objects\000"
 493      66756E63 
 493      74696F6E 
 493      2D736563 
 493      74696F6E 
 494              	.LASF13:
 495 00ca 72656738 		.ascii	"reg8\000"
 495      00
 496              	.LASF5:
 497 00cf 6C6F6E67 		.ascii	"long unsigned int\000"
 497      20756E73 
 497      69676E65 
 497      6420696E 
 497      7400
 498              	.LASF3:
 499 00e1 73686F72 		.ascii	"short unsigned int\000"
 499      7420756E 
 499      7369676E 
 499      65642069 
 499      6E7400
 500              	.LASF10:
 501 00f4 646F7562 		.ascii	"double\000"
 501      6C6500
 502              	.LASF14:
 503 00fb 50696E53 		.ascii	"PinSignal_Write\000"
ARM GAS  C:\Users\JOSEAN~1\AppData\Local\Temp\ccunp7rL.s 			page 13


 503      69676E61 
 503      6C5F5772 
 503      69746500 
 504              	.LASF8:
 505 010b 756E7369 		.ascii	"unsigned int\000"
 505      676E6564 
 505      20696E74 
 505      00
 506              	.LASF7:
 507 0118 6C6F6E67 		.ascii	"long long unsigned int\000"
 507      206C6F6E 
 507      6720756E 
 507      7369676E 
 507      65642069 
 508              	.LASF17:
 509 012f 6D6F6465 		.ascii	"mode\000"
 509      00
 510              	.LASF21:
 511 0134 47656E65 		.ascii	"Generated_Source\\PSoC5\\PinSignal.c\000"
 511      72617465 
 511      645F536F 
 511      75726365 
 511      5C50536F 
 512              	.LASF19:
 513 0157 50696E53 		.ascii	"PinSignal_ReadDataReg\000"
 513      69676E61 
 513      6C5F5265 
 513      61644461 
 513      74615265 
 514              	.LASF6:
 515 016d 6C6F6E67 		.ascii	"long long int\000"
 515      206C6F6E 
 515      6720696E 
 515      7400
 516              	.LASF11:
 517 017b 63686172 		.ascii	"char\000"
 517      00
 518              	.LASF2:
 519 0180 73686F72 		.ascii	"short int\000"
 519      7420696E 
 519      7400
 520              	.LASF12:
 521 018a 75696E74 		.ascii	"uint8\000"
 521      3800
 522              	.LASF4:
 523 0190 6C6F6E67 		.ascii	"long int\000"
 523      20696E74 
 523      00
 524              	.LASF0:
 525 0199 7369676E 		.ascii	"signed char\000"
 525      65642063 
 525      68617200 
 526              	.LASF22:
 527 01a5 443A5C44 		.ascii	"D:\\Documentos\\UNIVERSIDAD\\TFG\\Application Notes"
 527      6F63756D 
 527      656E746F 
 527      735C554E 
ARM GAS  C:\Users\JOSEAN~1\AppData\Local\Temp\ccunp7rL.s 			page 14


 527      49564552 
 528 01d4 20792050 		.ascii	" y Proyectos\\CE224594_TimerCounter_PSoC4\\TimerCou"
 528      726F7965 
 528      63746F73 
 528      5C434532 
 528      32343539 
 529 0205 6E746572 		.ascii	"nter_PSoC5\\B_CounterFrequency_DutyCycle.cydsn\000"
 529      5F50536F 
 529      43355C42 
 529      5F436F75 
 529      6E746572 
 530              	.LASF18:
 531 0233 50696E53 		.ascii	"PinSignal_Read\000"
 531      69676E61 
 531      6C5F5265 
 531      616400
 532              		.ident	"GCC: (GNU Tools for ARM Embedded Processors) 5.4.1 20160609 (release) [ARM/embedded-5-bran
