===========Generating Bitstream===========
# IDMUX (count=6)
00000000: 00 00 00 00 00 00
# IOPORT_0 (count=7)
00000006: 00 00 00 00 00 00 00
# IOPINS0_0 (count=16)
0000000d: 00 00 00 00 00 00 00 00 00 00 00 00 00 00 00 00

# IOPORT_1 (count=7)
0000001d: 00 00 00 00 00 00 00
# IOPINS0_1 (count=8)
00000024: 00 0b 0b 00 00 00 00 00
# IOPINS1_1 + 0x00000009 (count=5)
0000002c: 00 00 00 00 00
# PICU_1 (count=8)
00000031: 00 00 00 00 00 00 00 00
# IOPORT_2 (count=7)
00000039: 00 00 00 00 00 00 00
# IOPINS0_2 (count=10)
00000040: 04 00 00 06 02 00 00 00 00 00
# IOPINS1_2 + 0x0000000B (count=5)
0000004a: 00 00 00 00 00
# PICU_2 (count=8)
0000004f: 00 00 00 00 00 00 00 00
# IOPORT_3 (count=7)
00000057: 00 00 00 00 00 00 00
# IOPINS0_3 (count=16)
0000005e: 00 00 00 00 00 00 00 00 00 00 00 00 00 00 00 00

# IOPORT_4 (count=7)
0000006e: 00 00 00 00 00 00 00
# IOPINS0_4 (count=16)
00000075: 00 00 00 00 00 00 00 00 00 00 00 00 00 00 00 00

# IOPORT_5 (count=7)
00000085: 00 00 00 00 00 00 00
# IOPINS0_5 (count=16)
0000008c: 00 00 00 00 00 00 00 00 00 00 00 00 00 00 00 00

# IOPORT_6 (count=7)
0000009c: 00 00 00 00 00 00 00
# IOPINS0_6 (count=16)
000000a3: 00 00 00 00 00 00 00 00 00 00 00 00 00 00 00 00

# IOPORT_7 (count=6)
000000b3: 80 80 00 00 40 00
# IOPINS0_7 (count=10)
000000b9: 80 00 40 80 80 00 80 00 00 00
# IOPINS1_7 + 0x0000000B (count=5)
000000c3: 00 00 00 00 00
# PICU_7 (count=8)
000000c8: 00 00 00 00 00 00 00 00
# IOPORT_8 (count=7)
000000d0: 00 00 00 00 00 00 00
# IOPINS0_8 (count=16)
000000d7: 00 00 00 00 00 00 00 00 00 00 00 00 00 00 00 00

# IDMUX_IRQ (count=8)
000000e7: 00 00 00 00 00 00 00 00
# CYDEV_CLKDIST_DCFG0_CFG0 (count=3)
000000ef: 38 01 18
# CYDEV_CLKDIST_DCFG1_CFG0 (count=3)
000000f2: bf 5d 18
# CYDEV_CLKDIST_DCFG2_CFG0 (count=3)
000000f5: ff ff 18
# CYDEV_SLOWCLK_ILO_CR0 (count=1)
000000f8: 02
# CYDEV_CLKDIST_CR (count=1)
000000f9: 08
# CYDEV_FASTCLK_IMO_CR (count=1)
000000fa: 03
# CYDEV_FASTCLK_PLL_P (count=2)
000000fb: 08 00
# CYDEV_FASTCLK_PLL_CFG0 (count=2)
000000fd: 51 12
# CYDEV_CLKDIST_MSTR0 (count=2)
000000ff: 00 01
# CYDEV_CLKDIST_MSTR0 (count=1)
00000101: 07
# CYDEV_CLKDIST_BCFG0 (count=1)
00000102: 00
# CYDEV_CLKDIST_BCFG2 (count=1)
00000103: 48
# CYDEV_CLKDIST_MSTR0 (count=1)
00000104: 00
# CYDEV_CLKDIST_LD (count=1)
00000105: 02
# CYDEV_PM_ACT_CFG2 (count=1)
00000106: 07
# TMR0 (count=12)
00000107: 00 10 00 00 00 00 00 00 00 00 36 00
# UDB_1_5_0_CONFIG (count=128)
00000113: 00 00 00 00 00 00 00 00 00 00 00 00 00 00 00 00
00000123: 00 00 00 00 00 00 00 00 00 00 00 00 00 00 00 00
00000133: 00 00 00 00 00 00 00 00 00 00 00 00 00 00 00 00
00000143: 00 00 00 00 00 00 00 00 00 00 00 00 00 00 00 00
00000153: 00 00 00 00 00 00 00 00 00 00 00 00 00 00 00 00
00000163: 00 00 00 00 00 00 00 00 00 00 00 00 00 00 00 00
00000173: 00 00 00 00 00 00 00 00 00 00 00 00 00 00 00 00
00000183: 00 00 00 00 00 00 00 00 00 00 00 00 00 00 00 00

# UDB_1_5_1_CONFIG (count=128)
00000193: 00 00 00 00 00 00 00 00 00 00 00 00 00 00 00 00
000001a3: 00 00 00 00 00 00 00 00 00 00 00 00 00 00 00 00
000001b3: 00 00 00 00 00 00 00 00 00 00 00 00 00 00 00 00
000001c3: 00 00 00 00 00 00 00 00 00 00 00 00 00 00 00 00
000001d3: 00 00 00 00 00 00 00 00 00 00 00 00 00 00 00 00
000001e3: 00 00 00 00 00 00 00 00 00 00 00 00 00 00 00 00
000001f3: 00 00 00 00 00 00 00 00 00 00 00 00 00 00 00 00
00000203: 00 00 00 00 00 00 00 00 00 00 00 00 00 00 00 00

# UDB_1_4_1_CONFIG (count=128)
00000213: 00 00 00 00 00 00 00 00 00 00 00 00 00 00 00 00
00000223: 00 00 00 00 00 00 00 00 00 00 00 00 00 00 00 00
00000233: 00 00 00 00 00 00 00 00 00 00 00 00 00 00 00 00
00000243: 00 00 00 00 00 00 00 00 00 00 00 00 00 00 00 00
00000253: 00 00 00 00 00 00 00 00 00 00 00 00 00 00 00 00
00000263: 00 00 00 00 00 00 00 00 00 00 00 00 00 00 00 00
00000273: 00 00 00 00 00 00 00 00 00 00 00 00 00 00 00 00
00000283: 00 00 00 00 00 00 00 00 00 00 00 00 00 00 00 00

# UDB_1_4_0_CONFIG (count=128)
00000293: 00 00 00 00 00 00 00 00 00 00 00 00 00 00 00 00
000002a3: 00 00 00 00 00 00 00 00 00 00 00 00 00 00 00 00
000002b3: 00 00 00 00 00 00 00 00 00 00 00 00 00 00 00 00
000002c3: 00 00 00 00 00 00 00 00 00 00 00 00 00 00 00 00
000002d3: 00 00 00 00 00 00 00 00 00 00 00 00 00 00 00 00
000002e3: 00 00 00 00 00 00 00 00 00 00 00 00 00 00 00 00
000002f3: 00 00 00 00 00 00 00 00 00 00 00 00 00 00 00 00
00000303: 00 00 00 00 00 00 00 00 00 00 00 00 00 00 00 00

# UDB_1_3_0_CONFIG (count=128)
00000313: 00 00 00 00 00 00 00 00 00 00 00 00 00 00 00 00
00000323: 00 00 00 00 00 00 00 00 00 00 00 00 00 00 00 00
00000333: 00 00 00 00 00 00 00 00 00 00 00 00 00 00 00 00
00000343: 00 00 00 00 00 00 00 00 00 00 00 00 00 00 00 00
00000353: 00 00 00 00 00 00 00 00 00 00 00 00 00 00 00 00
00000363: 00 00 00 00 00 00 00 00 00 00 00 00 00 00 00 00
00000373: 00 00 00 00 00 00 00 00 00 00 00 00 00 00 00 00
00000383: 00 00 00 00 00 00 00 00 00 00 00 00 00 00 00 00

# UDB_1_3_1_CONFIG (count=128)
00000393: 00 00 00 00 00 00 00 00 00 00 00 00 00 00 00 00
000003a3: 00 00 00 00 00 00 00 00 00 00 00 00 00 00 00 00
000003b3: 00 00 00 00 00 00 00 00 00 00 00 00 00 00 00 00
000003c3: 00 00 00 00 00 00 00 00 00 00 00 00 00 00 00 00
000003d3: 00 00 00 00 00 00 00 00 00 00 00 00 00 00 00 00
000003e3: 00 00 00 00 00 00 00 00 00 00 00 00 00 00 00 00
000003f3: 00 00 00 00 00 00 00 00 00 00 00 00 00 00 00 00
00000403: 00 00 00 00 00 00 00 00 00 00 00 00 00 00 00 00

# UDB_1_2_1_CONFIG (count=128)
00000413: 00 00 00 00 00 00 00 00 00 00 00 00 00 00 00 00
00000423: 00 00 00 00 00 00 00 00 00 00 00 00 00 00 00 00
00000433: 00 00 00 00 00 00 00 00 00 00 00 00 00 00 00 00
00000443: 00 00 00 00 00 00 00 00 00 00 00 00 00 00 00 00
00000453: 00 00 00 00 00 00 00 00 00 00 00 00 00 00 00 00
00000463: 00 00 00 00 00 00 00 00 00 00 00 00 00 00 00 00
00000473: 00 00 00 00 00 00 00 00 00 00 00 00 00 00 00 00
00000483: 00 00 00 00 00 00 00 00 00 00 00 00 00 00 00 00

# UDB_1_2_0_CONFIG (count=128)
00000493: 00 00 00 00 00 00 00 00 00 00 00 00 00 00 00 00
000004a3: 00 00 00 00 00 00 00 00 00 00 00 00 00 00 00 00
000004b3: 00 00 00 00 00 00 00 00 00 00 00 00 00 00 00 00
000004c3: 00 00 00 00 00 00 00 00 00 00 00 00 00 00 00 00
000004d3: 00 00 00 00 00 00 00 00 00 00 00 00 00 00 00 00
000004e3: 00 00 00 00 00 00 00 00 00 00 00 00 00 00 00 00
000004f3: 00 00 00 00 00 00 00 00 00 00 00 00 00 00 00 00
00000503: 00 00 00 00 00 00 00 00 00 00 00 00 00 00 00 00

# UDB_0_2_1_CONFIG (count=128)
00000513: 00 02 00 00 09 01 d0 00 0c 00 71 00 00 00 20 00
00000523: 00 01 00 00 14 00 00 00 dc 00 22 00 00 00 03 00
00000533: 10 00 ac 00 10 00 40 00 00 00 00 01 00 00 00 00
00000543: 00 00 00 03 e0 00 1f 00 00 08 28 00 00 00 00 00
00000553: 02 00 00 00 00 00 40 00 00 ff 07 ff 40 20 f0 05
00000563: 08 00 00 00 18 00 00 00 04 04 04 04 00 00 00 01
00000573: 40 a8 40 20 00 00 00 00 00 00 00 00 00 00 00 00
00000583: 00 00 00 00 00 00 00 00 00 00 00 00 00 00 00 00

# UDB_0_2_0_CONFIG (count=128)
00000593: 00 20 00 00 01 30 00 00 00 10 00 00 04 34 00 0b
000005a3: 00 00 00 00 00 34 00 0b 00 0f 00 30 00 01 03 00
000005b3: 00 03 00 00 00 00 00 0b 00 3f 00 00 00 02 00 00
000005c3: 01 38 00 04 02 00 04 03 00 00 00 02 00 00 00 04
000005d3: 00 00 00 00 00 00 00 00 00 00 00 00 00 00 00 00
000005e3: 00 00 00 00 00 00 02 12 04 04 00 04 02 00 00 01
000005f3: 00 00 00 00 00 00 00 00 00 00 00 00 00 00 00 00
00000603: 00 00 00 00 00 00 00 00 00 00 00 00 00 00 00 00

# UDB_0_3_0_CONFIG (count=128)
00000613: 00 00 00 00 00 00 00 00 00 00 00 00 00 00 00 00
00000623: 00 00 00 00 00 00 00 00 00 00 00 00 00 00 00 00
00000633: 00 00 00 00 00 00 00 00 00 00 00 00 00 00 00 00
00000643: 00 00 00 00 00 00 00 00 00 00 00 00 00 00 00 00
00000653: 00 00 00 00 00 00 00 00 00 00 00 00 00 00 00 00
00000663: 00 00 00 00 00 00 00 00 00 00 00 00 00 00 00 00
00000673: 00 00 00 00 00 00 00 00 00 00 00 00 00 00 00 00
00000683: 00 00 00 00 00 00 00 00 00 00 00 00 00 00 00 00

# UDB_0_3_1_CONFIG (count=128)
00000693: 00 00 00 00 00 00 00 00 00 00 00 00 00 00 00 00
000006a3: 00 00 00 00 00 00 00 00 00 00 00 00 00 00 00 00
000006b3: 00 00 00 00 00 00 00 00 00 00 00 00 00 00 00 00
000006c3: 00 00 00 00 00 00 00 00 00 00 00 00 00 00 00 00
000006d3: 00 00 00 00 00 00 00 00 00 00 00 00 00 00 00 00
000006e3: 00 00 00 00 00 00 00 00 00 00 00 00 00 00 00 00
000006f3: 00 00 00 00 00 00 00 00 00 00 00 00 00 00 00 00
00000703: 00 00 00 00 00 00 00 00 00 00 00 00 00 00 00 00

# UDB_0_4_1_CONFIG (count=128)
00000713: 00 00 00 00 00 00 00 00 00 00 00 00 00 00 00 00
00000723: 00 00 00 00 00 00 00 00 00 00 00 00 00 00 00 00
00000733: 00 00 00 00 00 00 00 00 00 00 00 00 00 00 00 00
00000743: 00 00 00 00 00 00 00 00 00 00 00 00 00 00 00 00
00000753: 00 00 00 00 00 00 00 00 00 00 00 00 00 00 00 00
00000763: 00 00 00 00 00 00 00 00 00 00 00 00 00 00 00 00
00000773: 00 00 00 00 00 00 00 00 00 00 00 00 00 00 00 00
00000783: 00 00 00 00 00 00 00 00 00 00 00 00 00 00 00 00

# UDB_0_4_0_CONFIG (count=128)
00000793: 00 00 00 00 00 00 00 00 00 00 00 00 00 00 00 00
000007a3: 00 00 00 00 00 00 00 00 00 00 00 00 00 00 00 00
000007b3: 00 00 00 00 00 00 00 00 00 00 00 00 00 00 00 00
000007c3: 00 00 00 00 00 00 00 00 00 00 00 00 00 00 00 00
000007d3: 00 00 00 00 00 00 00 00 00 00 00 00 00 00 00 00
000007e3: 00 00 00 00 00 00 00 00 00 00 00 00 00 00 00 00
000007f3: 00 00 00 00 00 00 00 00 00 00 00 00 00 00 00 00
00000803: 00 00 00 00 00 00 00 00 00 00 00 00 00 00 00 00

# UDB_0_5_0_CONFIG (count=128)
00000813: 00 00 00 00 00 00 00 00 00 00 00 00 00 00 00 00
00000823: 00 00 00 00 00 00 00 00 00 00 00 00 00 00 00 00
00000833: 00 00 00 00 00 00 00 00 00 00 00 00 00 00 00 00
00000843: 00 00 00 00 00 00 00 00 00 00 00 00 00 00 00 00
00000853: 00 00 00 00 00 00 00 00 00 00 00 00 00 00 00 00
00000863: 00 00 00 00 00 00 00 00 00 00 00 00 00 00 00 00
00000873: 00 00 00 00 00 00 00 00 00 00 00 00 00 00 00 00
00000883: 00 00 00 00 00 00 00 00 00 00 00 00 00 00 00 00

# UDB_0_5_1_CONFIG (count=128)
00000893: 00 00 00 00 00 00 00 00 00 00 00 00 00 00 00 00
000008a3: 00 00 00 00 00 00 00 00 00 00 00 00 00 00 00 00
000008b3: 00 00 00 00 00 00 00 00 00 00 00 00 00 00 00 00
000008c3: 00 00 00 00 00 00 00 00 00 00 00 00 00 00 00 00
000008d3: 00 00 00 00 00 00 00 00 00 00 00 00 00 00 00 00
000008e3: 00 00 00 00 00 00 00 00 00 00 00 00 00 00 00 00
000008f3: 00 00 00 00 00 00 00 00 00 00 00 00 00 00 00 00
00000903: 00 00 00 00 00 00 00 00 00 00 00 00 00 00 00 00

# UDB_1_0_0_CONFIG (count=128)
00000913: 00 00 00 00 00 00 00 00 00 00 00 00 00 00 00 00
00000923: 00 00 00 00 00 00 00 00 00 00 00 00 00 00 00 00
00000933: 00 00 00 00 00 00 00 00 00 00 00 00 00 00 00 00
00000943: 00 00 00 00 00 00 00 00 00 00 00 00 00 00 00 00
00000953: 00 00 00 00 00 00 00 00 00 00 00 00 00 00 00 00
00000963: 00 00 00 00 00 00 00 00 00 00 00 00 00 00 00 00
00000973: 00 00 00 00 00 00 00 00 00 00 00 00 00 00 00 00
00000983: 00 00 00 00 00 00 00 00 00 00 00 00 00 00 00 00

# UDB_1_0_1_CONFIG (count=128)
00000993: 00 00 00 00 00 00 00 00 00 00 00 00 00 00 00 00
000009a3: 00 00 00 00 00 00 00 00 00 00 00 00 00 00 00 00
000009b3: 00 00 00 00 00 00 00 00 00 00 00 00 00 00 00 00
000009c3: 00 00 00 00 00 00 00 00 00 00 00 00 00 00 00 00
000009d3: 00 00 00 00 00 00 00 00 00 00 00 00 00 00 00 00
000009e3: 00 00 00 00 00 00 00 00 00 00 00 00 00 00 00 00
000009f3: 00 00 00 00 00 00 00 00 00 00 00 00 00 00 00 00
00000a03: 00 00 00 00 00 00 00 00 00 00 00 00 00 00 00 00

# UDB_1_1_1_CONFIG (count=128)
00000a13: 00 00 00 00 00 00 00 00 00 00 00 00 00 00 00 00
00000a23: 00 00 00 00 00 00 00 00 00 00 00 00 00 00 00 00
00000a33: 00 00 00 00 00 00 00 00 00 00 00 00 00 00 00 00
00000a43: 00 00 00 00 00 00 00 00 00 00 00 00 00 00 00 00
00000a53: 00 00 00 00 00 00 00 00 00 00 00 00 00 00 00 00
00000a63: 00 00 00 00 00 00 00 00 00 00 00 00 00 00 00 00
00000a73: 00 00 00 00 00 00 00 00 00 00 00 00 00 00 00 00
00000a83: 00 00 00 00 00 00 00 00 00 00 00 00 00 00 00 00

# UDB_1_1_0_CONFIG (count=128)
00000a93: 00 00 00 00 00 00 00 00 00 00 00 00 00 00 00 00
00000aa3: 00 00 00 00 00 00 00 00 00 00 00 00 00 00 00 00
00000ab3: 00 00 00 00 00 00 00 00 00 00 00 00 00 00 00 00
00000ac3: 00 00 00 00 00 00 00 00 00 00 00 00 00 00 00 00
00000ad3: 00 00 00 00 00 00 00 00 00 00 00 00 00 00 00 00
00000ae3: 00 00 00 00 00 00 00 00 00 00 00 00 00 00 00 00
00000af3: 00 00 00 00 00 00 00 00 00 00 00 00 00 00 00 00
00000b03: 00 00 00 00 00 00 00 00 00 00 00 00 00 00 00 00

# UDB_0_1_1_CONFIG (count=128)
00000b13: 00 00 00 15 00 0f 0c 10 01 00 0e 00 01 00 06 00
00000b23: 00 00 00 00 0c 00 03 00 00 00 00 20 00 0f 00 30
00000b33: 00 00 03 00 00 0c 08 10 00 2a 00 10 00 00 00 00
00000b43: 00 00 0f 03 00 00 00 3c 00 28 08 80 00 00 00 14
00000b53: 45 02 00 00 00 0c b0 e0 29 ff ff ff 00 00 f0 44
00000b63: 0c 00 00 00 00 00 00 00 04 04 04 00 00 00 00 01
00000b73: 00 00 00 00 00 00 c0 00 00 00 40 02 00 00 00 00
00000b83: 00 00 00 00 00 00 00 00 00 00 00 00 00 00 00 00

# UDB_0_1_0_CONFIG (count=128)
00000b93: 01 10 00 00 01 18 00 00 00 08 01 00 08 1e 02 00
00000ba3: 02 04 0c 00 00 18 01 06 1e 06 00 18 00 01 01 00
00000bb3: 00 06 00 00 04 00 02 06 1e 1e 00 00 10 02 00 00
00000bc3: 0e 00 10 01 01 1e 00 00 00 00 00 20 00 00 10 04
00000bd3: 00 00 00 00 00 00 00 00 00 00 00 00 00 00 00 00
00000be3: 00 00 00 00 00 00 00 00 04 04 00 00 00 00 00 01
00000bf3: 00 00 00 00 00 00 00 00 00 00 00 00 00 00 00 00
00000c03: 00 00 00 00 00 00 00 00 00 00 00 00 00 00 00 00

# UDB_0_0_0_CONFIG (count=128)
00000c13: 00 7d 01 00 02 60 0c 00 00 20 02 00 00 70 01 05
00000c23: 0c 00 02 02 0e 70 00 09 00 1d 00 60 0e 00 00 10
00000c33: 10 40 00 00 04 10 00 80 0c 00 00 0c 08 00 00 02
00000c43: 01 01 00 7c 10 02 0e 80 00 02 00 08 00 00 11 10
00000c53: 23 06 01 00 04 c0 0e 00 06 ff ff ff 62 a0 f0 41
00000c63: 0c 00 00 00 01 00 00 00 04 04 04 04 00 00 00 01
00000c73: 00 00 00 00 00 00 40 02 00 10 30 10 00 10 10 12
00000c83: 00 00 00 00 00 00 00 00 00 00 00 00 00 00 00 00

# UDB_0_0_1_CONFIG (count=128)
00000c93: 00 00 00 00 00 03 00 00 00 03 00 00 00 00 00 00
00000ca3: 00 00 00 00 00 02 00 09 00 01 00 0a 00 00 00 00
00000cb3: 00 00 00 00 00 00 00 00 00 00 00 00 00 00 00 04
00000cc3: 00 0c 00 00 00 03 00 00 00 00 00 00 00 00 00 01
00000cd3: 00 00 00 00 00 00 00 00 00 00 00 00 00 00 00 00
00000ce3: 00 00 00 00 00 00 00 00 00 04 00 00 00 00 00 01
00000cf3: 00 00 00 00 00 00 00 00 00 00 00 00 00 00 00 00
00000d03: 00 00 00 00 00 00 00 00 00 00 00 00 00 00 00 00

# UWRK_B0_WRK_DP_BITS (count=64)
00000d13: 00 00 00 00 00 00 00 00 00 00 00 00 00 00 00 00
00000d23: 00 00 00 00 00 00 00 00 00 00 00 00 00 00 00 00
00000d33: 00 00 00 00 00 00 00 00 00 00 00 00 00 00 00 00
00000d43: 00 00 00 00 00 00 00 00 00 00 00 00 00 00 00 00

# UWRK_B0_WRK_STATCTL_BITS + 0x00000070 (count=32)
00000d53: 00 00 00 00 00 00 00 00 00 00 00 00 00 00 00 00
00000d63: 00 00 00 00 00 00 00 00 38 72 00 00 00 00 00 00

# UWRK_B1_WRK_DP_BITS (count=64)
00000d73: 00 00 00 00 00 00 00 00 00 00 00 00 00 00 00 00
00000d83: 00 00 00 00 00 00 00 00 00 00 00 00 00 00 00 00
00000d93: 00 00 00 00 00 00 00 00 00 00 00 00 00 00 00 00
00000da3: 00 00 00 00 00 00 00 00 00 00 00 00 00 00 00 00

# UWRK_B1_WRK_STATCTL_BITS + 0x00000070 (count=32)
00000db3: 00 00 00 00 00 00 00 00 00 00 00 00 00 00 00 00
00000dc3: 00 00 00 00 00 00 00 00 00 00 0f 00 00 00 00 00

# UCFG_BCTL1 (count=16)
00000dd3: 01 00 00 00 00 00 00 00 00 00 00 00 01 00 00 00

# UCFG_BCTL0 (count=16)
00000de3: 05 00 00 00 00 00 00 00 00 00 00 00 05 00 00 00

# DSISWITCH_0_0 (count=128)
00000df3: 00 00 00 00 00 00 00 00 00 00 00 00 00 00 00 00
00000e03: c0 00 00 00 00 00 00 00 00 00 00 00 00 00 00 00
00000e13: 00 00 00 00 00 00 00 00 00 00 00 00 00 00 00 00
00000e23: 00 00 00 00 00 00 00 00 00 00 00 00 00 00 00 00
00000e33: 00 00 00 00 00 00 00 00 00 00 00 00 00 00 00 00
00000e43: 00 00 00 00 00 00 00 00 00 00 00 00 00 00 00 00
00000e53: 00 00 00 00 00 00 00 00 00 00 00 00 00 00 00 00
00000e63: 00 00 00 00 02 00 00 00 00 00 00 00 00 00 00 00

# DSI0_0_HV_ROUTING + 0x00000080 (count=128)
00000e73: 00 00 00 00 00 00 00 00 40 00 00 00 80 00 00 00
00000e83: 00 00 00 00 00 00 00 00 00 00 00 00 00 00 00 00
00000e93: 02 00 00 00 00 00 00 00 00 00 00 00 00 00 00 00
00000ea3: 00 00 00 00 00 00 00 00 00 00 00 00 00 00 00 00
00000eb3: 00 00 00 00 08 00 00 00 00 00 00 00 00 00 00 00
00000ec3: 00 00 00 00 00 00 00 00 00 00 00 00 00 00 04 00
00000ed3: 00 00 01 00 00 00 02 00 00 00 00 00 00 00 00 00
00000ee3: 00 00 00 00 00 00 00 00 00 00 00 00 00 00 00 00

# DSISWITCH_0_1 (count=128)
00000ef3: 00 00 00 00 00 00 00 00 00 00 00 00 00 00 00 00
00000f03: 00 00 00 00 00 00 00 00 00 00 00 00 00 00 00 00
00000f13: 00 00 00 00 00 00 00 00 00 00 00 00 00 00 00 00
00000f23: 00 00 00 00 00 00 00 00 00 00 00 00 00 00 00 00
00000f33: 00 00 00 00 00 00 00 00 00 00 00 00 00 00 00 00
00000f43: 00 00 00 00 00 00 00 00 00 00 00 00 00 00 00 00
00000f53: 00 00 00 00 00 00 00 00 00 00 00 00 00 00 00 00
00000f63: 00 00 00 00 00 00 00 00 00 00 00 00 00 00 00 00

# DSI0_1_HV_ROUTING + 0x00000080 (count=128)
00000f73: 00 00 00 00 00 00 00 00 00 00 00 00 02 00 00 00
00000f83: 00 00 00 00 00 00 00 00 00 00 00 00 00 00 00 00
00000f93: 00 00 00 00 00 00 00 00 00 00 00 00 00 00 00 00
00000fa3: 00 00 00 00 00 00 00 00 00 00 00 00 00 00 00 00
00000fb3: 00 00 00 00 00 00 00 00 00 00 00 00 00 00 00 00
00000fc3: 00 00 00 00 00 00 00 00 00 00 00 00 00 00 00 00
00000fd3: 00 00 00 00 02 00 00 00 00 00 00 00 00 00 00 00
00000fe3: 00 00 00 00 00 00 00 00 00 00 00 00 00 00 00 00

# DSISWITCH_0_2 (count=128)
00000ff3: 00 00 00 00 00 00 00 00 00 00 00 00 00 00 00 00
00001003: 00 00 00 00 00 00 00 00 00 00 00 00 00 00 00 00
00001013: 00 00 00 00 00 00 00 00 00 00 00 00 00 00 00 00
00001023: 00 00 00 00 00 00 00 00 00 00 00 00 00 00 00 00
00001033: 00 00 00 00 00 00 00 00 00 00 00 00 00 00 00 00
00001043: 00 00 00 00 00 00 00 00 00 00 00 00 00 00 00 00
00001053: 00 00 00 00 00 00 00 00 00 00 00 00 00 00 00 00
00001063: 00 00 00 00 00 00 00 00 00 00 00 00 00 00 00 00

# DSI0_2_HV_ROUTING + 0x00000080 (count=128)
00001073: 00 00 00 00 00 00 00 00 00 00 00 00 00 00 00 00
00001083: 00 00 00 00 00 00 00 00 00 00 00 00 00 00 00 00
00001093: 00 00 00 00 00 00 00 00 00 00 00 00 00 00 00 00
000010a3: 00 00 00 00 00 00 00 00 00 00 00 00 00 00 00 00
000010b3: 00 00 00 00 00 00 00 00 00 00 00 00 00 00 00 00
000010c3: 00 00 00 00 00 00 00 00 00 00 00 00 00 00 00 00
000010d3: 00 00 00 00 00 00 00 00 00 00 00 00 00 00 00 00
000010e3: 00 00 00 00 00 00 00 00 00 00 00 00 00 00 00 00

# DSISWITCH_0_3 (count=128)
000010f3: 00 00 00 00 00 00 00 00 00 00 00 00 00 00 00 00
00001103: 00 00 00 00 00 00 00 00 00 00 00 00 00 00 00 00
00001113: 00 00 00 00 00 00 00 00 00 00 00 00 00 00 00 00
00001123: 00 00 00 00 00 00 00 00 00 00 00 00 00 00 00 00
00001133: 00 00 00 00 00 00 00 00 00 00 00 00 00 00 00 00
00001143: 00 00 00 00 00 00 00 00 00 00 00 00 00 00 00 00
00001153: 00 00 00 00 00 00 00 00 00 00 00 00 00 00 00 00
00001163: 00 00 00 00 00 00 00 00 00 00 00 00 00 00 00 00

# DSI0_3_HV_ROUTING + 0x00000080 (count=128)
00001173: 00 00 00 00 00 00 00 00 00 00 00 00 00 00 04 00
00001183: 00 00 00 00 00 00 00 00 00 00 04 00 00 00 00 00
00001193: 00 00 00 00 00 00 00 00 00 00 00 00 00 00 00 00
000011a3: 00 00 00 00 00 00 00 00 00 00 00 00 00 00 00 00
000011b3: 00 00 00 00 00 00 00 00 00 00 00 00 00 00 00 00
000011c3: 00 00 00 00 00 00 00 00 00 00 00 00 00 00 00 00
000011d3: 00 00 00 00 00 00 08 00 00 00 00 00 00 00 00 00
000011e3: 00 00 00 00 00 00 00 00 00 00 00 00 00 00 00 00

# DSISWITCH_0_4 (count=128)
000011f3: 00 00 04 00 00 00 00 00 00 00 00 00 00 00 00 00
00001203: 00 00 00 00 00 00 00 00 00 00 00 00 00 00 00 00
00001213: 00 00 00 00 00 00 00 00 00 00 00 00 00 00 00 00
00001223: 00 00 00 00 00 00 00 00 00 00 00 00 00 00 00 00
00001233: 00 00 00 00 00 00 00 00 00 00 00 00 00 00 00 00
00001243: 00 00 00 00 00 00 00 00 00 00 00 00 00 00 00 00
00001253: 00 00 00 00 00 00 00 00 00 00 00 00 00 00 00 00
00001263: 00 00 00 00 00 00 00 00 00 00 00 00 00 00 00 00

# DSI0_4_HV_ROUTING + 0x00000080 (count=128)
00001273: 00 00 00 00 00 00 00 00 00 00 00 00 00 00 00 00
00001283: 00 00 00 00 00 00 00 00 00 00 00 00 00 00 00 00
00001293: 00 00 00 00 00 00 00 00 00 00 00 00 00 00 00 00
000012a3: 00 00 00 00 00 00 00 00 00 00 00 00 00 00 00 00
000012b3: 02 00 00 00 00 00 00 00 00 00 00 00 00 00 00 00
000012c3: 00 00 00 00 00 00 00 00 00 00 00 00 00 00 00 00
000012d3: 00 00 00 00 00 00 00 00 00 00 00 00 00 00 00 00
000012e3: 00 00 00 00 00 00 00 00 00 00 00 00 00 00 00 00

# DSISWITCH_0_5 (count=128)
000012f3: 00 00 00 00 00 00 00 00 00 00 00 00 00 00 00 00
00001303: 00 00 00 00 00 00 00 00 00 00 00 00 00 00 00 00
00001313: 00 00 00 00 00 00 00 00 00 00 00 00 00 00 00 00
00001323: 00 00 00 00 00 00 00 00 00 00 00 00 00 00 00 00
00001333: 00 00 00 00 00 00 00 00 00 00 00 00 00 00 00 00
00001343: 00 00 00 00 00 00 00 00 00 00 00 00 00 00 00 00
00001353: 00 00 00 00 00 00 00 00 00 00 00 00 00 00 00 00
00001363: 00 00 00 00 00 00 00 00 00 00 00 00 00 00 00 00

# DSI0_5_HV_ROUTING + 0x00000080 (count=128)
00001373: 00 00 00 00 00 00 00 00 00 00 00 00 00 00 00 00
00001383: 00 00 00 00 00 00 00 00 00 00 00 00 00 00 00 00
00001393: 00 00 00 00 00 00 00 00 00 00 00 00 00 00 00 00
000013a3: 00 00 00 00 00 00 00 00 00 00 00 00 00 00 00 00
000013b3: 00 00 00 00 00 00 00 00 00 00 00 00 00 00 00 00
000013c3: 00 00 00 00 00 00 00 00 00 00 00 00 00 00 00 00
000013d3: 00 00 00 00 00 00 00 00 00 00 00 00 00 00 00 00
000013e3: 00 00 00 00 00 00 00 00 00 00 00 00 00 00 00 00

# UDBSWITCH_0_0 (count=128)
000013f3: 80 00 20 88 00 00 00 00 80 08 00 40 00 00 00 00
00001403: 01 02 15 12 00 00 00 00 00 01 08 80 00 00 00 00
00001413: 00 08 41 04 40 00 00 08 20 00 41 08 00 00 40 00
00001423: 00 08 61 00 02 01 10 08 20 02 14 40 00 10 04 00
00001433: 44 00 00 88 00 00 00 00 40 20 00 00 00 00 00 00
00001443: 00 00 40 00 00 00 00 00 40 00 28 02 00 00 00 00
00001453: 00 00 00 00 00 00 00 00 00 00 00 00 00 00 00 00
00001463: 00 00 00 00 00 00 00 00 00 00 00 00 00 00 00 00

# UDB_1_0_HV_ROUTING + 0x00000080 (count=128)
00001473: 00 00 00 00 00 00 00 00 a0 e1 10 08 00 04 00 00
00001483: 24 10 64 50 00 00 00 04 41 20 00 00 02 c0 04 00
00001493: 00 01 20 08 00 0c 00 00 00 00 00 00 00 00 00 00
000014a3: 00 00 00 00 00 00 00 00 00 00 00 00 00 00 00 00
000014b3: 0f 00 0d 00 0f 00 00 00 00 00 1f 00 6f 00 6f 00
000014c3: 0f 00 04 00 00 00 0f 00 00 00 00 00 00 00 00 00
000014d3: 00 00 00 00 00 00 00 00 00 00 00 00 00 00 00 00
000014e3: 00 00 00 00 00 00 00 00 00 00 00 00 00 00 00 00

# UDBSWITCH_1_0 (count=128)
000014f3: 00 00 00 00 00 00 00 00 00 00 00 00 00 00 00 00
00001503: 00 00 00 00 00 00 00 00 00 00 00 00 00 00 00 00
00001513: 00 00 00 00 00 00 00 00 00 00 00 00 00 00 00 00
00001523: 00 00 00 00 00 00 00 00 00 00 00 00 00 00 00 00
00001533: 00 00 00 00 00 00 00 00 00 00 00 00 00 00 00 00
00001543: 00 00 00 00 00 00 00 00 00 00 00 00 00 00 00 00
00001553: 00 00 00 00 00 00 00 00 00 00 00 00 00 00 00 00
00001563: 00 00 00 00 00 00 00 00 00 00 00 00 00 00 00 00

# UDB_2_0_HV_ROUTING + 0x00000080 (count=128)
00001573: 00 00 00 00 00 00 00 00 00 00 00 00 00 00 00 00
00001583: 00 00 00 00 00 00 00 00 00 00 00 00 00 00 00 00
00001593: 00 00 00 00 00 00 00 00 00 00 00 00 00 00 00 00
000015a3: 00 00 00 00 00 00 00 00 00 00 00 00 00 00 00 00
000015b3: 00 00 00 00 00 00 00 00 00 00 00 00 00 00 00 00
000015c3: 00 00 00 00 00 00 00 00 00 00 00 00 00 00 00 00
000015d3: 00 00 00 00 00 00 00 00 00 00 00 00 00 00 00 00
000015e3: 00 00 00 00 00 00 00 00 00 00 00 00 00 00 00 00

# UDBSWITCH_0_1 (count=128)
000015f3: 28 80 80 02 00 00 08 21 00 00 66 01 00 00 20 00
00001603: 02 18 00 00 00 01 20 00 00 05 48 08 20 00 20 04
00001613: 04 00 28 00 00 00 80 19 00 65 00 00 00 04 00 04
00001623: 00 08 20 82 00 00 80 20 20 00 06 40 08 01 08 03
00001633: 00 00 00 00 00 00 08 01 00 00 00 00 00 04 11 00
00001643: 00 00 00 00 00 01 00 10 00 00 00 00 00 00 00 00
00001653: 00 00 00 00 00 00 00 00 00 00 00 00 00 00 00 00
00001663: 00 00 00 00 00 00 00 00 00 00 00 00 00 00 00 00

# UDB_1_1_HV_ROUTING + 0x00000080 (count=128)
00001673: 00 00 00 00 00 00 00 08 40 00 04 00 00 00 08 00
00001683: 20 10 04 50 00 00 00 0c 01 20 22 20 02 c5 00 11
00001693: 06 00 00 81 00 08 20 10 00 00 40 00 00 00 00 00
000016a3: 00 00 00 00 00 00 00 00 00 00 00 00 00 00 00 00
000016b3: ef 00 2f 00 37 00 00 00 00 00 6f 00 3f 00 cf 00
000016c3: a0 00 10 00 00 00 00 00 00 00 00 00 00 00 00 00
000016d3: 00 00 00 00 00 00 00 00 00 00 00 00 00 00 00 00
000016e3: 00 00 00 00 00 00 00 00 00 00 00 00 00 00 00 00

# UDBSWITCH_1_1 (count=128)
000016f3: 00 00 00 00 00 00 00 00 00 00 00 00 00 00 00 00
00001703: 00 00 00 00 00 00 00 00 00 00 00 00 00 00 00 00
00001713: 00 00 00 00 00 00 00 00 00 00 00 00 00 00 00 00
00001723: 00 00 00 00 00 00 00 00 00 00 00 00 00 00 00 00
00001733: 00 00 00 00 00 00 00 00 00 00 00 00 00 00 00 00
00001743: 00 00 00 00 00 00 00 00 00 00 00 00 00 00 00 00
00001753: 00 00 00 00 00 00 00 00 00 00 00 00 00 00 00 00
00001763: 00 00 00 00 00 00 00 00 00 00 00 00 00 00 00 00

# UDB_2_1_HV_ROUTING + 0x00000080 (count=128)
00001773: 00 00 00 00 00 00 00 00 00 00 00 00 00 00 00 00
00001783: 00 00 00 00 00 00 00 00 00 00 00 00 00 00 00 00
00001793: 00 00 00 00 00 00 00 00 00 00 00 00 00 00 00 00
000017a3: 00 00 00 00 00 00 00 00 00 00 00 00 00 00 00 00
000017b3: 00 00 00 00 00 00 00 00 00 00 00 00 00 00 00 00
000017c3: 00 00 00 00 00 00 00 00 00 00 00 00 00 00 00 00
000017d3: 00 00 08 00 00 00 00 00 00 00 00 00 00 00 01 00
000017e3: 00 00 00 00 00 00 00 00 00 00 00 00 00 00 00 00

# UDBSWITCH_0_2 (count=128)
000017f3: 00 00 02 20 00 10 01 20 00 20 01 08 00 20 02 20
00001803: 00 00 00 00 01 00 22 01 00 00 81 20 08 10 02 88
00001813: 00 00 04 41 00 00 00 20 00 a5 00 08 00 00 00 04
00001823: 00 48 20 00 00 00 00 01 28 00 02 40 08 00 00 02
00001833: 00 00 00 00 00 00 00 10 00 00 00 00 00 00 00 00
00001843: 00 00 00 00 00 00 21 01 00 00 08 00 00 00 00 01
00001853: 00 00 00 00 02 00 00 04 02 10 04 00 00 00 00 00
00001863: 14 00 02 10 00 00 00 00 00 00 00 00 00 00 00 00

# UDB_1_2_HV_ROUTING + 0x00000080 (count=128)
00001873: 00 00 00 00 00 00 00 00 00 00 00 00 00 00 00 00
00001883: 00 00 00 00 00 00 00 00 00 00 00 00 00 00 00 00
00001893: 00 00 02 00 00 00 00 00 00 00 00 00 00 00 00 00
000018a3: 00 00 00 00 00 00 00 00 00 00 00 00 00 00 00 00
000018b3: e5 00 e1 00 30 00 00 00 00 00 2f 00 8e 00 cf 00
000018c3: 20 00 00 00 00 00 82 00 30 00 00 00 00 00 00 00
000018d3: 00 00 00 00 00 00 00 00 00 00 00 00 00 00 00 00
000018e3: 00 00 00 00 00 00 00 00 00 00 00 00 00 00 00 00

# UDBSWITCH_1_2 (count=128)
000018f3: 00 00 00 00 00 00 00 00 00 00 00 00 00 00 00 00
00001903: 00 00 00 00 00 00 00 00 00 00 00 00 00 00 00 00
00001913: 00 00 00 00 00 00 00 00 00 00 00 00 00 00 00 00
00001923: 00 00 00 00 00 00 00 00 00 00 00 00 00 00 00 00
00001933: 00 00 00 00 00 00 00 00 00 00 00 00 00 00 00 00
00001943: 00 00 00 00 00 00 00 00 00 00 00 00 00 00 00 00
00001953: 00 00 00 00 00 00 00 00 00 00 00 00 00 00 00 00
00001963: 00 00 00 00 00 00 00 00 00 00 00 00 00 00 00 00

# UDB_2_2_HV_ROUTING + 0x00000080 (count=128)
00001973: 00 00 00 00 00 00 00 00 00 00 00 00 00 00 00 00
00001983: 00 00 00 00 00 00 00 00 00 00 00 00 00 00 00 00
00001993: 00 00 00 00 00 00 00 00 00 00 00 00 00 00 00 00
000019a3: 00 00 00 00 00 00 00 00 00 00 00 00 00 00 00 00
000019b3: 00 00 00 00 00 00 00 00 00 00 00 00 00 00 00 00
000019c3: 00 00 00 00 00 00 00 00 00 00 00 00 00 00 00 00
000019d3: 00 00 00 00 00 00 00 00 00 00 00 00 00 00 00 00
000019e3: 00 00 00 00 00 00 00 00 00 00 00 00 00 00 00 00

# UDBSWITCH_0_3 (count=128)
000019f3: 00 00 00 00 00 00 00 00 00 00 00 00 00 00 00 00
00001a03: 00 00 00 00 00 00 00 00 00 00 00 00 00 00 00 00
00001a13: 00 00 00 00 00 00 00 00 00 00 00 00 00 00 00 00
00001a23: 00 00 00 00 00 00 00 00 00 00 00 00 00 00 00 00
00001a33: 00 00 00 00 00 00 00 00 00 00 00 00 00 00 00 00
00001a43: 00 00 00 00 00 00 00 00 00 00 00 00 00 00 00 00
00001a53: 00 00 00 00 00 00 00 00 00 00 00 00 00 00 00 00
00001a63: 00 00 00 00 00 00 00 00 00 00 00 00 00 00 00 00

# UDB_1_3_HV_ROUTING + 0x00000080 (count=128)
00001a73: 00 00 00 00 00 00 00 00 00 00 00 00 00 00 02 00
00001a83: 00 00 00 00 00 00 00 00 00 00 00 00 00 00 00 00
00001a93: 00 00 00 00 00 00 00 00 00 00 00 00 00 00 00 00
00001aa3: 00 00 00 00 00 00 00 00 00 00 00 00 00 00 00 00
00001ab3: 00 00 00 00 00 00 00 00 00 00 00 00 00 00 00 00
00001ac3: 00 00 00 00 00 00 00 00 00 00 00 00 00 00 00 00
00001ad3: 00 00 00 00 00 00 00 00 00 00 00 00 00 00 00 00
00001ae3: 00 00 00 00 00 00 00 00 00 00 00 00 00 00 00 00

# UDBSWITCH_1_3 (count=128)
00001af3: 00 00 00 00 00 00 00 00 00 00 00 00 00 00 00 00
00001b03: 00 00 00 00 00 00 00 00 00 00 00 00 00 00 00 00
00001b13: 00 00 00 00 00 00 00 00 00 00 00 00 00 00 00 00
00001b23: 00 00 00 00 00 00 00 00 00 00 00 00 00 00 00 00
00001b33: 00 00 00 00 00 00 00 00 00 00 00 00 00 00 00 00
00001b43: 00 00 00 00 00 00 00 00 00 00 00 00 00 00 00 00
00001b53: 00 00 00 00 00 00 00 00 00 00 00 00 00 00 00 00
00001b63: 00 00 00 00 00 00 00 00 00 00 00 00 00 00 00 00

# UDB_2_3_HV_ROUTING + 0x00000080 (count=128)
00001b73: 00 00 00 00 00 00 00 00 00 00 00 00 00 00 00 00
00001b83: 00 00 00 00 00 00 00 00 00 00 00 00 00 00 00 00
00001b93: 00 00 00 00 00 00 00 00 00 00 00 00 00 00 00 00
00001ba3: 00 00 00 00 00 00 00 00 00 00 00 00 00 00 00 00
00001bb3: 00 00 00 00 00 00 00 00 00 00 00 00 00 00 00 00
00001bc3: 00 00 00 00 00 00 00 00 00 00 00 00 00 00 00 00
00001bd3: 00 00 00 00 00 00 00 00 00 00 00 00 00 00 00 00
00001be3: 00 00 00 00 00 00 00 00 00 00 00 00 00 00 00 00

# UDBSWITCH_0_4 (count=128)
00001bf3: 00 00 00 00 00 00 00 00 00 00 00 00 00 00 00 00
00001c03: 00 00 00 00 00 00 00 00 00 00 00 00 00 00 00 00
00001c13: 00 00 00 00 00 00 00 00 00 00 00 00 00 00 00 00
00001c23: 00 00 00 00 00 00 00 00 00 00 00 00 00 00 00 00
00001c33: 00 00 00 00 00 00 00 00 00 00 00 00 00 00 00 00
00001c43: 00 00 00 00 00 00 00 00 00 00 00 00 00 00 00 00
00001c53: 00 00 00 00 00 00 00 00 00 00 00 00 00 00 00 00
00001c63: 00 00 00 00 00 00 00 00 00 00 00 00 00 00 00 00

# UDB_1_4_HV_ROUTING + 0x00000080 (count=128)
00001c73: 00 00 00 00 00 00 00 00 00 00 00 00 00 00 00 00
00001c83: 00 00 00 00 00 00 00 00 00 00 00 00 00 00 00 00
00001c93: 00 00 00 00 00 00 00 00 00 00 00 00 00 00 00 00
00001ca3: 00 00 00 00 00 00 00 00 00 00 00 00 00 00 00 00
00001cb3: 00 00 00 00 00 00 00 00 00 00 00 00 00 00 00 00
00001cc3: 00 00 00 00 00 00 00 00 00 00 00 00 00 00 00 00
00001cd3: 00 00 00 00 00 00 00 00 00 00 00 00 00 00 00 00
00001ce3: 00 00 00 00 00 00 00 00 00 00 00 00 00 00 00 00

# UDBSWITCH_1_4 (count=128)
00001cf3: 00 00 00 00 00 00 00 00 00 00 00 00 00 00 00 00
00001d03: 00 00 00 00 00 00 00 00 00 00 00 00 00 00 00 00
00001d13: 00 00 00 00 00 00 00 00 00 00 00 00 00 00 00 00
00001d23: 00 00 00 00 00 00 00 00 00 00 00 00 00 00 00 00
00001d33: 00 00 00 00 00 00 00 00 00 00 00 00 00 00 00 00
00001d43: 00 00 00 00 00 00 00 00 00 00 00 00 00 00 00 00
00001d53: 00 00 00 00 00 00 00 00 00 00 00 00 00 00 00 00
00001d63: 00 00 00 00 00 00 00 00 00 00 00 00 00 00 00 00

# UDB_2_4_HV_ROUTING + 0x00000080 (count=128)
00001d73: 00 00 00 00 00 00 00 00 00 00 00 00 00 00 00 00
00001d83: 00 00 00 00 00 00 00 00 00 00 00 00 00 00 00 00
00001d93: 00 00 00 00 00 00 00 00 00 00 00 00 00 00 00 00
00001da3: 00 00 00 00 00 00 00 00 00 00 00 00 00 00 00 00
00001db3: 00 00 00 00 00 00 00 00 00 00 00 00 00 00 00 00
00001dc3: 00 00 00 00 00 00 00 00 00 00 00 00 00 00 00 00
00001dd3: 00 00 00 00 00 00 00 00 00 00 00 00 00 00 00 00
00001de3: 00 00 00 00 00 00 00 00 00 00 00 00 00 00 00 00

# UDBSWITCH_0_5 (count=128)
00001df3: 00 00 00 00 00 00 00 00 00 00 00 00 00 00 00 00
00001e03: 00 00 00 00 00 00 00 00 00 00 00 00 00 00 00 00
00001e13: 00 00 00 00 00 00 00 00 00 00 00 00 00 00 00 00
00001e23: 00 00 00 00 00 00 00 00 00 00 00 00 00 00 00 00
00001e33: 00 00 00 00 00 00 00 00 00 00 00 00 00 00 00 00
00001e43: 00 00 00 00 00 00 00 00 00 00 00 00 00 00 00 00
00001e53: 00 00 00 00 00 00 00 00 00 00 00 00 00 00 00 00
00001e63: 00 00 00 00 00 00 00 00 00 00 00 00 00 00 00 00

# UDB_1_5_HV_ROUTING + 0x00000080 (count=128)
00001e73: 00 00 00 00 00 00 00 00 00 00 00 00 00 00 00 00
00001e83: 00 00 00 00 00 00 00 00 00 00 00 00 00 00 00 00
00001e93: 00 00 00 00 00 00 00 00 00 00 00 00 00 00 00 00
00001ea3: 00 00 00 00 00 00 00 00 00 00 00 00 00 00 00 00
00001eb3: 00 00 00 00 00 00 00 00 00 00 00 00 00 00 00 00
00001ec3: 00 00 00 00 00 00 00 00 00 00 00 00 00 00 00 00
00001ed3: 00 00 00 00 00 00 00 00 00 00 00 00 00 00 00 00
00001ee3: 00 00 00 00 00 00 00 00 00 00 00 00 00 00 00 00

# UDBSWITCH_1_5 (count=128)
00001ef3: 00 00 00 00 00 00 00 00 00 00 00 00 00 00 00 00
00001f03: 00 00 00 00 00 00 00 00 00 00 00 00 00 00 00 00
00001f13: 00 00 00 00 00 00 00 00 00 00 00 00 00 00 00 00
00001f23: 00 00 00 00 00 00 00 00 00 00 00 00 00 00 00 00
00001f33: 00 00 00 00 00 00 00 00 00 00 00 00 00 00 00 00
00001f43: 00 00 00 00 00 00 00 00 00 00 00 00 00 00 00 00
00001f53: 00 00 00 00 00 00 00 00 00 00 00 00 00 00 00 00
00001f63: 00 00 00 00 00 00 00 00 00 00 00 00 00 00 00 00

# UDB_2_5_HV_ROUTING + 0x00000080 (count=128)
00001f73: 00 00 00 00 00 00 00 00 00 00 00 00 00 00 00 00
00001f83: 00 00 00 00 00 00 00 00 00 00 00 00 00 00 00 00
00001f93: 00 00 00 00 00 00 00 00 00 00 00 00 00 00 00 00
00001fa3: 00 00 00 00 00 00 00 00 00 00 00 00 00 00 00 00
00001fb3: 00 00 00 00 00 00 00 00 00 00 00 00 00 00 00 00
00001fc3: 00 00 00 00 00 00 00 00 00 00 00 00 00 00 00 00
00001fd3: 00 00 00 00 00 00 00 00 00 00 00 00 00 00 00 00
00001fe3: 00 00 00 00 00 00 00 00 00 00 00 00 00 00 00 00

# DSISWITCH_1_0 (count=128)
00001ff3: 00 00 00 00 00 00 00 00 00 00 00 00 00 00 00 00
00002003: 00 00 00 00 00 00 00 00 00 00 00 00 00 00 00 00
00002013: 00 00 00 00 00 00 00 00 00 00 00 00 00 00 00 00
00002023: 00 00 00 00 00 00 00 00 00 00 00 00 00 00 00 00
00002033: 00 00 00 00 00 00 00 00 00 00 00 00 00 00 00 00
00002043: 00 00 00 00 00 00 00 00 00 00 00 00 00 00 00 00
00002053: 00 00 00 00 00 00 00 00 00 00 00 00 00 00 00 00
00002063: 00 00 00 00 00 00 00 00 00 00 00 00 00 00 00 00

# DSI3_0_HV_ROUTING + 0x00000080 (count=128)
00002073: 00 00 00 00 00 00 00 00 00 00 00 00 00 00 00 00
00002083: 00 00 00 00 00 00 00 00 00 00 00 00 00 00 00 00
00002093: 00 00 00 00 00 00 00 00 00 00 00 00 00 00 00 00
000020a3: 00 00 00 00 00 00 00 00 00 00 00 00 00 00 00 00
000020b3: 00 00 00 00 00 00 00 00 00 00 00 00 00 00 00 00
000020c3: 00 00 00 00 00 00 00 00 00 00 00 00 00 00 00 00
000020d3: 00 00 00 00 00 00 00 00 00 00 00 00 00 00 00 00
000020e3: 00 00 00 00 00 00 00 00 00 00 00 00 00 00 00 00

# DSISWITCH_1_1 (count=128)
000020f3: 00 00 00 00 00 00 00 00 00 00 00 00 00 00 00 00
00002103: 00 00 00 00 00 00 00 00 00 00 00 00 00 00 00 00
00002113: 00 00 00 00 00 00 00 00 00 00 00 00 00 00 00 00
00002123: 00 00 00 00 00 00 00 00 00 00 00 00 00 00 00 00
00002133: 00 00 00 00 00 00 00 00 00 00 00 00 00 00 00 00
00002143: 00 00 00 00 00 00 00 00 00 00 00 00 00 00 00 00
00002153: 00 00 00 00 00 00 00 80 00 00 00 00 00 00 00 00
00002163: 00 00 00 00 00 00 00 00 00 00 00 00 00 00 00 00

# DSI3_1_HV_ROUTING + 0x00000080 (count=128)
00002173: 00 00 00 00 00 00 00 40 00 00 00 00 00 00 00 00
00002183: 00 00 00 00 00 00 00 00 00 00 00 00 00 00 00 00
00002193: 00 00 00 00 00 00 00 00 00 00 00 10 00 00 00 00
000021a3: 00 00 00 00 00 00 00 00 00 00 00 00 00 00 00 00
000021b3: 00 00 00 00 00 00 00 00 00 00 00 00 00 00 00 00
000021c3: 00 00 00 00 00 00 00 00 80 00 00 00 00 00 00 00
000021d3: 00 00 10 00 00 00 00 00 00 00 00 00 00 00 80 00
000021e3: 00 00 00 00 00 00 00 00 00 00 00 00 00 00 00 00

# DSISWITCH_1_2 (count=128)
000021f3: 00 00 00 00 00 00 00 00 00 00 00 00 00 00 00 00
00002203: 00 00 00 00 00 00 00 00 00 00 00 00 00 00 00 00
00002213: 00 00 00 00 00 00 00 00 00 00 00 00 00 00 00 00
00002223: 00 00 00 00 00 00 00 00 00 00 00 00 00 00 00 00
00002233: 00 00 00 00 00 00 00 00 00 00 00 00 00 00 00 00
00002243: 00 00 00 00 00 00 00 00 00 00 00 00 00 00 00 00
00002253: 00 00 00 20 00 00 00 00 00 00 00 00 00 00 00 00
00002263: 00 00 00 00 00 00 00 00 00 00 00 00 00 00 00 00

# DSI3_2_HV_ROUTING + 0x00000080 (count=128)
00002273: 00 00 00 00 00 00 00 00 00 00 00 00 00 00 00 00
00002283: 00 00 00 00 00 00 00 00 00 00 00 00 00 00 00 00
00002293: 00 00 00 00 00 00 00 00 00 00 00 00 00 00 00 00
000022a3: 00 00 00 00 00 00 00 00 00 00 00 00 00 00 00 00
000022b3: 00 00 00 00 00 00 00 00 00 00 00 00 00 00 00 00
000022c3: 00 00 00 00 00 00 00 00 40 00 00 00 00 00 00 00
000022d3: 00 00 00 00 00 00 00 00 00 00 00 00 00 00 00 00
000022e3: 00 00 00 00 00 00 00 00 00 00 00 00 00 00 00 00

# DSISWITCH_1_3 (count=128)
000022f3: 00 00 00 00 00 00 00 00 00 00 00 00 00 00 00 00
00002303: 00 00 00 00 00 00 00 00 00 00 00 00 00 00 00 00
00002313: 00 00 00 00 00 00 00 00 00 00 00 00 00 00 00 00
00002323: 00 00 00 00 00 00 00 00 00 00 00 00 00 00 00 00
00002333: 00 00 00 00 00 00 00 00 00 00 00 00 00 00 00 00
00002343: 00 00 00 00 00 00 00 00 00 00 00 00 00 00 00 00
00002353: 00 00 00 00 00 00 00 00 00 00 00 00 00 00 00 00
00002363: 00 00 00 00 00 00 00 00 00 00 00 00 00 00 00 00

# DSI3_3_HV_ROUTING + 0x00000080 (count=128)
00002373: 00 00 00 00 00 00 00 00 00 00 00 00 00 00 00 00
00002383: 00 00 00 00 00 00 00 00 00 00 00 00 00 00 00 00
00002393: 00 00 00 00 00 00 00 00 00 00 00 00 00 00 00 00
000023a3: 00 00 00 00 00 00 00 00 00 00 00 00 00 00 00 00
000023b3: 00 00 00 00 00 00 00 00 00 00 00 00 00 00 00 00
000023c3: 00 00 00 00 00 00 00 00 00 00 00 00 00 00 00 00
000023d3: 00 00 00 00 00 00 00 00 00 00 00 00 00 00 00 00
000023e3: 00 00 00 00 00 00 00 00 00 00 00 00 00 00 00 00

# DSISWITCH_1_4 (count=128)
000023f3: 00 00 00 00 00 00 00 00 00 00 00 00 00 00 00 00
00002403: 00 00 00 00 00 00 00 00 00 00 00 00 00 00 00 00
00002413: 00 00 00 00 00 00 00 00 00 00 00 00 00 00 00 00
00002423: 00 00 00 00 00 00 00 00 00 00 00 00 00 00 00 00
00002433: 00 00 00 00 00 00 00 00 00 00 00 00 00 00 00 00
00002443: 00 00 00 00 00 00 00 00 00 00 00 00 00 00 00 00
00002453: 00 00 00 00 00 00 00 00 00 00 00 00 00 00 00 00
00002463: 00 00 00 00 00 00 00 00 00 00 00 00 00 00 00 00

# DSI3_4_HV_ROUTING + 0x00000080 (count=128)
00002473: 00 00 00 00 00 00 00 00 00 00 00 00 00 00 00 00
00002483: 00 00 00 00 00 00 00 00 00 00 00 00 00 00 00 00
00002493: 00 00 00 00 00 00 00 00 00 00 00 00 00 00 00 00
000024a3: 00 00 00 00 00 00 00 00 00 00 00 00 00 00 00 00
000024b3: 00 00 00 00 00 00 00 00 00 00 00 00 00 00 00 00
000024c3: 00 00 00 00 00 00 00 00 00 00 00 00 00 00 00 00
000024d3: 00 00 00 00 00 00 00 00 00 00 00 00 00 00 00 00
000024e3: 00 00 00 00 00 00 00 00 00 00 00 00 00 00 00 00

# DSISWITCH_1_5 (count=128)
000024f3: 00 00 00 00 00 00 00 00 00 00 00 00 00 00 00 00
00002503: 00 00 00 00 00 00 00 00 00 00 00 00 00 00 00 00
00002513: 00 00 00 00 00 00 00 00 00 00 00 00 00 00 00 00
00002523: 00 00 00 00 00 00 00 00 00 00 00 00 00 00 00 00
00002533: 00 00 00 00 00 00 00 00 00 00 00 00 00 00 00 00
00002543: 00 00 00 00 00 00 00 00 00 00 00 00 00 00 00 00
00002553: 00 00 00 00 00 00 00 00 00 00 00 00 00 00 00 00
00002563: 00 00 00 00 00 00 00 00 00 00 00 00 00 00 00 00

# DSI3_5_HV_ROUTING + 0x00000080 (count=128)
00002573: 00 00 00 00 00 00 00 00 00 00 00 00 00 00 00 00
00002583: 00 00 00 00 00 00 00 00 00 00 00 00 00 00 00 00
00002593: 00 00 00 00 00 00 00 00 00 00 00 00 00 00 00 00
000025a3: 00 00 00 00 00 00 00 00 00 00 00 00 00 00 00 00
000025b3: 00 00 00 00 00 00 00 00 00 00 00 00 00 00 00 00
000025c3: 00 00 00 00 00 00 00 00 00 00 00 00 00 00 00 00
000025d3: 00 00 00 00 00 00 00 00 00 00 00 00 00 00 00 00
000025e3: 00 00 00 00 00 00 00 00 00 00 00 00 00 00 00 00

