===========Generating Bitstream===========
# IDMUX (count=6)
00000000: 00 00 00 00 00 00
# IOPORT_0 (count=7)
00000006: 00 00 00 00 00 00 00
# IOPINS0_0 (count=16)
0000000d: 00 00 00 00 00 00 00 00 00 00 00 00 00 00 00 00

# IOPORT_1 (count=7)
0000001d: 00 00 00 00 00 00 00
# IOPINS0_1 (count=16)
00000024: 00 00 00 00 00 00 00 00 00 00 00 00 00 00 00 00

# IOPORT_2 (count=7)
00000034: 08 00 00 00 00 00 00
# IOPINS0_2 (count=8)
0000003b: 00 08 08 00 08 00 00 00
# IOPINS1_2 + 0x00000009 (count=5)
00000043: 00 00 00 00 00
# IOPORT_3 (count=7)
00000048: 00 00 00 00 00 00 00
# IOPINS0_3 (count=16)
0000004f: 00 00 00 00 00 00 00 00 00 00 00 00 00 00 00 00

# IOPORT_4 (count=7)
0000005f: 00 00 00 00 00 00 00
# IOPINS0_4 (count=16)
00000066: 00 00 00 00 00 00 00 00 00 00 00 00 00 00 00 00

# IOPORT_5 (count=7)
00000076: 00 00 00 00 00 00 00
# IOPINS0_5 (count=16)
0000007d: 00 00 00 00 00 00 00 00 00 00 00 00 00 00 00 00

# IOPORT_6 (count=7)
0000008d: 00 00 00 00 00 00 00
# IOPINS0_6 (count=16)
00000094: 00 00 00 00 00 00 00 00 00 00 00 00 00 00 00 00

# IOPORT_7 (count=6)
000000a4: 00 00 00 00 00 00
# IOPINS0_7 (count=16)
000000aa: 00 00 00 00 00 00 00 00 00 00 00 00 00 00 00 00

# IOPORT_8 (count=7)
000000ba: 00 00 00 00 00 00 00
# IOPINS0_8 (count=16)
000000c1: 00 00 00 00 00 00 00 00 00 00 00 00 00 00 00 00

# IDMUX_IRQ (count=8)
000000d1: 00 00 00 00 00 00 00 00
# CYDEV_CLKDIST_DCFG0_CFG0 (count=3)
000000d9: 17 00 18
# CYDEV_SLOWCLK_ILO_CR0 (count=1)
000000dc: 02
# CYDEV_CLKDIST_CR (count=1)
000000dd: 08
# CYDEV_FASTCLK_IMO_CR (count=1)
000000de: 03
# CYDEV_FASTCLK_PLL_P (count=2)
000000df: 08 00
# CYDEV_FASTCLK_PLL_CFG0 (count=2)
000000e1: 51 12
# CYDEV_CLKDIST_MSTR0 (count=2)
000000e3: 00 01
# CYDEV_CLKDIST_MSTR0 (count=1)
000000e5: 07
# CYDEV_CLKDIST_BCFG0 (count=1)
000000e6: 00
# CYDEV_CLKDIST_BCFG2 (count=1)
000000e7: 48
# CYDEV_CLKDIST_MSTR0 (count=1)
000000e8: 00
# CYDEV_CLKDIST_LD (count=1)
000000e9: 02
# CYDEV_PM_ACT_CFG2 (count=1)
000000ea: 01
# UDB_1_5_0_CONFIG (count=128)
000000eb: 00 00 00 00 00 00 00 00 00 00 00 00 00 00 00 00
000000fb: 00 00 00 00 00 00 00 00 00 00 00 00 00 00 00 00
0000010b: 00 00 00 00 00 00 00 00 00 00 00 00 00 00 00 00
0000011b: 00 00 00 00 00 00 00 00 00 00 00 00 00 00 00 00
0000012b: 00 00 00 00 00 00 00 00 00 00 00 00 00 00 00 00
0000013b: 00 00 00 00 00 00 00 00 00 00 00 00 00 00 00 00
0000014b: 00 00 00 00 00 00 00 00 00 00 00 00 00 00 00 00
0000015b: 00 00 00 00 00 00 00 00 00 00 00 00 00 00 00 00

# UDB_1_5_1_CONFIG (count=128)
0000016b: 00 00 00 00 00 00 00 00 00 00 00 00 00 00 00 00
0000017b: 00 00 00 00 00 00 00 00 00 00 00 00 00 00 00 00
0000018b: 00 00 00 00 00 00 00 00 00 00 00 00 00 00 00 00
0000019b: 00 00 00 00 00 00 00 00 00 00 00 00 00 00 00 00
000001ab: 00 00 00 00 00 00 00 00 00 00 00 00 00 00 00 00
000001bb: 00 00 00 00 00 00 00 00 00 00 00 00 00 00 00 00
000001cb: 00 00 00 00 00 00 00 00 00 00 00 00 00 00 00 00
000001db: 00 00 00 00 00 00 00 00 00 00 00 00 00 00 00 00

# UDB_1_4_1_CONFIG (count=128)
000001eb: 00 00 00 00 00 00 00 00 00 00 00 00 00 00 00 00
000001fb: 00 00 00 00 00 00 00 00 00 00 00 00 00 00 00 00
0000020b: 00 00 00 00 00 00 00 00 00 00 00 00 00 00 00 00
0000021b: 00 00 00 00 00 00 00 00 00 00 00 00 00 00 00 00
0000022b: 00 00 00 00 00 00 00 00 00 00 00 00 00 00 00 00
0000023b: 00 00 00 00 00 00 00 00 00 00 00 00 00 00 00 00
0000024b: 00 00 00 00 00 00 00 00 00 00 00 00 00 00 00 00
0000025b: 00 00 00 00 00 00 00 00 00 00 00 00 00 00 00 00

# UDB_1_4_0_CONFIG (count=128)
0000026b: 00 00 00 00 00 00 00 00 00 00 00 00 00 00 00 00
0000027b: 00 00 00 00 00 00 00 00 00 00 00 00 00 00 00 00
0000028b: 00 00 00 00 00 00 00 00 00 00 00 00 00 00 00 00
0000029b: 00 00 00 00 00 00 00 00 00 00 00 00 00 00 00 00
000002ab: 00 00 00 00 00 00 00 00 00 00 00 00 00 00 00 00
000002bb: 00 00 00 00 00 00 00 00 00 00 00 00 00 00 00 00
000002cb: 00 00 00 00 00 00 00 00 00 00 00 00 00 00 00 00
000002db: 00 00 00 00 00 00 00 00 00 00 00 00 00 00 00 00

# UDB_1_3_0_CONFIG (count=128)
000002eb: 00 00 00 00 00 00 00 00 00 00 00 00 00 00 00 00
000002fb: 00 00 00 00 00 00 00 00 00 00 00 00 00 00 00 00
0000030b: 00 00 00 00 00 00 00 00 00 00 00 00 00 00 00 00
0000031b: 00 00 00 00 00 00 00 00 00 00 00 00 00 00 00 00
0000032b: 00 00 00 00 00 00 00 00 00 00 00 00 00 00 00 00
0000033b: 00 00 00 00 00 00 00 00 00 00 00 00 00 00 00 00
0000034b: 00 00 00 00 00 00 00 00 00 00 00 00 00 00 00 00
0000035b: 00 00 00 00 00 00 00 00 00 00 00 00 00 00 00 00

# UDB_1_3_1_CONFIG (count=128)
0000036b: 00 00 00 00 00 00 00 00 00 00 00 00 00 00 00 00
0000037b: 00 00 00 00 00 00 00 00 00 00 00 00 00 00 00 00
0000038b: 00 00 00 00 00 00 00 00 00 00 00 00 00 00 00 00
0000039b: 00 00 00 00 00 00 00 00 00 00 00 00 00 00 00 00
000003ab: 00 00 00 00 00 00 00 00 00 00 00 00 00 00 00 00
000003bb: 00 00 00 00 00 00 00 00 00 00 00 00 00 00 00 00
000003cb: 00 00 00 00 00 00 00 00 00 00 00 00 00 00 00 00
000003db: 00 00 00 00 00 00 00 00 00 00 00 00 00 00 00 00

# UDB_1_2_1_CONFIG (count=128)
000003eb: 00 00 00 00 00 00 00 00 00 00 00 00 00 00 00 00
000003fb: 00 00 00 00 00 00 00 00 00 00 00 00 00 00 00 00
0000040b: 00 00 00 00 00 00 00 00 00 00 00 00 00 00 00 00
0000041b: 00 00 00 00 00 00 00 00 00 00 00 00 00 00 00 00
0000042b: 00 00 00 00 00 00 00 00 00 00 00 00 00 00 00 00
0000043b: 00 00 00 00 00 00 00 00 00 00 00 00 00 00 00 00
0000044b: 00 00 00 00 00 00 00 00 00 00 00 00 00 00 00 00
0000045b: 00 00 00 00 00 00 00 00 00 00 00 00 00 00 00 00

# UDB_1_2_0_CONFIG (count=128)
0000046b: 00 00 00 00 00 00 00 00 00 00 00 00 00 00 00 00
0000047b: 00 00 00 00 00 00 00 00 00 00 00 00 00 00 00 00
0000048b: 00 00 00 00 00 00 00 00 00 00 00 00 00 00 00 00
0000049b: 00 00 00 00 00 00 00 00 00 00 00 00 00 00 00 00
000004ab: 00 00 00 00 00 00 00 00 00 00 00 00 00 00 00 00
000004bb: 00 00 00 00 00 00 00 00 00 00 00 00 00 00 00 00
000004cb: 00 00 00 00 00 00 00 00 00 00 00 00 00 00 00 00
000004db: 00 00 00 00 00 00 00 00 00 00 00 00 00 00 00 00

# UDB_0_2_1_CONFIG (count=128)
000004eb: 00 00 00 00 00 00 00 00 00 00 00 00 00 00 00 00
000004fb: 00 00 00 00 00 00 00 00 00 00 00 00 00 00 00 00
0000050b: 00 00 00 00 00 00 00 00 00 00 00 00 00 00 00 00
0000051b: 00 00 00 00 00 00 00 00 00 00 00 00 00 00 00 00
0000052b: 00 00 00 00 00 00 00 00 00 00 00 00 00 00 00 00
0000053b: 00 00 00 00 00 00 00 00 00 00 00 00 00 00 00 00
0000054b: 00 00 00 00 00 00 00 00 00 00 00 00 00 00 00 00
0000055b: 00 00 00 00 00 00 00 00 00 00 00 00 00 00 00 00

# UDB_0_2_0_CONFIG (count=128)
0000056b: 00 00 00 00 00 00 00 00 00 00 00 00 00 00 00 00
0000057b: 00 00 00 00 00 00 00 00 00 00 00 00 00 00 00 00
0000058b: 00 00 00 00 00 00 00 00 00 00 00 00 00 00 00 00
0000059b: 00 00 00 00 00 00 00 00 00 00 00 00 00 00 00 00
000005ab: 00 00 00 00 00 00 00 00 00 00 00 00 00 00 00 00
000005bb: 00 00 00 00 00 00 00 00 00 00 00 00 00 00 00 00
000005cb: 00 00 00 00 00 00 00 00 00 00 00 00 00 00 00 00
000005db: 00 00 00 00 00 00 00 00 00 00 00 00 00 00 00 00

# UDB_0_3_0_CONFIG (count=128)
000005eb: 00 00 00 00 00 00 00 00 00 00 00 00 00 00 00 00
000005fb: 00 00 00 00 00 00 00 00 00 00 00 00 00 00 00 00
0000060b: 00 00 00 00 00 00 00 00 00 00 00 00 00 00 00 00
0000061b: 00 00 00 00 00 00 00 00 00 00 00 00 00 00 00 00
0000062b: 00 00 00 00 00 00 00 00 00 00 00 00 00 00 00 00
0000063b: 00 00 00 00 00 00 00 00 00 00 00 00 00 00 00 00
0000064b: 00 00 00 00 00 00 00 00 00 00 00 00 00 00 00 00
0000065b: 00 00 00 00 00 00 00 00 00 00 00 00 00 00 00 00

# UDB_0_3_1_CONFIG (count=128)
0000066b: 00 00 00 00 00 00 00 00 00 00 00 00 00 00 00 00
0000067b: 00 00 00 00 00 00 00 00 00 00 00 00 00 00 00 00
0000068b: 00 00 00 00 00 00 00 00 00 00 00 00 00 00 00 00
0000069b: 00 00 00 00 00 00 00 00 00 00 00 00 00 00 00 00
000006ab: 00 00 00 00 00 00 00 00 00 00 00 00 00 00 00 00
000006bb: 00 00 00 00 00 00 00 00 00 00 00 00 00 00 00 00
000006cb: 00 00 00 00 00 00 00 00 00 00 00 00 00 00 00 00
000006db: 00 00 00 00 00 00 00 00 00 00 00 00 00 00 00 00

# UDB_0_4_1_CONFIG (count=128)
000006eb: 00 00 00 00 00 00 00 00 00 00 00 00 00 00 00 00
000006fb: 00 00 00 00 00 00 00 00 00 00 00 00 00 00 00 00
0000070b: 00 00 00 00 00 00 00 00 00 00 00 00 00 00 00 00
0000071b: 00 00 00 00 00 00 00 00 00 00 00 00 00 00 00 00
0000072b: 00 00 00 00 00 00 00 00 00 00 00 00 00 00 00 00
0000073b: 00 00 00 00 00 00 00 00 00 00 00 00 00 00 00 00
0000074b: 00 00 00 00 00 00 00 00 00 00 00 00 00 00 00 00
0000075b: 00 00 00 00 00 00 00 00 00 00 00 00 00 00 00 00

# UDB_0_4_0_CONFIG (count=128)
0000076b: 00 00 00 00 00 00 00 00 00 00 00 00 00 00 00 00
0000077b: 00 00 00 00 00 00 00 00 00 00 00 00 00 00 00 00
0000078b: 00 00 00 00 00 00 00 00 00 00 00 00 00 00 00 00
0000079b: 00 00 00 00 00 00 00 00 00 00 00 00 00 00 00 00
000007ab: 00 00 00 00 00 00 00 00 00 00 00 00 00 00 00 00
000007bb: 00 00 00 00 00 00 00 00 00 00 00 00 00 00 00 00
000007cb: 00 00 00 00 00 00 00 00 00 00 00 00 00 00 00 00
000007db: 00 00 00 00 00 00 00 00 00 00 00 00 00 00 00 00

# UDB_0_5_0_CONFIG (count=128)
000007eb: 00 00 00 00 00 00 00 00 00 00 00 00 00 00 00 00
000007fb: 00 00 00 00 00 00 00 00 00 00 00 00 00 00 00 00
0000080b: 00 00 00 00 00 00 00 00 00 00 00 00 00 00 00 00
0000081b: 00 00 00 00 00 00 00 00 00 00 00 00 00 00 00 00
0000082b: 00 00 00 00 00 00 00 00 00 00 00 00 00 00 00 00
0000083b: 00 00 00 00 00 00 00 00 00 00 00 00 00 00 00 00
0000084b: 00 00 00 00 00 00 00 00 00 00 00 00 00 00 00 00
0000085b: 00 00 00 00 00 00 00 00 00 00 00 00 00 00 00 00

# UDB_0_5_1_CONFIG (count=128)
0000086b: 00 00 00 00 00 00 00 00 00 00 00 00 00 00 00 00
0000087b: 00 00 00 00 00 00 00 00 00 00 00 00 00 00 00 00
0000088b: 00 00 00 00 00 00 00 00 00 00 00 00 00 00 00 00
0000089b: 00 00 00 00 00 00 00 00 00 00 00 00 00 00 00 00
000008ab: 00 00 00 00 00 00 00 00 00 00 00 00 00 00 00 00
000008bb: 00 00 00 00 00 00 00 00 00 00 00 00 00 00 00 00
000008cb: 00 00 00 00 00 00 00 00 00 00 00 00 00 00 00 00
000008db: 00 00 00 00 00 00 00 00 00 00 00 00 00 00 00 00

# UDB_1_0_0_CONFIG (count=128)
000008eb: 00 00 00 00 00 00 00 00 00 00 00 00 00 00 00 00
000008fb: 00 00 00 00 00 00 00 00 00 00 00 00 00 00 00 00
0000090b: 00 00 00 00 00 00 00 00 00 00 00 00 00 00 00 00
0000091b: 00 00 00 00 00 00 00 00 00 00 00 00 00 00 00 00
0000092b: 00 00 00 00 00 00 00 00 00 00 00 00 00 00 00 00
0000093b: 00 00 00 00 00 00 00 00 00 00 00 00 00 00 00 00
0000094b: 00 00 00 00 00 00 00 00 00 00 00 00 00 00 00 00
0000095b: 00 00 00 00 00 00 00 00 00 00 00 00 00 00 00 00

# UDB_1_0_1_CONFIG (count=128)
0000096b: 00 00 00 00 00 00 00 00 00 00 00 00 00 00 00 00
0000097b: 00 00 00 00 00 00 00 00 00 00 00 00 00 00 00 00
0000098b: 00 00 00 00 00 00 00 00 00 00 00 00 00 00 00 00
0000099b: 00 00 00 00 00 00 00 00 00 00 00 00 00 00 00 00
000009ab: 00 00 00 00 00 00 00 00 00 00 00 00 00 00 00 00
000009bb: 00 00 00 00 00 00 00 00 00 00 00 00 00 00 00 00
000009cb: 00 00 00 00 00 00 00 00 00 00 00 00 00 00 00 00
000009db: 00 00 00 00 00 00 00 00 00 00 00 00 00 00 00 00

# UDB_1_1_1_CONFIG (count=128)
000009eb: 00 00 00 00 00 00 00 00 00 00 00 00 00 00 00 00
000009fb: 00 00 00 00 00 00 00 00 00 00 00 00 00 00 00 00
00000a0b: 00 00 00 00 00 00 00 00 00 00 00 00 00 00 00 00
00000a1b: 00 00 00 00 00 00 00 00 00 00 00 00 00 00 00 00
00000a2b: 00 00 00 00 00 00 00 00 00 00 00 00 00 00 00 00
00000a3b: 00 00 00 00 00 00 00 00 00 00 00 00 00 00 00 00
00000a4b: 00 00 00 00 00 00 00 00 00 00 00 00 00 00 00 00
00000a5b: 00 00 00 00 00 00 00 00 00 00 00 00 00 00 00 00

# UDB_1_1_0_CONFIG (count=128)
00000a6b: 00 00 00 00 00 00 00 00 00 00 00 00 00 00 00 00
00000a7b: 00 00 00 00 00 00 00 00 00 00 00 00 00 00 00 00
00000a8b: 00 00 00 00 00 00 00 00 00 00 00 00 00 00 00 00
00000a9b: 00 00 00 00 00 00 00 00 00 00 00 00 00 00 00 00
00000aab: 00 00 00 00 00 00 00 00 00 00 00 00 00 00 00 00
00000abb: 00 00 00 00 00 00 00 00 00 00 00 00 00 00 00 00
00000acb: 00 00 00 00 00 00 00 00 00 00 00 00 00 00 00 00
00000adb: 00 00 00 00 00 00 00 00 00 00 00 00 00 00 00 00

# UDB_0_1_1_CONFIG (count=128)
00000aeb: 00 00 00 00 00 00 00 00 00 00 00 00 00 00 00 00
00000afb: 00 00 00 00 00 00 00 00 00 00 00 00 00 00 00 00
00000b0b: 00 00 00 00 00 00 00 00 00 00 00 00 00 00 00 00
00000b1b: 00 00 00 00 00 00 00 00 00 00 00 00 00 00 00 00
00000b2b: 00 00 00 00 00 00 00 00 00 00 00 00 00 00 00 00
00000b3b: 00 00 00 00 00 00 00 00 00 00 00 00 00 00 00 00
00000b4b: 00 00 00 00 00 00 00 00 00 00 00 00 00 00 00 00
00000b5b: 00 00 00 00 00 00 00 00 00 00 00 00 00 00 00 00

# UDB_0_1_0_CONFIG (count=128)
00000b6b: 00 00 00 00 00 00 00 00 00 00 00 00 00 00 00 00
00000b7b: 00 00 00 00 00 00 00 00 00 00 00 00 00 00 00 00
00000b8b: 00 00 00 00 00 00 00 00 00 00 00 00 00 00 00 00
00000b9b: 00 00 00 00 00 00 00 00 00 00 00 00 00 00 00 00
00000bab: 00 00 00 00 00 00 00 00 00 00 00 00 00 00 00 00
00000bbb: 00 00 00 00 00 00 00 00 00 00 00 00 00 00 00 00
00000bcb: 00 00 00 00 00 00 00 00 00 00 00 00 00 00 00 00
00000bdb: 00 00 00 00 00 00 00 00 00 00 00 00 00 00 00 00

# UDB_0_0_0_CONFIG (count=128)
00000beb: 00 00 00 00 00 00 00 00 00 00 00 00 00 00 00 00
00000bfb: 00 00 00 00 00 00 00 00 00 00 00 00 00 00 00 00
00000c0b: 00 00 00 00 00 00 00 00 00 00 00 00 00 00 00 00
00000c1b: 00 00 00 00 00 00 00 00 00 00 00 00 00 00 00 00
00000c2b: 00 00 00 00 00 00 00 00 00 00 00 00 00 00 00 00
00000c3b: 00 00 00 00 00 00 00 00 00 00 00 00 00 00 00 00
00000c4b: 00 00 00 00 00 00 00 00 00 00 00 00 00 00 00 00
00000c5b: 00 00 00 00 00 00 00 00 00 00 00 00 00 00 00 00

# UDB_0_0_1_CONFIG (count=128)
00000c6b: 00 00 00 00 00 00 00 00 00 00 00 00 00 00 00 00
00000c7b: 00 00 00 00 00 00 00 00 00 00 00 00 00 00 00 00
00000c8b: 00 00 00 00 00 00 00 00 00 00 00 00 00 00 00 00
00000c9b: 00 00 00 00 00 00 00 00 00 00 00 00 00 00 00 00
00000cab: 00 00 00 00 00 00 00 00 00 00 00 00 00 00 00 00
00000cbb: 00 00 00 00 00 00 00 00 00 00 00 00 00 00 00 00
00000ccb: 00 00 00 00 00 00 00 00 00 00 00 00 00 00 00 00
00000cdb: 00 00 00 00 00 00 00 00 00 00 00 00 00 00 00 00

# UWRK_B0_WRK_DP_BITS (count=64)
00000ceb: 00 00 00 00 00 00 00 00 00 00 00 00 00 00 00 00
00000cfb: 00 00 00 00 00 00 00 00 00 00 00 00 00 00 00 00
00000d0b: 00 00 00 00 00 00 00 00 00 00 00 00 00 00 00 00
00000d1b: 00 00 00 00 00 00 00 00 00 00 00 00 00 00 00 00

# UWRK_B0_WRK_STATCTL_BITS + 0x00000070 (count=32)
00000d2b: 00 00 00 00 00 00 00 00 00 00 00 00 00 00 00 00
00000d3b: 00 00 00 00 00 00 00 00 00 00 00 00 00 00 00 00

# UWRK_B1_WRK_DP_BITS (count=64)
00000d4b: 00 00 00 00 00 00 00 00 00 00 00 00 00 00 00 00
00000d5b: 00 00 00 00 00 00 00 00 00 00 00 00 00 00 00 00
00000d6b: 00 00 00 00 00 00 00 00 00 00 00 00 00 00 00 00
00000d7b: 00 00 00 00 00 00 00 00 00 00 00 00 00 00 00 00

# UWRK_B1_WRK_STATCTL_BITS + 0x00000070 (count=32)
00000d8b: 00 00 00 00 00 00 00 00 00 00 00 00 00 00 00 00
00000d9b: 00 00 00 00 00 00 00 00 00 00 00 00 00 00 00 00

# UCFG_BCTL1 (count=16)
00000dab: 00 00 00 00 00 00 00 00 00 00 00 00 00 00 00 00

# UCFG_BCTL0 (count=16)
00000dbb: 00 00 00 00 00 00 00 00 00 00 00 00 00 00 00 00

# DSISWITCH_0_0 (count=128)
00000dcb: 00 00 00 00 00 00 00 00 00 00 00 00 00 00 00 00
00000ddb: 00 00 00 00 00 00 00 00 00 00 00 00 00 00 00 00
00000deb: 00 00 00 00 00 00 00 00 00 00 00 00 00 00 00 00
00000dfb: 00 00 00 00 00 00 00 00 00 00 00 00 00 00 00 00
00000e0b: 00 00 00 00 00 00 00 00 00 00 00 00 00 00 00 00
00000e1b: 00 00 00 00 00 00 00 00 00 00 00 00 00 00 00 00
00000e2b: 00 00 00 00 00 00 00 00 00 00 00 00 00 00 00 00
00000e3b: 00 00 00 00 00 00 00 00 00 00 00 00 00 00 00 00

# DSI0_0_HV_ROUTING + 0x00000080 (count=128)
00000e4b: 00 00 00 00 00 00 00 00 00 00 00 00 00 00 00 00
00000e5b: 00 00 00 00 00 00 00 00 00 00 00 00 00 00 00 00
00000e6b: 00 00 00 00 00 00 00 00 00 00 00 00 00 00 00 00
00000e7b: 00 00 00 00 20 00 00 00 00 00 00 00 00 00 00 00
00000e8b: 00 00 00 00 00 00 00 00 00 00 00 00 00 00 00 00
00000e9b: 00 00 00 00 00 00 00 00 00 00 00 00 00 00 00 00
00000eab: 00 00 00 00 00 00 00 00 00 00 00 00 08 00 00 00
00000ebb: 00 00 00 00 00 00 00 00 00 00 00 00 00 00 00 00

# DSISWITCH_0_1 (count=128)
00000ecb: 00 00 00 00 00 00 00 00 00 00 00 00 00 00 00 00
00000edb: 00 00 00 00 00 00 00 00 00 00 00 00 00 00 00 00
00000eeb: 00 00 00 00 00 00 00 00 00 00 00 00 00 00 00 00
00000efb: 00 00 00 00 00 00 00 00 00 00 00 00 00 00 00 00
00000f0b: 00 00 00 00 00 00 00 00 00 00 00 00 00 00 00 00
00000f1b: 00 00 00 00 00 00 00 00 00 00 00 00 00 00 00 00
00000f2b: 00 00 00 00 00 00 00 00 00 00 00 00 00 00 00 00
00000f3b: 00 00 00 00 00 00 00 00 00 00 00 00 00 00 00 00

# DSI0_1_HV_ROUTING + 0x00000080 (count=128)
00000f4b: 00 00 00 00 00 00 00 00 00 00 00 00 00 00 00 00
00000f5b: 00 00 00 00 00 00 00 00 00 00 00 00 00 00 00 00
00000f6b: 00 00 00 00 20 00 00 00 00 00 00 00 00 00 00 00
00000f7b: 00 00 00 00 00 00 00 00 00 00 00 00 00 00 00 00
00000f8b: 00 00 00 00 00 00 00 00 00 00 00 00 00 00 00 00
00000f9b: 00 00 00 00 00 00 00 00 00 00 00 00 00 00 00 00
00000fab: 00 00 00 00 00 00 00 00 00 00 00 00 00 00 00 00
00000fbb: 00 00 00 00 00 00 00 00 00 00 00 00 00 00 00 00

# DSISWITCH_0_2 (count=128)
00000fcb: 00 00 00 00 00 00 00 00 00 00 00 00 00 00 00 00
00000fdb: 00 00 00 00 00 00 00 00 00 00 00 00 00 00 00 00
00000feb: 00 00 00 00 00 00 00 00 00 00 00 00 00 00 00 00
00000ffb: 00 00 00 00 00 00 00 00 00 00 00 00 00 00 00 00
0000100b: 00 00 00 00 00 00 00 00 00 00 00 00 00 00 00 00
0000101b: 00 00 00 00 00 00 00 00 00 00 00 00 00 00 00 00
0000102b: 00 00 00 00 00 00 00 00 00 00 00 00 00 00 00 00
0000103b: 00 00 00 00 00 00 00 00 00 00 00 00 00 00 00 00

# DSI0_2_HV_ROUTING + 0x00000080 (count=128)
0000104b: 00 00 00 00 00 00 00 00 00 00 00 00 00 00 00 00
0000105b: 00 00 00 00 00 00 00 00 00 00 00 00 00 00 00 00
0000106b: 00 00 00 00 20 00 00 00 00 00 00 00 00 00 00 00
0000107b: 00 00 00 00 00 00 00 00 00 00 00 00 00 00 00 00
0000108b: 00 00 00 00 00 00 00 00 00 00 00 00 00 00 00 00
0000109b: 00 00 00 00 00 00 00 00 00 00 00 00 00 00 00 00
000010ab: 00 00 00 00 00 00 00 00 00 00 00 00 00 00 00 00
000010bb: 00 00 00 00 00 00 00 00 00 00 00 00 00 00 00 00

# DSISWITCH_0_3 (count=128)
000010cb: 00 00 00 00 00 00 00 00 00 00 00 00 00 00 00 00
000010db: 00 00 00 00 00 00 00 00 00 00 00 00 00 00 00 00
000010eb: 00 00 00 00 00 00 00 00 00 00 00 00 00 00 00 00
000010fb: 00 00 00 00 00 00 00 00 00 00 00 00 00 00 00 00
0000110b: 00 00 00 00 00 00 00 00 00 00 00 00 00 00 00 00
0000111b: 00 00 00 00 00 00 00 00 00 00 00 00 00 00 00 00
0000112b: 00 00 00 00 00 00 00 00 00 00 00 00 00 00 00 00
0000113b: 00 00 00 00 00 00 00 00 00 00 00 00 00 00 00 00

# DSI0_3_HV_ROUTING + 0x00000080 (count=128)
0000114b: 00 00 00 00 00 00 00 00 00 00 00 00 00 00 00 00
0000115b: 00 00 00 00 00 00 00 00 00 00 00 00 00 00 00 00
0000116b: 00 00 00 00 20 00 00 00 00 00 00 00 00 00 00 00
0000117b: 00 00 00 00 00 00 00 00 00 00 00 00 00 00 00 00
0000118b: 00 00 00 00 00 00 00 00 00 00 00 00 00 00 00 00
0000119b: 00 00 00 00 00 00 00 00 00 00 00 00 00 00 00 00
000011ab: 00 00 00 00 00 00 00 00 00 00 00 00 00 00 00 00
000011bb: 00 00 00 00 00 00 00 00 00 00 00 00 00 00 00 00

# DSISWITCH_0_4 (count=128)
000011cb: 00 00 00 00 00 00 00 00 00 00 00 00 00 00 00 00
000011db: 00 00 00 00 00 00 00 00 00 00 00 00 00 00 00 00
000011eb: 00 00 00 00 00 00 00 00 00 00 00 00 00 00 00 00
000011fb: 00 00 00 00 00 00 00 00 00 00 00 00 00 00 00 00
0000120b: 00 00 00 00 00 00 00 00 00 00 00 00 00 00 00 00
0000121b: 00 00 00 00 20 00 00 00 00 00 00 00 00 00 00 00
0000122b: 00 00 00 00 00 00 00 00 00 00 00 00 00 00 00 00
0000123b: 00 00 00 00 00 00 00 00 00 00 00 00 00 00 00 00

# DSI0_4_HV_ROUTING + 0x00000080 (count=128)
0000124b: 00 00 00 00 00 00 00 00 00 00 00 00 00 00 00 00
0000125b: 00 00 00 00 00 00 00 00 00 00 00 00 00 00 00 00
0000126b: 00 00 00 00 00 00 00 00 00 00 00 00 00 00 00 00
0000127b: 00 00 00 00 00 00 00 00 00 00 00 00 00 00 00 00
0000128b: 00 00 00 00 00 00 00 00 00 00 00 00 00 00 00 00
0000129b: 00 00 00 00 02 00 00 00 00 00 00 00 00 00 00 00
000012ab: 00 00 00 00 00 00 00 00 00 00 00 00 00 00 00 00
000012bb: 00 00 00 00 00 00 00 00 00 00 00 00 00 00 00 00

# DSISWITCH_0_5 (count=128)
000012cb: 00 00 00 00 00 00 00 00 00 00 00 00 00 00 00 00
000012db: 00 00 00 00 00 00 00 00 00 00 00 00 00 00 00 00
000012eb: 00 00 00 00 00 00 00 00 00 00 00 00 00 00 00 00
000012fb: 00 00 00 00 00 00 00 00 00 00 00 00 00 00 00 00
0000130b: 00 00 00 00 00 00 00 00 00 00 00 00 00 00 00 00
0000131b: 00 00 00 00 00 00 00 00 00 00 00 00 00 00 00 00
0000132b: 00 00 00 00 00 00 00 00 00 00 00 00 00 00 00 00
0000133b: 00 00 00 00 00 00 00 00 00 00 00 00 00 00 00 00

# DSI0_5_HV_ROUTING + 0x00000080 (count=128)
0000134b: 00 00 00 00 00 00 00 00 00 00 00 00 00 00 00 00
0000135b: 00 00 00 00 00 00 00 00 00 00 00 00 00 00 00 00
0000136b: 00 00 00 00 00 00 00 00 00 00 00 00 00 00 00 00
0000137b: 00 00 00 00 00 00 00 00 00 00 00 00 00 00 00 00
0000138b: 00 00 00 00 00 00 00 00 00 00 00 00 00 00 00 00
0000139b: 00 00 00 00 00 00 00 00 00 00 00 00 00 00 00 00
000013ab: 00 00 00 00 00 00 00 00 00 00 00 00 00 00 00 00
000013bb: 00 00 00 00 00 00 00 00 00 00 00 00 00 00 00 00

# UDBSWITCH_0_0 (count=128)
000013cb: 00 00 00 00 00 00 00 00 00 00 00 00 00 00 00 00
000013db: 00 00 00 00 00 00 00 00 00 00 00 00 00 00 00 00
000013eb: 00 00 00 00 00 00 00 00 00 00 00 00 00 00 00 00
000013fb: 00 00 00 00 00 00 00 00 00 00 00 00 00 00 00 00
0000140b: 00 00 00 00 00 00 00 00 00 00 00 00 00 00 00 00
0000141b: 00 00 00 00 00 00 00 00 00 00 00 00 00 00 00 00
0000142b: 00 00 00 00 00 00 00 00 00 00 00 00 00 00 00 00
0000143b: 00 00 00 00 00 00 00 00 00 00 00 00 00 00 00 00

# UDB_1_0_HV_ROUTING + 0x00000080 (count=128)
0000144b: 00 00 00 00 00 00 00 00 00 00 00 00 00 00 00 00
0000145b: 00 00 00 00 00 00 00 00 00 00 00 00 00 00 00 00
0000146b: 00 00 00 00 00 00 00 00 00 00 00 00 00 00 00 00
0000147b: 00 00 00 00 00 00 00 00 00 00 00 00 00 00 00 00
0000148b: 00 00 00 00 00 00 00 00 00 00 00 00 00 00 00 00
0000149b: 00 00 00 00 00 00 00 00 00 00 00 00 00 00 00 00
000014ab: 00 00 00 00 00 00 00 00 00 00 00 00 10 00 00 00
000014bb: 00 00 00 00 00 00 00 00 00 00 00 00 00 00 00 00

# UDBSWITCH_1_0 (count=128)
000014cb: 00 00 00 00 00 00 00 00 00 00 00 00 00 00 00 00
000014db: 00 00 00 00 00 00 00 00 00 00 00 00 00 00 00 00
000014eb: 00 00 00 00 00 00 00 00 00 00 00 00 00 00 00 00
000014fb: 00 00 00 00 00 00 00 00 00 00 00 00 00 00 00 00
0000150b: 00 00 00 00 00 00 00 00 00 00 00 00 00 00 00 00
0000151b: 00 00 00 00 00 00 00 00 00 00 00 00 00 00 00 00
0000152b: 00 00 00 00 00 00 00 00 00 00 00 00 00 00 00 00
0000153b: 00 00 00 00 00 00 00 00 00 00 00 00 00 00 00 00

# UDB_2_0_HV_ROUTING + 0x00000080 (count=128)
0000154b: 00 00 00 00 00 00 00 00 00 00 00 00 00 00 00 00
0000155b: 00 00 00 00 00 00 00 00 00 00 00 00 00 00 00 00
0000156b: 00 00 00 00 00 00 00 00 00 00 00 00 00 00 00 00
0000157b: 00 00 00 00 00 00 00 00 00 00 00 00 00 00 00 00
0000158b: 00 00 00 00 00 00 00 00 00 00 00 00 00 00 00 00
0000159b: 00 00 00 00 00 00 00 00 00 00 00 00 00 00 00 00
000015ab: 00 00 00 00 00 00 00 00 00 00 00 00 10 00 00 00
000015bb: 00 00 00 00 00 00 00 00 00 00 00 00 00 00 00 00

# UDBSWITCH_0_1 (count=128)
000015cb: 00 00 00 00 00 00 00 00 00 00 00 00 00 00 00 00
000015db: 00 00 00 00 00 00 00 00 00 00 00 00 00 00 00 00
000015eb: 00 00 00 00 00 00 00 00 00 00 00 00 00 00 00 00
000015fb: 00 00 00 00 00 00 00 00 00 00 00 00 00 00 00 00
0000160b: 00 00 00 00 00 00 00 00 00 00 00 00 00 00 00 00
0000161b: 00 00 00 00 00 00 00 00 00 00 00 00 00 00 00 00
0000162b: 00 00 00 00 00 00 00 00 00 00 00 00 00 00 00 00
0000163b: 00 00 00 00 00 00 00 00 00 00 00 00 00 00 00 00

# UDB_1_1_HV_ROUTING + 0x00000080 (count=128)
0000164b: 00 00 00 00 00 00 00 00 00 00 00 00 00 00 00 00
0000165b: 00 00 00 00 00 00 00 00 00 00 00 00 00 00 00 00
0000166b: 00 00 00 00 00 00 00 00 00 00 00 00 00 00 00 00
0000167b: 00 00 00 00 00 00 00 00 00 00 00 00 00 00 00 00
0000168b: 00 00 00 00 00 00 00 00 00 00 00 00 00 00 00 00
0000169b: 00 00 00 00 00 00 00 00 00 00 00 00 00 00 00 00
000016ab: 00 00 00 00 00 00 00 00 00 00 00 00 00 00 00 00
000016bb: 00 00 00 00 00 00 00 00 00 00 00 00 00 00 00 00

# UDBSWITCH_1_1 (count=128)
000016cb: 00 00 00 00 00 00 00 00 00 00 00 00 00 00 00 00
000016db: 00 00 00 00 00 00 00 00 00 00 00 00 00 00 00 00
000016eb: 00 00 00 00 00 00 00 00 00 00 00 00 00 00 00 00
000016fb: 00 00 00 00 00 00 00 00 00 00 00 00 00 00 00 00
0000170b: 00 00 00 00 00 00 00 00 00 00 00 00 00 00 00 00
0000171b: 00 00 00 00 00 00 00 00 00 00 00 00 00 00 00 00
0000172b: 00 00 00 00 00 00 00 00 00 00 00 00 00 00 00 00
0000173b: 00 00 00 00 00 00 00 00 00 00 00 00 00 00 00 00

# UDB_2_1_HV_ROUTING + 0x00000080 (count=128)
0000174b: 00 00 00 00 00 00 00 00 00 00 00 00 00 00 00 00
0000175b: 00 00 00 00 00 00 00 00 00 00 00 00 00 00 00 00
0000176b: 00 00 00 00 00 00 00 00 00 00 00 00 00 00 00 00
0000177b: 00 00 00 00 00 00 00 00 00 00 00 00 00 00 00 00
0000178b: 00 00 00 00 00 00 00 00 00 00 00 00 00 00 00 00
0000179b: 00 00 00 00 00 00 00 00 00 00 00 00 00 00 00 00
000017ab: 00 00 00 00 00 00 00 00 00 00 00 00 00 00 00 00
000017bb: 00 00 00 00 00 00 00 00 00 00 00 00 00 00 00 00

# UDBSWITCH_0_2 (count=128)
000017cb: 00 00 00 00 00 00 00 00 00 00 00 00 00 00 00 00
000017db: 00 00 00 00 00 00 00 00 00 00 00 00 00 00 00 00
000017eb: 00 00 00 00 00 00 00 00 00 00 00 00 00 00 00 00
000017fb: 00 00 00 00 00 00 00 00 00 00 00 00 00 00 00 00
0000180b: 00 00 00 00 00 00 00 00 00 00 00 00 00 00 00 00
0000181b: 00 00 00 00 00 00 00 00 00 00 00 00 00 00 00 00
0000182b: 00 00 00 00 00 00 00 00 00 00 00 00 00 00 00 00
0000183b: 00 00 00 00 00 00 00 00 00 00 00 00 00 00 00 00

# UDB_1_2_HV_ROUTING + 0x00000080 (count=128)
0000184b: 00 00 00 00 00 00 00 00 00 00 00 00 00 00 00 00
0000185b: 00 00 00 00 00 00 00 00 00 00 00 00 00 00 00 00
0000186b: 00 00 00 00 00 00 00 00 00 00 00 00 00 00 00 00
0000187b: 00 00 00 00 00 00 00 00 00 00 00 00 00 00 00 00
0000188b: 00 00 00 00 00 00 00 00 00 00 00 00 00 00 00 00
0000189b: 00 00 00 00 00 00 00 00 00 00 00 00 00 00 00 00
000018ab: 00 00 00 00 00 00 00 00 00 00 00 00 00 00 00 00
000018bb: 00 00 00 00 00 00 00 00 00 00 00 00 00 00 00 00

# UDBSWITCH_1_2 (count=128)
000018cb: 00 00 00 00 00 00 00 00 00 00 00 00 00 00 00 00
000018db: 00 00 00 00 00 00 00 00 00 00 00 00 00 00 00 00
000018eb: 00 00 00 00 00 00 00 00 00 00 00 00 00 00 00 00
000018fb: 00 00 00 00 00 00 00 00 00 00 00 00 00 00 00 00
0000190b: 00 00 00 00 00 00 00 00 00 00 00 00 00 00 00 00
0000191b: 00 00 00 00 00 00 00 00 00 00 00 00 00 00 00 00
0000192b: 00 00 00 00 00 00 00 00 00 00 00 00 00 00 00 00
0000193b: 00 00 00 00 00 00 00 00 00 00 00 00 00 00 00 00

# UDB_2_2_HV_ROUTING + 0x00000080 (count=128)
0000194b: 00 00 00 00 00 00 00 00 00 00 00 00 00 00 00 00
0000195b: 00 00 00 00 00 00 00 00 00 00 00 00 00 00 00 00
0000196b: 00 00 00 00 00 00 00 00 00 00 00 00 00 00 00 00
0000197b: 00 00 00 00 00 00 00 00 00 00 00 00 00 00 00 00
0000198b: 00 00 00 00 00 00 00 00 00 00 00 00 00 00 00 00
0000199b: 00 00 00 00 00 00 00 00 00 00 00 00 00 00 00 00
000019ab: 00 00 00 00 00 00 00 00 00 00 00 00 00 00 00 00
000019bb: 00 00 00 00 00 00 00 00 00 00 00 00 00 00 00 00

# UDBSWITCH_0_3 (count=128)
000019cb: 00 00 00 00 00 00 00 00 00 00 00 00 00 00 00 00
000019db: 00 00 00 00 00 00 00 00 00 00 00 00 00 00 00 00
000019eb: 00 00 00 00 00 00 00 00 00 00 00 00 00 00 00 00
000019fb: 00 00 00 00 00 00 00 00 00 00 00 00 00 00 00 00
00001a0b: 00 00 00 00 00 00 00 00 00 00 00 00 00 00 00 00
00001a1b: 00 00 00 00 00 00 00 00 00 00 00 00 00 00 00 00
00001a2b: 00 00 00 00 00 00 00 00 00 00 00 00 00 00 00 00
00001a3b: 00 00 00 00 00 00 00 00 00 00 00 00 00 00 00 00

# UDB_1_3_HV_ROUTING + 0x00000080 (count=128)
00001a4b: 00 00 00 00 00 00 00 00 00 00 00 00 00 00 00 00
00001a5b: 00 00 00 00 00 00 00 00 00 00 00 00 00 00 00 00
00001a6b: 00 00 00 00 00 00 00 00 00 00 00 00 00 00 00 00
00001a7b: 00 00 00 00 00 00 00 00 00 00 00 00 00 00 00 00
00001a8b: 00 00 00 00 00 00 00 00 00 00 00 00 00 00 00 00
00001a9b: 00 00 00 00 00 00 00 00 00 00 00 00 00 00 00 00
00001aab: 00 00 00 00 00 00 00 00 00 00 00 00 00 00 00 00
00001abb: 00 00 00 00 00 00 00 00 00 00 00 00 00 00 00 00

# UDBSWITCH_1_3 (count=128)
00001acb: 00 00 00 00 00 00 00 00 00 00 00 00 00 00 00 00
00001adb: 00 00 00 00 00 00 00 00 00 00 00 00 00 00 00 00
00001aeb: 00 00 00 00 00 00 00 00 00 00 00 00 00 00 00 00
00001afb: 00 00 00 00 00 00 00 00 00 00 00 00 00 00 00 00
00001b0b: 00 00 00 00 00 00 00 00 00 00 00 00 00 00 00 00
00001b1b: 00 00 00 00 00 00 00 00 00 00 00 00 00 00 00 00
00001b2b: 00 00 00 00 00 00 00 00 00 00 00 00 00 00 00 00
00001b3b: 00 00 00 00 00 00 00 00 00 00 00 00 00 00 00 00

# UDB_2_3_HV_ROUTING + 0x00000080 (count=128)
00001b4b: 00 00 00 00 00 00 00 00 00 00 00 00 00 00 00 00
00001b5b: 00 00 00 00 00 00 00 00 00 00 00 00 00 00 00 00
00001b6b: 00 00 00 00 00 00 00 00 00 00 00 00 00 00 00 00
00001b7b: 00 00 00 00 00 00 00 00 00 00 00 00 00 00 00 00
00001b8b: 00 00 00 00 00 00 00 00 00 00 00 00 00 00 00 00
00001b9b: 00 00 00 00 00 00 00 00 00 00 00 00 00 00 00 00
00001bab: 00 00 00 00 00 00 00 00 00 00 00 00 00 00 00 00
00001bbb: 00 00 00 00 00 00 00 00 00 00 00 00 00 00 00 00

# UDBSWITCH_0_4 (count=128)
00001bcb: 00 00 00 00 00 00 00 00 00 00 00 00 00 00 00 00
00001bdb: 00 00 00 00 00 00 00 00 00 00 00 00 00 00 00 00
00001beb: 00 00 00 00 00 00 00 00 00 00 00 00 00 00 00 00
00001bfb: 00 00 00 00 00 00 00 00 00 00 00 00 00 00 00 00
00001c0b: 00 00 00 00 00 00 00 00 00 00 00 00 00 00 00 00
00001c1b: 00 00 00 00 00 00 00 00 00 00 00 00 00 00 00 00
00001c2b: 00 00 00 00 00 00 00 00 00 00 00 00 00 00 00 00
00001c3b: 00 00 00 00 00 00 00 00 00 00 00 00 00 00 00 00

# UDB_1_4_HV_ROUTING + 0x00000080 (count=128)
00001c4b: 00 00 00 00 00 00 00 00 00 00 00 00 00 00 00 00
00001c5b: 00 00 00 00 00 00 00 00 00 00 00 00 00 00 00 00
00001c6b: 00 00 00 00 00 00 00 00 00 00 00 00 00 00 00 00
00001c7b: 00 00 00 00 00 00 00 00 00 00 00 00 00 00 00 00
00001c8b: 00 00 00 00 00 00 00 00 00 00 00 00 00 00 00 00
00001c9b: 00 00 00 00 00 00 00 00 00 00 00 00 00 00 00 00
00001cab: 00 00 00 00 00 00 00 00 00 00 00 00 00 00 00 00
00001cbb: 00 00 00 00 00 00 00 00 00 00 00 00 00 00 00 00

# UDBSWITCH_1_4 (count=128)
00001ccb: 00 00 00 00 00 00 00 00 00 00 00 00 00 00 00 00
00001cdb: 00 00 00 00 00 00 00 00 00 00 00 00 00 00 00 00
00001ceb: 00 00 00 00 00 00 00 00 00 00 00 00 00 00 00 00
00001cfb: 00 00 00 00 00 00 00 00 00 00 00 00 00 00 00 00
00001d0b: 00 00 00 00 00 00 00 00 00 00 00 00 00 00 00 00
00001d1b: 00 00 00 00 00 00 00 00 00 00 00 00 00 00 00 00
00001d2b: 00 00 00 00 00 00 00 00 00 00 00 00 00 00 00 00
00001d3b: 00 00 00 00 00 00 00 00 00 00 00 00 00 00 00 00

# UDB_2_4_HV_ROUTING + 0x00000080 (count=128)
00001d4b: 00 00 00 00 00 00 00 00 00 00 00 00 00 00 00 00
00001d5b: 00 00 00 00 00 00 00 00 00 00 00 00 00 00 00 00
00001d6b: 00 00 00 00 00 00 00 00 00 00 00 00 00 00 00 00
00001d7b: 00 00 00 00 00 00 00 00 00 00 00 00 00 00 00 00
00001d8b: 00 00 00 00 00 00 00 00 00 00 00 00 00 00 00 00
00001d9b: 00 00 00 00 00 00 00 00 00 00 00 00 00 00 00 00
00001dab: 00 00 00 00 00 00 00 00 00 00 00 00 00 00 00 00
00001dbb: 00 00 00 00 00 00 00 00 00 00 00 00 00 00 00 00

# UDBSWITCH_0_5 (count=128)
00001dcb: 00 00 00 00 00 00 00 00 00 00 00 00 00 00 00 00
00001ddb: 00 00 00 00 00 00 00 00 00 00 00 00 00 00 00 00
00001deb: 00 00 00 00 00 00 00 00 00 00 00 00 00 00 00 00
00001dfb: 00 00 00 00 00 00 00 00 00 00 00 00 00 00 00 00
00001e0b: 00 00 00 00 00 00 00 00 00 00 00 00 00 00 00 00
00001e1b: 00 00 00 00 00 00 00 00 00 00 00 00 00 00 00 00
00001e2b: 00 00 00 00 00 00 00 00 00 00 00 00 00 00 00 00
00001e3b: 00 00 00 00 00 00 00 00 00 00 00 00 00 00 00 00

# UDB_1_5_HV_ROUTING + 0x00000080 (count=128)
00001e4b: 00 00 00 00 00 00 00 00 00 00 00 00 00 00 00 00
00001e5b: 00 00 00 00 00 00 00 00 00 00 00 00 00 00 00 00
00001e6b: 00 00 00 00 00 00 00 00 00 00 00 00 00 00 00 00
00001e7b: 00 00 00 00 00 00 00 00 00 00 00 00 00 00 00 00
00001e8b: 00 00 00 00 00 00 00 00 00 00 00 00 00 00 00 00
00001e9b: 00 00 00 00 00 00 00 00 00 00 00 00 00 00 00 00
00001eab: 00 00 00 00 00 00 00 00 00 00 00 00 00 00 00 00
00001ebb: 00 00 00 00 00 00 00 00 00 00 00 00 00 00 00 00

# UDBSWITCH_1_5 (count=128)
00001ecb: 00 00 00 00 00 00 00 00 00 00 00 00 00 00 00 00
00001edb: 00 00 00 00 00 00 00 00 00 00 00 00 00 00 00 00
00001eeb: 00 00 00 00 00 00 00 00 00 00 00 00 00 00 00 00
00001efb: 00 00 00 00 00 00 00 00 00 00 00 00 00 00 00 00
00001f0b: 00 00 00 00 00 00 00 00 00 00 00 00 00 00 00 00
00001f1b: 00 00 00 00 00 00 00 00 00 00 00 00 00 00 00 00
00001f2b: 00 00 00 00 00 00 00 00 00 00 00 00 00 00 00 00
00001f3b: 00 00 00 00 00 00 00 00 00 00 00 00 00 00 00 00

# UDB_2_5_HV_ROUTING + 0x00000080 (count=128)
00001f4b: 00 00 00 00 00 00 00 00 00 00 00 00 00 00 00 00
00001f5b: 00 00 00 00 00 00 00 00 00 00 00 00 00 00 00 00
00001f6b: 00 00 00 00 00 00 00 00 00 00 00 00 00 00 00 00
00001f7b: 00 00 00 00 00 00 00 00 00 00 00 00 00 00 00 00
00001f8b: 00 00 00 00 00 00 00 00 00 00 00 00 00 00 00 00
00001f9b: 00 00 00 00 00 00 00 00 00 00 00 00 00 00 00 00
00001fab: 00 00 00 00 00 00 00 00 00 00 00 00 00 00 00 00
00001fbb: 00 00 00 00 00 00 00 00 00 00 00 00 00 00 00 00

# DSISWITCH_1_0 (count=128)
00001fcb: 00 00 00 00 00 00 00 00 00 00 00 00 00 00 00 00
00001fdb: 00 00 00 00 00 00 00 00 00 00 00 00 00 00 00 00
00001feb: 00 00 00 00 00 00 00 00 00 00 00 00 00 00 00 00
00001ffb: 00 00 00 00 00 00 00 00 00 00 00 00 00 00 00 00
0000200b: 00 00 00 00 00 00 00 00 00 00 00 00 00 00 00 00
0000201b: 00 00 00 00 00 00 00 00 00 00 00 00 00 00 00 00
0000202b: 00 00 00 00 00 00 00 00 00 00 00 00 00 00 00 00
0000203b: 00 00 00 00 00 00 00 00 00 00 00 00 00 00 00 00

# DSI3_0_HV_ROUTING + 0x00000080 (count=128)
0000204b: 00 00 00 00 00 00 00 00 00 00 00 00 00 00 00 00
0000205b: 00 00 00 00 00 00 00 00 00 00 00 00 00 00 00 00
0000206b: 00 00 00 00 00 00 00 00 00 00 00 00 00 00 00 00
0000207b: 00 00 00 00 00 10 00 00 00 00 00 00 00 00 00 00
0000208b: 00 00 00 00 00 00 00 00 00 00 00 00 00 00 00 00
0000209b: 00 00 00 00 00 00 00 00 00 00 00 00 00 00 00 00
000020ab: 00 00 00 00 00 00 00 00 00 00 00 00 00 00 00 00
000020bb: 00 00 00 00 00 00 00 00 00 00 00 00 00 00 00 00

# DSISWITCH_1_1 (count=128)
000020cb: 00 00 00 00 00 00 00 00 00 00 00 00 00 00 00 00
000020db: 00 00 00 00 00 00 00 00 00 00 00 00 00 00 00 00
000020eb: 00 00 00 00 00 10 00 00 00 00 00 00 00 00 00 00
000020fb: 00 00 00 00 00 00 00 00 00 00 00 00 00 00 00 00
0000210b: 00 00 00 00 00 00 00 00 00 00 00 00 00 00 00 00
0000211b: 00 00 00 00 00 00 00 00 00 00 00 00 00 00 00 00
0000212b: 00 00 00 00 00 00 00 00 00 00 00 00 00 00 00 00
0000213b: 00 00 00 00 00 00 00 00 00 00 00 00 00 00 00 00

# DSI3_1_HV_ROUTING + 0x00000080 (count=128)
0000214b: 00 00 00 00 00 00 00 00 00 00 00 00 00 00 00 00
0000215b: 00 00 00 00 00 00 00 00 00 00 00 00 00 00 00 00
0000216b: 00 00 00 00 00 00 00 00 00 00 00 00 00 00 00 00
0000217b: 00 00 00 00 00 00 00 00 00 00 00 00 00 00 00 00
0000218b: 00 00 00 00 00 00 00 00 20 00 00 00 00 00 00 00
0000219b: 00 00 00 00 00 00 00 00 00 00 00 00 00 00 00 00
000021ab: 00 00 00 00 00 00 00 00 00 00 00 00 00 00 00 00
000021bb: 00 00 00 00 00 00 00 00 00 00 00 00 00 00 00 00

# DSISWITCH_1_2 (count=128)
000021cb: 00 00 00 00 00 00 00 00 00 00 00 00 00 00 00 00
000021db: 00 00 00 00 00 00 00 00 00 00 00 00 00 00 00 00
000021eb: 00 00 00 00 00 00 00 00 00 00 00 00 00 00 00 00
000021fb: 00 00 00 00 00 00 00 00 00 00 00 00 00 00 00 00
0000220b: 00 00 00 00 00 00 00 00 00 00 00 00 00 00 00 00
0000221b: 00 00 00 00 00 00 00 00 00 00 00 00 00 00 00 00
0000222b: 00 00 00 00 00 00 00 00 00 00 00 00 00 00 00 00
0000223b: 00 00 00 00 00 00 00 00 00 00 00 00 00 00 00 00

# DSI3_2_HV_ROUTING + 0x00000080 (count=128)
0000224b: 00 00 00 00 00 00 00 00 00 00 00 00 00 00 00 00
0000225b: 00 00 00 00 00 00 00 00 00 00 00 00 00 00 00 00
0000226b: 00 00 00 00 00 00 00 00 00 00 00 00 00 00 00 00
0000227b: 00 00 00 00 00 00 00 00 00 00 00 00 00 00 00 00
0000228b: 00 00 00 00 00 00 00 00 00 00 00 00 00 00 00 00
0000229b: 00 00 00 00 00 00 00 00 00 00 00 00 00 00 00 00
000022ab: 00 00 00 00 00 00 00 00 00 00 00 00 00 00 00 00
000022bb: 00 00 00 00 00 00 00 00 00 00 00 00 00 00 00 00

# DSISWITCH_1_3 (count=128)
000022cb: 00 00 00 00 00 00 00 00 00 00 00 00 00 00 00 00
000022db: 00 00 00 00 00 00 00 00 00 00 00 00 00 00 00 00
000022eb: 00 00 00 00 00 00 00 00 00 00 00 00 00 00 00 00
000022fb: 00 00 00 00 00 00 00 00 00 00 00 00 00 00 00 00
0000230b: 00 00 00 00 00 00 00 00 00 00 00 00 00 00 00 00
0000231b: 00 00 00 00 00 00 00 00 00 00 00 00 00 00 00 00
0000232b: 00 00 00 00 00 00 00 00 00 00 00 00 00 00 00 00
0000233b: 00 00 00 00 00 00 00 00 00 00 00 00 00 00 00 00

# DSI3_3_HV_ROUTING + 0x00000080 (count=128)
0000234b: 00 00 00 00 00 00 00 00 00 00 00 00 00 00 00 00
0000235b: 00 00 00 00 00 00 00 00 00 00 00 00 00 00 00 00
0000236b: 00 00 00 00 00 00 00 00 00 00 00 00 00 00 00 00
0000237b: 00 00 00 00 00 00 00 00 00 00 00 00 00 00 00 00
0000238b: 00 00 00 00 00 00 00 00 00 00 00 00 00 00 00 00
0000239b: 00 00 00 00 00 00 00 00 00 00 00 00 00 00 00 00
000023ab: 00 00 00 00 00 00 00 00 00 00 00 00 00 00 00 00
000023bb: 00 00 00 00 00 00 00 00 00 00 00 00 00 00 00 00

# DSISWITCH_1_4 (count=128)
000023cb: 00 00 00 00 00 00 00 00 00 00 00 00 00 00 00 00
000023db: 00 00 00 00 00 00 00 00 00 00 00 00 00 00 00 00
000023eb: 00 00 00 00 00 00 00 00 00 00 00 00 00 00 00 00
000023fb: 00 00 00 00 00 00 00 00 00 00 00 00 00 00 00 00
0000240b: 00 00 00 00 00 00 00 00 00 00 00 00 00 00 00 00
0000241b: 00 00 00 00 00 00 00 00 00 00 00 00 00 00 00 00
0000242b: 00 00 00 00 00 00 00 00 00 00 00 00 00 00 00 00
0000243b: 00 00 00 00 00 00 00 00 00 00 00 00 00 00 00 00

# DSI3_4_HV_ROUTING + 0x00000080 (count=128)
0000244b: 00 00 00 00 00 00 00 00 00 00 00 00 00 00 00 00
0000245b: 00 00 00 00 00 00 00 00 00 00 00 00 00 00 00 00
0000246b: 00 00 00 00 00 00 00 00 00 00 00 00 00 00 00 00
0000247b: 00 00 00 00 00 00 00 00 00 00 00 00 00 00 00 00
0000248b: 00 00 00 00 00 00 00 00 00 00 00 00 00 00 00 00
0000249b: 00 00 00 00 00 00 00 00 00 00 00 00 00 00 00 00
000024ab: 00 00 00 00 00 00 00 00 00 00 00 00 00 00 00 00
000024bb: 00 00 00 00 00 00 00 00 00 00 00 00 00 00 00 00

# DSISWITCH_1_5 (count=128)
000024cb: 00 00 00 00 00 00 00 00 00 00 00 00 00 00 00 00
000024db: 00 00 00 00 00 00 00 00 00 00 00 00 00 00 00 00
000024eb: 00 00 00 00 00 00 00 00 00 00 00 00 00 00 00 00
000024fb: 00 00 00 00 00 00 00 00 00 00 00 00 00 00 00 00
0000250b: 00 00 00 00 00 00 00 00 00 00 00 00 00 00 00 00
0000251b: 00 00 00 00 00 00 00 00 00 00 00 00 00 00 00 00
0000252b: 00 00 00 00 00 00 00 00 00 00 00 00 00 00 00 00
0000253b: 00 00 00 00 00 00 00 00 00 00 00 00 00 00 00 00

# DSI3_5_HV_ROUTING + 0x00000080 (count=128)
0000254b: 00 00 00 00 00 00 00 00 00 00 00 00 00 00 00 00
0000255b: 00 00 00 00 00 00 00 00 00 00 00 00 00 00 00 00
0000256b: 00 00 00 00 00 00 00 00 00 00 00 00 00 00 00 00
0000257b: 00 00 00 00 00 00 00 00 00 00 00 00 00 00 00 00
0000258b: 00 00 00 00 00 00 00 00 00 00 00 00 00 00 00 00
0000259b: 00 00 00 00 00 00 00 00 00 00 00 00 00 00 00 00
000025ab: 00 00 00 00 00 00 00 00 00 00 00 00 00 00 00 00
000025bb: 00 00 00 00 00 00 00 00 00 00 00 00 00 00 00 00

