ARM GAS  C:\Users\JOSEAN~1\AppData\Local\Temp\ccaaOiVu.s 			page 1


   1              		.syntax unified
   2              		.cpu cortex-m3
   3              		.fpu softvfp
   4              		.eabi_attribute 20, 1
   5              		.eabi_attribute 21, 1
   6              		.eabi_attribute 23, 3
   7              		.eabi_attribute 24, 1
   8              		.eabi_attribute 25, 1
   9              		.eabi_attribute 26, 1
  10              		.eabi_attribute 30, 6
  11              		.eabi_attribute 34, 1
  12              		.eabi_attribute 18, 4
  13              		.thumb
  14              		.file	"cymetadata.c"
  15              		.text
  16              	.Ltext0:
  17              		.cfi_sections	.debug_frame
  18              		.global	cy_meta_configecc
  19              		.section	.cyconfigecc,"a",%progbits
  20              		.align	2
  21              		.type	cy_meta_configecc, %object
  22              		.size	cy_meta_configecc, 280
  23              	cy_meta_configecc:
  24 0000 01       		.byte	1
  25 0001 4F       		.byte	79
  26 0002 00       		.byte	0
  27 0003 40       		.byte	64
  28 0004 03       		.byte	3
  29 0005 52       		.byte	82
  30 0006 00       		.byte	0
  31 0007 40       		.byte	64
  32 0008 01       		.byte	1
  33 0009 65       		.byte	101
  34 000a 00       		.byte	0
  35 000b 40       		.byte	64
  36 000c 2F       		.byte	47
  37 000d 14       		.byte	20
  38 000e 01       		.byte	1
  39 000f 40       		.byte	64
  40 0010 21       		.byte	33
  41 0011 15       		.byte	21
  42 0012 01       		.byte	1
  43 0013 40       		.byte	64
  44 0014 04       		.byte	4
  45 0015 40       		.byte	64
  46 0016 01       		.byte	1
  47 0017 40       		.byte	64
  48 0018 03       		.byte	3
  49 0019 41       		.byte	65
  50 001a 01       		.byte	1
  51 001b 40       		.byte	64
  52 001c 03       		.byte	3
  53 001d 42       		.byte	66
  54 001e 01       		.byte	1
  55 001f 40       		.byte	64
  56 0020 01       		.byte	1
  57 0021 43       		.byte	67
ARM GAS  C:\Users\JOSEAN~1\AppData\Local\Temp\ccaaOiVu.s 			page 2


  58 0022 01       		.byte	1
  59 0023 40       		.byte	64
  60 0024 03       		.byte	3
  61 0025 48       		.byte	72
  62 0026 01       		.byte	1
  63 0027 40       		.byte	64
  64 0028 05       		.byte	5
  65 0029 49       		.byte	73
  66 002a 01       		.byte	1
  67 002b 40       		.byte	64
  68 002c 02       		.byte	2
  69 002d 50       		.byte	80
  70 002e 01       		.byte	1
  71 002f 40       		.byte	64
  72 0030 01       		.byte	1
  73 0031 51       		.byte	81
  74 0032 01       		.byte	1
  75 0033 40       		.byte	64
  76 0034 0A       		.byte	10
  77 0035 36       		.byte	54
  78 0036 00       		.byte	0
  79 0037 02       		.byte	2
  80 0038 01       		.byte	1
  81 0039 02       		.byte	2
  82 003a 04       		.byte	4
  83 003b 01       		.byte	1
  84 003c 85       		.byte	-123
  85 003d 0F       		.byte	15
  86 003e 38       		.byte	56
  87 003f 80       		.byte	-128
  88 0040 3E       		.byte	62
  89 0041 40       		.byte	64
  90 0042 58       		.byte	88
  91 0043 04       		.byte	4
  92 0044 5F       		.byte	95
  93 0045 01       		.byte	1
  94 0046 8A       		.byte	-118
  95 0047 04       		.byte	4
  96 0048 8B       		.byte	-117
  97 0049 06       		.byte	6
  98 004a 94       		.byte	-108
  99 004b 01       		.byte	1
 100 004c 9A       		.byte	-102
 101 004d 07       		.byte	7
 102 004e 9D       		.byte	-99
 103 004f 04       		.byte	4
 104 0050 A7       		.byte	-89
 105 0051 01       		.byte	1
 106 0052 AE       		.byte	-82
 107 0053 08       		.byte	8
 108 0054 AF       		.byte	-81
 109 0055 01       		.byte	1
 110 0056 B0       		.byte	-80
 111 0057 01       		.byte	1
 112 0058 B2       		.byte	-78
 113 0059 02       		.byte	2
 114 005a B3       		.byte	-77
ARM GAS  C:\Users\JOSEAN~1\AppData\Local\Temp\ccaaOiVu.s 			page 3


 115 005b 04       		.byte	4
 116 005c B4       		.byte	-76
 117 005d 08       		.byte	8
 118 005e B5       		.byte	-75
 119 005f 01       		.byte	1
 120 0060 B6       		.byte	-74
 121 0061 04       		.byte	4
 122 0062 B7       		.byte	-73
 123 0063 02       		.byte	2
 124 0064 BF       		.byte	-65
 125 0065 10       		.byte	16
 126 0066 C0       		.byte	-64
 127 0067 20       		.byte	32
 128 0068 C1       		.byte	-63
 129 0069 05       		.byte	5
 130 006a C5       		.byte	-59
 131 006b D1       		.byte	-47
 132 006c C6       		.byte	-58
 133 006d 52       		.byte	82
 134 006e C8       		.byte	-56
 135 006f 0F       		.byte	15
 136 0070 C9       		.byte	-55
 137 0071 FF       		.byte	-1
 138 0072 CA       		.byte	-54
 139 0073 FF       		.byte	-1
 140 0074 CB       		.byte	-53
 141 0075 FF       		.byte	-1
 142 0076 CD       		.byte	-51
 143 0077 A0       		.byte	-96
 144 0078 CF       		.byte	-49
 145 0079 04       		.byte	4
 146 007a D0       		.byte	-48
 147 007b 18       		.byte	24
 148 007c D2       		.byte	-46
 149 007d 80       		.byte	-128
 150 007e D4       		.byte	-44
 151 007f 07       		.byte	7
 152 0080 D8       		.byte	-40
 153 0081 04       		.byte	4
 154 0082 D9       		.byte	-39
 155 0083 04       		.byte	4
 156 0084 DA       		.byte	-38
 157 0085 04       		.byte	4
 158 0086 DB       		.byte	-37
 159 0087 04       		.byte	4
 160 0088 DF       		.byte	-33
 161 0089 01       		.byte	1
 162 008a E0       		.byte	-32
 163 008b 40       		.byte	64
 164 008c E2       		.byte	-30
 165 008d C0       		.byte	-64
 166 008e E4       		.byte	-28
 167 008f 40       		.byte	64
 168 0090 E5       		.byte	-27
 169 0091 40       		.byte	64
 170 0092 E6       		.byte	-26
 171 0093 C0       		.byte	-64
ARM GAS  C:\Users\JOSEAN~1\AppData\Local\Temp\ccaaOiVu.s 			page 4


 172 0094 E8       		.byte	-24
 173 0095 C0       		.byte	-64
 174 0096 EA       		.byte	-22
 175 0097 C0       		.byte	-64
 176 0098 EC       		.byte	-20
 177 0099 C0       		.byte	-64
 178 009a EE       		.byte	-18
 179 009b C0       		.byte	-64
 180 009c 05       		.byte	5
 181 009d 10       		.byte	16
 182 009e 0E       		.byte	14
 183 009f 20       		.byte	32
 184 00a0 0F       		.byte	15
 185 00a1 08       		.byte	8
 186 00a2 17       		.byte	23
 187 00a3 40       		.byte	64
 188 00a4 1A       		.byte	26
 189 00a5 01       		.byte	1
 190 00a6 1D       		.byte	29
 191 00a7 B0       		.byte	-80
 192 00a8 1E       		.byte	30
 193 00a9 60       		.byte	96
 194 00aa 1F       		.byte	31
 195 00ab 20       		.byte	32
 196 00ac 26       		.byte	38
 197 00ad 80       		.byte	-128
 198 00ae 27       		.byte	39
 199 00af 28       		.byte	40
 200 00b0 2E       		.byte	46
 201 00b1 80       		.byte	-128
 202 00b2 2F       		.byte	47
 203 00b3 20       		.byte	32
 204 00b4 36       		.byte	54
 205 00b5 80       		.byte	-128
 206 00b6 3F       		.byte	63
 207 00b7 20       		.byte	32
 208 00b8 45       		.byte	69
 209 00b9 20       		.byte	32
 210 00ba 4F       		.byte	79
 211 00bb 89       		.byte	-119
 212 00bc 56       		.byte	86
 213 00bd 80       		.byte	-128
 214 00be 57       		.byte	87
 215 00bf 50       		.byte	80
 216 00c0 5E       		.byte	94
 217 00c1 40       		.byte	64
 218 00c2 5F       		.byte	95
 219 00c3 29       		.byte	41
 220 00c4 77       		.byte	119
 221 00c5 40       		.byte	64
 222 00c6 86       		.byte	-122
 223 00c7 01       		.byte	1
 224 00c8 89       		.byte	-119
 225 00c9 80       		.byte	-128
 226 00ca C0       		.byte	-64
 227 00cb 40       		.byte	64
 228 00cc C2       		.byte	-62
ARM GAS  C:\Users\JOSEAN~1\AppData\Local\Temp\ccaaOiVu.s 			page 5


 229 00cd 60       		.byte	96
 230 00ce C4       		.byte	-60
 231 00cf 80       		.byte	-128
 232 00d0 CA       		.byte	-54
 233 00d1 50       		.byte	80
 234 00d2 CC       		.byte	-52
 235 00d3 10       		.byte	16
 236 00d4 CE       		.byte	-50
 237 00d5 20       		.byte	32
 238 00d6 D0       		.byte	-48
 239 00d7 20       		.byte	32
 240 00d8 D2       		.byte	-46
 241 00d9 10       		.byte	16
 242 00da D6       		.byte	-42
 243 00db F0       		.byte	-16
 244 00dc E2       		.byte	-30
 245 00dd 20       		.byte	32
 246 00de 32       		.byte	50
 247 00df 20       		.byte	32
 248 00e0 36       		.byte	54
 249 00e1 80       		.byte	-128
 250 00e2 7A       		.byte	122
 251 00e3 60       		.byte	96
 252 00e4 CC       		.byte	-52
 253 00e5 30       		.byte	48
 254 00e6 5E       		.byte	94
 255 00e7 80       		.byte	-128
 256 00e8 A6       		.byte	-90
 257 00e9 C0       		.byte	-64
 258 00ea D6       		.byte	-42
 259 00eb 20       		.byte	32
 260 00ec 12       		.byte	18
 261 00ed 80       		.byte	-128
 262 00ee A6       		.byte	-90
 263 00ef C0       		.byte	-64
 264 00f0 C4       		.byte	-60
 265 00f1 10       		.byte	16
 266 00f2 A6       		.byte	-90
 267 00f3 40       		.byte	64
 268 00f4 67       		.byte	103
 269 00f5 10       		.byte	16
 270 00f6 A6       		.byte	-90
 271 00f7 40       		.byte	64
 272 00f8 D8       		.byte	-40
 273 00f9 80       		.byte	-128
 274 00fa 87       		.byte	-121
 275 00fb 10       		.byte	16
 276 00fc 8A       		.byte	-118
 277 00fd 40       		.byte	64
 278 00fe 97       		.byte	-105
 279 00ff 10       		.byte	16
 280 0100 A6       		.byte	-90
 281 0101 40       		.byte	64
 282 0102 E2       		.byte	-30
 283 0103 10       		.byte	16
 284 0104 10       		.byte	16
 285 0105 01       		.byte	1
ARM GAS  C:\Users\JOSEAN~1\AppData\Local\Temp\ccaaOiVu.s 			page 6


 286 0106 1A       		.byte	26
 287 0107 01       		.byte	1
 288 0108 00       		.byte	0
 289 0109 0B       		.byte	11
 290 010a 00       		.byte	0
 291 010b 00       		.byte	0
 292 010c 01       		.byte	1
 293 010d 00       		.byte	0
 294 010e 00       		.byte	0
 295 010f 07       		.byte	7
 296 0110 06       		.byte	6
 297 0111 00       		.byte	0
 298 0112 02       		.byte	2
 299 0113 00       		.byte	0
 300 0114 00       		.byte	0
 301 0115 00       		.byte	0
 302 0116 00       		.byte	0
 303 0117 00       		.byte	0
 304              		.global	cy_meta_custnvl
 305              		.section	.cycustnvl,"a",%progbits
 306              		.align	2
 307              		.type	cy_meta_custnvl, %object
 308              		.size	cy_meta_custnvl, 4
 309              	cy_meta_custnvl:
 310 0000 00       		.byte	0
 311 0001 00       		.byte	0
 312 0002 40       		.byte	64
 313 0003 05       		.byte	5
 314              		.global	cy_meta_wonvl
 315              		.section	.cywolatch,"a",%progbits
 316              		.align	2
 317              		.type	cy_meta_wonvl, %object
 318              		.size	cy_meta_wonvl, 4
 319              	cy_meta_wonvl:
 320 0000 BC       		.byte	-68
 321 0001 90       		.byte	-112
 322 0002 AC       		.byte	-84
 323 0003 AF       		.byte	-81
 324              		.global	cy_meta_flashprotect
 325              		.section	.cyflashprotect,"a",%progbits
 326              		.align	2
 327              		.type	cy_meta_flashprotect, %object
 328              		.size	cy_meta_flashprotect, 256
 329              	cy_meta_flashprotect:
 330 0000 00000000 		.space	256
 330      00000000 
 330      00000000 
 330      00000000 
 330      00000000 
 331              		.global	cy_metadata
 332              		.section	.cymeta,"a",%progbits
 333              		.align	2
 334              		.type	cy_metadata, %object
 335              		.size	cy_metadata, 12
 336              	cy_metadata:
 337 0000 00       		.byte	0
 338 0001 01       		.byte	1
ARM GAS  C:\Users\JOSEAN~1\AppData\Local\Temp\ccaaOiVu.s 			page 7


 339 0002 2E       		.byte	46
 340 0003 16       		.byte	22
 341 0004 10       		.byte	16
 342 0005 69       		.byte	105
 343 0006 00       		.byte	0
 344 0007 01       		.byte	1
 345 0008 00       		.byte	0
 346 0009 00       		.byte	0
 347 000a 00       		.byte	0
 348 000b 00       		.byte	0
 349              		.text
 350              	.Letext0:
 351              		.file 1 ".\\Generated_Source\\PSoC5\\cymetadata.c"
 352              		.file 2 ".\\Generated_Source\\PSoC5\\cytypes.h"
 353              		.section	.debug_info,"",%progbits
 354              	.Ldebug_info0:
 355 0000 36010000 		.4byte	0x136
 356 0004 0400     		.2byte	0x4
 357 0006 00000000 		.4byte	.Ldebug_abbrev0
 358 000a 04       		.byte	0x4
 359 000b 01       		.uleb128 0x1
 360 000c FD000000 		.4byte	.LASF18
 361 0010 01       		.byte	0x1
 362 0011 00000000 		.4byte	.LASF19
 363 0015 72000000 		.4byte	.LASF20
 364 0019 00000000 		.4byte	.Ldebug_line0
 365 001d 02       		.uleb128 0x2
 366 001e 01       		.byte	0x1
 367 001f 06       		.byte	0x6
 368 0020 D1010000 		.4byte	.LASF0
 369 0024 02       		.uleb128 0x2
 370 0025 01       		.byte	0x1
 371 0026 08       		.byte	0x8
 372 0027 38000000 		.4byte	.LASF1
 373 002b 02       		.uleb128 0x2
 374 002c 02       		.byte	0x2
 375 002d 05       		.byte	0x5
 376 002e B8010000 		.4byte	.LASF2
 377 0032 02       		.uleb128 0x2
 378 0033 02       		.byte	0x2
 379 0034 07       		.byte	0x7
 380 0035 58000000 		.4byte	.LASF3
 381 0039 02       		.uleb128 0x2
 382 003a 04       		.byte	0x4
 383 003b 05       		.byte	0x5
 384 003c C8010000 		.4byte	.LASF4
 385 0040 02       		.uleb128 0x2
 386 0041 04       		.byte	0x4
 387 0042 07       		.byte	0x7
 388 0043 46000000 		.4byte	.LASF5
 389 0047 02       		.uleb128 0x2
 390 0048 08       		.byte	0x8
 391 0049 05       		.byte	0x5
 392 004a A5010000 		.4byte	.LASF6
 393 004e 02       		.uleb128 0x2
 394 004f 08       		.byte	0x8
 395 0050 07       		.byte	0x7
ARM GAS  C:\Users\JOSEAN~1\AppData\Local\Temp\ccaaOiVu.s 			page 8


 396 0051 E6000000 		.4byte	.LASF7
 397 0055 03       		.uleb128 0x3
 398 0056 04       		.byte	0x4
 399 0057 05       		.byte	0x5
 400 0058 696E7400 		.ascii	"int\000"
 401 005c 02       		.uleb128 0x2
 402 005d 04       		.byte	0x4
 403 005e 07       		.byte	0x7
 404 005f D9000000 		.4byte	.LASF8
 405 0063 04       		.uleb128 0x4
 406 0064 C2010000 		.4byte	.LASF21
 407 0068 02       		.byte	0x2
 408 0069 A1       		.byte	0xa1
 409 006a 24000000 		.4byte	0x24
 410 006e 02       		.uleb128 0x2
 411 006f 04       		.byte	0x4
 412 0070 04       		.byte	0x4
 413 0071 32000000 		.4byte	.LASF9
 414 0075 02       		.uleb128 0x2
 415 0076 08       		.byte	0x8
 416 0077 04       		.byte	0x4
 417 0078 6B000000 		.4byte	.LASF10
 418 007c 02       		.uleb128 0x2
 419 007d 01       		.byte	0x1
 420 007e 08       		.byte	0x8
 421 007f B3010000 		.4byte	.LASF11
 422 0083 05       		.uleb128 0x5
 423 0084 63000000 		.4byte	0x63
 424 0088 94000000 		.4byte	0x94
 425 008c 06       		.uleb128 0x6
 426 008d 94000000 		.4byte	0x94
 427 0091 1701     		.2byte	0x117
 428 0093 00       		.byte	0
 429 0094 02       		.uleb128 0x2
 430 0095 04       		.byte	0x4
 431 0096 07       		.byte	0x7
 432 0097 9C010000 		.4byte	.LASF12
 433 009b 07       		.uleb128 0x7
 434 009c C7000000 		.4byte	.LASF13
 435 00a0 01       		.byte	0x1
 436 00a1 1C       		.byte	0x1c
 437 00a2 AC000000 		.4byte	0xac
 438 00a6 05       		.uleb128 0x5
 439 00a7 03       		.byte	0x3
 440 00a8 00000000 		.4byte	cy_meta_configecc
 441 00ac 08       		.uleb128 0x8
 442 00ad 83000000 		.4byte	0x83
 443 00b1 05       		.uleb128 0x5
 444 00b2 63000000 		.4byte	0x63
 445 00b6 C1000000 		.4byte	0xc1
 446 00ba 09       		.uleb128 0x9
 447 00bb 94000000 		.4byte	0x94
 448 00bf 03       		.byte	0x3
 449 00c0 00       		.byte	0
 450 00c1 07       		.uleb128 0x7
 451 00c2 B7000000 		.4byte	.LASF14
 452 00c6 01       		.byte	0x1
ARM GAS  C:\Users\JOSEAN~1\AppData\Local\Temp\ccaaOiVu.s 			page 9


 453 00c7 49       		.byte	0x49
 454 00c8 D2000000 		.4byte	0xd2
 455 00cc 05       		.uleb128 0x5
 456 00cd 03       		.byte	0x3
 457 00ce 00000000 		.4byte	cy_meta_custnvl
 458 00d2 08       		.uleb128 0x8
 459 00d3 B1000000 		.4byte	0xb1
 460 00d7 07       		.uleb128 0x7
 461 00d8 8E010000 		.4byte	.LASF15
 462 00dc 01       		.byte	0x1
 463 00dd 54       		.byte	0x54
 464 00de E8000000 		.4byte	0xe8
 465 00e2 05       		.uleb128 0x5
 466 00e3 03       		.byte	0x3
 467 00e4 00000000 		.4byte	cy_meta_wonvl
 468 00e8 08       		.uleb128 0x8
 469 00e9 B1000000 		.4byte	0xb1
 470 00ed 05       		.uleb128 0x5
 471 00ee 63000000 		.4byte	0x63
 472 00f2 FD000000 		.4byte	0xfd
 473 00f6 09       		.uleb128 0x9
 474 00f7 94000000 		.4byte	0x94
 475 00fb FF       		.byte	0xff
 476 00fc 00       		.byte	0
 477 00fd 07       		.uleb128 0x7
 478 00fe 79010000 		.4byte	.LASF16
 479 0102 01       		.byte	0x1
 480 0103 5F       		.byte	0x5f
 481 0104 0E010000 		.4byte	0x10e
 482 0108 05       		.uleb128 0x5
 483 0109 03       		.byte	0x3
 484 010a 00000000 		.4byte	cy_meta_flashprotect
 485 010e 08       		.uleb128 0x8
 486 010f ED000000 		.4byte	0xed
 487 0113 05       		.uleb128 0x5
 488 0114 63000000 		.4byte	0x63
 489 0118 23010000 		.4byte	0x123
 490 011c 09       		.uleb128 0x9
 491 011d 94000000 		.4byte	0x94
 492 0121 0B       		.byte	0xb
 493 0122 00       		.byte	0
 494 0123 07       		.uleb128 0x7
 495 0124 26000000 		.4byte	.LASF17
 496 0128 01       		.byte	0x1
 497 0129 89       		.byte	0x89
 498 012a 34010000 		.4byte	0x134
 499 012e 05       		.uleb128 0x5
 500 012f 03       		.byte	0x3
 501 0130 00000000 		.4byte	cy_metadata
 502 0134 08       		.uleb128 0x8
 503 0135 13010000 		.4byte	0x113
 504 0139 00       		.byte	0
 505              		.section	.debug_abbrev,"",%progbits
 506              	.Ldebug_abbrev0:
 507 0000 01       		.uleb128 0x1
 508 0001 11       		.uleb128 0x11
 509 0002 01       		.byte	0x1
ARM GAS  C:\Users\JOSEAN~1\AppData\Local\Temp\ccaaOiVu.s 			page 10


 510 0003 25       		.uleb128 0x25
 511 0004 0E       		.uleb128 0xe
 512 0005 13       		.uleb128 0x13
 513 0006 0B       		.uleb128 0xb
 514 0007 03       		.uleb128 0x3
 515 0008 0E       		.uleb128 0xe
 516 0009 1B       		.uleb128 0x1b
 517 000a 0E       		.uleb128 0xe
 518 000b 10       		.uleb128 0x10
 519 000c 17       		.uleb128 0x17
 520 000d 00       		.byte	0
 521 000e 00       		.byte	0
 522 000f 02       		.uleb128 0x2
 523 0010 24       		.uleb128 0x24
 524 0011 00       		.byte	0
 525 0012 0B       		.uleb128 0xb
 526 0013 0B       		.uleb128 0xb
 527 0014 3E       		.uleb128 0x3e
 528 0015 0B       		.uleb128 0xb
 529 0016 03       		.uleb128 0x3
 530 0017 0E       		.uleb128 0xe
 531 0018 00       		.byte	0
 532 0019 00       		.byte	0
 533 001a 03       		.uleb128 0x3
 534 001b 24       		.uleb128 0x24
 535 001c 00       		.byte	0
 536 001d 0B       		.uleb128 0xb
 537 001e 0B       		.uleb128 0xb
 538 001f 3E       		.uleb128 0x3e
 539 0020 0B       		.uleb128 0xb
 540 0021 03       		.uleb128 0x3
 541 0022 08       		.uleb128 0x8
 542 0023 00       		.byte	0
 543 0024 00       		.byte	0
 544 0025 04       		.uleb128 0x4
 545 0026 16       		.uleb128 0x16
 546 0027 00       		.byte	0
 547 0028 03       		.uleb128 0x3
 548 0029 0E       		.uleb128 0xe
 549 002a 3A       		.uleb128 0x3a
 550 002b 0B       		.uleb128 0xb
 551 002c 3B       		.uleb128 0x3b
 552 002d 0B       		.uleb128 0xb
 553 002e 49       		.uleb128 0x49
 554 002f 13       		.uleb128 0x13
 555 0030 00       		.byte	0
 556 0031 00       		.byte	0
 557 0032 05       		.uleb128 0x5
 558 0033 01       		.uleb128 0x1
 559 0034 01       		.byte	0x1
 560 0035 49       		.uleb128 0x49
 561 0036 13       		.uleb128 0x13
 562 0037 01       		.uleb128 0x1
 563 0038 13       		.uleb128 0x13
 564 0039 00       		.byte	0
 565 003a 00       		.byte	0
 566 003b 06       		.uleb128 0x6
ARM GAS  C:\Users\JOSEAN~1\AppData\Local\Temp\ccaaOiVu.s 			page 11


 567 003c 21       		.uleb128 0x21
 568 003d 00       		.byte	0
 569 003e 49       		.uleb128 0x49
 570 003f 13       		.uleb128 0x13
 571 0040 2F       		.uleb128 0x2f
 572 0041 05       		.uleb128 0x5
 573 0042 00       		.byte	0
 574 0043 00       		.byte	0
 575 0044 07       		.uleb128 0x7
 576 0045 34       		.uleb128 0x34
 577 0046 00       		.byte	0
 578 0047 03       		.uleb128 0x3
 579 0048 0E       		.uleb128 0xe
 580 0049 3A       		.uleb128 0x3a
 581 004a 0B       		.uleb128 0xb
 582 004b 3B       		.uleb128 0x3b
 583 004c 0B       		.uleb128 0xb
 584 004d 49       		.uleb128 0x49
 585 004e 13       		.uleb128 0x13
 586 004f 3F       		.uleb128 0x3f
 587 0050 19       		.uleb128 0x19
 588 0051 02       		.uleb128 0x2
 589 0052 18       		.uleb128 0x18
 590 0053 00       		.byte	0
 591 0054 00       		.byte	0
 592 0055 08       		.uleb128 0x8
 593 0056 26       		.uleb128 0x26
 594 0057 00       		.byte	0
 595 0058 49       		.uleb128 0x49
 596 0059 13       		.uleb128 0x13
 597 005a 00       		.byte	0
 598 005b 00       		.byte	0
 599 005c 09       		.uleb128 0x9
 600 005d 21       		.uleb128 0x21
 601 005e 00       		.byte	0
 602 005f 49       		.uleb128 0x49
 603 0060 13       		.uleb128 0x13
 604 0061 2F       		.uleb128 0x2f
 605 0062 0B       		.uleb128 0xb
 606 0063 00       		.byte	0
 607 0064 00       		.byte	0
 608 0065 00       		.byte	0
 609              		.section	.debug_aranges,"",%progbits
 610 0000 14000000 		.4byte	0x14
 611 0004 0200     		.2byte	0x2
 612 0006 00000000 		.4byte	.Ldebug_info0
 613 000a 04       		.byte	0x4
 614 000b 00       		.byte	0
 615 000c 0000     		.2byte	0
 616 000e 0000     		.2byte	0
 617 0010 00000000 		.4byte	0
 618 0014 00000000 		.4byte	0
 619              		.section	.debug_line,"",%progbits
 620              	.Ldebug_line0:
 621 0000 4F000000 		.section	.debug_str,"MS",%progbits,1
 621      02004900 
 621      00000201 
ARM GAS  C:\Users\JOSEAN~1\AppData\Local\Temp\ccaaOiVu.s 			page 12


 621      FB0E0D00 
 621      01010101 
 622              	.LASF19:
 623 0000 2E5C4765 		.ascii	".\\Generated_Source\\PSoC5\\cymetadata.c\000"
 623      6E657261 
 623      7465645F 
 623      536F7572 
 623      63655C50 
 624              	.LASF17:
 625 0026 63795F6D 		.ascii	"cy_metadata\000"
 625      65746164 
 625      61746100 
 626              	.LASF9:
 627 0032 666C6F61 		.ascii	"float\000"
 627      7400
 628              	.LASF1:
 629 0038 756E7369 		.ascii	"unsigned char\000"
 629      676E6564 
 629      20636861 
 629      7200
 630              	.LASF5:
 631 0046 6C6F6E67 		.ascii	"long unsigned int\000"
 631      20756E73 
 631      69676E65 
 631      6420696E 
 631      7400
 632              	.LASF3:
 633 0058 73686F72 		.ascii	"short unsigned int\000"
 633      7420756E 
 633      7369676E 
 633      65642069 
 633      6E7400
 634              	.LASF10:
 635 006b 646F7562 		.ascii	"double\000"
 635      6C6500
 636              	.LASF20:
 637 0072 473A5C44 		.ascii	"G:\\Documentos\\UNIVERSIDAD\\TFG\\Psoc_Practicas\\P"
 637      6F63756D 
 637      656E746F 
 637      735C554E 
 637      49564552 
 638 00a0 72616374 		.ascii	"racticas\\LED_PWM.cydsn\000"
 638      69636173 
 638      5C4C4544 
 638      5F50574D 
 638      2E637964 
 639              	.LASF14:
 640 00b7 63795F6D 		.ascii	"cy_meta_custnvl\000"
 640      6574615F 
 640      63757374 
 640      6E766C00 
 641              	.LASF13:
 642 00c7 63795F6D 		.ascii	"cy_meta_configecc\000"
 642      6574615F 
 642      636F6E66 
 642      69676563 
 642      6300
ARM GAS  C:\Users\JOSEAN~1\AppData\Local\Temp\ccaaOiVu.s 			page 13


 643              	.LASF8:
 644 00d9 756E7369 		.ascii	"unsigned int\000"
 644      676E6564 
 644      20696E74 
 644      00
 645              	.LASF7:
 646 00e6 6C6F6E67 		.ascii	"long long unsigned int\000"
 646      206C6F6E 
 646      6720756E 
 646      7369676E 
 646      65642069 
 647              	.LASF18:
 648 00fd 474E5520 		.ascii	"GNU C 4.8.4 20140526 (release) [ARM/embedded-4_8-br"
 648      4320342E 
 648      382E3420 
 648      32303134 
 648      30353236 
 649 0130 616E6368 		.ascii	"anch revision 211358] -mcpu=cortex-m3 -mthumb -g -O"
 649      20726576 
 649      6973696F 
 649      6E203231 
 649      31333538 
 650 0163 30202D66 		.ascii	"0 -ffunction-sections\000"
 650      66756E63 
 650      74696F6E 
 650      2D736563 
 650      74696F6E 
 651              	.LASF16:
 652 0179 63795F6D 		.ascii	"cy_meta_flashprotect\000"
 652      6574615F 
 652      666C6173 
 652      6870726F 
 652      74656374 
 653              	.LASF15:
 654 018e 63795F6D 		.ascii	"cy_meta_wonvl\000"
 654      6574615F 
 654      776F6E76 
 654      6C00
 655              	.LASF12:
 656 019c 73697A65 		.ascii	"sizetype\000"
 656      74797065 
 656      00
 657              	.LASF6:
 658 01a5 6C6F6E67 		.ascii	"long long int\000"
 658      206C6F6E 
 658      6720696E 
 658      7400
 659              	.LASF11:
 660 01b3 63686172 		.ascii	"char\000"
 660      00
 661              	.LASF2:
 662 01b8 73686F72 		.ascii	"short int\000"
 662      7420696E 
 662      7400
 663              	.LASF21:
 664 01c2 75696E74 		.ascii	"uint8\000"
 664      3800
ARM GAS  C:\Users\JOSEAN~1\AppData\Local\Temp\ccaaOiVu.s 			page 14


 665              	.LASF4:
 666 01c8 6C6F6E67 		.ascii	"long int\000"
 666      20696E74 
 666      00
 667              	.LASF0:
 668 01d1 7369676E 		.ascii	"signed char\000"
 668      65642063 
 668      68617200 
 669              		.ident	"GCC: (GNU Tools for ARM Embedded Processors) 4.8.4 20140526 (release) [ARM/embedded-4_8-br
