:20000000024F004008520040015A004001640040036500400205014065060140350701405C
:2000200001090140010B0140591401404F150140171701404518014034190140531A01408C
:20004000501B01400340014006410140084201400343014004450140024601400447014037
:200060000A480140104901400A4C01400B4D0140055001400151014001800A360001010136
:20008000086009201831191361806440CF04860D840F89728A388201EA030104040105049C
:2000A00008100A080B200C030D03100811011210130214031C101E0822042324250A27112E
:2000C0002C182D092F1230013103320233183418352036043704382039023E103F114010EA
:2000E000410645D046204710483A49FF4AFF4BFF4DA04F0450185405580459045A045B0413
:200100005F01604062C06440654066C068C06AC06CC06EC08C358E0A900C91019203A013D3
:20012000A22CA301A42AA615A80FAC30AD01B030B20CB403B701B802B980BE01BF40C00203
:20014000C704C9FFCA07CBFFCC40CD20CEF0CF05D008D804D904DA04DD01DF01E040E1A810
:20016000E240E3200302050406090A400C420D081061118013221401168019011A181C4006
:200180001D241F40224025402601272828412C222E0A2F42330237023D883F224004460202
:2001A0004D014F2051105204550C560157115C405D015F088A048D20A601C0E1C2B8C49FEA
:2001C000CAD9CC81CEF0D014D220D6D0E640E080EA03041105140606080C0A130B200D09D6
:2001E0000E0C0F1013031411156C160E171119701B0C2210255C2613270229102A0830104E
:20020000311F320F356039203A083E013F1040324106450B46EC480D49FF4AFF4BFF4EF0E6
:200220004F44500C5401580459045A045B045C115D115F0166C06A406B028011820E8603E2
:20024000872089808B1590039328940C95439734982999439A069B1CA034A103A209A304FF
:20026000A92AAB54B030B1C0B203B338B40CB50FB820B902BB28BE10D280D804D904DB0409
:20028000DC10DF01022203080501072009040C200D080E4010841214144019041A801B08B2
:2002A0001C201E401F202004220124802504262A2704280429042B042C802F083229362AB0
:2002C000388039303A103B043D103F08411043044A084B045080531059085A805B127680D6
:2002E000850887128C808F30912094049642984099019A049B209E80A020A108A410AC102A
:20030000B148C037C274C41ECAA6CCE7CE6ED006D204D60FE240E402E609E808EA20EC10F8
:20032000EE088101821083028460860191209210940496409A049B209C409E80A140A4200A
:20034000A702A901B640E001E206E402E608EA1000070501060108010A060C060E01180651
:200360001A011C04240228063007330138203A023E103F04580459045B045C015F01800108
:20038000811085188623883389088A0C8C1F8D1F8E20903F911C93019402951C9702983CDB
:2003A0009A039B039C039D04A008A320A404A704A80CA907AB18AF20B010B40FB51FB62CD5
:2003C000B720BA20BB20BE01BF40D602D713D804D904DB04DC11DD10DF01004001200390CB
:2003E000044005200640071009280A480B4A0C800D2010801328172819A11C481F0221201C
:200400002280260429A62A803204339238283A423B403E08590169446B046D086E206F0116
:2004200070947202732881048340861887018D108F01C0FFC2CFC46ECA0FCC0FCE4FD601E4
:20044000E001001401020203031404320506060C08280A020B010E301030140E150417120B
:200460001A301F012030240E25062A302B08303032013306340E350137183F5040624105CE
:200480004204440145C046E0480A49FF4AFF4BFF4C624DA04EF04F41500C5418580459048F
:2004A0005A045B045C115D115F016640670269106A306B106D106E106F1285018D01920283
:2004C00093029402950198029902A401AB02AD02B102B202B301B401B808B902BA02BE144C
:2004E000D804D904DC11DF0100640202038008080A400B080D100E200F80110612081410EF
:20050000180419151E401F282021210823042608275029182E402F0431083340340835288F
:2005200036023704380239043B203D4440014280431049A2531059815A406280630482040E
:200540008308841087208C018D218F80904091649308964099209A809B049D169F10A2944B
:20056000A340A508A780B004B110C00FC27EC42ECA36CCEACE57D00DD20CD601D80CE40415
:20058000E808EA20EC30EE0833213720CC7050045D809F21A720D420D620800494089D8089
:2005A000A720AB20AF01E680EAC08D809D80A72003041304C002C408AB04AF043C01890222
:2005C000CE01E001251065209A01A201A720AA01B601C820D880EA2056015B405E02660246
:2005E00083408E029A01A201AF20B120B510D480D6A0D880E680EE101F805B045E016502BB
:20060000830494019902C601D603D8011280700180018E80AE01AF80B401C408DC01E202F8
:20062000EC0800030A0310031A031C02003F000000030300030000008000408080008000E0
:2006400000000000000B0B0000E0F00004000000000000000033330033008000130018016B
:00000001FF
