ARM GAS  C:\Users\JOSEAN~1\AppData\Local\Temp\ccwkzyVq.s 			page 1


   1              		.syntax unified
   2              		.cpu cortex-m0
   3              		.fpu softvfp
   4              		.eabi_attribute 20, 1
   5              		.eabi_attribute 21, 1
   6              		.eabi_attribute 23, 3
   7              		.eabi_attribute 24, 1
   8              		.eabi_attribute 25, 1
   9              		.eabi_attribute 26, 1
  10              		.eabi_attribute 30, 6
  11              		.eabi_attribute 34, 0
  12              		.eabi_attribute 18, 4
  13              		.thumb
  14              		.syntax unified
  15              		.file	"UART_SPI_UART.c"
  16              		.text
  17              	.Ltext0:
  18              		.cfi_sections	.debug_frame
  19              		.section	.text.UART_SpiUartWriteTxData,"ax",%progbits
  20              		.align	2
  21              		.global	UART_SpiUartWriteTxData
  22              		.code	16
  23              		.thumb_func
  24              		.type	UART_SpiUartWriteTxData, %function
  25              	UART_SpiUartWriteTxData:
  26              	.LFB0:
  27              		.file 1 "Generated_Source\\PSoC4\\UART_SPI_UART.c"
   1:Generated_Source\PSoC4/UART_SPI_UART.c **** /***************************************************************************//**
   2:Generated_Source\PSoC4/UART_SPI_UART.c **** * \file UART_SPI_UART.c
   3:Generated_Source\PSoC4/UART_SPI_UART.c **** * \version 4.0
   4:Generated_Source\PSoC4/UART_SPI_UART.c **** *
   5:Generated_Source\PSoC4/UART_SPI_UART.c **** * \brief
   6:Generated_Source\PSoC4/UART_SPI_UART.c **** *  This file provides the source code to the API for the SCB Component in
   7:Generated_Source\PSoC4/UART_SPI_UART.c **** *  SPI and UART modes.
   8:Generated_Source\PSoC4/UART_SPI_UART.c **** *
   9:Generated_Source\PSoC4/UART_SPI_UART.c **** * Note:
  10:Generated_Source\PSoC4/UART_SPI_UART.c **** *
  11:Generated_Source\PSoC4/UART_SPI_UART.c **** *******************************************************************************
  12:Generated_Source\PSoC4/UART_SPI_UART.c **** * \copyright
  13:Generated_Source\PSoC4/UART_SPI_UART.c **** * Copyright 2013-2017, Cypress Semiconductor Corporation.  All rights reserved.
  14:Generated_Source\PSoC4/UART_SPI_UART.c **** * You may use this file only in accordance with the license, terms, conditions,
  15:Generated_Source\PSoC4/UART_SPI_UART.c **** * disclaimers, and limitations in the end user license agreement accompanying
  16:Generated_Source\PSoC4/UART_SPI_UART.c **** * the software package with which this file was provided.
  17:Generated_Source\PSoC4/UART_SPI_UART.c **** *******************************************************************************/
  18:Generated_Source\PSoC4/UART_SPI_UART.c **** 
  19:Generated_Source\PSoC4/UART_SPI_UART.c **** #include "UART_PVT.h"
  20:Generated_Source\PSoC4/UART_SPI_UART.c **** #include "UART_SPI_UART_PVT.h"
  21:Generated_Source\PSoC4/UART_SPI_UART.c **** 
  22:Generated_Source\PSoC4/UART_SPI_UART.c **** /***************************************
  23:Generated_Source\PSoC4/UART_SPI_UART.c **** *        SPI/UART Private Vars
  24:Generated_Source\PSoC4/UART_SPI_UART.c **** ***************************************/
  25:Generated_Source\PSoC4/UART_SPI_UART.c **** 
  26:Generated_Source\PSoC4/UART_SPI_UART.c **** #if(UART_INTERNAL_RX_SW_BUFFER_CONST)
  27:Generated_Source\PSoC4/UART_SPI_UART.c ****     /* Start index to put data into the software receive buffer.*/
  28:Generated_Source\PSoC4/UART_SPI_UART.c ****     volatile uint32 UART_rxBufferHead;
  29:Generated_Source\PSoC4/UART_SPI_UART.c ****     /* Start index to get data from the software receive buffer.*/
  30:Generated_Source\PSoC4/UART_SPI_UART.c ****     volatile uint32 UART_rxBufferTail;
ARM GAS  C:\Users\JOSEAN~1\AppData\Local\Temp\ccwkzyVq.s 			page 2


  31:Generated_Source\PSoC4/UART_SPI_UART.c ****     /**
  32:Generated_Source\PSoC4/UART_SPI_UART.c ****     * \addtogroup group_globals
  33:Generated_Source\PSoC4/UART_SPI_UART.c ****     * \{
  34:Generated_Source\PSoC4/UART_SPI_UART.c ****     */
  35:Generated_Source\PSoC4/UART_SPI_UART.c ****     /** Sets when internal software receive buffer overflow
  36:Generated_Source\PSoC4/UART_SPI_UART.c ****     *  was occurred.
  37:Generated_Source\PSoC4/UART_SPI_UART.c ****     */
  38:Generated_Source\PSoC4/UART_SPI_UART.c ****     volatile uint8  UART_rxBufferOverflow;
  39:Generated_Source\PSoC4/UART_SPI_UART.c ****     /** \} globals */
  40:Generated_Source\PSoC4/UART_SPI_UART.c **** #endif /* (UART_INTERNAL_RX_SW_BUFFER_CONST) */
  41:Generated_Source\PSoC4/UART_SPI_UART.c **** 
  42:Generated_Source\PSoC4/UART_SPI_UART.c **** #if(UART_INTERNAL_TX_SW_BUFFER_CONST)
  43:Generated_Source\PSoC4/UART_SPI_UART.c ****     /* Start index to put data into the software transmit buffer.*/
  44:Generated_Source\PSoC4/UART_SPI_UART.c ****     volatile uint32 UART_txBufferHead;
  45:Generated_Source\PSoC4/UART_SPI_UART.c ****     /* Start index to get data from the software transmit buffer.*/
  46:Generated_Source\PSoC4/UART_SPI_UART.c ****     volatile uint32 UART_txBufferTail;
  47:Generated_Source\PSoC4/UART_SPI_UART.c **** #endif /* (UART_INTERNAL_TX_SW_BUFFER_CONST) */
  48:Generated_Source\PSoC4/UART_SPI_UART.c **** 
  49:Generated_Source\PSoC4/UART_SPI_UART.c **** #if(UART_INTERNAL_RX_SW_BUFFER)
  50:Generated_Source\PSoC4/UART_SPI_UART.c ****     /* Add one element to the buffer to receive full packet. One byte in receive buffer is always e
  51:Generated_Source\PSoC4/UART_SPI_UART.c ****     volatile uint8 UART_rxBufferInternal[UART_INTERNAL_RX_BUFFER_SIZE];
  52:Generated_Source\PSoC4/UART_SPI_UART.c **** #endif /* (UART_INTERNAL_RX_SW_BUFFER) */
  53:Generated_Source\PSoC4/UART_SPI_UART.c **** 
  54:Generated_Source\PSoC4/UART_SPI_UART.c **** #if(UART_INTERNAL_TX_SW_BUFFER)
  55:Generated_Source\PSoC4/UART_SPI_UART.c ****     volatile uint8 UART_txBufferInternal[UART_TX_BUFFER_SIZE];
  56:Generated_Source\PSoC4/UART_SPI_UART.c **** #endif /* (UART_INTERNAL_TX_SW_BUFFER) */
  57:Generated_Source\PSoC4/UART_SPI_UART.c **** 
  58:Generated_Source\PSoC4/UART_SPI_UART.c **** 
  59:Generated_Source\PSoC4/UART_SPI_UART.c **** #if(UART_RX_DIRECTION)
  60:Generated_Source\PSoC4/UART_SPI_UART.c ****     /*******************************************************************************
  61:Generated_Source\PSoC4/UART_SPI_UART.c ****     * Function Name: UART_SpiUartReadRxData
  62:Generated_Source\PSoC4/UART_SPI_UART.c ****     ****************************************************************************//**
  63:Generated_Source\PSoC4/UART_SPI_UART.c ****     *
  64:Generated_Source\PSoC4/UART_SPI_UART.c ****     *  Retrieves the next data element from the receive buffer.
  65:Generated_Source\PSoC4/UART_SPI_UART.c ****     *   - RX software buffer is disabled: Returns data element retrieved from
  66:Generated_Source\PSoC4/UART_SPI_UART.c ****     *     RX FIFO. Undefined data will be returned if the RX FIFO is empty.
  67:Generated_Source\PSoC4/UART_SPI_UART.c ****     *   - RX software buffer is enabled: Returns data element from the software
  68:Generated_Source\PSoC4/UART_SPI_UART.c ****     *     receive buffer. Zero value is returned if the software receive buffer
  69:Generated_Source\PSoC4/UART_SPI_UART.c ****     *     is empty.
  70:Generated_Source\PSoC4/UART_SPI_UART.c ****     *
  71:Generated_Source\PSoC4/UART_SPI_UART.c ****     * \return
  72:Generated_Source\PSoC4/UART_SPI_UART.c ****     *  Next data element from the receive buffer. 
  73:Generated_Source\PSoC4/UART_SPI_UART.c ****     *  The amount of data bits to be received depends on RX data bits selection 
  74:Generated_Source\PSoC4/UART_SPI_UART.c ****     *  (the data bit counting starts from LSB of return value).
  75:Generated_Source\PSoC4/UART_SPI_UART.c ****     *
  76:Generated_Source\PSoC4/UART_SPI_UART.c ****     * \globalvars
  77:Generated_Source\PSoC4/UART_SPI_UART.c ****     *  UART_rxBufferHead - the start index to put data into the 
  78:Generated_Source\PSoC4/UART_SPI_UART.c ****     *  software receive buffer.
  79:Generated_Source\PSoC4/UART_SPI_UART.c ****     *  UART_rxBufferTail - the start index to get data from the 
  80:Generated_Source\PSoC4/UART_SPI_UART.c ****     *  software receive buffer.
  81:Generated_Source\PSoC4/UART_SPI_UART.c ****     *
  82:Generated_Source\PSoC4/UART_SPI_UART.c ****     *******************************************************************************/
  83:Generated_Source\PSoC4/UART_SPI_UART.c ****     uint32 UART_SpiUartReadRxData(void)
  84:Generated_Source\PSoC4/UART_SPI_UART.c ****     {
  85:Generated_Source\PSoC4/UART_SPI_UART.c ****         uint32 rxData = 0u;
  86:Generated_Source\PSoC4/UART_SPI_UART.c **** 
  87:Generated_Source\PSoC4/UART_SPI_UART.c ****     #if (UART_INTERNAL_RX_SW_BUFFER_CONST)
ARM GAS  C:\Users\JOSEAN~1\AppData\Local\Temp\ccwkzyVq.s 			page 3


  88:Generated_Source\PSoC4/UART_SPI_UART.c ****         uint32 locTail;
  89:Generated_Source\PSoC4/UART_SPI_UART.c ****     #endif /* (UART_INTERNAL_RX_SW_BUFFER_CONST) */
  90:Generated_Source\PSoC4/UART_SPI_UART.c **** 
  91:Generated_Source\PSoC4/UART_SPI_UART.c ****         #if (UART_CHECK_RX_SW_BUFFER)
  92:Generated_Source\PSoC4/UART_SPI_UART.c ****         {
  93:Generated_Source\PSoC4/UART_SPI_UART.c ****             if (UART_rxBufferHead != UART_rxBufferTail)
  94:Generated_Source\PSoC4/UART_SPI_UART.c ****             {
  95:Generated_Source\PSoC4/UART_SPI_UART.c ****                 /* There is data in RX software buffer */
  96:Generated_Source\PSoC4/UART_SPI_UART.c **** 
  97:Generated_Source\PSoC4/UART_SPI_UART.c ****                 /* Calculate index to read from */
  98:Generated_Source\PSoC4/UART_SPI_UART.c ****                 locTail = (UART_rxBufferTail + 1u);
  99:Generated_Source\PSoC4/UART_SPI_UART.c **** 
 100:Generated_Source\PSoC4/UART_SPI_UART.c ****                 if (UART_INTERNAL_RX_BUFFER_SIZE == locTail)
 101:Generated_Source\PSoC4/UART_SPI_UART.c ****                 {
 102:Generated_Source\PSoC4/UART_SPI_UART.c ****                     locTail = 0u;
 103:Generated_Source\PSoC4/UART_SPI_UART.c ****                 }
 104:Generated_Source\PSoC4/UART_SPI_UART.c **** 
 105:Generated_Source\PSoC4/UART_SPI_UART.c ****                 /* Get data from RX software buffer */
 106:Generated_Source\PSoC4/UART_SPI_UART.c ****                 rxData = UART_GetWordFromRxBuffer(locTail);
 107:Generated_Source\PSoC4/UART_SPI_UART.c **** 
 108:Generated_Source\PSoC4/UART_SPI_UART.c ****                 /* Change index in the buffer */
 109:Generated_Source\PSoC4/UART_SPI_UART.c ****                 UART_rxBufferTail = locTail;
 110:Generated_Source\PSoC4/UART_SPI_UART.c **** 
 111:Generated_Source\PSoC4/UART_SPI_UART.c ****                 #if (UART_CHECK_UART_RTS_CONTROL_FLOW)
 112:Generated_Source\PSoC4/UART_SPI_UART.c ****                 {
 113:Generated_Source\PSoC4/UART_SPI_UART.c ****                     /* Check if RX Not Empty is disabled in the interrupt */
 114:Generated_Source\PSoC4/UART_SPI_UART.c ****                     if (0u == (UART_INTR_RX_MASK_REG & UART_INTR_RX_NOT_EMPTY))
 115:Generated_Source\PSoC4/UART_SPI_UART.c ****                     {
 116:Generated_Source\PSoC4/UART_SPI_UART.c ****                         /* Enable RX Not Empty interrupt source to continue
 117:Generated_Source\PSoC4/UART_SPI_UART.c ****                         * receiving data into software buffer.
 118:Generated_Source\PSoC4/UART_SPI_UART.c ****                         */
 119:Generated_Source\PSoC4/UART_SPI_UART.c ****                         UART_INTR_RX_MASK_REG |= UART_INTR_RX_NOT_EMPTY;
 120:Generated_Source\PSoC4/UART_SPI_UART.c ****                     }
 121:Generated_Source\PSoC4/UART_SPI_UART.c ****                 }
 122:Generated_Source\PSoC4/UART_SPI_UART.c ****                 #endif
 123:Generated_Source\PSoC4/UART_SPI_UART.c **** 
 124:Generated_Source\PSoC4/UART_SPI_UART.c ****             }
 125:Generated_Source\PSoC4/UART_SPI_UART.c ****         }
 126:Generated_Source\PSoC4/UART_SPI_UART.c ****         #else
 127:Generated_Source\PSoC4/UART_SPI_UART.c ****         {
 128:Generated_Source\PSoC4/UART_SPI_UART.c ****             /* Read data from RX FIFO */
 129:Generated_Source\PSoC4/UART_SPI_UART.c ****             rxData = UART_RX_FIFO_RD_REG;
 130:Generated_Source\PSoC4/UART_SPI_UART.c ****         }
 131:Generated_Source\PSoC4/UART_SPI_UART.c ****         #endif
 132:Generated_Source\PSoC4/UART_SPI_UART.c **** 
 133:Generated_Source\PSoC4/UART_SPI_UART.c ****         return (rxData);
 134:Generated_Source\PSoC4/UART_SPI_UART.c ****     }
 135:Generated_Source\PSoC4/UART_SPI_UART.c **** 
 136:Generated_Source\PSoC4/UART_SPI_UART.c **** 
 137:Generated_Source\PSoC4/UART_SPI_UART.c ****     /*******************************************************************************
 138:Generated_Source\PSoC4/UART_SPI_UART.c ****     * Function Name: UART_SpiUartGetRxBufferSize
 139:Generated_Source\PSoC4/UART_SPI_UART.c ****     ****************************************************************************//**
 140:Generated_Source\PSoC4/UART_SPI_UART.c ****     *
 141:Generated_Source\PSoC4/UART_SPI_UART.c ****     *  Returns the number of received data elements in the receive buffer.
 142:Generated_Source\PSoC4/UART_SPI_UART.c ****     *   - RX software buffer disabled: returns the number of used entries in
 143:Generated_Source\PSoC4/UART_SPI_UART.c ****     *     RX FIFO.
 144:Generated_Source\PSoC4/UART_SPI_UART.c ****     *   - RX software buffer enabled: returns the number of elements which were
ARM GAS  C:\Users\JOSEAN~1\AppData\Local\Temp\ccwkzyVq.s 			page 4


 145:Generated_Source\PSoC4/UART_SPI_UART.c ****     *     placed in the receive buffer. This does not include the hardware RX FIFO.
 146:Generated_Source\PSoC4/UART_SPI_UART.c ****     *
 147:Generated_Source\PSoC4/UART_SPI_UART.c ****     * \return
 148:Generated_Source\PSoC4/UART_SPI_UART.c ****     *  Number of received data elements.
 149:Generated_Source\PSoC4/UART_SPI_UART.c ****     *
 150:Generated_Source\PSoC4/UART_SPI_UART.c ****     * \globalvars
 151:Generated_Source\PSoC4/UART_SPI_UART.c ****     *  UART_rxBufferHead - the start index to put data into the 
 152:Generated_Source\PSoC4/UART_SPI_UART.c ****     *  software receive buffer.
 153:Generated_Source\PSoC4/UART_SPI_UART.c ****     *  UART_rxBufferTail - the start index to get data from the 
 154:Generated_Source\PSoC4/UART_SPI_UART.c ****     *  software receive buffer.
 155:Generated_Source\PSoC4/UART_SPI_UART.c ****     *
 156:Generated_Source\PSoC4/UART_SPI_UART.c ****     *******************************************************************************/
 157:Generated_Source\PSoC4/UART_SPI_UART.c ****     uint32 UART_SpiUartGetRxBufferSize(void)
 158:Generated_Source\PSoC4/UART_SPI_UART.c ****     {
 159:Generated_Source\PSoC4/UART_SPI_UART.c ****         uint32 size;
 160:Generated_Source\PSoC4/UART_SPI_UART.c ****     #if (UART_INTERNAL_RX_SW_BUFFER_CONST)
 161:Generated_Source\PSoC4/UART_SPI_UART.c ****         uint32 locHead;
 162:Generated_Source\PSoC4/UART_SPI_UART.c ****     #endif /* (UART_INTERNAL_RX_SW_BUFFER_CONST) */
 163:Generated_Source\PSoC4/UART_SPI_UART.c **** 
 164:Generated_Source\PSoC4/UART_SPI_UART.c ****         #if (UART_CHECK_RX_SW_BUFFER)
 165:Generated_Source\PSoC4/UART_SPI_UART.c ****         {
 166:Generated_Source\PSoC4/UART_SPI_UART.c ****             locHead = UART_rxBufferHead;
 167:Generated_Source\PSoC4/UART_SPI_UART.c **** 
 168:Generated_Source\PSoC4/UART_SPI_UART.c ****             if(locHead >= UART_rxBufferTail)
 169:Generated_Source\PSoC4/UART_SPI_UART.c ****             {
 170:Generated_Source\PSoC4/UART_SPI_UART.c ****                 size = (locHead - UART_rxBufferTail);
 171:Generated_Source\PSoC4/UART_SPI_UART.c ****             }
 172:Generated_Source\PSoC4/UART_SPI_UART.c ****             else
 173:Generated_Source\PSoC4/UART_SPI_UART.c ****             {
 174:Generated_Source\PSoC4/UART_SPI_UART.c ****                 size = (locHead + (UART_INTERNAL_RX_BUFFER_SIZE - UART_rxBufferTail));
 175:Generated_Source\PSoC4/UART_SPI_UART.c ****             }
 176:Generated_Source\PSoC4/UART_SPI_UART.c ****         }
 177:Generated_Source\PSoC4/UART_SPI_UART.c ****         #else
 178:Generated_Source\PSoC4/UART_SPI_UART.c ****         {
 179:Generated_Source\PSoC4/UART_SPI_UART.c ****             size = UART_GET_RX_FIFO_ENTRIES;
 180:Generated_Source\PSoC4/UART_SPI_UART.c ****         }
 181:Generated_Source\PSoC4/UART_SPI_UART.c ****         #endif
 182:Generated_Source\PSoC4/UART_SPI_UART.c **** 
 183:Generated_Source\PSoC4/UART_SPI_UART.c ****         return (size);
 184:Generated_Source\PSoC4/UART_SPI_UART.c ****     }
 185:Generated_Source\PSoC4/UART_SPI_UART.c **** 
 186:Generated_Source\PSoC4/UART_SPI_UART.c **** 
 187:Generated_Source\PSoC4/UART_SPI_UART.c ****     /*******************************************************************************
 188:Generated_Source\PSoC4/UART_SPI_UART.c ****     * Function Name: UART_SpiUartClearRxBuffer
 189:Generated_Source\PSoC4/UART_SPI_UART.c ****     ****************************************************************************//**
 190:Generated_Source\PSoC4/UART_SPI_UART.c ****     *
 191:Generated_Source\PSoC4/UART_SPI_UART.c ****     *  Clears the receive buffer and RX FIFO.
 192:Generated_Source\PSoC4/UART_SPI_UART.c ****     *
 193:Generated_Source\PSoC4/UART_SPI_UART.c ****     * \globalvars
 194:Generated_Source\PSoC4/UART_SPI_UART.c ****     *  UART_rxBufferHead - the start index to put data into the 
 195:Generated_Source\PSoC4/UART_SPI_UART.c ****     *  software receive buffer.
 196:Generated_Source\PSoC4/UART_SPI_UART.c ****     *  UART_rxBufferTail - the start index to get data from the 
 197:Generated_Source\PSoC4/UART_SPI_UART.c ****     *  software receive buffer.
 198:Generated_Source\PSoC4/UART_SPI_UART.c ****     *
 199:Generated_Source\PSoC4/UART_SPI_UART.c ****     *******************************************************************************/
 200:Generated_Source\PSoC4/UART_SPI_UART.c ****     void UART_SpiUartClearRxBuffer(void)
 201:Generated_Source\PSoC4/UART_SPI_UART.c ****     {
ARM GAS  C:\Users\JOSEAN~1\AppData\Local\Temp\ccwkzyVq.s 			page 5


 202:Generated_Source\PSoC4/UART_SPI_UART.c ****         #if (UART_CHECK_RX_SW_BUFFER)
 203:Generated_Source\PSoC4/UART_SPI_UART.c ****         {
 204:Generated_Source\PSoC4/UART_SPI_UART.c ****             /* Lock from component interruption */
 205:Generated_Source\PSoC4/UART_SPI_UART.c ****             UART_DisableInt();
 206:Generated_Source\PSoC4/UART_SPI_UART.c **** 
 207:Generated_Source\PSoC4/UART_SPI_UART.c ****             /* Flush RX software buffer */
 208:Generated_Source\PSoC4/UART_SPI_UART.c ****             UART_rxBufferHead = UART_rxBufferTail;
 209:Generated_Source\PSoC4/UART_SPI_UART.c ****             UART_rxBufferOverflow = 0u;
 210:Generated_Source\PSoC4/UART_SPI_UART.c **** 
 211:Generated_Source\PSoC4/UART_SPI_UART.c ****             UART_CLEAR_RX_FIFO;
 212:Generated_Source\PSoC4/UART_SPI_UART.c ****             UART_ClearRxInterruptSource(UART_INTR_RX_ALL);
 213:Generated_Source\PSoC4/UART_SPI_UART.c **** 
 214:Generated_Source\PSoC4/UART_SPI_UART.c ****             #if (UART_CHECK_UART_RTS_CONTROL_FLOW)
 215:Generated_Source\PSoC4/UART_SPI_UART.c ****             {
 216:Generated_Source\PSoC4/UART_SPI_UART.c ****                 /* Enable RX Not Empty interrupt source to continue receiving
 217:Generated_Source\PSoC4/UART_SPI_UART.c ****                 * data into software buffer.
 218:Generated_Source\PSoC4/UART_SPI_UART.c ****                 */
 219:Generated_Source\PSoC4/UART_SPI_UART.c ****                 UART_INTR_RX_MASK_REG |= UART_INTR_RX_NOT_EMPTY;
 220:Generated_Source\PSoC4/UART_SPI_UART.c ****             }
 221:Generated_Source\PSoC4/UART_SPI_UART.c ****             #endif
 222:Generated_Source\PSoC4/UART_SPI_UART.c ****             
 223:Generated_Source\PSoC4/UART_SPI_UART.c ****             /* Release lock */
 224:Generated_Source\PSoC4/UART_SPI_UART.c ****             UART_EnableInt();
 225:Generated_Source\PSoC4/UART_SPI_UART.c ****         }
 226:Generated_Source\PSoC4/UART_SPI_UART.c ****         #else
 227:Generated_Source\PSoC4/UART_SPI_UART.c ****         {
 228:Generated_Source\PSoC4/UART_SPI_UART.c ****             UART_CLEAR_RX_FIFO;
 229:Generated_Source\PSoC4/UART_SPI_UART.c ****         }
 230:Generated_Source\PSoC4/UART_SPI_UART.c ****         #endif
 231:Generated_Source\PSoC4/UART_SPI_UART.c ****     }
 232:Generated_Source\PSoC4/UART_SPI_UART.c **** 
 233:Generated_Source\PSoC4/UART_SPI_UART.c **** #endif /* (UART_RX_DIRECTION) */
 234:Generated_Source\PSoC4/UART_SPI_UART.c **** 
 235:Generated_Source\PSoC4/UART_SPI_UART.c **** 
 236:Generated_Source\PSoC4/UART_SPI_UART.c **** #if(UART_TX_DIRECTION)
 237:Generated_Source\PSoC4/UART_SPI_UART.c ****     /*******************************************************************************
 238:Generated_Source\PSoC4/UART_SPI_UART.c ****     * Function Name: UART_SpiUartWriteTxData
 239:Generated_Source\PSoC4/UART_SPI_UART.c ****     ****************************************************************************//**
 240:Generated_Source\PSoC4/UART_SPI_UART.c ****     *
 241:Generated_Source\PSoC4/UART_SPI_UART.c ****     *  Places a data entry into the transmit buffer to be sent at the next available
 242:Generated_Source\PSoC4/UART_SPI_UART.c ****     *  bus time.
 243:Generated_Source\PSoC4/UART_SPI_UART.c ****     *  This function is blocking and waits until there is space available to put the
 244:Generated_Source\PSoC4/UART_SPI_UART.c ****     *  requested data in the transmit buffer.
 245:Generated_Source\PSoC4/UART_SPI_UART.c ****     *
 246:Generated_Source\PSoC4/UART_SPI_UART.c ****     *  \param txDataByte: the data to be transmitted.
 247:Generated_Source\PSoC4/UART_SPI_UART.c ****     *   The amount of data bits to be transmitted depends on TX data bits selection 
 248:Generated_Source\PSoC4/UART_SPI_UART.c ****     *   (the data bit counting starts from LSB of txDataByte).
 249:Generated_Source\PSoC4/UART_SPI_UART.c ****     *
 250:Generated_Source\PSoC4/UART_SPI_UART.c ****     * \globalvars
 251:Generated_Source\PSoC4/UART_SPI_UART.c ****     *  UART_txBufferHead - the start index to put data into the 
 252:Generated_Source\PSoC4/UART_SPI_UART.c ****     *  software transmit buffer.
 253:Generated_Source\PSoC4/UART_SPI_UART.c ****     *  UART_txBufferTail - start index to get data from the software
 254:Generated_Source\PSoC4/UART_SPI_UART.c ****     *  transmit buffer.
 255:Generated_Source\PSoC4/UART_SPI_UART.c ****     *
 256:Generated_Source\PSoC4/UART_SPI_UART.c ****     *******************************************************************************/
 257:Generated_Source\PSoC4/UART_SPI_UART.c ****     void UART_SpiUartWriteTxData(uint32 txData)
 258:Generated_Source\PSoC4/UART_SPI_UART.c ****     {
ARM GAS  C:\Users\JOSEAN~1\AppData\Local\Temp\ccwkzyVq.s 			page 6


  28              		.loc 1 258 0
  29              		.cfi_startproc
  30              		@ args = 0, pretend = 0, frame = 8
  31              		@ frame_needed = 1, uses_anonymous_args = 0
  32 0000 80B5     		push	{r7, lr}
  33              		.cfi_def_cfa_offset 8
  34              		.cfi_offset 7, -8
  35              		.cfi_offset 14, -4
  36 0002 82B0     		sub	sp, sp, #8
  37              		.cfi_def_cfa_offset 16
  38 0004 00AF     		add	r7, sp, #0
  39              		.cfi_def_cfa_register 7
  40 0006 7860     		str	r0, [r7, #4]
 259:Generated_Source\PSoC4/UART_SPI_UART.c ****     #if (UART_INTERNAL_TX_SW_BUFFER_CONST)
 260:Generated_Source\PSoC4/UART_SPI_UART.c ****         uint32 locHead;
 261:Generated_Source\PSoC4/UART_SPI_UART.c ****     #endif /* (UART_INTERNAL_TX_SW_BUFFER_CONST) */
 262:Generated_Source\PSoC4/UART_SPI_UART.c **** 
 263:Generated_Source\PSoC4/UART_SPI_UART.c ****         #if (UART_CHECK_TX_SW_BUFFER)
 264:Generated_Source\PSoC4/UART_SPI_UART.c ****         {
 265:Generated_Source\PSoC4/UART_SPI_UART.c ****             /* Put data directly into the TX FIFO */
 266:Generated_Source\PSoC4/UART_SPI_UART.c ****             if ((UART_txBufferHead == UART_txBufferTail) &&
 267:Generated_Source\PSoC4/UART_SPI_UART.c ****                 (UART_SPI_UART_FIFO_SIZE != UART_GET_TX_FIFO_ENTRIES))
 268:Generated_Source\PSoC4/UART_SPI_UART.c ****             {
 269:Generated_Source\PSoC4/UART_SPI_UART.c ****                 /* TX software buffer is empty: put data directly in TX FIFO */
 270:Generated_Source\PSoC4/UART_SPI_UART.c ****                 UART_TX_FIFO_WR_REG = txData;
 271:Generated_Source\PSoC4/UART_SPI_UART.c ****             }
 272:Generated_Source\PSoC4/UART_SPI_UART.c ****             /* Put data into TX software buffer */
 273:Generated_Source\PSoC4/UART_SPI_UART.c ****             else
 274:Generated_Source\PSoC4/UART_SPI_UART.c ****             {
 275:Generated_Source\PSoC4/UART_SPI_UART.c ****                 /* Head index to put data */
 276:Generated_Source\PSoC4/UART_SPI_UART.c ****                 locHead = (UART_txBufferHead + 1u);
 277:Generated_Source\PSoC4/UART_SPI_UART.c **** 
 278:Generated_Source\PSoC4/UART_SPI_UART.c ****                 /* Adjust TX software buffer index */
 279:Generated_Source\PSoC4/UART_SPI_UART.c ****                 if (UART_TX_BUFFER_SIZE == locHead)
 280:Generated_Source\PSoC4/UART_SPI_UART.c ****                 {
 281:Generated_Source\PSoC4/UART_SPI_UART.c ****                     locHead = 0u;
 282:Generated_Source\PSoC4/UART_SPI_UART.c ****                 }
 283:Generated_Source\PSoC4/UART_SPI_UART.c **** 
 284:Generated_Source\PSoC4/UART_SPI_UART.c ****                 /* Wait for space in TX software buffer */
 285:Generated_Source\PSoC4/UART_SPI_UART.c ****                 while (locHead == UART_txBufferTail)
 286:Generated_Source\PSoC4/UART_SPI_UART.c ****                 {
 287:Generated_Source\PSoC4/UART_SPI_UART.c ****                 }
 288:Generated_Source\PSoC4/UART_SPI_UART.c **** 
 289:Generated_Source\PSoC4/UART_SPI_UART.c ****                 /* TX software buffer has at least one room */
 290:Generated_Source\PSoC4/UART_SPI_UART.c **** 
 291:Generated_Source\PSoC4/UART_SPI_UART.c ****                 /* Clear old status of INTR_TX_NOT_FULL. It sets at the end of transfer when TX FIF
 292:Generated_Source\PSoC4/UART_SPI_UART.c ****                 UART_ClearTxInterruptSource(UART_INTR_TX_NOT_FULL);
 293:Generated_Source\PSoC4/UART_SPI_UART.c **** 
 294:Generated_Source\PSoC4/UART_SPI_UART.c ****                 UART_PutWordInTxBuffer(locHead, txData);
 295:Generated_Source\PSoC4/UART_SPI_UART.c **** 
 296:Generated_Source\PSoC4/UART_SPI_UART.c ****                 UART_txBufferHead = locHead;
 297:Generated_Source\PSoC4/UART_SPI_UART.c **** 
 298:Generated_Source\PSoC4/UART_SPI_UART.c ****                 /* Check if TX Not Full is disabled in interrupt */
 299:Generated_Source\PSoC4/UART_SPI_UART.c ****                 if (0u == (UART_INTR_TX_MASK_REG & UART_INTR_TX_NOT_FULL))
 300:Generated_Source\PSoC4/UART_SPI_UART.c ****                 {
 301:Generated_Source\PSoC4/UART_SPI_UART.c ****                     /* Enable TX Not Full interrupt source to transmit from software buffer */
 302:Generated_Source\PSoC4/UART_SPI_UART.c ****                     UART_INTR_TX_MASK_REG |= (uint32) UART_INTR_TX_NOT_FULL;
ARM GAS  C:\Users\JOSEAN~1\AppData\Local\Temp\ccwkzyVq.s 			page 7


 303:Generated_Source\PSoC4/UART_SPI_UART.c ****                 }
 304:Generated_Source\PSoC4/UART_SPI_UART.c ****             }
 305:Generated_Source\PSoC4/UART_SPI_UART.c ****         }
 306:Generated_Source\PSoC4/UART_SPI_UART.c ****         #else
 307:Generated_Source\PSoC4/UART_SPI_UART.c ****         {
 308:Generated_Source\PSoC4/UART_SPI_UART.c ****             /* Wait until TX FIFO has space to put data element */
 309:Generated_Source\PSoC4/UART_SPI_UART.c ****             while (UART_SPI_UART_FIFO_SIZE == UART_GET_TX_FIFO_ENTRIES)
  41              		.loc 1 309 0
  42 0008 C046     		nop
  43              	.L2:
  44              		.loc 1 309 0 is_stmt 0 discriminator 1
  45 000a 064B     		ldr	r3, .L3
  46 000c 1B68     		ldr	r3, [r3]
  47 000e 0F22     		movs	r2, #15
  48 0010 1340     		ands	r3, r2
  49 0012 082B     		cmp	r3, #8
  50 0014 F9D0     		beq	.L2
 310:Generated_Source\PSoC4/UART_SPI_UART.c ****             {
 311:Generated_Source\PSoC4/UART_SPI_UART.c ****             }
 312:Generated_Source\PSoC4/UART_SPI_UART.c **** 
 313:Generated_Source\PSoC4/UART_SPI_UART.c ****             UART_TX_FIFO_WR_REG = txData;
  51              		.loc 1 313 0 is_stmt 1
  52 0016 044B     		ldr	r3, .L3+4
  53 0018 7A68     		ldr	r2, [r7, #4]
  54 001a 1A60     		str	r2, [r3]
 314:Generated_Source\PSoC4/UART_SPI_UART.c ****         }
 315:Generated_Source\PSoC4/UART_SPI_UART.c ****         #endif
 316:Generated_Source\PSoC4/UART_SPI_UART.c ****     }
  55              		.loc 1 316 0
  56 001c C046     		nop
  57 001e BD46     		mov	sp, r7
  58 0020 02B0     		add	sp, sp, #8
  59              		@ sp needed
  60 0022 80BD     		pop	{r7, pc}
  61              	.L4:
  62              		.align	2
  63              	.L3:
  64 0024 08020740 		.word	1074201096
  65 0028 40020740 		.word	1074201152
  66              		.cfi_endproc
  67              	.LFE0:
  68              		.size	UART_SpiUartWriteTxData, .-UART_SpiUartWriteTxData
  69              		.section	.text.UART_SpiUartPutArray,"ax",%progbits
  70              		.align	2
  71              		.global	UART_SpiUartPutArray
  72              		.code	16
  73              		.thumb_func
  74              		.type	UART_SpiUartPutArray, %function
  75              	UART_SpiUartPutArray:
  76              	.LFB1:
 317:Generated_Source\PSoC4/UART_SPI_UART.c **** 
 318:Generated_Source\PSoC4/UART_SPI_UART.c **** 
 319:Generated_Source\PSoC4/UART_SPI_UART.c ****     /*******************************************************************************
 320:Generated_Source\PSoC4/UART_SPI_UART.c ****     * Function Name: UART_SpiUartPutArray
 321:Generated_Source\PSoC4/UART_SPI_UART.c ****     ****************************************************************************//**
 322:Generated_Source\PSoC4/UART_SPI_UART.c ****     *
 323:Generated_Source\PSoC4/UART_SPI_UART.c ****     *  Places an array of data into the transmit buffer to be sent.
ARM GAS  C:\Users\JOSEAN~1\AppData\Local\Temp\ccwkzyVq.s 			page 8


 324:Generated_Source\PSoC4/UART_SPI_UART.c ****     *  This function is blocking and waits until there is a space available to put
 325:Generated_Source\PSoC4/UART_SPI_UART.c ****     *  all the requested data in the transmit buffer. The array size can be greater
 326:Generated_Source\PSoC4/UART_SPI_UART.c ****     *  than transmit buffer size.
 327:Generated_Source\PSoC4/UART_SPI_UART.c ****     *
 328:Generated_Source\PSoC4/UART_SPI_UART.c ****     * \param wrBuf: pointer to an array of data to be placed in transmit buffer. 
 329:Generated_Source\PSoC4/UART_SPI_UART.c ****     *  The width of the data to be transmitted depends on TX data width selection 
 330:Generated_Source\PSoC4/UART_SPI_UART.c ****     *  (the data bit counting starts from LSB for each array element).
 331:Generated_Source\PSoC4/UART_SPI_UART.c ****     * \param count: number of data elements to be placed in the transmit buffer.
 332:Generated_Source\PSoC4/UART_SPI_UART.c ****     *
 333:Generated_Source\PSoC4/UART_SPI_UART.c ****     * \globalvars
 334:Generated_Source\PSoC4/UART_SPI_UART.c ****     *  UART_txBufferHead - the start index to put data into the 
 335:Generated_Source\PSoC4/UART_SPI_UART.c ****     *  software transmit buffer.
 336:Generated_Source\PSoC4/UART_SPI_UART.c ****     *  UART_txBufferTail - start index to get data from the software
 337:Generated_Source\PSoC4/UART_SPI_UART.c ****     *  transmit buffer.
 338:Generated_Source\PSoC4/UART_SPI_UART.c ****     *
 339:Generated_Source\PSoC4/UART_SPI_UART.c ****     *******************************************************************************/
 340:Generated_Source\PSoC4/UART_SPI_UART.c ****     void UART_SpiUartPutArray(const uint8 wrBuf[], uint32 count)
 341:Generated_Source\PSoC4/UART_SPI_UART.c ****     {
  77              		.loc 1 341 0
  78              		.cfi_startproc
  79              		@ args = 0, pretend = 0, frame = 16
  80              		@ frame_needed = 1, uses_anonymous_args = 0
  81 0000 80B5     		push	{r7, lr}
  82              		.cfi_def_cfa_offset 8
  83              		.cfi_offset 7, -8
  84              		.cfi_offset 14, -4
  85 0002 84B0     		sub	sp, sp, #16
  86              		.cfi_def_cfa_offset 24
  87 0004 00AF     		add	r7, sp, #0
  88              		.cfi_def_cfa_register 7
  89 0006 7860     		str	r0, [r7, #4]
  90 0008 3960     		str	r1, [r7]
 342:Generated_Source\PSoC4/UART_SPI_UART.c ****         uint32 i;
 343:Generated_Source\PSoC4/UART_SPI_UART.c **** 
 344:Generated_Source\PSoC4/UART_SPI_UART.c ****         for (i=0u; i < count; i++)
  91              		.loc 1 344 0
  92 000a 0023     		movs	r3, #0
  93 000c FB60     		str	r3, [r7, #12]
  94 000e 09E0     		b	.L6
  95              	.L7:
 345:Generated_Source\PSoC4/UART_SPI_UART.c ****         {
 346:Generated_Source\PSoC4/UART_SPI_UART.c ****             UART_SpiUartWriteTxData((uint32) wrBuf[i]);
  96              		.loc 1 346 0 discriminator 3
  97 0010 7A68     		ldr	r2, [r7, #4]
  98 0012 FB68     		ldr	r3, [r7, #12]
  99 0014 D318     		adds	r3, r2, r3
 100 0016 1B78     		ldrb	r3, [r3]
 101 0018 1800     		movs	r0, r3
 102 001a FFF7FEFF 		bl	UART_SpiUartWriteTxData
 344:Generated_Source\PSoC4/UART_SPI_UART.c ****         {
 103              		.loc 1 344 0 discriminator 3
 104 001e FB68     		ldr	r3, [r7, #12]
 105 0020 0133     		adds	r3, r3, #1
 106 0022 FB60     		str	r3, [r7, #12]
 107              	.L6:
 344:Generated_Source\PSoC4/UART_SPI_UART.c ****         {
 108              		.loc 1 344 0 is_stmt 0 discriminator 1
ARM GAS  C:\Users\JOSEAN~1\AppData\Local\Temp\ccwkzyVq.s 			page 9


 109 0024 FA68     		ldr	r2, [r7, #12]
 110 0026 3B68     		ldr	r3, [r7]
 111 0028 9A42     		cmp	r2, r3
 112 002a F1D3     		bcc	.L7
 347:Generated_Source\PSoC4/UART_SPI_UART.c ****         }
 348:Generated_Source\PSoC4/UART_SPI_UART.c ****     }
 113              		.loc 1 348 0 is_stmt 1
 114 002c C046     		nop
 115 002e BD46     		mov	sp, r7
 116 0030 04B0     		add	sp, sp, #16
 117              		@ sp needed
 118 0032 80BD     		pop	{r7, pc}
 119              		.cfi_endproc
 120              	.LFE1:
 121              		.size	UART_SpiUartPutArray, .-UART_SpiUartPutArray
 122              		.section	.text.UART_SpiUartGetTxBufferSize,"ax",%progbits
 123              		.align	2
 124              		.global	UART_SpiUartGetTxBufferSize
 125              		.code	16
 126              		.thumb_func
 127              		.type	UART_SpiUartGetTxBufferSize, %function
 128              	UART_SpiUartGetTxBufferSize:
 129              	.LFB2:
 349:Generated_Source\PSoC4/UART_SPI_UART.c **** 
 350:Generated_Source\PSoC4/UART_SPI_UART.c **** 
 351:Generated_Source\PSoC4/UART_SPI_UART.c ****     /*******************************************************************************
 352:Generated_Source\PSoC4/UART_SPI_UART.c ****     * Function Name: UART_SpiUartGetTxBufferSize
 353:Generated_Source\PSoC4/UART_SPI_UART.c ****     ****************************************************************************//**
 354:Generated_Source\PSoC4/UART_SPI_UART.c ****     *
 355:Generated_Source\PSoC4/UART_SPI_UART.c ****     *  Returns the number of elements currently in the transmit buffer.
 356:Generated_Source\PSoC4/UART_SPI_UART.c ****     *   - TX software buffer is disabled: returns the number of used entries in
 357:Generated_Source\PSoC4/UART_SPI_UART.c ****     *     TX FIFO.
 358:Generated_Source\PSoC4/UART_SPI_UART.c ****     *   - TX software buffer is enabled: returns the number of elements currently
 359:Generated_Source\PSoC4/UART_SPI_UART.c ****     *     used in the transmit buffer. This number does not include used entries in
 360:Generated_Source\PSoC4/UART_SPI_UART.c ****     *     the TX FIFO. The transmit buffer size is zero until the TX FIFO is
 361:Generated_Source\PSoC4/UART_SPI_UART.c ****     *     not full.
 362:Generated_Source\PSoC4/UART_SPI_UART.c ****     *
 363:Generated_Source\PSoC4/UART_SPI_UART.c ****     * \return
 364:Generated_Source\PSoC4/UART_SPI_UART.c ****     *  Number of data elements ready to transmit.
 365:Generated_Source\PSoC4/UART_SPI_UART.c ****     *
 366:Generated_Source\PSoC4/UART_SPI_UART.c ****     * \globalvars
 367:Generated_Source\PSoC4/UART_SPI_UART.c ****     *  UART_txBufferHead - the start index to put data into the 
 368:Generated_Source\PSoC4/UART_SPI_UART.c ****     *  software transmit buffer.
 369:Generated_Source\PSoC4/UART_SPI_UART.c ****     *  UART_txBufferTail - start index to get data from the software
 370:Generated_Source\PSoC4/UART_SPI_UART.c ****     *  transmit buffer.
 371:Generated_Source\PSoC4/UART_SPI_UART.c ****     *
 372:Generated_Source\PSoC4/UART_SPI_UART.c ****     *******************************************************************************/
 373:Generated_Source\PSoC4/UART_SPI_UART.c ****     uint32 UART_SpiUartGetTxBufferSize(void)
 374:Generated_Source\PSoC4/UART_SPI_UART.c ****     {
 130              		.loc 1 374 0
 131              		.cfi_startproc
 132              		@ args = 0, pretend = 0, frame = 8
 133              		@ frame_needed = 1, uses_anonymous_args = 0
 134 0000 80B5     		push	{r7, lr}
 135              		.cfi_def_cfa_offset 8
 136              		.cfi_offset 7, -8
 137              		.cfi_offset 14, -4
ARM GAS  C:\Users\JOSEAN~1\AppData\Local\Temp\ccwkzyVq.s 			page 10


 138 0002 82B0     		sub	sp, sp, #8
 139              		.cfi_def_cfa_offset 16
 140 0004 00AF     		add	r7, sp, #0
 141              		.cfi_def_cfa_register 7
 375:Generated_Source\PSoC4/UART_SPI_UART.c ****         uint32 size;
 376:Generated_Source\PSoC4/UART_SPI_UART.c ****     #if (UART_INTERNAL_TX_SW_BUFFER_CONST)
 377:Generated_Source\PSoC4/UART_SPI_UART.c ****         uint32 locTail;
 378:Generated_Source\PSoC4/UART_SPI_UART.c ****     #endif /* (UART_INTERNAL_TX_SW_BUFFER_CONST) */
 379:Generated_Source\PSoC4/UART_SPI_UART.c **** 
 380:Generated_Source\PSoC4/UART_SPI_UART.c ****         #if (UART_CHECK_TX_SW_BUFFER)
 381:Generated_Source\PSoC4/UART_SPI_UART.c ****         {
 382:Generated_Source\PSoC4/UART_SPI_UART.c ****             /* Get current Tail index */
 383:Generated_Source\PSoC4/UART_SPI_UART.c ****             locTail = UART_txBufferTail;
 384:Generated_Source\PSoC4/UART_SPI_UART.c **** 
 385:Generated_Source\PSoC4/UART_SPI_UART.c ****             if (UART_txBufferHead >= locTail)
 386:Generated_Source\PSoC4/UART_SPI_UART.c ****             {
 387:Generated_Source\PSoC4/UART_SPI_UART.c ****                 size = (UART_txBufferHead - locTail);
 388:Generated_Source\PSoC4/UART_SPI_UART.c ****             }
 389:Generated_Source\PSoC4/UART_SPI_UART.c ****             else
 390:Generated_Source\PSoC4/UART_SPI_UART.c ****             {
 391:Generated_Source\PSoC4/UART_SPI_UART.c ****                 size = (UART_txBufferHead + (UART_TX_BUFFER_SIZE - locTail));
 392:Generated_Source\PSoC4/UART_SPI_UART.c ****             }
 393:Generated_Source\PSoC4/UART_SPI_UART.c ****         }
 394:Generated_Source\PSoC4/UART_SPI_UART.c ****         #else
 395:Generated_Source\PSoC4/UART_SPI_UART.c ****         {
 396:Generated_Source\PSoC4/UART_SPI_UART.c ****             size = UART_GET_TX_FIFO_ENTRIES;
 142              		.loc 1 396 0
 143 0006 054B     		ldr	r3, .L10
 144 0008 1B68     		ldr	r3, [r3]
 145 000a 0F22     		movs	r2, #15
 146 000c 1340     		ands	r3, r2
 147 000e 7B60     		str	r3, [r7, #4]
 397:Generated_Source\PSoC4/UART_SPI_UART.c ****         }
 398:Generated_Source\PSoC4/UART_SPI_UART.c ****         #endif
 399:Generated_Source\PSoC4/UART_SPI_UART.c **** 
 400:Generated_Source\PSoC4/UART_SPI_UART.c ****         return (size);
 148              		.loc 1 400 0
 149 0010 7B68     		ldr	r3, [r7, #4]
 401:Generated_Source\PSoC4/UART_SPI_UART.c ****     }
 150              		.loc 1 401 0
 151 0012 1800     		movs	r0, r3
 152 0014 BD46     		mov	sp, r7
 153 0016 02B0     		add	sp, sp, #8
 154              		@ sp needed
 155 0018 80BD     		pop	{r7, pc}
 156              	.L11:
 157 001a C046     		.align	2
 158              	.L10:
 159 001c 08020740 		.word	1074201096
 160              		.cfi_endproc
 161              	.LFE2:
 162              		.size	UART_SpiUartGetTxBufferSize, .-UART_SpiUartGetTxBufferSize
 163              		.section	.text.UART_SpiUartClearTxBuffer,"ax",%progbits
 164              		.align	2
 165              		.global	UART_SpiUartClearTxBuffer
 166              		.code	16
 167              		.thumb_func
ARM GAS  C:\Users\JOSEAN~1\AppData\Local\Temp\ccwkzyVq.s 			page 11


 168              		.type	UART_SpiUartClearTxBuffer, %function
 169              	UART_SpiUartClearTxBuffer:
 170              	.LFB3:
 402:Generated_Source\PSoC4/UART_SPI_UART.c **** 
 403:Generated_Source\PSoC4/UART_SPI_UART.c **** 
 404:Generated_Source\PSoC4/UART_SPI_UART.c ****     /*******************************************************************************
 405:Generated_Source\PSoC4/UART_SPI_UART.c ****     * Function Name: UART_SpiUartClearTxBuffer
 406:Generated_Source\PSoC4/UART_SPI_UART.c ****     ****************************************************************************//**
 407:Generated_Source\PSoC4/UART_SPI_UART.c ****     *
 408:Generated_Source\PSoC4/UART_SPI_UART.c ****     *  Clears the transmit buffer and TX FIFO.
 409:Generated_Source\PSoC4/UART_SPI_UART.c ****     *
 410:Generated_Source\PSoC4/UART_SPI_UART.c ****     * \globalvars
 411:Generated_Source\PSoC4/UART_SPI_UART.c ****     *  UART_txBufferHead - the start index to put data into the 
 412:Generated_Source\PSoC4/UART_SPI_UART.c ****     *  software transmit buffer.
 413:Generated_Source\PSoC4/UART_SPI_UART.c ****     *  UART_txBufferTail - start index to get data from the software
 414:Generated_Source\PSoC4/UART_SPI_UART.c ****     *  transmit buffer.
 415:Generated_Source\PSoC4/UART_SPI_UART.c ****     *
 416:Generated_Source\PSoC4/UART_SPI_UART.c ****     *******************************************************************************/
 417:Generated_Source\PSoC4/UART_SPI_UART.c ****     void UART_SpiUartClearTxBuffer(void)
 418:Generated_Source\PSoC4/UART_SPI_UART.c ****     {
 171              		.loc 1 418 0
 172              		.cfi_startproc
 173              		@ args = 0, pretend = 0, frame = 0
 174              		@ frame_needed = 1, uses_anonymous_args = 0
 175 0000 80B5     		push	{r7, lr}
 176              		.cfi_def_cfa_offset 8
 177              		.cfi_offset 7, -8
 178              		.cfi_offset 14, -4
 179 0002 00AF     		add	r7, sp, #0
 180              		.cfi_def_cfa_register 7
 419:Generated_Source\PSoC4/UART_SPI_UART.c ****         #if (UART_CHECK_TX_SW_BUFFER)
 420:Generated_Source\PSoC4/UART_SPI_UART.c ****         {
 421:Generated_Source\PSoC4/UART_SPI_UART.c ****             /* Lock from component interruption */
 422:Generated_Source\PSoC4/UART_SPI_UART.c ****             UART_DisableInt();
 423:Generated_Source\PSoC4/UART_SPI_UART.c **** 
 424:Generated_Source\PSoC4/UART_SPI_UART.c ****             /* Flush TX software buffer */
 425:Generated_Source\PSoC4/UART_SPI_UART.c ****             UART_txBufferHead = UART_txBufferTail;
 426:Generated_Source\PSoC4/UART_SPI_UART.c **** 
 427:Generated_Source\PSoC4/UART_SPI_UART.c ****             UART_INTR_TX_MASK_REG &= (uint32) ~UART_INTR_TX_NOT_FULL;
 428:Generated_Source\PSoC4/UART_SPI_UART.c ****             UART_CLEAR_TX_FIFO;
 429:Generated_Source\PSoC4/UART_SPI_UART.c ****             UART_ClearTxInterruptSource(UART_INTR_TX_ALL);
 430:Generated_Source\PSoC4/UART_SPI_UART.c **** 
 431:Generated_Source\PSoC4/UART_SPI_UART.c ****             /* Release lock */
 432:Generated_Source\PSoC4/UART_SPI_UART.c ****             UART_EnableInt();
 433:Generated_Source\PSoC4/UART_SPI_UART.c ****         }
 434:Generated_Source\PSoC4/UART_SPI_UART.c ****         #else
 435:Generated_Source\PSoC4/UART_SPI_UART.c ****         {
 436:Generated_Source\PSoC4/UART_SPI_UART.c ****             UART_CLEAR_TX_FIFO;
 181              		.loc 1 436 0
 182 0004 074B     		ldr	r3, .L13
 183 0006 074A     		ldr	r2, .L13
 184 0008 1268     		ldr	r2, [r2]
 185 000a 8021     		movs	r1, #128
 186 000c 4902     		lsls	r1, r1, #9
 187 000e 0A43     		orrs	r2, r1
 188 0010 1A60     		str	r2, [r3]
 189 0012 044B     		ldr	r3, .L13
ARM GAS  C:\Users\JOSEAN~1\AppData\Local\Temp\ccwkzyVq.s 			page 12


 190 0014 034A     		ldr	r2, .L13
 191 0016 1268     		ldr	r2, [r2]
 192 0018 0349     		ldr	r1, .L13+4
 193 001a 0A40     		ands	r2, r1
 194 001c 1A60     		str	r2, [r3]
 437:Generated_Source\PSoC4/UART_SPI_UART.c ****         }
 438:Generated_Source\PSoC4/UART_SPI_UART.c ****         #endif
 439:Generated_Source\PSoC4/UART_SPI_UART.c ****     }
 195              		.loc 1 439 0
 196 001e C046     		nop
 197 0020 BD46     		mov	sp, r7
 198              		@ sp needed
 199 0022 80BD     		pop	{r7, pc}
 200              	.L14:
 201              		.align	2
 202              	.L13:
 203 0024 04020740 		.word	1074201092
 204 0028 FFFFFEFF 		.word	-65537
 205              		.cfi_endproc
 206              	.LFE3:
 207              		.size	UART_SpiUartClearTxBuffer, .-UART_SpiUartClearTxBuffer
 208              		.section	.text.UART_SpiUartDisableIntRx,"ax",%progbits
 209              		.align	2
 210              		.global	UART_SpiUartDisableIntRx
 211              		.code	16
 212              		.thumb_func
 213              		.type	UART_SpiUartDisableIntRx, %function
 214              	UART_SpiUartDisableIntRx:
 215              	.LFB4:
 440:Generated_Source\PSoC4/UART_SPI_UART.c **** 
 441:Generated_Source\PSoC4/UART_SPI_UART.c **** #endif /* (UART_TX_DIRECTION) */
 442:Generated_Source\PSoC4/UART_SPI_UART.c **** 
 443:Generated_Source\PSoC4/UART_SPI_UART.c **** 
 444:Generated_Source\PSoC4/UART_SPI_UART.c **** /*******************************************************************************
 445:Generated_Source\PSoC4/UART_SPI_UART.c **** * Function Name: UART_SpiUartDisableIntRx
 446:Generated_Source\PSoC4/UART_SPI_UART.c **** ****************************************************************************//**
 447:Generated_Source\PSoC4/UART_SPI_UART.c **** *
 448:Generated_Source\PSoC4/UART_SPI_UART.c **** *  Disables the RX interrupt sources.
 449:Generated_Source\PSoC4/UART_SPI_UART.c **** *
 450:Generated_Source\PSoC4/UART_SPI_UART.c **** *  \return
 451:Generated_Source\PSoC4/UART_SPI_UART.c **** *   Returns the RX interrupt sources enabled before the function call.
 452:Generated_Source\PSoC4/UART_SPI_UART.c **** *
 453:Generated_Source\PSoC4/UART_SPI_UART.c **** *******************************************************************************/
 454:Generated_Source\PSoC4/UART_SPI_UART.c **** uint32 UART_SpiUartDisableIntRx(void)
 455:Generated_Source\PSoC4/UART_SPI_UART.c **** {
 216              		.loc 1 455 0
 217              		.cfi_startproc
 218              		@ args = 0, pretend = 0, frame = 8
 219              		@ frame_needed = 1, uses_anonymous_args = 0
 220 0000 80B5     		push	{r7, lr}
 221              		.cfi_def_cfa_offset 8
 222              		.cfi_offset 7, -8
 223              		.cfi_offset 14, -4
 224 0002 82B0     		sub	sp, sp, #8
 225              		.cfi_def_cfa_offset 16
 226 0004 00AF     		add	r7, sp, #0
 227              		.cfi_def_cfa_register 7
ARM GAS  C:\Users\JOSEAN~1\AppData\Local\Temp\ccwkzyVq.s 			page 13


 456:Generated_Source\PSoC4/UART_SPI_UART.c ****     uint32 intSource;
 457:Generated_Source\PSoC4/UART_SPI_UART.c **** 
 458:Generated_Source\PSoC4/UART_SPI_UART.c ****     intSource = UART_GetRxInterruptMode();
 228              		.loc 1 458 0
 229 0006 054B     		ldr	r3, .L17
 230 0008 1B68     		ldr	r3, [r3]
 231 000a 7B60     		str	r3, [r7, #4]
 459:Generated_Source\PSoC4/UART_SPI_UART.c **** 
 460:Generated_Source\PSoC4/UART_SPI_UART.c ****     UART_SetRxInterruptMode(UART_NO_INTR_SOURCES);
 232              		.loc 1 460 0
 233 000c 034B     		ldr	r3, .L17
 234 000e 0022     		movs	r2, #0
 235 0010 1A60     		str	r2, [r3]
 461:Generated_Source\PSoC4/UART_SPI_UART.c **** 
 462:Generated_Source\PSoC4/UART_SPI_UART.c ****     return (intSource);
 236              		.loc 1 462 0
 237 0012 7B68     		ldr	r3, [r7, #4]
 463:Generated_Source\PSoC4/UART_SPI_UART.c **** }
 238              		.loc 1 463 0
 239 0014 1800     		movs	r0, r3
 240 0016 BD46     		mov	sp, r7
 241 0018 02B0     		add	sp, sp, #8
 242              		@ sp needed
 243 001a 80BD     		pop	{r7, pc}
 244              	.L18:
 245              		.align	2
 246              	.L17:
 247 001c C80F0740 		.word	1074204616
 248              		.cfi_endproc
 249              	.LFE4:
 250              		.size	UART_SpiUartDisableIntRx, .-UART_SpiUartDisableIntRx
 251              		.section	.text.UART_SpiUartDisableIntTx,"ax",%progbits
 252              		.align	2
 253              		.global	UART_SpiUartDisableIntTx
 254              		.code	16
 255              		.thumb_func
 256              		.type	UART_SpiUartDisableIntTx, %function
 257              	UART_SpiUartDisableIntTx:
 258              	.LFB5:
 464:Generated_Source\PSoC4/UART_SPI_UART.c **** 
 465:Generated_Source\PSoC4/UART_SPI_UART.c **** 
 466:Generated_Source\PSoC4/UART_SPI_UART.c **** /*******************************************************************************
 467:Generated_Source\PSoC4/UART_SPI_UART.c **** * Function Name: UART_SpiUartDisableIntTx
 468:Generated_Source\PSoC4/UART_SPI_UART.c **** ****************************************************************************//**
 469:Generated_Source\PSoC4/UART_SPI_UART.c **** *
 470:Generated_Source\PSoC4/UART_SPI_UART.c **** *  Disables TX interrupt sources.
 471:Generated_Source\PSoC4/UART_SPI_UART.c **** *
 472:Generated_Source\PSoC4/UART_SPI_UART.c **** *  \return
 473:Generated_Source\PSoC4/UART_SPI_UART.c **** *   Returns TX interrupt sources enabled before function call.
 474:Generated_Source\PSoC4/UART_SPI_UART.c **** *
 475:Generated_Source\PSoC4/UART_SPI_UART.c **** *******************************************************************************/
 476:Generated_Source\PSoC4/UART_SPI_UART.c **** uint32 UART_SpiUartDisableIntTx(void)
 477:Generated_Source\PSoC4/UART_SPI_UART.c **** {
 259              		.loc 1 477 0
 260              		.cfi_startproc
 261              		@ args = 0, pretend = 0, frame = 8
 262              		@ frame_needed = 1, uses_anonymous_args = 0
ARM GAS  C:\Users\JOSEAN~1\AppData\Local\Temp\ccwkzyVq.s 			page 14


 263 0000 80B5     		push	{r7, lr}
 264              		.cfi_def_cfa_offset 8
 265              		.cfi_offset 7, -8
 266              		.cfi_offset 14, -4
 267 0002 82B0     		sub	sp, sp, #8
 268              		.cfi_def_cfa_offset 16
 269 0004 00AF     		add	r7, sp, #0
 270              		.cfi_def_cfa_register 7
 478:Generated_Source\PSoC4/UART_SPI_UART.c ****     uint32 intSourceMask;
 479:Generated_Source\PSoC4/UART_SPI_UART.c **** 
 480:Generated_Source\PSoC4/UART_SPI_UART.c ****     intSourceMask = UART_GetTxInterruptMode();
 271              		.loc 1 480 0
 272 0006 054B     		ldr	r3, .L21
 273 0008 1B68     		ldr	r3, [r3]
 274 000a 7B60     		str	r3, [r7, #4]
 481:Generated_Source\PSoC4/UART_SPI_UART.c **** 
 482:Generated_Source\PSoC4/UART_SPI_UART.c ****     UART_SetTxInterruptMode(UART_NO_INTR_SOURCES);
 275              		.loc 1 482 0
 276 000c 034B     		ldr	r3, .L21
 277 000e 0022     		movs	r2, #0
 278 0010 1A60     		str	r2, [r3]
 483:Generated_Source\PSoC4/UART_SPI_UART.c **** 
 484:Generated_Source\PSoC4/UART_SPI_UART.c ****     return (intSourceMask);
 279              		.loc 1 484 0
 280 0012 7B68     		ldr	r3, [r7, #4]
 485:Generated_Source\PSoC4/UART_SPI_UART.c **** }
 281              		.loc 1 485 0
 282 0014 1800     		movs	r0, r3
 283 0016 BD46     		mov	sp, r7
 284 0018 02B0     		add	sp, sp, #8
 285              		@ sp needed
 286 001a 80BD     		pop	{r7, pc}
 287              	.L22:
 288              		.align	2
 289              	.L21:
 290 001c 880F0740 		.word	1074204552
 291              		.cfi_endproc
 292              	.LFE5:
 293              		.size	UART_SpiUartDisableIntTx, .-UART_SpiUartDisableIntTx
 294              		.text
 295              	.Letext0:
 296              		.file 2 "Generated_Source\\PSoC4/cytypes.h"
 297              		.section	.debug_info,"",%progbits
 298              	.Ldebug_info0:
 299 0000 B3010000 		.4byte	0x1b3
 300 0004 0400     		.2byte	0x4
 301 0006 00000000 		.4byte	.Ldebug_abbrev0
 302 000a 04       		.byte	0x4
 303 000b 01       		.uleb128 0x1
 304 000c 88000000 		.4byte	.LASF28
 305 0010 0C       		.byte	0xc
 306 0011 7D020000 		.4byte	.LASF29
 307 0015 EB010000 		.4byte	.LASF30
 308 0019 00000000 		.4byte	.Ldebug_ranges0+0
 309 001d 00000000 		.4byte	0
 310 0021 00000000 		.4byte	.Ldebug_line0
 311 0025 02       		.uleb128 0x2
ARM GAS  C:\Users\JOSEAN~1\AppData\Local\Temp\ccwkzyVq.s 			page 15


 312 0026 01       		.byte	0x1
 313 0027 06       		.byte	0x6
 314 0028 BE020000 		.4byte	.LASF0
 315 002c 02       		.uleb128 0x2
 316 002d 01       		.byte	0x1
 317 002e 08       		.byte	0x8
 318 002f 1C010000 		.4byte	.LASF1
 319 0033 02       		.uleb128 0x2
 320 0034 02       		.byte	0x2
 321 0035 05       		.byte	0x5
 322 0036 E1010000 		.4byte	.LASF2
 323 003a 02       		.uleb128 0x2
 324 003b 02       		.byte	0x2
 325 003c 07       		.byte	0x7
 326 003d 13000000 		.4byte	.LASF3
 327 0041 02       		.uleb128 0x2
 328 0042 04       		.byte	0x4
 329 0043 05       		.byte	0x5
 330 0044 A4020000 		.4byte	.LASF4
 331 0048 02       		.uleb128 0x2
 332 0049 04       		.byte	0x4
 333 004a 07       		.byte	0x7
 334 004b 70000000 		.4byte	.LASF5
 335 004f 02       		.uleb128 0x2
 336 0050 08       		.byte	0x8
 337 0051 05       		.byte	0x5
 338 0052 9F010000 		.4byte	.LASF6
 339 0056 02       		.uleb128 0x2
 340 0057 08       		.byte	0x8
 341 0058 07       		.byte	0x7
 342 0059 7F010000 		.4byte	.LASF7
 343 005d 03       		.uleb128 0x3
 344 005e 04       		.byte	0x4
 345 005f 05       		.byte	0x5
 346 0060 696E7400 		.ascii	"int\000"
 347 0064 02       		.uleb128 0x2
 348 0065 04       		.byte	0x4
 349 0066 07       		.byte	0x7
 350 0067 26000000 		.4byte	.LASF8
 351 006b 04       		.uleb128 0x4
 352 006c 82000000 		.4byte	.LASF9
 353 0070 02       		.byte	0x2
 354 0071 E401     		.2byte	0x1e4
 355 0073 2C000000 		.4byte	0x2c
 356 0077 04       		.uleb128 0x4
 357 0078 31010000 		.4byte	.LASF10
 358 007c 02       		.byte	0x2
 359 007d E601     		.2byte	0x1e6
 360 007f 48000000 		.4byte	0x48
 361 0083 02       		.uleb128 0x2
 362 0084 04       		.byte	0x4
 363 0085 04       		.byte	0x4
 364 0086 4C000000 		.4byte	.LASF11
 365 008a 02       		.uleb128 0x2
 366 008b 08       		.byte	0x8
 367 008c 04       		.byte	0x4
 368 008d 2A010000 		.4byte	.LASF12
ARM GAS  C:\Users\JOSEAN~1\AppData\Local\Temp\ccwkzyVq.s 			page 16


 369 0091 02       		.uleb128 0x2
 370 0092 01       		.byte	0x1
 371 0093 08       		.byte	0x8
 372 0094 AD020000 		.4byte	.LASF13
 373 0098 04       		.uleb128 0x4
 374 0099 00000000 		.4byte	.LASF14
 375 009d 02       		.byte	0x2
 376 009e 9002     		.2byte	0x290
 377 00a0 A4000000 		.4byte	0xa4
 378 00a4 05       		.uleb128 0x5
 379 00a5 77000000 		.4byte	0x77
 380 00a9 02       		.uleb128 0x2
 381 00aa 08       		.byte	0x8
 382 00ab 04       		.byte	0x4
 383 00ac B2020000 		.4byte	.LASF15
 384 00b0 02       		.uleb128 0x2
 385 00b1 04       		.byte	0x4
 386 00b2 07       		.byte	0x7
 387 00b3 96010000 		.4byte	.LASF16
 388 00b7 06       		.uleb128 0x6
 389 00b8 AD010000 		.4byte	.LASF17
 390 00bc 01       		.byte	0x1
 391 00bd 0101     		.2byte	0x101
 392 00bf 00000000 		.4byte	.LFB0
 393 00c3 2C000000 		.4byte	.LFE0-.LFB0
 394 00c7 01       		.uleb128 0x1
 395 00c8 9C       		.byte	0x9c
 396 00c9 DD000000 		.4byte	0xdd
 397 00cd 07       		.uleb128 0x7
 398 00ce 0C000000 		.4byte	.LASF19
 399 00d2 01       		.byte	0x1
 400 00d3 0101     		.2byte	0x101
 401 00d5 77000000 		.4byte	0x77
 402 00d9 02       		.uleb128 0x2
 403 00da 91       		.byte	0x91
 404 00db 74       		.sleb128 -12
 405 00dc 00       		.byte	0
 406 00dd 08       		.uleb128 0x8
 407 00de 52010000 		.4byte	.LASF18
 408 00e2 01       		.byte	0x1
 409 00e3 5401     		.2byte	0x154
 410 00e5 00000000 		.4byte	.LFB1
 411 00e9 34000000 		.4byte	.LFE1-.LFB1
 412 00ed 01       		.uleb128 0x1
 413 00ee 9C       		.byte	0x9c
 414 00ef 1F010000 		.4byte	0x11f
 415 00f3 07       		.uleb128 0x7
 416 00f4 16010000 		.4byte	.LASF20
 417 00f8 01       		.byte	0x1
 418 00f9 5401     		.2byte	0x154
 419 00fb 1F010000 		.4byte	0x11f
 420 00ff 02       		.uleb128 0x2
 421 0100 91       		.byte	0x91
 422 0101 6C       		.sleb128 -20
 423 0102 07       		.uleb128 0x7
 424 0103 06000000 		.4byte	.LASF21
 425 0107 01       		.byte	0x1
ARM GAS  C:\Users\JOSEAN~1\AppData\Local\Temp\ccwkzyVq.s 			page 17


 426 0108 5401     		.2byte	0x154
 427 010a 77000000 		.4byte	0x77
 428 010e 02       		.uleb128 0x2
 429 010f 91       		.byte	0x91
 430 0110 68       		.sleb128 -24
 431 0111 09       		.uleb128 0x9
 432 0112 6900     		.ascii	"i\000"
 433 0114 01       		.byte	0x1
 434 0115 5601     		.2byte	0x156
 435 0117 77000000 		.4byte	0x77
 436 011b 02       		.uleb128 0x2
 437 011c 91       		.byte	0x91
 438 011d 74       		.sleb128 -12
 439 011e 00       		.byte	0
 440 011f 0A       		.uleb128 0xa
 441 0120 04       		.byte	0x4
 442 0121 25010000 		.4byte	0x125
 443 0125 0B       		.uleb128 0xb
 444 0126 6B000000 		.4byte	0x6b
 445 012a 0C       		.uleb128 0xc
 446 012b C5010000 		.4byte	.LASF23
 447 012f 01       		.byte	0x1
 448 0130 7501     		.2byte	0x175
 449 0132 77000000 		.4byte	0x77
 450 0136 00000000 		.4byte	.LFB2
 451 013a 20000000 		.4byte	.LFE2-.LFB2
 452 013e 01       		.uleb128 0x1
 453 013f 9C       		.byte	0x9c
 454 0140 54010000 		.4byte	0x154
 455 0144 0D       		.uleb128 0xd
 456 0145 6B000000 		.4byte	.LASF22
 457 0149 01       		.byte	0x1
 458 014a 7701     		.2byte	0x177
 459 014c 77000000 		.4byte	0x77
 460 0150 02       		.uleb128 0x2
 461 0151 91       		.byte	0x91
 462 0152 74       		.sleb128 -12
 463 0153 00       		.byte	0
 464 0154 0E       		.uleb128 0xe
 465 0155 38010000 		.4byte	.LASF31
 466 0159 01       		.byte	0x1
 467 015a A101     		.2byte	0x1a1
 468 015c 00000000 		.4byte	.LFB3
 469 0160 2C000000 		.4byte	.LFE3-.LFB3
 470 0164 01       		.uleb128 0x1
 471 0165 9C       		.byte	0x9c
 472 0166 0C       		.uleb128 0xc
 473 0167 33000000 		.4byte	.LASF24
 474 016b 01       		.byte	0x1
 475 016c C601     		.2byte	0x1c6
 476 016e 77000000 		.4byte	0x77
 477 0172 00000000 		.4byte	.LFB4
 478 0176 20000000 		.4byte	.LFE4-.LFB4
 479 017a 01       		.uleb128 0x1
 480 017b 9C       		.byte	0x9c
 481 017c 90010000 		.4byte	0x190
 482 0180 0D       		.uleb128 0xd
ARM GAS  C:\Users\JOSEAN~1\AppData\Local\Temp\ccwkzyVq.s 			page 18


 483 0181 75010000 		.4byte	.LASF25
 484 0185 01       		.byte	0x1
 485 0186 C801     		.2byte	0x1c8
 486 0188 77000000 		.4byte	0x77
 487 018c 02       		.uleb128 0x2
 488 018d 91       		.byte	0x91
 489 018e 74       		.sleb128 -12
 490 018f 00       		.byte	0
 491 0190 0F       		.uleb128 0xf
 492 0191 52000000 		.4byte	.LASF26
 493 0195 01       		.byte	0x1
 494 0196 DC01     		.2byte	0x1dc
 495 0198 77000000 		.4byte	0x77
 496 019c 00000000 		.4byte	.LFB5
 497 01a0 20000000 		.4byte	.LFE5-.LFB5
 498 01a4 01       		.uleb128 0x1
 499 01a5 9C       		.byte	0x9c
 500 01a6 0D       		.uleb128 0xd
 501 01a7 67010000 		.4byte	.LASF27
 502 01ab 01       		.byte	0x1
 503 01ac DE01     		.2byte	0x1de
 504 01ae 77000000 		.4byte	0x77
 505 01b2 02       		.uleb128 0x2
 506 01b3 91       		.byte	0x91
 507 01b4 74       		.sleb128 -12
 508 01b5 00       		.byte	0
 509 01b6 00       		.byte	0
 510              		.section	.debug_abbrev,"",%progbits
 511              	.Ldebug_abbrev0:
 512 0000 01       		.uleb128 0x1
 513 0001 11       		.uleb128 0x11
 514 0002 01       		.byte	0x1
 515 0003 25       		.uleb128 0x25
 516 0004 0E       		.uleb128 0xe
 517 0005 13       		.uleb128 0x13
 518 0006 0B       		.uleb128 0xb
 519 0007 03       		.uleb128 0x3
 520 0008 0E       		.uleb128 0xe
 521 0009 1B       		.uleb128 0x1b
 522 000a 0E       		.uleb128 0xe
 523 000b 55       		.uleb128 0x55
 524 000c 17       		.uleb128 0x17
 525 000d 11       		.uleb128 0x11
 526 000e 01       		.uleb128 0x1
 527 000f 10       		.uleb128 0x10
 528 0010 17       		.uleb128 0x17
 529 0011 00       		.byte	0
 530 0012 00       		.byte	0
 531 0013 02       		.uleb128 0x2
 532 0014 24       		.uleb128 0x24
 533 0015 00       		.byte	0
 534 0016 0B       		.uleb128 0xb
 535 0017 0B       		.uleb128 0xb
 536 0018 3E       		.uleb128 0x3e
 537 0019 0B       		.uleb128 0xb
 538 001a 03       		.uleb128 0x3
 539 001b 0E       		.uleb128 0xe
ARM GAS  C:\Users\JOSEAN~1\AppData\Local\Temp\ccwkzyVq.s 			page 19


 540 001c 00       		.byte	0
 541 001d 00       		.byte	0
 542 001e 03       		.uleb128 0x3
 543 001f 24       		.uleb128 0x24
 544 0020 00       		.byte	0
 545 0021 0B       		.uleb128 0xb
 546 0022 0B       		.uleb128 0xb
 547 0023 3E       		.uleb128 0x3e
 548 0024 0B       		.uleb128 0xb
 549 0025 03       		.uleb128 0x3
 550 0026 08       		.uleb128 0x8
 551 0027 00       		.byte	0
 552 0028 00       		.byte	0
 553 0029 04       		.uleb128 0x4
 554 002a 16       		.uleb128 0x16
 555 002b 00       		.byte	0
 556 002c 03       		.uleb128 0x3
 557 002d 0E       		.uleb128 0xe
 558 002e 3A       		.uleb128 0x3a
 559 002f 0B       		.uleb128 0xb
 560 0030 3B       		.uleb128 0x3b
 561 0031 05       		.uleb128 0x5
 562 0032 49       		.uleb128 0x49
 563 0033 13       		.uleb128 0x13
 564 0034 00       		.byte	0
 565 0035 00       		.byte	0
 566 0036 05       		.uleb128 0x5
 567 0037 35       		.uleb128 0x35
 568 0038 00       		.byte	0
 569 0039 49       		.uleb128 0x49
 570 003a 13       		.uleb128 0x13
 571 003b 00       		.byte	0
 572 003c 00       		.byte	0
 573 003d 06       		.uleb128 0x6
 574 003e 2E       		.uleb128 0x2e
 575 003f 01       		.byte	0x1
 576 0040 3F       		.uleb128 0x3f
 577 0041 19       		.uleb128 0x19
 578 0042 03       		.uleb128 0x3
 579 0043 0E       		.uleb128 0xe
 580 0044 3A       		.uleb128 0x3a
 581 0045 0B       		.uleb128 0xb
 582 0046 3B       		.uleb128 0x3b
 583 0047 05       		.uleb128 0x5
 584 0048 27       		.uleb128 0x27
 585 0049 19       		.uleb128 0x19
 586 004a 11       		.uleb128 0x11
 587 004b 01       		.uleb128 0x1
 588 004c 12       		.uleb128 0x12
 589 004d 06       		.uleb128 0x6
 590 004e 40       		.uleb128 0x40
 591 004f 18       		.uleb128 0x18
 592 0050 9742     		.uleb128 0x2117
 593 0052 19       		.uleb128 0x19
 594 0053 01       		.uleb128 0x1
 595 0054 13       		.uleb128 0x13
 596 0055 00       		.byte	0
ARM GAS  C:\Users\JOSEAN~1\AppData\Local\Temp\ccwkzyVq.s 			page 20


 597 0056 00       		.byte	0
 598 0057 07       		.uleb128 0x7
 599 0058 05       		.uleb128 0x5
 600 0059 00       		.byte	0
 601 005a 03       		.uleb128 0x3
 602 005b 0E       		.uleb128 0xe
 603 005c 3A       		.uleb128 0x3a
 604 005d 0B       		.uleb128 0xb
 605 005e 3B       		.uleb128 0x3b
 606 005f 05       		.uleb128 0x5
 607 0060 49       		.uleb128 0x49
 608 0061 13       		.uleb128 0x13
 609 0062 02       		.uleb128 0x2
 610 0063 18       		.uleb128 0x18
 611 0064 00       		.byte	0
 612 0065 00       		.byte	0
 613 0066 08       		.uleb128 0x8
 614 0067 2E       		.uleb128 0x2e
 615 0068 01       		.byte	0x1
 616 0069 3F       		.uleb128 0x3f
 617 006a 19       		.uleb128 0x19
 618 006b 03       		.uleb128 0x3
 619 006c 0E       		.uleb128 0xe
 620 006d 3A       		.uleb128 0x3a
 621 006e 0B       		.uleb128 0xb
 622 006f 3B       		.uleb128 0x3b
 623 0070 05       		.uleb128 0x5
 624 0071 27       		.uleb128 0x27
 625 0072 19       		.uleb128 0x19
 626 0073 11       		.uleb128 0x11
 627 0074 01       		.uleb128 0x1
 628 0075 12       		.uleb128 0x12
 629 0076 06       		.uleb128 0x6
 630 0077 40       		.uleb128 0x40
 631 0078 18       		.uleb128 0x18
 632 0079 9642     		.uleb128 0x2116
 633 007b 19       		.uleb128 0x19
 634 007c 01       		.uleb128 0x1
 635 007d 13       		.uleb128 0x13
 636 007e 00       		.byte	0
 637 007f 00       		.byte	0
 638 0080 09       		.uleb128 0x9
 639 0081 34       		.uleb128 0x34
 640 0082 00       		.byte	0
 641 0083 03       		.uleb128 0x3
 642 0084 08       		.uleb128 0x8
 643 0085 3A       		.uleb128 0x3a
 644 0086 0B       		.uleb128 0xb
 645 0087 3B       		.uleb128 0x3b
 646 0088 05       		.uleb128 0x5
 647 0089 49       		.uleb128 0x49
 648 008a 13       		.uleb128 0x13
 649 008b 02       		.uleb128 0x2
 650 008c 18       		.uleb128 0x18
 651 008d 00       		.byte	0
 652 008e 00       		.byte	0
 653 008f 0A       		.uleb128 0xa
ARM GAS  C:\Users\JOSEAN~1\AppData\Local\Temp\ccwkzyVq.s 			page 21


 654 0090 0F       		.uleb128 0xf
 655 0091 00       		.byte	0
 656 0092 0B       		.uleb128 0xb
 657 0093 0B       		.uleb128 0xb
 658 0094 49       		.uleb128 0x49
 659 0095 13       		.uleb128 0x13
 660 0096 00       		.byte	0
 661 0097 00       		.byte	0
 662 0098 0B       		.uleb128 0xb
 663 0099 26       		.uleb128 0x26
 664 009a 00       		.byte	0
 665 009b 49       		.uleb128 0x49
 666 009c 13       		.uleb128 0x13
 667 009d 00       		.byte	0
 668 009e 00       		.byte	0
 669 009f 0C       		.uleb128 0xc
 670 00a0 2E       		.uleb128 0x2e
 671 00a1 01       		.byte	0x1
 672 00a2 3F       		.uleb128 0x3f
 673 00a3 19       		.uleb128 0x19
 674 00a4 03       		.uleb128 0x3
 675 00a5 0E       		.uleb128 0xe
 676 00a6 3A       		.uleb128 0x3a
 677 00a7 0B       		.uleb128 0xb
 678 00a8 3B       		.uleb128 0x3b
 679 00a9 05       		.uleb128 0x5
 680 00aa 27       		.uleb128 0x27
 681 00ab 19       		.uleb128 0x19
 682 00ac 49       		.uleb128 0x49
 683 00ad 13       		.uleb128 0x13
 684 00ae 11       		.uleb128 0x11
 685 00af 01       		.uleb128 0x1
 686 00b0 12       		.uleb128 0x12
 687 00b1 06       		.uleb128 0x6
 688 00b2 40       		.uleb128 0x40
 689 00b3 18       		.uleb128 0x18
 690 00b4 9742     		.uleb128 0x2117
 691 00b6 19       		.uleb128 0x19
 692 00b7 01       		.uleb128 0x1
 693 00b8 13       		.uleb128 0x13
 694 00b9 00       		.byte	0
 695 00ba 00       		.byte	0
 696 00bb 0D       		.uleb128 0xd
 697 00bc 34       		.uleb128 0x34
 698 00bd 00       		.byte	0
 699 00be 03       		.uleb128 0x3
 700 00bf 0E       		.uleb128 0xe
 701 00c0 3A       		.uleb128 0x3a
 702 00c1 0B       		.uleb128 0xb
 703 00c2 3B       		.uleb128 0x3b
 704 00c3 05       		.uleb128 0x5
 705 00c4 49       		.uleb128 0x49
 706 00c5 13       		.uleb128 0x13
 707 00c6 02       		.uleb128 0x2
 708 00c7 18       		.uleb128 0x18
 709 00c8 00       		.byte	0
 710 00c9 00       		.byte	0
ARM GAS  C:\Users\JOSEAN~1\AppData\Local\Temp\ccwkzyVq.s 			page 22


 711 00ca 0E       		.uleb128 0xe
 712 00cb 2E       		.uleb128 0x2e
 713 00cc 00       		.byte	0
 714 00cd 3F       		.uleb128 0x3f
 715 00ce 19       		.uleb128 0x19
 716 00cf 03       		.uleb128 0x3
 717 00d0 0E       		.uleb128 0xe
 718 00d1 3A       		.uleb128 0x3a
 719 00d2 0B       		.uleb128 0xb
 720 00d3 3B       		.uleb128 0x3b
 721 00d4 05       		.uleb128 0x5
 722 00d5 27       		.uleb128 0x27
 723 00d6 19       		.uleb128 0x19
 724 00d7 11       		.uleb128 0x11
 725 00d8 01       		.uleb128 0x1
 726 00d9 12       		.uleb128 0x12
 727 00da 06       		.uleb128 0x6
 728 00db 40       		.uleb128 0x40
 729 00dc 18       		.uleb128 0x18
 730 00dd 9742     		.uleb128 0x2117
 731 00df 19       		.uleb128 0x19
 732 00e0 00       		.byte	0
 733 00e1 00       		.byte	0
 734 00e2 0F       		.uleb128 0xf
 735 00e3 2E       		.uleb128 0x2e
 736 00e4 01       		.byte	0x1
 737 00e5 3F       		.uleb128 0x3f
 738 00e6 19       		.uleb128 0x19
 739 00e7 03       		.uleb128 0x3
 740 00e8 0E       		.uleb128 0xe
 741 00e9 3A       		.uleb128 0x3a
 742 00ea 0B       		.uleb128 0xb
 743 00eb 3B       		.uleb128 0x3b
 744 00ec 05       		.uleb128 0x5
 745 00ed 27       		.uleb128 0x27
 746 00ee 19       		.uleb128 0x19
 747 00ef 49       		.uleb128 0x49
 748 00f0 13       		.uleb128 0x13
 749 00f1 11       		.uleb128 0x11
 750 00f2 01       		.uleb128 0x1
 751 00f3 12       		.uleb128 0x12
 752 00f4 06       		.uleb128 0x6
 753 00f5 40       		.uleb128 0x40
 754 00f6 18       		.uleb128 0x18
 755 00f7 9742     		.uleb128 0x2117
 756 00f9 19       		.uleb128 0x19
 757 00fa 00       		.byte	0
 758 00fb 00       		.byte	0
 759 00fc 00       		.byte	0
 760              		.section	.debug_aranges,"",%progbits
 761 0000 44000000 		.4byte	0x44
 762 0004 0200     		.2byte	0x2
 763 0006 00000000 		.4byte	.Ldebug_info0
 764 000a 04       		.byte	0x4
 765 000b 00       		.byte	0
 766 000c 0000     		.2byte	0
 767 000e 0000     		.2byte	0
ARM GAS  C:\Users\JOSEAN~1\AppData\Local\Temp\ccwkzyVq.s 			page 23


 768 0010 00000000 		.4byte	.LFB0
 769 0014 2C000000 		.4byte	.LFE0-.LFB0
 770 0018 00000000 		.4byte	.LFB1
 771 001c 34000000 		.4byte	.LFE1-.LFB1
 772 0020 00000000 		.4byte	.LFB2
 773 0024 20000000 		.4byte	.LFE2-.LFB2
 774 0028 00000000 		.4byte	.LFB3
 775 002c 2C000000 		.4byte	.LFE3-.LFB3
 776 0030 00000000 		.4byte	.LFB4
 777 0034 20000000 		.4byte	.LFE4-.LFB4
 778 0038 00000000 		.4byte	.LFB5
 779 003c 20000000 		.4byte	.LFE5-.LFB5
 780 0040 00000000 		.4byte	0
 781 0044 00000000 		.4byte	0
 782              		.section	.debug_ranges,"",%progbits
 783              	.Ldebug_ranges0:
 784 0000 00000000 		.4byte	.LFB0
 785 0004 2C000000 		.4byte	.LFE0
 786 0008 00000000 		.4byte	.LFB1
 787 000c 34000000 		.4byte	.LFE1
 788 0010 00000000 		.4byte	.LFB2
 789 0014 20000000 		.4byte	.LFE2
 790 0018 00000000 		.4byte	.LFB3
 791 001c 2C000000 		.4byte	.LFE3
 792 0020 00000000 		.4byte	.LFB4
 793 0024 20000000 		.4byte	.LFE4
 794 0028 00000000 		.4byte	.LFB5
 795 002c 20000000 		.4byte	.LFE5
 796 0030 00000000 		.4byte	0
 797 0034 00000000 		.4byte	0
 798              		.section	.debug_line,"",%progbits
 799              	.Ldebug_line0:
 800 0000 E0000000 		.section	.debug_str,"MS",%progbits,1
 800      02004A00 
 800      00000201 
 800      FB0E0D00 
 800      01010101 
 801              	.LASF14:
 802 0000 72656733 		.ascii	"reg32\000"
 802      3200
 803              	.LASF21:
 804 0006 636F756E 		.ascii	"count\000"
 804      7400
 805              	.LASF19:
 806 000c 74784461 		.ascii	"txData\000"
 806      746100
 807              	.LASF3:
 808 0013 73686F72 		.ascii	"short unsigned int\000"
 808      7420756E 
 808      7369676E 
 808      65642069 
 808      6E7400
 809              	.LASF8:
 810 0026 756E7369 		.ascii	"unsigned int\000"
 810      676E6564 
 810      20696E74 
 810      00
ARM GAS  C:\Users\JOSEAN~1\AppData\Local\Temp\ccwkzyVq.s 			page 24


 811              	.LASF24:
 812 0033 55415254 		.ascii	"UART_SpiUartDisableIntRx\000"
 812      5F537069 
 812      55617274 
 812      44697361 
 812      626C6549 
 813              	.LASF11:
 814 004c 666C6F61 		.ascii	"float\000"
 814      7400
 815              	.LASF26:
 816 0052 55415254 		.ascii	"UART_SpiUartDisableIntTx\000"
 816      5F537069 
 816      55617274 
 816      44697361 
 816      626C6549 
 817              	.LASF22:
 818 006b 73697A65 		.ascii	"size\000"
 818      00
 819              	.LASF5:
 820 0070 6C6F6E67 		.ascii	"long unsigned int\000"
 820      20756E73 
 820      69676E65 
 820      6420696E 
 820      7400
 821              	.LASF9:
 822 0082 75696E74 		.ascii	"uint8\000"
 822      3800
 823              	.LASF28:
 824 0088 474E5520 		.ascii	"GNU C11 5.4.1 20160609 (release) [ARM/embedded-5-br"
 824      43313120 
 824      352E342E 
 824      31203230 
 824      31363036 
 825 00bb 616E6368 		.ascii	"anch revision 237715] -mcpu=cortex-m0 -mthumb -g -O"
 825      20726576 
 825      6973696F 
 825      6E203233 
 825      37373135 
 826 00ee 30202D66 		.ascii	"0 -ffunction-sections -ffat-lto-objects\000"
 826      66756E63 
 826      74696F6E 
 826      2D736563 
 826      74696F6E 
 827              	.LASF20:
 828 0116 77724275 		.ascii	"wrBuf\000"
 828      6600
 829              	.LASF1:
 830 011c 756E7369 		.ascii	"unsigned char\000"
 830      676E6564 
 830      20636861 
 830      7200
 831              	.LASF12:
 832 012a 646F7562 		.ascii	"double\000"
 832      6C6500
 833              	.LASF10:
 834 0131 75696E74 		.ascii	"uint32\000"
 834      333200
ARM GAS  C:\Users\JOSEAN~1\AppData\Local\Temp\ccwkzyVq.s 			page 25


 835              	.LASF31:
 836 0138 55415254 		.ascii	"UART_SpiUartClearTxBuffer\000"
 836      5F537069 
 836      55617274 
 836      436C6561 
 836      72547842 
 837              	.LASF18:
 838 0152 55415254 		.ascii	"UART_SpiUartPutArray\000"
 838      5F537069 
 838      55617274 
 838      50757441 
 838      72726179 
 839              	.LASF27:
 840 0167 696E7453 		.ascii	"intSourceMask\000"
 840      6F757263 
 840      654D6173 
 840      6B00
 841              	.LASF25:
 842 0175 696E7453 		.ascii	"intSource\000"
 842      6F757263 
 842      6500
 843              	.LASF7:
 844 017f 6C6F6E67 		.ascii	"long long unsigned int\000"
 844      206C6F6E 
 844      6720756E 
 844      7369676E 
 844      65642069 
 845              	.LASF16:
 846 0196 73697A65 		.ascii	"sizetype\000"
 846      74797065 
 846      00
 847              	.LASF6:
 848 019f 6C6F6E67 		.ascii	"long long int\000"
 848      206C6F6E 
 848      6720696E 
 848      7400
 849              	.LASF17:
 850 01ad 55415254 		.ascii	"UART_SpiUartWriteTxData\000"
 850      5F537069 
 850      55617274 
 850      57726974 
 850      65547844 
 851              	.LASF23:
 852 01c5 55415254 		.ascii	"UART_SpiUartGetTxBufferSize\000"
 852      5F537069 
 852      55617274 
 852      47657454 
 852      78427566 
 853              	.LASF2:
 854 01e1 73686F72 		.ascii	"short int\000"
 854      7420696E 
 854      7400
 855              	.LASF30:
 856 01eb 443A5C44 		.ascii	"D:\\Documentos\\UNIVERSIDAD\\TFG\\Application Notes"
 856      6F63756D 
 856      656E746F 
 856      735C554E 
ARM GAS  C:\Users\JOSEAN~1\AppData\Local\Temp\ccwkzyVq.s 			page 26


 856      49564552 
 857 021a 20792050 		.ascii	" y Proyectos\\AN88619_HardwareConsiderations\\ADC_S"
 857      726F7965 
 857      63746F73 
 857      5C414E38 
 857      38363139 
 858 024b 41525C50 		.ascii	"AR\\PSoC4_ADC_with_Differential_PreAmplifier.cydsn\000"
 858      536F4334 
 858      5F414443 
 858      5F776974 
 858      685F4469 
 859              	.LASF29:
 860 027d 47656E65 		.ascii	"Generated_Source\\PSoC4\\UART_SPI_UART.c\000"
 860      72617465 
 860      645F536F 
 860      75726365 
 860      5C50536F 
 861              	.LASF4:
 862 02a4 6C6F6E67 		.ascii	"long int\000"
 862      20696E74 
 862      00
 863              	.LASF13:
 864 02ad 63686172 		.ascii	"char\000"
 864      00
 865              	.LASF15:
 866 02b2 6C6F6E67 		.ascii	"long double\000"
 866      20646F75 
 866      626C6500 
 867              	.LASF0:
 868 02be 7369676E 		.ascii	"signed char\000"
 868      65642063 
 868      68617200 
 869              		.ident	"GCC: (GNU Tools for ARM Embedded Processors) 5.4.1 20160609 (release) [ARM/embedded-5-bran
