===========Generating Bitstream===========
# IDMUX (count=6)
00000000: 00 00 00 00 00 00
# IOPORT_0 (count=7)
00000006: 00 00 00 00 00 00 00
# IOPINS0_0 (count=16)
0000000d: 00 00 00 00 00 00 00 00 00 00 00 00 00 00 00 00

# IOPORT_1 (count=7)
0000001d: 00 00 00 00 00 00 00
# IOPINS0_1 (count=8)
00000024: 00 0b 0b 00 00 00 00 00
# IOPINS1_1 + 0x00000009 (count=5)
0000002c: 00 00 00 00 00
# PICU_1 (count=8)
00000031: 00 00 00 00 00 00 00 00
# IOPORT_2 (count=7)
00000039: 00 00 00 00 00 00 00
# IOPINS0_2 (count=10)
00000040: 04 00 00 04 00 00 00 00 00 00
# IOPINS1_2 + 0x0000000B (count=5)
0000004a: 00 00 00 00 00
# PICU_2 (count=8)
0000004f: 00 00 00 00 00 00 00 00
# IOPORT_3 (count=7)
00000057: 08 08 00 00 00 00 00
# IOPINS0_3 (count=8)
0000005e: 00 08 08 00 08 00 00 00
# IOPINS1_3 + 0x00000009 (count=5)
00000066: 00 00 00 00 00
# PICU_3 (count=8)
0000006b: 00 00 00 00 00 00 00 00
# IOPORT_4 (count=7)
00000073: 00 00 00 00 00 00 00
# IOPINS0_4 (count=16)
0000007a: 00 00 00 00 00 00 00 00 00 00 00 00 00 00 00 00

# IOPORT_5 (count=7)
0000008a: 00 00 00 00 00 00 00
# IOPINS0_5 (count=16)
00000091: 00 00 00 00 00 00 00 00 00 00 00 00 00 00 00 00

# IOPORT_6 (count=7)
000000a1: 00 00 00 00 00 00 00
# IOPINS0_6 (count=16)
000000a8: 00 00 00 00 00 00 00 00 00 00 00 00 00 00 00 00

# IOPORT_7 (count=6)
000000b8: 00 80 00 00 40 00
# IOPINS0_7 (count=10)
000000be: 80 00 40 80 80 00 80 00 00 00
# IOPINS1_7 + 0x0000000B (count=5)
000000c8: 00 00 00 00 00
# PICU_7 (count=8)
000000cd: 00 00 00 00 00 00 00 00
# IOPORT_8 (count=7)
000000d5: 00 00 00 00 00 00 00
# IOPINS0_8 (count=16)
000000dc: 00 00 00 00 00 00 00 00 00 00 00 00 00 00 00 00

# IDMUX_IRQ (count=8)
000000ec: 03 00 00 00 00 00 00 00
# CYDEV_CLKDIST_DCFG0_CFG0 (count=3)
000000f4: 38 01 18
# CYDEV_SLOWCLK_ILO_CR0 (count=1)
000000f7: 02
# CYDEV_CLKDIST_CR (count=1)
000000f8: 08
# CYDEV_FASTCLK_IMO_CR (count=1)
000000f9: 03
# CYDEV_FASTCLK_PLL_P (count=2)
000000fa: 08 00
# CYDEV_FASTCLK_PLL_CFG0 (count=2)
000000fc: 51 12
# CYDEV_CLKDIST_MSTR0 (count=2)
000000fe: 00 01
# CYDEV_CLKDIST_MSTR0 (count=1)
00000100: 07
# CYDEV_CLKDIST_BCFG0 (count=1)
00000101: 00
# CYDEV_CLKDIST_BCFG2 (count=1)
00000102: 48
# CYDEV_CLKDIST_MSTR0 (count=1)
00000103: 00
# CYDEV_CLKDIST_LD (count=1)
00000104: 02
# CYDEV_PM_ACT_CFG2 (count=1)
00000105: 01
# UDB_1_5_0_CONFIG (count=128)
00000106: 00 00 00 00 00 00 00 00 00 00 00 00 00 00 00 00
00000116: 00 00 00 00 00 00 00 00 00 00 00 00 00 00 00 00
00000126: 00 00 00 00 00 00 00 00 00 00 00 00 00 00 00 00
00000136: 00 00 00 00 00 00 00 00 00 00 00 00 00 00 00 00
00000146: 00 00 00 00 00 00 00 00 00 00 00 00 00 00 00 00
00000156: 00 00 00 00 00 00 00 00 00 00 00 00 00 00 00 00
00000166: 00 00 00 00 00 00 00 00 00 00 00 00 00 00 00 00
00000176: 00 00 00 00 00 00 00 00 00 00 00 00 00 00 00 00

# UDB_1_5_1_CONFIG (count=128)
00000186: 00 00 00 00 00 00 00 00 00 00 00 00 00 00 00 00
00000196: 00 00 00 00 00 00 00 00 00 00 00 00 00 00 00 00
000001a6: 00 00 00 00 00 00 00 00 00 00 00 00 00 00 00 00
000001b6: 00 00 00 00 00 00 00 00 00 00 00 00 00 00 00 00
000001c6: 00 00 00 00 00 00 00 00 00 00 00 00 00 00 00 00
000001d6: 00 00 00 00 00 00 00 00 00 00 00 00 00 00 00 00
000001e6: 00 00 00 00 00 00 00 00 00 00 00 00 00 00 00 00
000001f6: 00 00 00 00 00 00 00 00 00 00 00 00 00 00 00 00

# UDB_1_4_1_CONFIG (count=128)
00000206: 00 00 00 00 00 00 00 00 00 00 00 00 00 00 00 00
00000216: 00 00 00 00 00 00 00 00 00 00 00 00 00 00 00 00
00000226: 00 00 00 00 00 00 00 00 00 00 00 00 00 00 00 00
00000236: 00 00 00 00 00 00 00 00 00 00 00 00 00 00 00 00
00000246: 00 00 00 00 00 00 00 00 00 00 00 00 00 00 00 00
00000256: 00 00 00 00 00 00 00 00 00 00 00 00 00 00 00 00
00000266: 00 00 00 00 00 00 00 00 00 00 00 00 00 00 00 00
00000276: 00 00 00 00 00 00 00 00 00 00 00 00 00 00 00 00

# UDB_1_4_0_CONFIG (count=128)
00000286: 00 00 00 00 00 00 00 00 00 00 00 00 00 00 00 00
00000296: 00 00 00 00 00 00 00 00 00 00 00 00 00 00 00 00
000002a6: 00 00 00 00 00 00 00 00 00 00 00 00 00 00 00 00
000002b6: 00 00 00 00 00 00 00 00 00 00 00 00 00 00 00 00
000002c6: 00 00 00 00 00 00 00 00 00 00 00 00 00 00 00 00
000002d6: 00 00 00 00 00 00 00 00 00 00 00 00 00 00 00 00
000002e6: 00 00 00 00 00 00 00 00 00 00 00 00 00 00 00 00
000002f6: 00 00 00 00 00 00 00 00 00 00 00 00 00 00 00 00

# UDB_1_3_0_CONFIG (count=128)
00000306: 00 00 00 00 00 00 00 00 00 00 00 00 00 00 00 00
00000316: 00 00 00 00 00 00 00 00 00 00 00 00 00 00 00 00
00000326: 00 00 00 00 00 00 00 00 00 00 00 00 00 00 00 00
00000336: 00 00 00 00 00 00 00 00 00 00 00 00 00 00 00 00
00000346: 00 00 00 00 00 00 00 00 00 00 00 00 00 00 00 00
00000356: 00 00 00 00 00 00 00 00 00 00 00 00 00 00 00 00
00000366: 00 00 00 00 00 00 00 00 00 00 00 00 00 00 00 00
00000376: 00 00 00 00 00 00 00 00 00 00 00 00 00 00 00 00

# UDB_1_3_1_CONFIG (count=128)
00000386: 00 00 00 00 00 00 00 00 00 00 00 00 00 00 00 00
00000396: 00 00 00 00 00 00 00 00 00 00 00 00 00 00 00 00
000003a6: 00 00 00 00 00 00 00 00 00 00 00 00 00 00 00 00
000003b6: 00 00 00 00 00 00 00 00 00 00 00 00 00 00 00 00
000003c6: 00 00 00 00 00 00 00 00 00 00 00 00 00 00 00 00
000003d6: 00 00 00 00 00 00 00 00 00 00 00 00 00 00 00 00
000003e6: 00 00 00 00 00 00 00 00 00 00 00 00 00 00 00 00
000003f6: 00 00 00 00 00 00 00 00 00 00 00 00 00 00 00 00

# UDB_1_2_1_CONFIG (count=128)
00000406: 00 00 00 00 00 00 00 00 00 00 00 00 00 00 00 00
00000416: 00 00 00 00 00 00 00 00 00 00 00 00 00 00 00 00
00000426: 00 00 00 00 00 00 00 00 00 00 00 00 00 00 00 00
00000436: 00 00 00 00 00 00 00 00 00 00 00 00 00 00 00 00
00000446: 00 00 00 00 00 00 00 00 00 00 00 00 00 00 00 00
00000456: 00 00 00 00 00 00 00 00 00 00 00 00 00 00 00 00
00000466: 00 00 00 00 00 00 00 00 00 00 00 00 00 00 00 00
00000476: 00 00 00 00 00 00 00 00 00 00 00 00 00 00 00 00

# UDB_1_2_0_CONFIG (count=128)
00000486: 00 00 00 00 00 00 00 00 00 00 00 00 00 00 00 00
00000496: 00 00 00 00 00 00 00 00 00 00 00 00 00 00 00 00
000004a6: 00 00 00 00 00 00 00 00 00 00 00 00 00 00 00 00
000004b6: 00 00 00 00 00 00 00 00 00 00 00 00 00 00 00 00
000004c6: 00 00 00 00 00 00 00 00 00 00 00 00 00 00 00 00
000004d6: 00 00 00 00 00 00 00 00 00 00 00 00 00 00 00 00
000004e6: 00 00 00 00 00 00 00 00 00 00 00 00 00 00 00 00
000004f6: 00 00 00 00 00 00 00 00 00 00 00 00 00 00 00 00

# UDB_0_2_1_CONFIG (count=128)
00000506: 00 00 00 00 08 00 01 00 00 00 00 00 02 00 04 00
00000516: 07 00 00 00 07 00 00 00 00 00 00 00 00 00 00 00
00000526: 00 00 00 00 00 00 00 00 00 00 00 00 00 00 00 00
00000536: 00 00 00 00 03 00 0c 00 a0 00 00 00 00 00 10 00
00000546: 00 00 00 00 00 00 00 00 00 00 00 00 00 00 00 00
00000556: 00 00 00 00 00 00 00 00 04 00 00 00 00 00 00 01
00000566: 00 00 00 00 00 00 00 00 00 00 00 00 00 00 00 00
00000576: 00 00 00 00 00 00 00 00 00 00 00 00 00 00 00 00

# UDB_0_2_0_CONFIG (count=128)
00000586: b8 00 05 00 00 06 40 00 00 02 06 00 bf 07 00 00
00000596: 00 06 40 01 8f 01 30 06 08 00 00 08 00 04 08 00
000005a6: 20 06 00 01 10 00 00 00 30 00 00 01 b8 00 03 08
000005b6: 80 07 01 00 3e 08 40 00 08 00 20 02 00 00 41 10
000005c6: 23 04 05 00 01 00 ce 00 0c ff ff ff 62 a0 f0 41
000005d6: 0c 00 00 00 00 00 02 13 04 04 04 04 00 00 00 01
000005e6: 00 00 00 00 00 00 40 02 00 10 30 10 00 10 10 12
000005f6: 00 00 00 00 00 00 00 00 00 00 00 00 00 00 00 00

# UDB_0_3_0_CONFIG (count=128)
00000606: 00 00 00 00 00 00 00 00 00 00 00 00 00 00 00 00
00000616: 00 00 00 00 00 00 00 00 00 00 00 00 00 00 00 00
00000626: 00 00 00 00 00 00 00 00 00 00 00 00 00 00 00 00
00000636: 00 00 00 00 00 00 00 00 00 00 00 00 00 00 00 00
00000646: 00 00 00 00 00 00 00 00 00 00 00 00 00 00 00 00
00000656: 00 00 00 00 00 00 00 00 00 00 00 00 00 00 00 00
00000666: 00 00 00 00 00 00 00 00 00 00 00 00 00 00 00 00
00000676: 00 00 00 00 00 00 00 00 00 00 00 00 00 00 00 00

# UDB_0_3_1_CONFIG (count=128)
00000686: 00 00 00 00 00 00 00 00 00 00 00 00 00 00 00 00
00000696: 00 00 00 00 00 00 00 00 00 00 00 00 00 00 00 00
000006a6: 00 00 00 00 00 00 00 00 00 00 00 00 00 00 00 00
000006b6: 00 00 00 00 00 00 00 00 00 00 00 00 00 00 00 00
000006c6: 00 00 00 00 00 00 00 00 00 00 00 00 00 00 00 00
000006d6: 00 00 00 00 00 00 00 00 00 00 00 00 00 00 00 00
000006e6: 00 00 00 00 00 00 00 00 00 00 00 00 00 00 00 00
000006f6: 00 00 00 00 00 00 00 00 00 00 00 00 00 00 00 00

# UDB_0_4_1_CONFIG (count=128)
00000706: 00 00 00 00 00 00 00 00 00 00 00 00 00 00 00 00
00000716: 00 00 00 00 00 00 00 00 00 00 00 00 00 00 00 00
00000726: 00 00 00 00 00 00 00 00 00 00 00 00 00 00 00 00
00000736: 00 00 00 00 00 00 00 00 00 00 00 00 00 00 00 00
00000746: 00 00 00 00 00 00 00 00 00 00 00 00 00 00 00 00
00000756: 00 00 00 00 00 00 00 00 00 00 00 00 00 00 00 00
00000766: 00 00 00 00 00 00 00 00 00 00 00 00 00 00 00 00
00000776: 00 00 00 00 00 00 00 00 00 00 00 00 00 00 00 00

# UDB_0_4_0_CONFIG (count=128)
00000786: 00 00 00 00 00 00 00 00 00 00 00 00 00 00 00 00
00000796: 00 00 00 00 00 00 00 00 00 00 00 00 00 00 00 00
000007a6: 00 00 00 00 00 00 00 00 00 00 00 00 00 00 00 00
000007b6: 00 00 00 00 00 00 00 00 00 00 00 00 00 00 00 00
000007c6: 00 00 00 00 00 00 00 00 00 00 00 00 00 00 00 00
000007d6: 00 00 00 00 00 00 00 00 00 00 00 00 00 00 00 00
000007e6: 00 00 00 00 00 00 00 00 00 00 00 00 00 00 00 00
000007f6: 00 00 00 00 00 00 00 00 00 00 00 00 00 00 00 00

# UDB_0_5_0_CONFIG (count=128)
00000806: 00 00 00 00 00 00 00 00 00 00 00 00 00 00 00 00
00000816: 00 00 00 00 00 00 00 00 00 00 00 00 00 00 00 00
00000826: 00 00 00 00 00 00 00 00 00 00 00 00 00 00 00 00
00000836: 00 00 00 00 00 00 00 00 00 00 00 00 00 00 00 00
00000846: 00 00 00 00 00 00 00 00 00 00 00 00 00 00 00 00
00000856: 00 00 00 00 00 00 00 00 00 00 00 00 00 00 00 00
00000866: 00 00 00 00 00 00 00 00 00 00 00 00 00 00 00 00
00000876: 00 00 00 00 00 00 00 00 00 00 00 00 00 00 00 00

# UDB_0_5_1_CONFIG (count=128)
00000886: 00 00 00 00 00 00 00 00 00 00 00 00 00 00 00 00
00000896: 00 00 00 00 00 00 00 00 00 00 00 00 00 00 00 00
000008a6: 00 00 00 00 00 00 00 00 00 00 00 00 00 00 00 00
000008b6: 00 00 00 00 00 00 00 00 00 00 00 00 00 00 00 00
000008c6: 00 00 00 00 00 00 00 00 00 00 00 00 00 00 00 00
000008d6: 00 00 00 00 00 00 00 00 00 00 00 00 00 00 00 00
000008e6: 00 00 00 00 00 00 00 00 00 00 00 00 00 00 00 00
000008f6: 00 00 00 00 00 00 00 00 00 00 00 00 00 00 00 00

# UDB_1_0_0_CONFIG (count=128)
00000906: 00 00 00 00 00 00 00 00 00 00 00 00 00 00 00 00
00000916: 00 00 00 00 00 00 00 00 00 00 00 00 00 00 00 00
00000926: 00 00 00 00 00 00 00 00 00 00 00 00 00 00 00 00
00000936: 00 00 00 00 00 00 00 00 00 00 00 00 00 00 00 00
00000946: 00 00 00 00 00 00 00 00 00 00 00 00 00 00 00 00
00000956: 00 00 00 00 00 00 00 00 00 00 00 00 00 00 00 00
00000966: 00 00 00 00 00 00 00 00 00 00 00 00 00 00 00 00
00000976: 00 00 00 00 00 00 00 00 00 00 00 00 00 00 00 00

# UDB_1_0_1_CONFIG (count=128)
00000986: 00 00 00 00 00 00 00 00 00 00 00 00 00 00 00 00
00000996: 00 00 00 00 00 00 00 00 00 00 00 00 00 00 00 00
000009a6: 00 00 00 00 00 00 00 00 00 00 00 00 00 00 00 00
000009b6: 00 00 00 00 00 00 00 00 00 00 00 00 00 00 00 00
000009c6: 00 00 00 00 00 00 00 00 00 00 00 00 00 00 00 00
000009d6: 00 00 00 00 00 00 00 00 00 00 00 00 00 00 00 00
000009e6: 00 00 00 00 00 00 00 00 00 00 00 00 00 00 00 00
000009f6: 00 00 00 00 00 00 00 00 00 00 00 00 00 00 00 00

# UDB_1_1_1_CONFIG (count=128)
00000a06: 00 00 00 00 00 00 00 00 00 00 00 00 00 00 00 00
00000a16: 00 00 00 00 00 00 00 00 00 00 00 00 00 00 00 00
00000a26: 00 00 00 00 00 00 00 00 00 00 00 00 00 00 00 00
00000a36: 00 00 00 00 00 00 00 00 00 00 00 00 00 00 00 00
00000a46: 00 00 00 00 00 00 00 00 00 00 00 00 00 00 00 00
00000a56: 00 00 00 00 00 00 00 00 00 00 00 00 00 00 00 00
00000a66: 00 00 00 00 00 00 00 00 00 00 00 00 00 00 00 00
00000a76: 00 00 00 00 00 00 00 00 00 00 00 00 00 00 00 00

# UDB_1_1_0_CONFIG (count=128)
00000a86: 00 00 00 00 00 00 00 00 00 00 00 00 00 00 00 00
00000a96: 00 00 00 00 00 00 00 00 00 00 00 00 00 00 00 00
00000aa6: 00 00 00 00 00 00 00 00 00 00 00 00 00 00 00 00
00000ab6: 00 00 00 00 00 00 00 00 00 00 00 00 00 00 00 00
00000ac6: 00 00 00 00 00 00 00 00 00 00 00 00 00 00 00 00
00000ad6: 00 00 00 00 00 00 00 00 00 00 00 00 00 00 00 00
00000ae6: 00 00 00 00 00 00 00 00 00 00 00 00 00 00 00 00
00000af6: 00 00 00 00 00 00 00 00 00 00 00 00 00 00 00 00

# UDB_0_1_1_CONFIG (count=128)
00000b06: 00 00 00 18 00 00 00 00 00 03 00 0c 1c 03 02 1c
00000b16: 0c 18 11 07 10 00 0c 07 00 00 03 00 09 00 10 00
00000b26: 00 00 00 00 10 00 00 01 14 00 00 10 00 00 00 00
00000b36: 00 00 00 01 1f 00 00 1e 00 00 00 80 00 00 00 04
00000b46: 00 00 00 00 00 00 00 00 00 00 00 00 00 00 00 00
00000b56: 00 00 01 01 00 00 10 00 04 04 00 04 00 90 00 01
00000b66: 00 00 00 00 00 00 00 00 00 00 00 00 00 00 00 00
00000b76: 00 00 00 00 00 00 00 00 00 00 00 00 00 00 00 00

# UDB_0_1_0_CONFIG (count=128)
00000b86: 00 00 00 00 03 0c 04 00 00 04 20 00 40 0f 00 00
00000b96: 00 0f 00 00 00 00 15 03 03 03 1c 10 00 08 28 00
00000ba6: 2a 0c 14 03 40 01 00 20 40 02 00 20 03 03 34 0c
00000bb6: 38 00 40 0f 0f 00 00 30 00 00 22 0a 00 00 00 40
00000bc6: 00 00 00 00 00 00 00 00 00 00 00 00 00 00 00 00
00000bd6: 00 00 00 00 18 00 00 00 04 04 00 04 00 00 00 01
00000be6: 00 00 00 00 00 00 00 00 00 00 00 00 00 00 00 00
00000bf6: 00 00 00 00 00 00 00 00 00 00 00 00 00 00 00 00

# UDB_0_0_0_CONFIG (count=128)
00000c06: 2a 00 91 00 00 06 00 00 00 02 60 00 60 07 00 00
00000c16: 00 06 00 01 61 00 06 01 54 00 09 00 00 04 60 00
00000c26: 00 07 60 00 1f 00 00 00 1f 00 00 00 60 01 00 06
00000c36: 60 07 07 00 18 00 80 00 00 00 00 00 00 00 00 00
00000c46: 06 00 00 00 00 00 00 04 00 ff 07 ff 40 20 f0 05
00000c56: 08 00 00 00 00 00 00 00 04 04 04 00 00 00 00 01
00000c66: 40 a8 40 20 00 00 00 00 00 00 00 00 00 00 00 00
00000c76: 00 00 00 00 00 00 00 00 00 00 00 00 00 00 00 00

# UDB_0_0_1_CONFIG (count=128)
00000c86: 00 00 00 00 00 00 00 00 00 00 00 00 00 00 00 00
00000c96: 00 00 00 00 00 01 00 00 02 00 00 00 00 00 00 00
00000ca6: 00 01 00 00 00 00 00 00 01 00 00 00 00 00 00 00
00000cb6: 00 00 01 00 02 01 00 00 80 28 00 00 80 08 14 10
00000cc6: 62 05 00 00 00 ee c0 0b 1b ff ff ff 00 00 f0 44
00000cd6: 0c 00 00 00 01 00 00 00 24 04 04 04 88 00 00 31
00000ce6: 00 00 00 00 00 00 c0 00 00 00 40 02 00 00 00 00
00000cf6: 00 00 00 00 00 00 00 00 00 00 00 00 00 00 00 00

# UWRK_B0_WRK_DP_BITS (count=64)
00000d06: 00 00 00 00 00 00 00 00 00 00 00 00 00 00 00 00
00000d16: 00 00 00 00 00 00 00 00 00 00 00 00 00 00 00 00
00000d26: 00 00 00 00 00 00 00 00 00 00 00 00 00 00 00 00
00000d36: 00 00 00 00 00 00 00 00 00 00 00 00 00 00 00 00

# UWRK_B0_WRK_STATCTL_BITS + 0x00000070 (count=32)
00000d46: 00 00 00 00 00 00 00 00 00 00 00 00 00 00 00 00
00000d56: 00 00 00 00 00 00 00 00 00 72 00 00 00 00 00 00

# UWRK_B1_WRK_DP_BITS (count=64)
00000d66: 00 00 00 00 00 00 00 00 00 00 00 00 00 00 00 00
00000d76: 00 00 00 00 00 00 00 00 00 00 00 00 00 00 00 00
00000d86: 00 00 00 00 00 00 00 00 00 00 00 00 00 00 00 00
00000d96: 00 00 00 00 00 00 00 00 00 00 00 00 00 00 00 00

# UWRK_B1_WRK_STATCTL_BITS + 0x00000070 (count=32)
00000da6: 00 00 00 00 00 00 00 00 00 00 00 00 00 00 00 00
00000db6: 00 00 00 00 00 00 00 00 00 38 00 0f 00 00 00 00

# UCFG_BCTL1 (count=16)
00000dc6: 01 01 00 00 00 00 00 00 00 00 00 00 01 01 00 00

# UCFG_BCTL0 (count=16)
00000dd6: 01 00 00 00 00 00 00 00 00 00 00 00 01 00 00 00

# DSISWITCH_0_0 (count=128)
00000de6: 00 00 00 00 00 00 00 00 00 00 00 00 00 00 00 00
00000df6: 40 00 00 00 00 00 00 00 00 00 00 00 00 00 00 00
00000e06: 00 00 00 00 00 00 00 00 00 00 00 00 00 00 00 00
00000e16: 00 00 00 00 00 00 00 00 00 00 00 00 00 00 00 00
00000e26: 00 00 00 00 00 00 00 00 00 00 00 00 00 00 00 00
00000e36: 00 00 00 00 00 00 00 00 00 00 00 00 00 00 00 00
00000e46: 00 00 00 00 00 00 00 00 00 00 00 00 00 00 00 00
00000e56: 00 02 00 00 00 00 00 00 00 00 00 00 00 00 00 00

# DSI0_0_HV_ROUTING + 0x00000080 (count=128)
00000e66: 00 02 00 00 00 00 00 00 40 00 00 00 00 00 00 00
00000e76: 00 00 00 00 00 00 00 00 00 00 00 00 00 00 00 00
00000e86: 00 00 00 00 00 00 00 00 00 00 00 00 00 00 00 00
00000e96: 00 00 00 00 00 00 00 00 00 00 00 00 00 00 00 00
00000ea6: 00 00 00 00 08 00 00 00 00 00 00 00 00 00 00 00
00000eb6: 00 00 00 00 00 00 00 00 00 00 00 00 01 00 00 00
00000ec6: 00 00 01 00 00 00 00 00 00 00 00 00 00 00 00 00
00000ed6: 00 00 00 00 00 00 00 00 00 00 00 00 00 00 00 00

# DSISWITCH_0_1 (count=128)
00000ee6: 00 00 00 00 00 00 00 00 00 00 00 00 00 00 00 00
00000ef6: 00 00 00 00 00 00 00 00 00 00 00 00 00 00 00 00
00000f06: 00 00 00 00 00 00 00 00 00 00 00 00 00 00 00 00
00000f16: 00 00 00 00 00 00 00 00 00 00 00 00 00 00 00 00
00000f26: 00 00 00 00 00 00 00 00 00 00 00 00 00 00 00 00
00000f36: 00 00 00 00 00 00 00 00 00 00 00 00 00 00 00 00
00000f46: 00 00 00 00 00 00 00 00 00 00 00 00 00 00 00 00
00000f56: 00 00 00 00 00 00 00 00 00 00 00 00 00 00 00 00

# DSI0_1_HV_ROUTING + 0x00000080 (count=128)
00000f66: 00 00 00 00 00 00 00 00 00 00 00 00 00 00 00 00
00000f76: 00 00 00 00 00 00 00 00 00 00 00 00 00 00 00 00
00000f86: 00 00 00 00 00 00 00 00 00 00 00 00 00 00 00 00
00000f96: 00 20 00 00 00 00 00 00 00 00 00 00 00 00 00 00
00000fa6: 00 00 00 00 00 00 00 00 00 00 00 00 00 00 00 00
00000fb6: 00 00 00 00 00 00 00 00 00 00 00 00 00 00 00 00
00000fc6: 00 00 00 00 00 00 00 00 00 00 04 00 00 00 00 00
00000fd6: 00 00 00 00 00 00 00 00 00 00 00 00 00 00 00 00

# DSISWITCH_0_2 (count=128)
00000fe6: 00 00 00 00 00 00 00 00 00 00 00 00 00 00 00 00
00000ff6: 00 00 00 00 00 00 00 00 00 00 00 00 00 00 00 00
00001006: 00 00 00 00 00 00 00 00 00 00 00 00 00 00 00 00
00001016: 00 00 00 00 00 00 00 00 00 00 00 00 00 00 00 00
00001026: 00 00 00 00 00 00 00 00 00 00 00 00 00 00 00 00
00001036: 00 00 00 00 00 00 00 00 00 00 00 00 00 00 00 00
00001046: 00 00 00 00 00 00 00 00 00 00 00 00 00 00 00 00
00001056: 00 00 00 00 00 00 00 00 00 00 00 00 00 00 00 00

# DSI0_2_HV_ROUTING + 0x00000080 (count=128)
00001066: 00 00 00 00 00 00 00 00 00 00 00 00 00 00 00 00
00001076: 00 00 00 00 00 00 00 00 00 20 00 00 00 00 00 00
00001086: 00 00 00 00 00 00 00 00 00 00 00 00 00 00 00 00
00001096: 00 00 00 00 00 00 00 00 00 00 00 00 00 00 00 00
000010a6: 00 00 00 00 00 00 00 00 00 00 00 00 00 00 00 00
000010b6: 00 00 00 00 00 00 00 00 00 00 00 00 00 00 00 00
000010c6: 00 00 00 00 00 00 00 00 00 00 00 00 00 00 00 00
000010d6: 00 00 00 00 00 00 00 00 00 00 00 00 00 00 00 00

# DSISWITCH_0_3 (count=128)
000010e6: 00 00 00 00 00 00 00 00 00 00 00 00 00 00 00 00
000010f6: 00 00 00 00 00 00 00 00 00 00 00 00 00 00 00 00
00001106: 00 00 00 00 00 00 00 00 00 00 00 00 00 00 00 00
00001116: 00 00 00 00 00 00 00 00 00 00 00 00 00 00 00 00
00001126: 00 00 00 00 00 00 00 00 00 00 00 00 00 00 00 00
00001136: 00 00 00 00 00 00 00 00 00 00 00 00 00 00 00 00
00001146: 00 00 00 00 00 00 00 00 00 00 00 00 00 00 00 00
00001156: 00 00 00 00 00 00 00 00 00 00 00 00 00 00 00 00

# DSI0_3_HV_ROUTING + 0x00000080 (count=128)
00001166: 00 00 00 00 00 00 00 00 00 00 00 00 00 00 00 00
00001176: 00 00 00 00 00 00 00 00 00 20 00 00 00 00 00 00
00001186: 00 00 00 00 00 00 00 00 00 00 00 00 00 00 00 00
00001196: 00 00 00 00 00 00 00 00 00 00 00 00 00 00 00 00
000011a6: 00 00 00 00 00 00 00 00 00 00 00 00 00 00 00 00
000011b6: 00 00 00 00 00 00 00 00 00 00 00 00 00 00 00 00
000011c6: 00 00 00 00 00 00 00 00 00 00 00 00 00 00 00 00
000011d6: 00 00 00 00 00 00 00 00 00 00 00 00 00 00 00 00

# DSISWITCH_0_4 (count=128)
000011e6: 00 20 00 00 00 00 00 00 00 00 00 00 00 00 00 00
000011f6: 00 00 00 00 00 00 00 00 00 00 00 00 00 00 00 00
00001206: 00 00 00 00 00 00 00 00 00 00 00 00 00 00 00 00
00001216: 00 00 00 00 00 00 00 00 00 00 00 00 00 00 00 00
00001226: 00 00 00 00 00 00 00 00 00 00 00 00 00 00 00 00
00001236: 00 00 00 00 00 00 00 00 00 00 00 00 00 00 00 00
00001246: 00 00 00 00 00 00 00 00 00 00 00 00 00 00 00 00
00001256: 00 00 00 00 00 00 00 00 00 00 00 00 00 00 00 00

# DSI0_4_HV_ROUTING + 0x00000080 (count=128)
00001266: 00 00 00 00 00 00 00 00 00 00 00 00 00 00 00 00
00001276: 00 00 00 00 00 00 00 00 00 00 00 00 00 00 00 00
00001286: 00 00 00 00 00 00 00 00 00 00 00 00 00 00 00 00
00001296: 00 00 00 00 00 00 00 00 00 00 00 00 00 00 00 00
000012a6: 02 00 00 00 00 00 00 00 00 00 00 00 00 00 00 00
000012b6: 00 00 00 00 00 00 00 00 00 00 00 00 00 00 00 00
000012c6: 00 00 00 00 00 00 00 00 00 00 00 00 00 00 00 00
000012d6: 00 00 00 00 00 00 00 00 00 00 00 00 00 00 00 00

# DSISWITCH_0_5 (count=128)
000012e6: 00 00 00 00 00 00 00 00 00 00 00 00 00 00 00 00
000012f6: 00 00 00 00 00 00 00 00 00 00 00 00 00 00 00 00
00001306: 00 00 00 00 00 00 00 00 00 00 00 00 00 00 00 00
00001316: 00 00 00 00 00 00 00 00 00 00 00 00 00 00 00 00
00001326: 00 00 00 00 00 00 00 00 00 00 00 00 00 00 00 00
00001336: 00 00 00 00 00 00 00 00 00 00 00 00 00 00 00 00
00001346: 00 00 00 00 00 00 00 00 00 00 00 00 00 00 00 00
00001356: 00 00 00 00 00 00 00 00 00 00 00 00 00 00 00 00

# DSI0_5_HV_ROUTING + 0x00000080 (count=128)
00001366: 00 00 00 00 00 00 00 00 00 00 00 00 00 00 00 00
00001376: 00 00 00 00 00 00 00 00 00 00 00 00 00 00 00 00
00001386: 00 00 00 00 00 00 00 00 00 00 00 00 00 00 00 00
00001396: 00 00 00 00 00 00 00 00 00 00 00 00 00 00 00 00
000013a6: 00 00 00 00 00 00 00 00 00 00 00 00 00 00 00 00
000013b6: 00 00 00 00 00 00 00 00 00 00 00 00 00 00 00 00
000013c6: 00 00 00 00 00 00 00 00 00 00 00 00 00 00 00 00
000013d6: 00 00 00 00 00 00 00 00 00 00 00 00 00 00 00 00

# UDBSWITCH_0_0 (count=128)
000013e6: 42 00 00 08 00 00 00 00 00 00 26 00 00 00 00 08
000013f6: 49 04 00 00 00 20 00 00 00 21 25 00 00 00 18 80
00001406: 00 00 00 40 00 10 08 00 41 04 04 00 00 00 00 80
00001416: 80 00 01 08 00 00 08 00 68 00 00 00 00 00 00 00
00001426: 00 00 00 00 00 00 04 00 04 04 00 00 00 00 00 a9
00001436: 00 04 00 00 00 00 08 20 00 00 00 00 00 90 08 01
00001446: 00 00 00 00 00 00 00 00 00 00 00 00 00 00 00 00
00001456: 00 00 00 00 00 00 00 00 00 00 00 00 02 80 00 00

# UDB_1_0_HV_ROUTING + 0x00000080 (count=128)
00001466: 00 00 10 00 00 10 00 20 21 00 00 00 00 94 00 00
00001476: 68 24 02 00 00 08 21 40 43 00 00 00 20 25 08 00
00001486: 8c 44 00 58 00 00 00 20 00 00 00 00 00 00 00 00
00001496: 00 00 00 00 00 00 00 00 00 00 00 00 00 00 00 00
000014a6: 0b 00 47 00 4f 00 00 00 00 00 89 00 4b 00 0e 00
000014b6: 20 00 34 00 00 00 f0 00 00 00 00 00 00 00 90 00
000014c6: 01 00 00 00 00 00 10 00 00 00 00 00 00 00 00 00
000014d6: 00 00 00 00 00 00 00 00 00 00 00 00 00 00 00 00

# UDBSWITCH_1_0 (count=128)
000014e6: 00 00 00 00 00 00 00 00 00 00 00 00 00 00 00 00
000014f6: 00 00 00 00 00 00 00 00 00 00 00 00 00 00 00 00
00001506: 00 00 00 00 00 00 00 00 00 00 00 00 00 00 00 00
00001516: 00 00 00 00 00 00 00 00 00 00 00 00 00 00 00 00
00001526: 00 00 00 00 00 00 00 00 00 00 00 00 00 00 00 00
00001536: 00 00 00 00 00 00 00 00 00 00 00 00 00 00 00 00
00001546: 00 00 00 00 00 00 00 00 00 00 00 00 00 00 00 00
00001556: 00 00 00 00 00 00 00 00 00 00 00 00 00 00 00 00

# UDB_2_0_HV_ROUTING + 0x00000080 (count=128)
00001566: 00 00 00 00 00 00 00 00 00 00 00 00 00 00 00 00
00001576: 00 00 00 00 00 00 00 00 00 00 00 00 00 00 00 00
00001586: 00 00 00 00 00 00 00 00 00 00 00 00 00 00 00 00
00001596: 00 00 00 00 00 00 00 00 00 00 00 00 00 00 00 00
000015a6: 00 00 00 00 00 00 00 00 00 00 00 00 00 00 00 00
000015b6: 00 00 00 00 00 00 00 00 00 00 00 00 00 00 00 00
000015c6: 00 00 00 00 00 00 10 00 00 00 00 00 00 00 00 00
000015d6: 00 00 00 00 00 00 00 00 00 00 00 00 00 00 00 00

# UDBSWITCH_0_1 (count=128)
000015e6: 00 00 00 25 00 00 00 02 08 80 08 00 00 90 44 22
000015f6: 08 44 00 02 00 08 28 04 00 00 48 18 00 00 04 00
00001606: 41 08 00 00 00 04 00 02 61 20 00 00 00 00 20 20
00001616: 80 00 11 08 08 04 00 02 68 00 00 00 00 40 40 a2
00001626: 00 00 00 00 00 00 00 00 00 00 00 00 00 00 00 00
00001636: 00 00 00 00 00 00 00 00 00 01 00 00 00 00 00 00
00001646: 00 40 20 00 00 00 00 00 00 00 00 00 00 80 00 00
00001656: 00 00 00 00 00 00 00 00 00 00 00 00 00 00 00 00

# UDB_1_1_HV_ROUTING + 0x00000080 (count=128)
00001666: 00 00 00 00 00 00 00 00 01 08 00 00 00 00 00 00
00001676: 28 04 02 00 41 00 41 40 42 40 00 01 20 04 00 02
00001686: 8c 80 20 00 00 08 00 18 00 00 00 00 00 00 00 00
00001696: 42 00 84 00 00 00 00 00 00 00 00 00 00 00 00 00
000016a6: 87 00 f7 00 6f 00 00 00 00 00 6f 00 cf 00 be 00
000016b6: 00 00 00 00 00 00 01 00 0c 00 00 00 00 00 00 00
000016c6: 00 00 00 00 00 00 00 00 00 00 00 00 00 00 00 00
000016d6: 00 00 00 00 00 00 00 00 00 00 00 00 00 00 00 00

# UDBSWITCH_1_1 (count=128)
000016e6: 00 00 00 00 00 00 00 00 00 00 00 00 00 00 00 00
000016f6: 00 00 00 00 00 00 00 00 00 00 00 00 00 00 00 00
00001706: 00 00 00 00 00 00 00 00 00 00 00 00 00 00 00 00
00001716: 00 00 00 00 00 00 00 00 00 00 00 00 00 00 00 00
00001726: 00 00 00 00 00 00 00 00 00 00 00 00 00 00 00 00
00001736: 00 00 00 00 00 00 00 00 00 00 00 00 00 00 00 00
00001746: 00 00 00 00 00 00 00 00 00 00 00 00 00 00 00 00
00001756: 00 00 00 00 00 00 00 00 00 00 00 00 00 00 00 00

# UDB_2_1_HV_ROUTING + 0x00000080 (count=128)
00001766: 00 00 00 00 00 00 00 00 00 00 00 00 00 00 00 00
00001776: 00 00 00 00 00 00 00 00 00 00 00 00 00 00 00 00
00001786: 00 00 00 00 00 00 00 00 00 00 00 00 00 00 00 00
00001796: 00 00 00 00 00 00 00 00 00 00 00 00 00 00 00 00
000017a6: 00 00 00 00 00 00 00 00 00 00 00 00 00 00 00 00
000017b6: 00 00 00 00 00 00 00 00 00 00 00 00 00 00 00 00
000017c6: 00 00 00 00 00 00 00 00 00 00 00 00 00 00 00 00
000017d6: 00 00 00 00 00 00 00 00 00 00 00 00 00 00 00 00

# UDBSWITCH_0_2 (count=128)
000017e6: 40 00 80 28 00 04 00 02 28 08 01 40 00 00 40 20
000017f6: 80 00 02 28 00 00 00 00 00 41 28 00 08 80 00 00
00001806: 00 00 23 00 00 00 00 00 40 00 40 08 00 00 00 00
00001816: 80 08 11 00 00 00 00 00 68 00 00 00 00 00 00 00
00001826: 49 00 00 08 00 00 00 00 00 00 00 40 00 00 00 00
00001836: 00 00 40 20 00 00 00 00 00 01 00 00 00 00 00 00
00001846: 00 00 00 00 00 00 00 00 08 04 00 01 00 00 00 00
00001856: 94 00 00 28 00 00 00 00 00 00 00 00 00 00 00 00

# UDB_1_2_HV_ROUTING + 0x00000080 (count=128)
00001866: 00 00 00 00 00 00 00 00 00 00 00 00 00 00 00 00
00001876: 00 00 00 00 00 00 00 00 00 00 00 00 00 00 00 00
00001886: 00 00 00 00 00 00 00 00 00 00 00 00 00 00 00 00
00001896: 00 00 00 00 00 00 00 00 00 00 00 00 00 00 00 00
000018a6: af 00 3f 00 0f 00 00 00 00 00 0d 00 0f 00 0e 00
000018b6: 0f 00 08 00 00 00 01 00 00 00 00 00 00 00 00 00
000018c6: 00 00 00 00 00 00 00 00 00 00 00 00 00 00 00 00
000018d6: 00 00 00 00 00 00 00 00 00 00 00 00 00 00 00 00

# UDBSWITCH_1_2 (count=128)
000018e6: 00 00 00 00 00 00 00 00 00 00 00 00 00 00 00 00
000018f6: 00 00 00 00 00 00 00 00 00 00 00 00 00 00 00 00
00001906: 00 00 00 00 00 00 00 00 00 00 00 00 00 00 00 00
00001916: 00 00 00 00 00 00 00 00 00 00 00 00 00 00 00 00
00001926: 00 00 00 00 00 00 00 00 00 00 00 00 00 00 00 00
00001936: 00 00 00 00 00 00 00 00 00 00 00 00 00 00 00 00
00001946: 00 00 00 00 00 00 00 00 00 00 00 00 00 00 00 00
00001956: 00 00 00 00 00 00 00 00 00 00 00 00 00 00 00 00

# UDB_2_2_HV_ROUTING + 0x00000080 (count=128)
00001966: 00 00 00 00 00 00 00 00 00 00 00 00 00 00 00 00
00001976: 00 00 00 00 00 00 00 00 00 00 00 00 00 00 00 00
00001986: 00 00 00 00 00 00 00 00 00 00 00 00 00 00 00 00
00001996: 00 00 00 00 00 00 00 00 00 00 00 00 00 00 00 00
000019a6: 00 00 00 00 00 00 00 00 00 00 00 00 00 00 00 00
000019b6: 00 00 00 00 00 00 00 00 00 00 00 00 00 00 00 00
000019c6: 00 00 00 00 00 00 00 00 00 00 00 00 00 00 00 00
000019d6: 00 00 00 00 00 00 00 00 00 00 00 00 00 00 00 00

# UDBSWITCH_0_3 (count=128)
000019e6: 00 00 00 00 00 00 00 00 00 00 00 00 00 00 00 00
000019f6: 00 00 00 00 00 00 00 00 00 00 00 00 00 00 00 00
00001a06: 00 00 00 00 00 00 00 00 00 00 00 00 00 00 00 00
00001a16: 00 00 00 00 00 00 00 00 00 00 00 00 00 00 00 00
00001a26: 00 00 00 00 00 00 00 00 00 00 00 00 00 00 00 00
00001a36: 00 00 00 00 00 00 00 00 00 00 00 00 00 00 00 00
00001a46: 00 00 00 00 00 00 00 00 00 00 00 00 00 00 00 00
00001a56: 00 00 00 00 00 00 00 00 00 00 00 00 00 00 00 00

# UDB_1_3_HV_ROUTING + 0x00000080 (count=128)
00001a66: 00 00 00 00 00 00 00 00 00 00 00 00 00 00 00 00
00001a76: 00 00 00 00 00 00 00 00 00 00 00 00 00 00 00 00
00001a86: 00 00 00 00 00 00 00 00 00 00 00 00 00 00 00 00
00001a96: 00 00 00 00 00 00 00 00 00 00 00 00 00 00 00 00
00001aa6: 00 00 00 00 00 00 00 00 00 00 00 00 00 00 00 00
00001ab6: 00 00 00 00 00 00 00 00 00 00 00 00 00 00 00 00
00001ac6: 00 00 00 00 00 00 00 00 00 00 00 00 00 00 00 00
00001ad6: 00 00 00 00 00 00 00 00 00 00 00 00 00 00 00 00

# UDBSWITCH_1_3 (count=128)
00001ae6: 00 00 00 00 00 00 00 00 00 00 00 00 00 00 00 00
00001af6: 00 00 00 00 00 00 00 00 00 00 00 00 00 00 00 00
00001b06: 00 00 00 00 00 00 00 00 00 00 00 00 00 00 00 00
00001b16: 00 00 00 00 00 00 00 00 00 00 00 00 00 00 00 00
00001b26: 00 00 00 00 00 00 00 00 00 00 00 00 00 00 00 00
00001b36: 00 00 00 00 00 00 00 00 00 00 00 00 00 00 00 00
00001b46: 00 00 00 00 00 00 00 00 00 00 00 00 00 00 00 00
00001b56: 00 00 00 00 00 00 00 00 00 00 00 00 00 00 00 00

# UDB_2_3_HV_ROUTING + 0x00000080 (count=128)
00001b66: 00 00 00 00 00 00 00 00 00 00 00 00 00 00 00 00
00001b76: 00 00 00 00 00 00 00 00 00 00 00 00 00 00 00 00
00001b86: 00 00 00 00 00 00 00 00 00 00 00 00 00 00 00 00
00001b96: 00 00 00 00 00 00 00 00 00 00 00 00 00 00 00 00
00001ba6: 00 00 00 00 00 00 00 00 00 00 00 00 00 00 00 00
00001bb6: 00 00 00 00 00 00 00 00 00 00 00 00 00 00 00 00
00001bc6: 00 00 00 00 00 00 00 00 00 00 00 00 00 00 00 00
00001bd6: 00 00 00 00 00 00 00 00 00 00 00 00 00 00 00 00

# UDBSWITCH_0_4 (count=128)
00001be6: 00 00 00 00 00 00 00 00 00 00 00 00 00 00 00 00
00001bf6: 00 00 00 00 00 00 00 00 00 00 00 00 00 00 00 00
00001c06: 00 00 00 00 00 00 00 00 00 00 00 00 00 00 00 00
00001c16: 00 00 00 00 00 00 00 00 00 00 00 00 00 00 00 00
00001c26: 00 00 00 00 00 00 00 00 00 00 00 00 00 00 00 00
00001c36: 00 00 00 00 00 00 00 00 00 00 00 00 00 00 00 00
00001c46: 00 00 00 00 00 00 00 00 00 00 00 00 00 00 00 00
00001c56: 00 00 00 00 00 00 00 00 00 00 00 00 00 00 00 00

# UDB_1_4_HV_ROUTING + 0x00000080 (count=128)
00001c66: 00 00 00 00 00 00 00 00 00 00 00 00 00 00 00 00
00001c76: 00 00 00 00 00 00 00 00 00 00 00 00 00 00 00 00
00001c86: 00 00 00 00 00 00 00 00 00 00 00 00 00 00 00 00
00001c96: 00 00 00 00 00 00 00 00 00 00 00 00 00 00 00 00
00001ca6: 00 00 00 00 00 00 00 00 00 00 00 00 00 00 00 00
00001cb6: 00 00 00 00 00 00 00 00 00 00 00 00 00 00 00 00
00001cc6: 00 00 00 00 00 00 00 00 00 00 00 00 00 00 00 00
00001cd6: 00 00 00 00 00 00 00 00 00 00 00 00 00 00 00 00

# UDBSWITCH_1_4 (count=128)
00001ce6: 00 00 00 00 00 00 00 00 00 00 00 00 00 00 00 00
00001cf6: 00 00 00 00 00 00 00 00 00 00 00 00 00 00 00 00
00001d06: 00 00 00 00 00 00 00 00 00 00 00 00 00 00 00 00
00001d16: 00 00 00 00 00 00 00 00 00 00 00 00 00 00 00 00
00001d26: 00 00 00 00 00 00 00 00 00 00 00 00 00 00 00 00
00001d36: 00 00 00 00 00 00 00 00 00 00 00 00 00 00 00 00
00001d46: 00 00 00 00 00 00 00 00 00 00 00 00 00 00 00 00
00001d56: 00 00 00 00 00 00 00 00 00 00 00 00 00 00 00 00

# UDB_2_4_HV_ROUTING + 0x00000080 (count=128)
00001d66: 00 00 00 00 00 00 00 00 00 00 00 00 00 00 00 00
00001d76: 00 00 00 00 00 00 00 00 00 00 00 00 00 00 00 00
00001d86: 00 00 00 00 00 00 00 00 00 00 00 00 00 00 00 00
00001d96: 00 00 00 00 00 00 00 00 00 00 00 00 00 00 00 00
00001da6: 00 00 00 00 00 00 00 00 00 00 00 00 00 00 00 00
00001db6: 00 00 00 00 00 00 00 00 00 00 00 00 00 00 00 00
00001dc6: 00 00 00 00 00 00 00 00 00 00 00 00 00 00 00 00
00001dd6: 00 00 00 00 00 00 00 00 00 00 00 00 00 00 00 00

# UDBSWITCH_0_5 (count=128)
00001de6: 00 00 00 00 00 00 00 00 00 00 00 00 00 00 00 00
00001df6: 00 00 00 00 00 00 00 00 00 00 00 00 00 00 00 00
00001e06: 00 00 00 00 00 00 00 00 00 00 00 00 00 00 00 00
00001e16: 00 00 00 00 00 00 00 00 00 00 00 00 00 00 00 00
00001e26: 00 00 00 00 00 00 00 00 00 00 00 00 00 00 00 00
00001e36: 00 00 00 00 00 00 00 00 00 00 00 00 00 00 00 00
00001e46: 00 00 00 00 00 00 00 00 00 00 00 00 00 00 00 00
00001e56: 00 00 00 00 00 00 00 00 00 00 00 00 00 00 00 00

# UDB_1_5_HV_ROUTING + 0x00000080 (count=128)
00001e66: 00 00 00 00 00 00 00 00 00 00 00 00 00 00 00 00
00001e76: 00 00 00 00 00 00 00 00 00 00 00 00 00 00 00 00
00001e86: 00 00 00 00 00 00 00 00 00 00 00 00 00 00 00 00
00001e96: 00 00 00 00 00 00 00 00 00 00 00 00 00 00 00 00
00001ea6: 00 00 00 00 00 00 00 00 00 00 00 00 00 00 00 00
00001eb6: 00 00 00 00 00 00 00 00 00 00 00 00 00 00 00 00
00001ec6: 00 00 00 00 00 00 00 00 00 00 00 00 00 00 00 00
00001ed6: 00 00 00 00 00 00 00 00 00 00 00 00 00 00 00 00

# UDBSWITCH_1_5 (count=128)
00001ee6: 00 00 00 00 00 00 00 00 00 00 00 00 00 00 00 00
00001ef6: 00 00 00 00 00 00 00 00 00 00 00 00 00 00 00 00
00001f06: 00 00 00 00 00 00 00 00 00 00 00 00 00 00 00 00
00001f16: 00 00 00 00 00 00 00 00 00 00 00 00 00 00 00 00
00001f26: 00 00 00 00 00 00 00 00 00 00 00 00 00 00 00 00
00001f36: 00 00 00 00 00 00 00 00 00 00 00 00 00 00 00 00
00001f46: 00 00 00 00 00 00 00 00 00 00 00 00 00 00 00 00
00001f56: 00 00 00 00 00 00 00 00 00 00 00 00 00 00 00 00

# UDB_2_5_HV_ROUTING + 0x00000080 (count=128)
00001f66: 00 00 00 00 00 00 00 00 00 00 00 00 00 00 00 00
00001f76: 00 00 00 00 00 00 00 00 00 00 00 00 00 00 00 00
00001f86: 00 00 00 00 00 00 00 00 00 00 00 00 00 00 00 00
00001f96: 00 00 00 00 00 00 00 00 00 00 00 00 00 00 00 00
00001fa6: 00 00 00 00 00 00 00 00 00 00 00 00 00 00 00 00
00001fb6: 00 00 00 00 00 00 00 00 00 00 00 00 00 00 00 00
00001fc6: 00 00 00 00 00 00 00 00 00 00 00 00 00 00 00 00
00001fd6: 00 00 00 00 00 00 00 00 00 00 00 00 00 00 00 00

# DSISWITCH_1_0 (count=128)
00001fe6: 00 00 00 00 00 00 00 00 00 00 00 00 00 00 00 00
00001ff6: 00 00 00 00 00 00 00 00 00 00 00 00 00 00 00 00
00002006: 00 00 00 00 00 00 00 00 00 00 00 00 00 00 00 00
00002016: 00 00 00 00 00 00 00 00 00 00 00 00 00 00 00 00
00002026: 00 00 00 00 00 00 00 00 00 00 00 00 00 00 00 00
00002036: 00 00 00 00 00 00 00 00 00 00 00 00 00 00 00 20
00002046: 00 00 00 00 00 00 00 00 00 00 00 00 00 00 00 00
00002056: 00 00 00 00 00 00 00 00 00 00 00 00 00 00 00 00

# DSI3_0_HV_ROUTING + 0x00000080 (count=128)
00002066: 00 00 00 00 00 00 00 00 00 00 00 00 00 00 00 20
00002076: 00 00 00 00 00 00 00 00 00 00 00 00 00 00 00 20
00002086: 00 00 00 00 00 00 00 00 00 00 00 00 00 00 00 00
00002096: 00 00 00 00 00 00 00 00 00 00 00 00 00 00 00 00
000020a6: 00 00 00 00 00 00 00 00 00 00 00 00 00 00 00 00
000020b6: 00 00 00 00 00 00 20 00 00 00 00 00 00 00 00 00
000020c6: 00 00 00 00 00 00 00 00 00 00 00 00 00 00 00 00
000020d6: 00 00 00 00 00 00 00 00 00 00 00 00 00 00 00 00

# DSISWITCH_1_1 (count=128)
000020e6: 00 00 00 00 00 00 00 00 00 00 00 00 00 00 00 00
000020f6: 00 00 00 00 00 00 00 00 00 00 00 00 00 00 00 00
00002106: 00 00 00 00 00 00 00 00 00 00 00 00 00 00 00 00
00002116: 00 00 00 00 00 00 00 00 00 00 00 00 00 00 00 00
00002126: 00 00 00 00 00 00 00 00 00 00 00 00 00 00 00 00
00002136: 00 00 00 00 00 00 00 00 00 00 00 00 00 00 00 00
00002146: 00 00 00 00 00 00 00 00 00 00 00 00 00 00 00 00
00002156: 00 00 00 00 00 00 00 00 00 00 00 00 00 00 00 00

# DSI3_1_HV_ROUTING + 0x00000080 (count=128)
00002166: 00 00 00 00 00 00 00 00 00 00 00 00 00 00 00 00
00002176: 00 00 00 00 00 00 00 00 00 00 00 00 00 00 00 20
00002186: 00 00 00 00 00 00 00 00 00 00 00 00 00 00 00 00
00002196: 00 00 00 00 00 00 00 00 00 00 00 00 00 00 00 00
000021a6: 00 00 00 00 00 00 00 00 00 00 00 00 00 00 00 00
000021b6: 00 00 00 00 00 00 00 00 00 00 00 00 00 00 00 00
000021c6: 00 00 00 00 00 00 00 00 00 00 00 00 00 00 00 00
000021d6: 00 00 00 00 00 00 00 00 00 00 00 00 00 00 00 00

# DSISWITCH_1_2 (count=128)
000021e6: 00 00 00 00 00 00 00 00 00 00 00 00 00 00 00 00
000021f6: 00 00 00 00 00 00 00 00 00 00 00 00 00 00 00 00
00002206: 00 00 00 00 00 00 00 00 00 00 00 00 00 00 00 00
00002216: 00 00 00 00 00 00 00 00 00 00 00 00 00 00 00 00
00002226: 00 00 00 00 00 00 00 00 00 00 00 00 00 00 00 00
00002236: 00 00 00 00 00 00 00 00 00 00 00 00 00 00 00 00
00002246: 00 00 00 00 00 00 00 00 00 00 00 00 00 00 00 00
00002256: 00 00 00 00 00 00 00 00 00 00 00 00 00 00 00 00

# DSI3_2_HV_ROUTING + 0x00000080 (count=128)
00002266: 00 00 00 00 00 00 00 00 00 00 00 00 00 00 00 00
00002276: 00 00 00 00 00 00 00 00 00 00 00 00 00 00 00 20
00002286: 00 00 00 00 00 00 00 00 00 00 00 00 00 00 00 00
00002296: 00 00 00 00 00 00 00 00 00 00 00 00 00 00 00 00
000022a6: 00 00 00 00 00 00 00 00 00 00 00 00 00 00 00 00
000022b6: 00 00 00 00 00 00 00 00 00 00 00 00 00 00 00 00
000022c6: 00 00 00 00 00 00 00 00 00 00 00 00 00 00 00 00
000022d6: 00 00 00 00 00 00 00 00 00 00 00 00 00 00 00 00

# DSISWITCH_1_3 (count=128)
000022e6: 00 00 00 00 00 00 00 00 00 00 00 00 00 00 00 00
000022f6: 00 00 00 00 00 00 00 00 00 00 00 00 00 00 00 00
00002306: 00 00 00 00 00 00 00 00 00 00 00 00 00 00 00 00
00002316: 00 00 00 00 00 00 00 00 00 00 00 00 00 00 00 00
00002326: 00 00 00 00 00 00 00 00 00 00 00 00 00 00 00 00
00002336: 00 00 00 00 00 00 00 00 00 00 00 00 00 00 00 00
00002346: 00 00 00 00 00 00 00 00 00 00 00 00 00 00 00 00
00002356: 00 00 00 00 00 00 00 00 00 00 00 00 00 00 00 00

# DSI3_3_HV_ROUTING + 0x00000080 (count=128)
00002366: 00 00 00 00 00 00 00 00 00 00 00 00 00 00 00 00
00002376: 00 00 00 00 00 00 00 00 00 00 00 00 00 00 00 20
00002386: 00 00 00 00 00 00 00 00 00 00 00 00 00 00 00 00
00002396: 00 00 00 00 00 00 00 00 00 00 00 00 00 00 00 00
000023a6: 00 00 00 00 00 00 00 00 00 00 00 00 00 00 00 00
000023b6: 00 00 00 00 00 00 00 00 00 00 00 00 00 00 00 00
000023c6: 00 00 00 00 00 00 00 00 00 00 00 00 00 00 00 00
000023d6: 00 00 00 00 00 00 00 00 00 00 00 00 00 00 00 00

# DSISWITCH_1_4 (count=128)
000023e6: 00 00 00 00 00 00 00 00 00 00 00 00 00 00 00 00
000023f6: 00 00 00 00 00 00 00 00 00 00 00 00 00 00 00 00
00002406: 00 00 00 00 00 00 00 00 00 00 00 00 00 00 00 00
00002416: 00 00 00 00 00 00 00 00 00 00 00 00 00 00 00 00
00002426: 00 00 00 00 00 00 00 00 00 00 00 00 00 00 00 00
00002436: 00 00 00 00 00 00 00 00 00 00 00 00 00 00 00 00
00002446: 00 00 00 00 00 00 00 00 00 00 00 00 00 00 00 00
00002456: 00 00 00 00 00 00 00 00 00 00 00 00 00 00 00 00

# DSI3_4_HV_ROUTING + 0x00000080 (count=128)
00002466: 00 00 00 00 00 00 00 00 00 00 00 00 00 00 00 00
00002476: 00 00 00 00 00 00 00 00 00 00 00 00 00 00 00 20
00002486: 00 00 00 00 00 00 00 00 00 00 00 00 00 00 00 00
00002496: 00 00 00 00 00 00 00 00 00 00 00 00 00 00 00 00
000024a6: 00 00 00 00 00 00 00 00 00 00 00 00 00 00 00 00
000024b6: 00 00 00 00 00 00 00 00 00 00 00 00 00 00 00 00
000024c6: 00 00 00 00 00 00 00 00 00 00 00 00 00 00 00 00
000024d6: 00 00 00 00 00 00 00 00 00 00 00 00 00 00 00 00

# DSISWITCH_1_5 (count=128)
000024e6: 00 00 00 00 00 00 00 00 00 00 00 00 00 00 00 00
000024f6: 00 00 00 00 00 00 00 00 00 00 00 00 00 00 00 00
00002506: 00 00 00 00 00 00 00 00 00 00 00 00 00 00 00 00
00002516: 00 00 00 10 00 00 00 00 00 00 00 00 00 00 00 00
00002526: 00 00 00 00 00 00 00 00 00 00 00 00 00 00 00 00
00002536: 00 00 00 00 00 00 00 00 00 00 00 00 00 00 00 00
00002546: 00 00 00 00 00 00 00 00 00 00 00 30 00 00 00 00
00002556: 00 00 00 00 00 00 00 00 00 00 00 00 00 00 00 00

# DSI3_5_HV_ROUTING + 0x00000080 (count=128)
00002566: 00 00 00 00 00 00 00 00 00 00 00 00 00 00 00 00
00002576: 00 00 00 00 00 00 00 00 00 00 00 00 00 00 00 00
00002586: 00 00 00 00 00 00 00 00 00 00 00 00 00 00 00 00
00002596: 00 00 00 00 00 00 00 00 00 00 00 00 00 00 00 00
000025a6: 00 00 00 00 00 00 00 00 00 00 00 00 10 00 00 00
000025b6: 00 00 00 00 00 00 00 00 00 00 00 00 00 00 00 00
000025c6: 00 00 00 00 00 00 00 00 00 00 00 00 00 00 00 00
000025d6: 00 00 00 00 00 00 00 00 00 00 00 00 00 00 00 00

