:20000000045200400264004002650040510601403407014026140140531501405D16014011
:200020004C170140031B014002400140054101400242014004430140024501400146014096
:2000400001470140064801400C490140014C01400A4D01400450014001510140000101039F
:2000600018201921860D8772840F8738020407040B0B0C010E02180219011A01230C2E033D
:2000800030013108320233023504360437013E053F104010410245D24610480B49FF4AFF6C
:2000A0004BFF4DA04F04501852805405580459045A045B045F01604062C06440654066C01C
:2000C00068C06AC06CC06EC0843F8501880289018C2C8D018E139213940398339A0C9B02E6
:2000E0009C2F9E10A008A404A702A80CAC01B020B40FB502B61CB701BAA0BE01BF10D60299
:20010000D713D804D904DB04DC11DD10DF01008803080640070108040A850E08108012026D
:200120001314174019211A071D801F85200221202240264027582A042F80321037103994C8
:200140003E083F28458046084F09571059015E805F096994708072027314764095029702B2
:20016000AD01B701C097C24FC48FCA82CC24CE6ED030D6D1EA40820384098610885C8A02FD
:200180008C6C8E1193019470960C9E20A410AC14B01FB101B460B820BE10C002C640C9FF91
:2001A000CA07CBFFCC40CD20CEF0CF05D008D804D904DA04DC11DD01DF01E040E1A8E24034
:2001C000E3200040010A03080440051D07800A500B010E110F0110801114120215801620B0
:2001E000180419801A501B211D21208022542740282029202A822B20302031083201334032
:2002000036023B543C8C3E80404041044211452048A04F0151405620580159805A085B10D6
:2002200062406302800488218C818D1A8E028F1090489114920293549401950896A09701AF
:2002400099349A029C209E609F80A308A444A602A921AE01B001C0FFC2ADC4AFCA0FCC8F22
:20026000CE0ED02BD60FE808061C081C0A230C210E0E11081301142115051616170A1C40F1
:200280001E031F0F2502260827042C80301A310432603302340F35013680370838083A2293
:2002A0003E403F55580459045B045C015F01801182288403882289018A188E038F08900304
:2002C00097039E039F08A003A204A430A830AD04AE03B003B101B230B304B40CB502B708B1
:2002E000BE10BF40C065C103C204C402C60CC70EC814C9FFCAFFCBFFCC62CDA0CEF0CF4175
:20030000D00CD418D804D904DA04DB04DC21DD11DF01E640E702E910EA30EB10ED10EE10BC
:20032000EF12008903080440051409010A020D040F011114124013401620178018041901C7
:200340001B081C401D141E012111228824082548260128012F20324837453880392040244F
:200360004240480149204B405040520459015AC0612062806E086F2581088201840485409E
:2003800086409114920293149502962099209A029B409C049E049F01A001A120A444A60662
:2003A000A708B304C0EFC2A9C4AFCA48CCDACE0CD007D20CD601D80CEA80E610E808EE20EA
:2003C0003010CC10560258409C10D480D6209C509E029C40AC10B602EE400202C002A202A7
:2003E000A202820883018510B040E2C0E68051105B40630166088340912093019A08D4A0D2
:20040000D640D880E680A202102074028C20A002AC02B202C408DE04E608EE0400030A0370
:2004200010061A060003000080800000400000000A00140000080800801820001300042323
:20044000201CC06113040C00008000000000150403101400E07F0000E0670018403C2042C0
:20046000E01F0F800040103800202802000040043104000000CE0B0007FFFFFF0000F04492
:200480000C000000010000000404040411110001000000000000C00000004002000000001A
:2004A0000000000000000000000000000000000000030300030000008000408080008000F3
:2004C00000000000000B0B0000000000040000060200000000000000003333003300000061
:00000001FF
