:20000000024F004005520040046400400165004001030140020501405A06014035070140BF
:200020004C08014042090140090B01404A0C01402F0D0140040E0140010F01400B15014031
:200040004E1601404417014050180140471901400B1B014002400140084101400A42014014
:20006000074301400E4501400546014006470140064801400E490140074C01400A4D0140F4
:20008000075001400251014001200A870140118818C019A01BF0870D88728C0F8D0D893888
:2000A000EE089A80B28009040F041B021F0123023301350237043F404020410649FF4AFF1F
:2000C0004BFF4DA04F045018528059045A045B045F01604062C06440654066C068C06AC05F
:2000E0006CC06EC080038204840A850886048B018E108F0C9003920C930297019A059B0299
:200100009E10A003A102A204A810AE08AF02B108B20FB301B504B610B702BA08BE40BF44FD
:20012000C030C106C5D0C601C702C816C9FFCAFFCBFFCDAFCE0FCF04D018D405D804D90404
:20014000DA04DB04DC03DF01E040E2C0E440E540E6C0E8C0EAC0ECC0EEC0018802800802B1
:2001600009400A041150124019041B402004214022042380241026602720284029802F402E
:2001800032283301376038943D904010472049014A084E0850405208534059015A085B80E4
:2001A0007740814086408C028D0495809A80B540C00DC20BC40BCA89CC37CE3ED022D2240B
:2001C000D60BE6040204047C05020601070C0860090C0C240D011067110E12181663170C96
:2001E000181C190E1A621C7F1D04204024082502270C28182C102D0832783302341F35016D
:20020000370C3A283F144043410145EB460E470C481749FF4AFF4BFF4EF04F44500C56028B
:200220005712580459045A045B045C335D335F0166C06A406B028002820C840C8602880172
:200240008C0E9602980C9A02A008A404A80CB001B20EBA08BE01D804DC03DF010022010870
:2002600002020410058A080809200C040D200E020F4010A8110415041682171219091C0815
:200280001D201E201F202404260427012D082E80340C35A036133C983D2044904540461108
:2002A00048014B404F055440570C5E086D406E1474A876027710811088018A108C80940417
:2002C00097359C909D10A010A140A708C0FFC2F6C4FECA50CCF0CE70D0D0D640E010EC104A
:2002E000940497359C909D10A010A140A708B140EE2008090A100B040C0C0D010E110F06EE
:200300001603170C18141B031D011F0A2010220C2410250C2703281C2A022B013101321F04
:20032000370E3B803F015401580459045B045C335D305F018701920898019E04A607AF01DA
:20034000B001B204B301B402B608BF04C010C106C5D1C702C813C9FFCAFFCBFFCDA0CF04DF
:20036000D018D280D405D804D904DA04DB04DC01DD11DF01E040E2C0E440E540E6C0E8C0F0
:20038000EAC0ECC0EEC00510070609020A050E200F04102014801628182019801A851C202E
:2003A0001E2022042540278229802E182F183490370438083D803E203F10420148284901EF
:2003C000500C59015A885C045E105F8171028C10AF20C0C0C26BC474CA68CC70CE32D008CE
:2003E000D204D6FBB820BE10D804DF011F2085418B0291029940A702A980AB40B140B30C89
:20040000B510EA4400020B040C010D010F02160418041E01210123022D012F02300132024C
:200420003304340437033E013F40580459045B045C445F018001820E840C860387028A08F8
:200440008D0C8E109001920693029A039B029C309F04A102A220A50CA620A908AA20AE0CED
:20046000AF01B102B20FB30CB410B501B620B908BA08BE50BF05C003C504C9FFCA07CBFF05
:20048000CC40CD20CEF0CF05D008D804D904DA04DB04DC33DD03DF01E040E1A8E240E320E6
:2004A0000020018802400582080209400A040E180F0211501220130219481B281D111E108A
:2004C00021052210264429042B4A2C402D803080322033013AC03B043D803E10410448D0C8
:2004E0005E8068046B078101832484408510870188548A04914095109624980299069A8049
:200500009C409D889E409F01A220A540AA80AD02B610B740C09FC2EBC40FCA9FCC0DCE3AF6
:20052000D002D610E608EE4C05E709E70C010D801144120113311501170E200124022D22E8
:200540002F513118338034033507376038203A803F01580459045C335F0180018206840688
:2005600086018A088E08900796019A109C07A004A301A402A701A806A901AD01AE10B0083F
:20058000B207B301B410B908BE11C062C105C203C404C5C0C7E0C822C9FFCAFFCBFFCC6286
:2005A000CDA0CEF0CF41D00CD418D804D904DA04DB04DC33DD33DF01E640E702E910EA30A1
:2005C000EB10ED10EE10EF12008201080308060108480A080B800E8010A812021480161086
:2005E00018041B091D501E021F40220424402510271A284029682D80370A3D403E14404891
:200600004318484049204A0152025B01600463028A108B1091409214973098C099299A01A2
:200620009B019C089D909E109F02A0A9A510A601AB04B040B320B502C08FC21FC43FCA1F14
:20064000CCC0CE70D007D20CD601D80CE020E4A0E608E840EE088101898099019D80B2409C
:20066000B310E004E680E820EA04EE203380CC1063406B20A301A780AF01D840DA40EE1001
:200680001B043F08630297409F20A301A780C610CE80D6406208874097409F20A780D840EE
:2006A000E6400110084009040C015B10620268048F10C002C20ED401D802DA02E402911023
:2006C0009841A104A404A60291109841A104A404B602EC08832D9F20A780B608E2A0E620FD
:2006E0005F08630A641073018410870193019B08A304B780D6C0D8C0DC20E650844088045D
:200700009841A104A404AD10E0041101740280028901A904B001C408DE04E601EE04000B8E
:200720000A090C080E0A10181A181C080003040C80800000400000000040400040400000A9
:20074000800040808000800000000000000B0B00000000000400708F8B00888000000000AD
:2007600000F0F000F0F00000000000000000000000000000000000000000000000000000B9
:00000001FF
